{
"type": "FeatureCollection",
"features": [
{
  "type": "Feature",
  "id": "way/292835906",
  "properties": {
    "highway": "tertiary",
    "nat_ref": "803",
    "ref": "803",
    "smoothness": "intermediate",
    "id": "way/292835906"
  },
  "geometry": {
    "type": "LineString",
    "coordinates": [
      [
        24.0024975,
        42.4180929
      ],
      [
        24.0025695,
        42.4180198
      ],
      [
        24.002429,
        42.4177511
      ],
      [
        24.0021449,
        42.4175735
      ],
      [
        24.0020654,
        42.4174607
      ],
      [
        24.0020661,
        42.4173816
      ],
      [
        24.0021595,
        42.4171804
      ],
      [
        24.0021797,
        42.4168609
      ],
      [
        24.0020669,
        42.4166494
      ],
      [
        24.0018706,
        42.4163695
      ],
      [
        24.001827,
        42.4161823
      ],
      [
        24.0018889,
        42.4159938
      ],
      [
        24.0020114,
        42.4158411
      ],
      [
        24.0022324,
        42.4157086
      ],
      [
        24.0026702,
        42.4156184
      ],
      [
        24.0032106,
        42.4155892
      ],
      [
        24.0038283,
        42.4156022
      ],
      [
        24.0040005,
        42.4155503
      ],
      [
        24.0041275,
        42.4154475
      ],
      [
        24.0041697,
        42.4150969
      ],
      [
        24.0042185,
        42.4148912
      ],
      [
        24.0043351,
        42.41475
      ],
      [
        24.0044997,
        42.4146472
      ],
      [
        24.0053366,
        42.4144031
      ],
      [
        24.0060014,
        42.4142972
      ],
      [
        24.0063162,
        42.4141737
      ],
      [
        24.0064191,
        42.4140687
      ],
      [
        24.0064321,
        42.4139272
      ],
      [
        24.0063364,
        42.4137878
      ],
      [
        24.006058,
        42.4136395
      ],
      [
        24.0052855,
        42.4135128
      ],
      [
        24.0045052,
        42.413444
      ],
      [
        24.0038412,
        42.4132043
      ],
      [
        24.0034677,
        42.4129048
      ],
      [
        24.0031147,
        42.4124305
      ],
      [
        24.0029089,
        42.4120004
      ],
      [
        24.0029649,
        42.4118256
      ],
      [
        24.0031465,
        42.4116178
      ],
      [
        24.0038693,
        42.4110096
      ],
      [
        24.0048993,
        42.4101224
      ],
      [
        24.0053713,
        42.4095838
      ],
      [
        24.0053284,
        42.4090134
      ],
      [
        24.0050709,
        42.4072706
      ],
      [
        24.0048993,
        42.4070171
      ],
      [
        24.0044701,
        42.4070488
      ],
      [
        24.0039551,
        42.407239
      ],
      [
        24.0033543,
        42.4073974
      ],
      [
        24.003011,
        42.4073023
      ],
      [
        24.0024531,
        42.4069538
      ],
      [
        24.0022385,
        42.4066686
      ],
      [
        24.0024102,
        42.4062566
      ],
      [
        24.0034831,
        42.4057179
      ],
      [
        24.0049422,
        42.4049891
      ],
      [
        24.0061009,
        42.4046089
      ],
      [
        24.0066159,
        42.4041652
      ],
      [
        24.0071309,
        42.4040068
      ],
      [
        24.0092766,
        42.4031828
      ],
      [
        24.0106928,
        42.4026441
      ],
      [
        24.0111649,
        42.4026124
      ],
      [
        24.0113366,
        42.4027392
      ],
      [
        24.0114224,
        42.4029927
      ],
      [
        24.0112937,
        42.4034997
      ],
      [
        24.0118516,
        42.4037849
      ],
      [
        24.0125811,
        42.4041652
      ],
      [
        24.0130961,
        42.404292
      ],
      [
        24.0133107,
        42.4041652
      ],
      [
        24.0138257,
        42.4034997
      ],
      [
        24.0139544,
        42.4030244
      ],
      [
        24.0134823,
        42.40163
      ],
      [
        24.0133107,
        42.4014082
      ],
      [
        24.0127099,
        42.4010913
      ],
      [
        24.0124953,
        42.400711
      ],
      [
        24.0125811,
        42.4002357
      ],
      [
        24.0130103,
        42.3997286
      ],
      [
        24.014169,
        42.3993166
      ],
      [
        24.0151131,
        42.3990631
      ],
      [
        24.0154564,
        42.3986511
      ],
      [
        24.0156032,
        42.3983593
      ],
      [
        24.0160143,
        42.3975419
      ],
      [
        24.0164864,
        42.3967812
      ],
      [
        24.0169156,
        42.3964643
      ],
      [
        24.0173018,
        42.396496
      ],
      [
        24.017731,
        42.3966545
      ],
      [
        24.0179885,
        42.3969397
      ],
      [
        24.018203,
        42.3972249
      ],
      [
        24.0185464,
        42.3972566
      ],
      [
        24.0188468,
        42.3970665
      ],
      [
        24.0188038,
        42.3968129
      ],
      [
        24.0185464,
        42.3964326
      ],
      [
        24.0182889,
        42.396084
      ],
      [
        24.0183747,
        42.3958305
      ],
      [
        24.0195763,
        42.3950698
      ],
      [
        24.0199196,
        42.394531
      ],
      [
        24.0203488,
        42.3936119
      ],
      [
        24.0200913,
        42.3931682
      ],
      [
        24.0201342,
        42.3926611
      ],
      [
        24.0205205,
        42.3922807
      ],
      [
        24.0211213,
        42.3919321
      ],
      [
        24.0214217,
        42.3919638
      ],
      [
        24.0218508,
        42.3920906
      ],
      [
        24.0221512,
        42.3920272
      ],
      [
        24.0221942,
        42.3915834
      ],
      [
        24.0224087,
        42.3910763
      ],
      [
        24.0229666,
        42.3908227
      ],
      [
        24.0236533,
        42.390791
      ],
      [
        24.0243828,
        42.3908227
      ],
      [
        24.0248549,
        42.390696
      ],
      [
        24.0284169,
        42.3883504
      ],
      [
        24.0288889,
        42.3883187
      ],
      [
        24.0297043,
        42.3885406
      ],
      [
        24.0306914,
        42.3883504
      ],
      [
        24.031421,
        42.3881285
      ],
      [
        24.0320647,
        42.3881285
      ],
      [
        24.0336096,
        42.3881919
      ],
      [
        24.0361416,
        42.3883187
      ],
      [
        24.0376437,
        42.3884772
      ],
      [
        24.0386736,
        42.3886991
      ],
      [
        24.0391886,
        42.3887625
      ],
      [
        24.0394461,
        42.388604
      ],
      [
        24.039532,
        42.3883187
      ],
      [
        24.0398324,
        42.3876848
      ],
      [
        24.0401328,
        42.3873995
      ],
      [
        24.040519,
        42.3873361
      ],
      [
        24.042021,
        42.3871776
      ],
      [
        24.0437377,
        42.3869874
      ],
      [
        24.0459693,
        42.3867339
      ],
      [
        24.0475571,
        42.3865437
      ],
      [
        24.0484154,
        42.386195
      ],
      [
        24.0487588,
        42.3856244
      ],
      [
        24.0491021,
        42.3851806
      ],
      [
        24.0504325,
        42.3843882
      ],
      [
        24.0513337,
        42.3835323
      ],
      [
        24.0519345,
        42.3827715
      ],
      [
        24.0522349,
        42.381979
      ],
      [
        24.052664,
        42.3815669
      ],
      [
        24.0533936,
        42.3814401
      ],
      [
        24.054614,
        42.381321
      ],
      [
        24.0555394,
        42.3808061
      ],
      [
        24.0565264,
        42.380077
      ],
      [
        24.0572989,
        42.3793795
      ],
      [
        24.0579426,
        42.3790942
      ],
      [
        24.058243,
        42.3790625
      ],
      [
        24.0590155,
        42.3786821
      ],
      [
        24.0596593,
        42.3779213
      ],
      [
        24.0602171,
        42.3766532
      ],
      [
        24.0606034,
        42.3760191
      ],
      [
        24.0613329,
        42.3757655
      ],
      [
        24.06335,
        42.3750363
      ],
      [
        24.0649378,
        42.3744022
      ],
      [
        24.0657103,
        42.3743388
      ],
      [
        24.0682423,
        42.3748144
      ],
      [
        24.0706027,
        42.3749095
      ],
      [
        24.0721047,
        42.374751
      ],
      [
        24.0727913,
        42.374529
      ],
      [
        24.0730918,
        42.3742437
      ],
      [
        24.0736067,
        42.373356
      ],
      [
        24.0750659,
        42.3723097
      ],
      [
        24.0757096,
        42.3715805
      ],
      [
        24.0766537,
        42.3702806
      ],
      [
        24.0776837,
        42.3697099
      ],
      [
        24.0780699,
        42.3692977
      ],
      [
        24.0781558,
        42.368505
      ],
      [
        24.0784562,
        42.3672367
      ],
      [
        24.0799153,
        42.3662538
      ],
      [
        24.0806878,
        42.3658733
      ],
      [
        24.0812886,
        42.3657781
      ],
      [
        24.0827048,
        42.3655562
      ],
      [
        24.0842927,
        42.3652708
      ],
      [
        24.0854514,
        42.3649537
      ],
      [
        24.0862668,
        42.3645098
      ],
      [
        24.0873826,
        42.3639707
      ],
      [
        24.0882409,
        42.3638122
      ],
      [
        24.0893567,
        42.3634634
      ],
      [
        24.0908587,
        42.3627975
      ],
      [
        24.0921891,
        42.3619096
      ],
      [
        24.0931761,
        42.3617828
      ],
      [
        24.0943778,
        42.3618462
      ],
      [
        24.0956223,
        42.3620999
      ],
      [
        24.0965664,
        42.3621316
      ],
      [
        24.097811,
        42.3618462
      ],
      [
        24.0990126,
        42.3612437
      ],
      [
        24.0997851,
        42.3610217
      ],
      [
        24.1012013,
        42.3607363
      ],
      [
        24.1030467,
        42.3604509
      ],
      [
        24.1035616,
        42.3602289
      ],
      [
        24.1043341,
        42.3595947
      ],
      [
        24.1052783,
        42.3589605
      ],
      [
        24.1072953,
        42.3577554
      ],
      [
        24.1078646,
        42.3573757
      ],
      [
        24.1093097,
        42.3565231
      ],
      [
        24.1102086,
        42.3561057
      ],
      [
        24.1105139,
        42.3559795
      ],
      [
        24.1116842,
        42.3554305
      ],
      [
        24.1120188,
        42.3552578
      ],
      [
        24.1124543,
        42.355195
      ],
      [
        24.1128743,
        42.3551867
      ],
      [
        24.1136038,
        42.3551232
      ],
      [
        24.1147626,
        42.3549964
      ],
      [
        24.1164363,
        42.3546792
      ],
      [
        24.1192257,
        42.3539815
      ],
      [
        24.1213715,
        42.353379
      ],
      [
        24.1224444,
        42.3527764
      ],
      [
        24.123174,
        42.3519201
      ],
      [
        24.1236889,
        42.3515395
      ],
      [
        24.1242468,
        42.3514126
      ],
      [
        24.1252768,
        42.3512223
      ],
      [
        24.1268647,
        42.3504929
      ],
      [
        24.1284096,
        42.3497634
      ],
      [
        24.1303408,
        42.3490339
      ],
      [
        24.1316283,
        42.348907
      ],
      [
        24.1331327,
        42.3489269
      ],
      [
        24.1338599,
        42.3491608
      ],
      [
        24.1349328,
        42.3495731
      ],
      [
        24.1358769,
        42.3499537
      ],
      [
        24.1364348,
        42.3500488
      ],
      [
        24.1375506,
        42.3500488
      ],
      [
        24.138366,
        42.3501757
      ],
      [
        24.1393101,
        42.3503343
      ],
      [
        24.1402972,
        42.3504294
      ],
      [
        24.1407693,
        42.3502391
      ],
      [
        24.1412394,
        42.3499371
      ],
      [
        24.1414136,
        42.3497146
      ],
      [
        24.1414948,
        42.3495402
      ],
      [
        24.1415061,
        42.3495069
      ]
    ]
  }
},
{
  "type": "Feature",
  "id": "way/286750076",
  "properties": {
    "highway": "tertiary",
    "ref": "803",
    "smoothness": "intermediate",
    "id": "way/286750076"
  },
  "geometry": {
    "type": "LineString",
    "coordinates": [
      [
        24.2287188,
        42.2890318
      ],
      [
        24.2291544,
        42.288875
      ],
      [
        24.2297381,
        42.2887416
      ],
      [
        24.2303045,
        42.2884686
      ],
      [
        24.23748,
        42.2845445
      ],
      [
        24.2406386,
        42.2827856
      ],
      [
        24.2413252,
        42.2823855
      ],
      [
        24.2419775,
        42.2819029
      ],
      [
        24.2441061,
        42.279801
      ],
      [
        24.244767,
        42.2792676
      ],
      [
        24.245385,
        42.2788802
      ],
      [
        24.2462605,
        42.2783912
      ],
      [
        24.2491787,
        42.2768607
      ],
      [
        24.2510498,
        42.2760288
      ],
      [
        24.251745,
        42.2756604
      ],
      [
        24.2521227,
        42.2753937
      ],
      [
        24.252775,
        42.2747396
      ],
      [
        24.2531355,
        42.2744538
      ],
      [
        24.2556418,
        42.2730375
      ],
      [
        24.256442,
        42.2725166
      ],
      [
        24.2587036,
        42.2708236
      ],
      [
        24.2598543,
        42.2698253
      ],
      [
        24.2613901,
        42.268501
      ],
      [
        24.2625335,
        42.2677303
      ],
      [
        24.2636464,
        42.2670201
      ],
      [
        24.2652063,
        42.2664097
      ],
      [
        24.266412,
        42.2658843
      ],
      [
        24.2685731,
        42.2646761
      ],
      [
        24.2699968,
        42.2638051
      ],
      [
        24.2717563,
        42.2619727
      ],
      [
        24.2749441,
        42.2586004
      ],
      [
        24.2809724,
        42.2522357
      ],
      [
        24.2889791,
        42.2423778
      ]
    ]
  }
},
{
  "type": "Feature",
  "id": "way/190337772",
  "properties": {
    "highway": "tertiary",
    "ref": "803",
    "smoothness": "intermediate",
    "id": "way/190337772"
  },
  "geometry": {
    "type": "LineString",
    "coordinates": [
      [
        24.2891059,
        42.2422212
      ],
      [
        24.2894017,
        42.2418634
      ],
      [
        24.2896166,
        42.241553
      ],
      [
        24.2925203,
        42.2348812
      ],
      [
        24.2926788,
        42.2345332
      ],
      [
        24.2929615,
        42.2340848
      ],
      [
        24.2955992,
        42.2313227
      ],
      [
        24.2961083,
        42.2308697
      ],
      [
        24.296766,
        42.2304352
      ],
      [
        24.2974194,
        42.230094
      ],
      [
        24.3009532,
        42.2284702
      ],
      [
        24.3030006,
        42.2275154
      ],
      [
        24.3044567,
        42.2268729
      ],
      [
        24.3100628,
        42.2223843
      ],
      [
        24.3101918,
        42.2223076
      ]
    ]
  }
},
{
  "type": "Feature",
  "id": "way/190337773",
  "properties": {
    "bridge": "yes",
    "highway": "tertiary",
    "layer": "1",
    "ref": "803",
    "smoothness": "intermediate",
    "id": "way/190337773"
  },
  "geometry": {
    "type": "LineString",
    "coordinates": [
      [
        24.2889791,
        42.2423778
      ],
      [
        24.2891059,
        42.2422212
      ]
    ]
  }
},
{
  "type": "Feature",
  "id": "way/175898163",
  "properties": {
    "highway": "secondary_link",
    "oneway": "yes",
    "ref": "803",
    "id": "way/175898163"
  },
  "geometry": {
    "type": "LineString",
    "coordinates": [
      [
        24.3101918,
        42.2223076
      ],
      [
        24.310376,
        42.2222351
      ],
      [
        24.3105298,
        42.2222037
      ],
      [
        24.3107253,
        42.2222055
      ],
      [
        24.310881,
        42.2222218
      ],
      [
        24.3110165,
        42.2222528
      ]
    ]
  }
},
{
  "type": "Feature",
  "id": "way/275128364",
  "properties": {
    "highway": "tertiary",
    "nat_ref": "803",
    "ref": "803",
    "smoothness": "intermediate",
    "id": "way/275128364"
  },
  "geometry": {
    "type": "LineString",
    "coordinates": [
      [
        24.1416233,
        42.3492111
      ],
      [
        24.1423571,
        42.3483678
      ],
      [
        24.1430867,
        42.3477969
      ],
      [
        24.1451466,
        42.3463379
      ],
      [
        24.1469061,
        42.3450057
      ],
      [
        24.1475499,
        42.3440542
      ],
      [
        24.1481507,
        42.3434515
      ],
      [
        24.1492236,
        42.3427537
      ],
      [
        24.1511977,
        42.34158
      ],
      [
        24.1533005,
        42.3404381
      ],
      [
        24.1552746,
        42.3392961
      ],
      [
        24.1605961,
        42.3364094
      ],
      [
        24.1620123,
        42.335648
      ],
      [
        24.1630423,
        42.335299
      ],
      [
        24.1644585,
        42.3348232
      ],
      [
        24.1656602,
        42.334379
      ],
      [
        24.1664755,
        42.3337445
      ],
      [
        24.1669047,
        42.3330783
      ],
      [
        24.1672909,
        42.33219
      ],
      [
        24.1677201,
        42.3313017
      ],
      [
        24.1680205,
        42.3306355
      ],
      [
        24.1680311,
        42.3299636
      ],
      [
        24.1676706,
        42.3294305
      ],
      [
        24.1675504,
        42.3291323
      ],
      [
        24.1675161,
        42.3288214
      ],
      [
        24.1675333,
        42.328612
      ],
      [
        24.1676191,
        42.3284787
      ],
      [
        24.1702798,
        42.3262134
      ],
      [
        24.1717733,
        42.3249125
      ],
      [
        24.1722625,
        42.3246587
      ],
      [
        24.1726917,
        42.3245381
      ],
      [
        24.1732925,
        42.3244366
      ],
      [
        24.1740478,
        42.3243414
      ],
      [
        24.1745199,
        42.3242462
      ],
      [
        24.1748203,
        42.324132
      ],
      [
        24.1751979,
        42.3238845
      ],
      [
        24.1758331,
        42.3234149
      ],
      [
        24.1763738,
        42.3231039
      ],
      [
        24.1769746,
        42.3228374
      ],
      [
        24.1775583,
        42.3226851
      ],
      [
        24.1788972,
        42.3223805
      ],
      [
        24.1808799,
        42.3214666
      ],
      [
        24.1818155,
        42.3208638
      ],
      [
        24.1842788,
        42.3192074
      ],
      [
        24.190596,
        42.3152154
      ],
      [
        24.1922525,
        42.3142126
      ],
      [
        24.2047409,
        42.3063483
      ],
      [
        24.2055734,
        42.3059675
      ],
      [
        24.2063459,
        42.3056882
      ],
      [
        24.2069725,
        42.3054977
      ],
      [
        24.2073673,
        42.3053136
      ],
      [
        24.2076248,
        42.3050788
      ],
      [
        24.2077793,
        42.3048376
      ],
      [
        24.2078651,
        42.3045202
      ]
    ]
  }
},
{
  "type": "Feature",
  "id": "way/26261204",
  "properties": {
    "highway": "tertiary",
    "ref": "803",
    "smoothness": "intermediate",
    "id": "way/26261204"
  },
  "geometry": {
    "type": "LineString",
    "coordinates": [
      [
        24.2081031,
        42.3018794
      ],
      [
        24.208217,
        42.3014858
      ],
      [
        24.2084487,
        42.3012192
      ],
      [
        24.208732,
        42.3010224
      ],
      [
        24.2093414,
        42.3007875
      ],
      [
        24.2128604,
        42.2996512
      ],
      [
        24.2134613,
        42.2994226
      ],
      [
        24.2139419,
        42.2991624
      ],
      [
        24.2144226,
        42.2988386
      ],
      [
        24.2185339,
        42.2955627
      ],
      [
        24.2192634,
        42.2950167
      ],
      [
        24.2203964,
        42.2943945
      ],
      [
        24.2229112,
        42.2929724
      ],
      [
        24.2240528,
        42.2923502
      ],
      [
        24.2253917,
        42.2915629
      ],
      [
        24.2256149,
        42.2914105
      ],
      [
        24.2258552,
        42.29122
      ],
      [
        24.2277811,
        42.2895544
      ],
      [
        24.2280472,
        42.2893448
      ],
      [
        24.2285193,
        42.2891036
      ],
      [
        24.2287188,
        42.2890318
      ]
    ]
  }
},
{
  "type": "Feature",
  "id": "way/26261207",
  "properties": {
    "embankment": "yes",
    "highway": "tertiary",
    "ref": "803",
    "smoothness": "intermediate",
    "id": "way/26261207"
  },
  "geometry": {
    "type": "LineString",
    "coordinates": [
      [
        24.2078651,
        42.3045202
      ],
      [
        24.2079045,
        42.3041369
      ],
      [
        24.207912,
        42.3040491
      ],
      [
        24.2079367,
        42.3035861
      ],
      [
        24.2079433,
        42.3035359
      ]
    ]
  }
},
{
  "type": "Feature",
  "id": "way/83545440",
  "properties": {
    "bridge": "yes",
    "highway": "tertiary",
    "layer": "1",
    "ref": "803",
    "smoothness": "intermediate",
    "id": "way/83545440"
  },
  "geometry": {
    "type": "LineString",
    "coordinates": [
      [
        24.2079433,
        42.3035359
      ],
      [
        24.208001,
        42.3029839
      ]
    ]
  }
},
{
  "type": "Feature",
  "id": "way/83545452",
  "properties": {
    "embankment": "yes",
    "highway": "tertiary",
    "ref": "803",
    "smoothness": "intermediate",
    "id": "way/83545452"
  },
  "geometry": {
    "type": "LineString",
    "coordinates": [
      [
        24.208001,
        42.3029839
      ],
      [
        24.2080121,
        42.3028824
      ],
      [
        24.2080641,
        42.3023779
      ],
      [
        24.208066,
        42.302282
      ],
      [
        24.2081031,
        42.3018794
      ]
    ]
  }
},
{
  "type": "Feature",
  "id": "way/275128363",
  "properties": {
    "bridge": "yes",
    "highway": "tertiary",
    "nat_ref": "803",
    "ref": "803",
    "smoothness": "intermediate",
    "id": "way/275128363"
  },
  "geometry": {
    "type": "LineString",
    "coordinates": [
      [
        24.1415061,
        42.3495069
      ],
      [
        24.1416233,
        42.3492111
      ]
    ]
  }
},
{
  "type": "Feature",
  "id": "way/36774298",
  "properties": {
    "highway": "tertiary",
    "nat_ref": "803",
    "ref": "803",
    "smoothness": "bad",
    "id": "way/36774298"
  },
  "geometry": {
    "type": "LineString",
    "coordinates": [
      [
        23.8692185,
        42.4046456
      ],
      [
        23.8695118,
        42.4046331
      ],
      [
        23.8698436,
        42.4046029
      ],
      [
        23.8701305,
        42.4045932
      ],
      [
        23.8704348,
        42.4046221
      ],
      [
        23.870939,
        42.4047505
      ],
      [
        23.8717159,
        42.4050502
      ],
      [
        23.8722481,
        42.4053417
      ],
      [
        23.8726172,
        42.4056269
      ],
      [
        23.8731064,
        42.4061466
      ],
      [
        23.8747114,
        42.4081429
      ],
      [
        23.8750891,
        42.4084344
      ],
      [
        23.8753551,
        42.4085612
      ],
      [
        23.8784794,
        42.4095751
      ],
      [
        23.8795094,
        42.4098667
      ],
      [
        23.8831142,
        42.4103039
      ],
      [
        23.8838781,
        42.410494
      ],
      [
        23.8844704,
        42.4107475
      ],
      [
        23.8869858,
        42.4124974
      ],
      [
        23.8874971,
        42.412759
      ],
      [
        23.8878272,
        42.4128407
      ],
      [
        23.8883325,
        42.4128838
      ],
      [
        23.889186,
        42.412915
      ],
      [
        23.8897759,
        42.4129566
      ],
      [
        23.8901141,
        42.4130547
      ],
      [
        23.8903073,
        42.4131736
      ],
      [
        23.8903818,
        42.4133
      ],
      [
        23.890408,
        42.4134739
      ],
      [
        23.8903194,
        42.4140936
      ],
      [
        23.8900738,
        42.4143909
      ],
      [
        23.8897235,
        42.414596
      ],
      [
        23.8892565,
        42.4150121
      ],
      [
        23.8887573,
        42.4156185
      ],
      [
        23.8885882,
        42.4159722
      ],
      [
        23.8886325,
        42.4161803
      ],
      [
        23.8888056,
        42.4164091
      ],
      [
        23.889333,
        42.4170452
      ],
      [
        23.8899973,
        42.4177794
      ],
      [
        23.8905972,
        42.4183916
      ],
      [
        23.8910803,
        42.4188434
      ],
      [
        23.8917447,
        42.4191436
      ],
      [
        23.8929726,
        42.4193665
      ],
      [
        23.8935282,
        42.4193844
      ],
      [
        23.8938688,
        42.4193021
      ],
      [
        23.8941092,
        42.4191563
      ],
      [
        23.8942722,
        42.4189156
      ],
      [
        23.8944267,
        42.4180475
      ],
      [
        23.8945726,
        42.417737
      ],
      [
        23.8947872,
        42.4175596
      ],
      [
        23.8952078,
        42.4174962
      ],
      [
        23.8957228,
        42.4176166
      ],
      [
        23.8960232,
        42.4177623
      ],
      [
        23.8969244,
        42.4186177
      ],
      [
        23.8972248,
        42.4188015
      ],
      [
        23.8979887,
        42.4190169
      ],
      [
        23.8998426,
        42.4196822
      ],
      [
        23.9004864,
        42.4199674
      ],
      [
        23.900598,
        42.4200497
      ],
      [
        23.9006495,
        42.4201638
      ],
      [
        23.9007524,
        42.4205693
      ],
      [
        23.9006151,
        42.4209051
      ],
      [
        23.9006924,
        42.4210255
      ],
      [
        23.9008211,
        42.4210952
      ],
      [
        23.9009756,
        42.4211142
      ],
      [
        23.9011988,
        42.4210572
      ],
      [
        23.9015593,
        42.4206643
      ],
      [
        23.9017824,
        42.4205059
      ],
      [
        23.9019455,
        42.4204489
      ],
      [
        23.9023918,
        42.4204426
      ],
      [
        23.9026493,
        42.4204933
      ],
      [
        23.9028639,
        42.4205566
      ],
      [
        23.9030012,
        42.4206643
      ],
      [
        23.9032158,
        42.4212663
      ],
      [
        23.9031385,
        42.4216528
      ],
      [
        23.9027437,
        42.42228
      ],
      [
        23.9025892,
        42.4226855
      ],
      [
        23.9027695,
        42.4236106
      ],
      [
        23.9026493,
        42.4252262
      ],
      [
        23.9027094,
        42.4254036
      ],
      [
        23.9028296,
        42.4255176
      ],
      [
        23.9029926,
        42.4255493
      ],
      [
        23.9037823,
        42.4254353
      ],
      [
        23.9040998,
        42.4254543
      ],
      [
        23.9041857,
        42.4255176
      ],
      [
        23.9042458,
        42.4256317
      ],
      [
        23.9043058,
        42.4261639
      ],
      [
        23.9044861,
        42.4266517
      ],
      [
        23.9050526,
        42.4274246
      ],
      [
        23.9053358,
        42.4278934
      ],
      [
        23.905353,
        42.4280138
      ],
      [
        23.9053272,
        42.4281659
      ],
      [
        23.9052414,
        42.4282672
      ],
      [
        23.9046835,
        42.428546
      ],
      [
        23.9040226,
        42.4289895
      ],
      [
        23.9037136,
        42.4291162
      ],
      [
        23.9027094,
        42.4293062
      ],
      [
        23.9024605,
        42.4294013
      ],
      [
        23.9016022,
        42.4298384
      ],
      [
        23.9012159,
        42.4301805
      ],
      [
        23.9011559,
        42.4303959
      ],
      [
        23.9012846,
        42.430795
      ],
      [
        23.9016451,
        42.4310927
      ],
      [
        23.9022202,
        42.4313968
      ],
      [
        23.9024605,
        42.4316439
      ],
      [
        23.9025463,
        42.4319163
      ],
      [
        23.9025635,
        42.4326448
      ],
      [
        23.9024433,
        42.4329806
      ],
      [
        23.9023317,
        42.4331326
      ],
      [
        23.9016108,
        42.4336457
      ],
      [
        23.9015078,
        42.4337851
      ],
      [
        23.9015078,
        42.4339181
      ],
      [
        23.9017481,
        42.4340955
      ],
      [
        23.9026064,
        42.4342095
      ],
      [
        23.9030699,
        42.4343806
      ],
      [
        23.9040998,
        42.4352737
      ],
      [
        23.9046663,
        42.4359452
      ],
      [
        23.9048809,
        42.4360782
      ],
      [
        23.9050526,
        42.4361226
      ],
      [
        23.9053701,
        42.4360402
      ],
      [
        23.9054817,
        42.4359262
      ],
      [
        23.9056963,
        42.4354068
      ],
      [
        23.905868,
        42.4352104
      ],
      [
        23.9062027,
        42.434957
      ],
      [
        23.9074043,
        42.4342159
      ],
      [
        23.9082369,
        42.4335697
      ],
      [
        23.9084257,
        42.4332593
      ],
      [
        23.9085115,
        42.4329996
      ],
      [
        23.9085373,
        42.4327652
      ],
      [
        23.9084343,
        42.4324801
      ],
      [
        23.9085459,
        42.4318973
      ],
      [
        23.9087004,
        42.4315489
      ],
      [
        23.9089064,
        42.4313905
      ],
      [
        23.9093355,
        42.4315045
      ],
      [
        23.9098162,
        42.4317706
      ],
      [
        23.9099449,
        42.4317769
      ],
      [
        23.9106401,
        42.4320747
      ],
      [
        23.9117302,
        42.432062
      ],
      [
        23.9120735,
        42.431967
      ],
      [
        23.9124512,
        42.4317199
      ],
      [
        23.9128117,
        42.4312258
      ],
      [
        23.9128031,
        42.4306936
      ],
      [
        23.9129576,
        42.429566
      ],
      [
        23.9131035,
        42.4293126
      ],
      [
        23.9133352,
        42.4291795
      ],
      [
        23.9136957,
        42.4292302
      ],
      [
        23.9138416,
        42.4293126
      ],
      [
        23.9141249,
        42.4294836
      ],
      [
        23.9143909,
        42.4298067
      ],
      [
        23.9146742,
        42.4300538
      ],
      [
        23.9149574,
        42.4300981
      ],
      [
        23.9153608,
        42.4298067
      ],
      [
        23.9157642,
        42.4292746
      ],
      [
        23.9160646,
        42.4289958
      ],
      [
        23.916408,
        42.4288438
      ],
      [
        23.9165453,
        42.4288628
      ],
      [
        23.9167084,
        42.4289958
      ],
      [
        23.916674,
        42.4292999
      ],
      [
        23.9168285,
        42.4296103
      ],
      [
        23.9174379,
        42.4302628
      ],
      [
        23.9180302,
        42.4303452
      ],
      [
        23.9186825,
        42.4303135
      ],
      [
        23.9188456,
        42.4303895
      ],
      [
        23.9192146,
        42.4308077
      ],
      [
        23.9194635,
        42.4314222
      ],
      [
        23.9195751,
        42.4315109
      ],
      [
        23.9198927,
        42.4314602
      ],
      [
        23.9200043,
        42.4313715
      ],
      [
        23.9204506,
        42.4305733
      ],
      [
        23.9209913,
        42.4292999
      ],
      [
        23.9212746,
        42.4289578
      ],
      [
        23.9226135,
        42.4279188
      ],
      [
        23.923386,
        42.4274056
      ],
      [
        23.9237894,
        42.4272346
      ],
      [
        23.9241671,
        42.4271459
      ],
      [
        23.9246563,
        42.4271332
      ],
      [
        23.925034,
        42.4269305
      ],
      [
        23.9253086,
        42.426658
      ],
      [
        23.9256262,
        42.4262019
      ],
      [
        23.9259695,
        42.4256697
      ],
      [
        23.9261583,
        42.4252389
      ],
      [
        23.9262442,
        42.4251502
      ],
      [
        23.9264416,
        42.4250931
      ],
      [
        23.9265875,
        42.4251565
      ],
      [
        23.9266905,
        42.4254289
      ],
      [
        23.9267849,
        42.4263856
      ],
      [
        23.9269566,
        42.4272599
      ],
      [
        23.9269737,
        42.4276907
      ],
      [
        23.9263815,
        42.4293062
      ],
      [
        23.9255489,
        42.4301932
      ],
      [
        23.925506,
        42.4303199
      ],
      [
        23.9256004,
        42.4304466
      ],
      [
        23.9259609,
        42.4305479
      ],
      [
        23.9265102,
        42.4304846
      ],
      [
        23.9272484,
        42.4304656
      ],
      [
        23.9286818,
        42.4305923
      ],
      [
        23.9292826,
        42.4305796
      ],
      [
        23.9295057,
        42.4305099
      ],
      [
        23.9298405,
        42.4302502
      ],
      [
        23.9299778,
        42.4300665
      ],
      [
        23.9300894,
        42.429718
      ],
      [
        23.930201,
        42.4295596
      ],
      [
        23.930364,
        42.4294583
      ],
      [
        23.9312395,
        42.4290718
      ],
      [
        23.9329046,
        42.4285587
      ],
      [
        23.9331106,
        42.428565
      ],
      [
        23.9334883,
        42.428698
      ],
      [
        23.9342608,
        42.4291859
      ],
      [
        23.9343981,
        42.4293252
      ],
      [
        23.9345097,
        42.4299778
      ],
      [
        23.9347242,
        42.4301805
      ],
      [
        23.9349388,
        42.4302375
      ],
      [
        23.935428,
        42.4301932
      ],
      [
        23.9357885,
        42.4302438
      ],
      [
        23.9363894,
        42.4304212
      ],
      [
        23.9366554,
        42.4304276
      ],
      [
        23.9368528,
        42.4303705
      ],
      [
        23.9376253,
        42.4298257
      ],
      [
        23.9381403,
        42.42968
      ],
      [
        23.9383892,
        42.429699
      ],
      [
        23.9389729,
        42.4298384
      ],
      [
        23.9394878,
        42.4300665
      ],
      [
        23.940535,
        42.4301488
      ],
      [
        23.9408525,
        42.4302185
      ],
      [
        23.9416765,
        42.4305099
      ],
      [
        23.9418653,
        42.4304846
      ],
      [
        23.9428267,
        42.4299144
      ],
      [
        23.9446205,
        42.4292429
      ],
      [
        23.9448265,
        42.4290845
      ],
      [
        23.9452471,
        42.42847
      ],
      [
        23.9456762,
        42.4280138
      ],
      [
        23.9462942,
        42.4276654
      ],
      [
        23.9465946,
        42.4275387
      ],
      [
        23.9468779,
        42.4274816
      ],
      [
        23.9470409,
        42.4274943
      ],
      [
        23.9476761,
        42.4277097
      ],
      [
        23.9479078,
        42.4277287
      ],
      [
        23.9481911,
        42.4276337
      ],
      [
        23.9482597,
        42.4274436
      ],
      [
        23.9481396,
        42.4270255
      ],
      [
        23.9478563,
        42.4253276
      ],
      [
        23.9479078,
        42.4249474
      ],
      [
        23.9482254,
        42.4248017
      ],
      [
        23.9485086,
        42.4247574
      ],
      [
        23.9491009,
        42.4245483
      ],
      [
        23.9496931,
        42.42394
      ],
      [
        23.9499334,
        42.423769
      ],
      [
        23.9505428,
        42.4234015
      ],
      [
        23.9509291,
        42.4232558
      ],
      [
        23.9510836,
        42.4232558
      ],
      [
        23.9512295,
        42.4233445
      ],
      [
        23.9517874,
        42.4239337
      ],
      [
        23.9522079,
        42.4241555
      ],
      [
        23.9531092,
        42.4241301
      ],
      [
        23.953607,
        42.4241998
      ],
      [
        23.9538559,
        42.4244406
      ],
      [
        23.9541048,
        42.4248334
      ],
      [
        23.9542593,
        42.4256127
      ],
      [
        23.9544052,
        42.4257901
      ],
      [
        23.9548086,
        42.4257901
      ],
      [
        23.9552464,
        42.4254099
      ],
      [
        23.9556154,
        42.4252072
      ],
      [
        23.9566025,
        42.4249791
      ],
      [
        23.9567656,
        42.4248904
      ],
      [
        23.95686,
        42.4247383
      ],
      [
        23.9572462,
        42.4237183
      ],
      [
        23.9582075,
        42.4215451
      ],
      [
        23.9582333,
        42.4200244
      ],
      [
        23.9583019,
        42.4198026
      ],
      [
        23.9585337,
        42.4194922
      ],
      [
        23.9586796,
        42.4191753
      ],
      [
        23.9586796,
        42.4184467
      ],
      [
        23.9589027,
        42.4180855
      ],
      [
        23.9592289,
        42.4177497
      ],
      [
        23.9593662,
        42.4176673
      ],
      [
        23.9596666,
        42.4176039
      ],
      [
        23.9603876,
        42.417718
      ],
      [
        23.9616236,
        42.4176546
      ],
      [
        23.9629454,
        42.4177243
      ],
      [
        23.9632801,
        42.4176356
      ],
      [
        23.9634947,
        42.4172744
      ],
      [
        23.9636148,
        42.4168119
      ],
      [
        23.9641985,
        42.4159247
      ],
      [
        23.9642843,
        42.4151643
      ],
      [
        23.9643873,
        42.4150693
      ],
      [
        23.9646019,
        42.4149996
      ],
      [
        23.9652456,
        42.4149045
      ],
      [
        23.9658894,
        42.4147271
      ],
      [
        23.9659494,
        42.414518
      ],
      [
        23.9656061,
        42.4137576
      ],
      [
        23.9656576,
        42.4134407
      ],
      [
        23.9657778,
        42.413333
      ],
      [
        23.9660095,
        42.4132506
      ],
      [
        23.9661983,
        42.4132506
      ],
      [
        23.966679,
        42.413333
      ],
      [
        23.9674171,
        42.4133394
      ],
      [
        23.9678034,
        42.4132063
      ],
      [
        23.968224,
        42.4129211
      ],
      [
        23.9686531,
        42.412788
      ],
      [
        23.9688763,
        42.4127627
      ],
      [
        23.9691423,
        42.4128071
      ],
      [
        23.9693741,
        42.4129908
      ],
      [
        23.9695887,
        42.4130542
      ],
      [
        23.9698118,
        42.4130542
      ],
      [
        23.9707045,
        42.4126296
      ],
      [
        23.9717087,
        42.4124522
      ],
      [
        23.9718546,
        42.4123888
      ],
      [
        23.9719404,
        42.4123255
      ],
      [
        23.9719833,
        42.4121924
      ],
      [
        23.9720348,
        42.4114763
      ],
      [
        23.9722322,
        42.4109186
      ],
      [
        23.9724983,
        42.4106081
      ],
      [
        23.9733395,
        42.4099364
      ],
      [
        23.97376,
        42.4090682
      ],
      [
        23.9740347,
        42.408783
      ],
      [
        23.9742064,
        42.4087069
      ],
      [
        23.9745583,
        42.4086753
      ],
      [
        23.9748158,
        42.4087069
      ],
      [
        23.9752707,
        42.408783
      ],
      [
        23.9759315,
        42.4089858
      ],
      [
        23.9763092,
        42.4090111
      ],
      [
        23.9764465,
        42.4089541
      ],
      [
        23.976807,
        42.4085865
      ],
      [
        23.9770711,
        42.4084601
      ],
      [
        23.9774213,
        42.4083851
      ],
      [
        23.9777038,
        42.4083754
      ],
      [
        23.977822,
        42.4084027
      ],
      [
        23.9779565,
        42.4084775
      ],
      [
        23.9784807,
        42.4089161
      ],
      [
        23.9785065,
        42.4092203
      ],
      [
        23.978043,
        42.4099807
      ],
      [
        23.9777769,
        42.4106335
      ],
      [
        23.9776224,
        42.4112355
      ],
      [
        23.9781116,
        42.4116411
      ],
      [
        23.9784979,
        42.4117488
      ],
      [
        23.9788755,
        42.4116918
      ],
      [
        23.9791073,
        42.4115967
      ],
      [
        23.979854,
        42.4114763
      ],
      [
        23.9802403,
        42.4115587
      ],
      [
        23.9803347,
        42.4116157
      ],
      [
        23.9803432,
        42.4117615
      ],
      [
        23.9799227,
        42.4126486
      ],
      [
        23.9798712,
        42.4129845
      ],
      [
        23.9799141,
        42.4131366
      ],
      [
        23.9800772,
        42.4132126
      ],
      [
        23.9804634,
        42.4132823
      ],
      [
        23.9816479,
        42.413257
      ],
      [
        23.9820684,
        42.4133774
      ],
      [
        23.9821886,
        42.4134471
      ],
      [
        23.9823088,
        42.4136182
      ],
      [
        23.9822573,
        42.413859
      ],
      [
        23.9821285,
        42.4140047
      ],
      [
        23.9813475,
        42.414423
      ],
      [
        23.9806179,
        42.4147271
      ],
      [
        23.9795622,
        42.4149869
      ],
      [
        23.9792704,
        42.4151137
      ],
      [
        23.9784807,
        42.4156523
      ],
      [
        23.9779915,
        42.41576
      ],
      [
        23.9778027,
        42.4157283
      ],
      [
        23.9776138,
        42.4157663
      ],
      [
        23.9772705,
        42.4159184
      ],
      [
        23.9771418,
        42.4162923
      ],
      [
        23.9775967,
        42.4169196
      ],
      [
        23.9777597,
        42.4170527
      ],
      [
        23.9778627,
        42.4172934
      ],
      [
        23.9778713,
        42.4174899
      ],
      [
        23.9777512,
        42.4176229
      ],
      [
        23.9774851,
        42.4177813
      ],
      [
        23.9766182,
        42.4181805
      ],
      [
        23.9756569,
        42.4183643
      ],
      [
        23.9757084,
        42.418548
      ],
      [
        23.9759144,
        42.4187001
      ],
      [
        23.9764208,
        42.4189219
      ],
      [
        23.9769444,
        42.4189536
      ],
      [
        23.9778713,
        42.4186621
      ],
      [
        23.9785923,
        42.4186431
      ],
      [
        23.979339,
        42.4185671
      ],
      [
        23.9796909,
        42.4183199
      ],
      [
        23.980884,
        42.4179334
      ],
      [
        23.9816565,
        42.4177623
      ],
      [
        23.9820084,
        42.4177433
      ],
      [
        23.9821714,
        42.417832
      ],
      [
        23.9824633,
        42.4181298
      ],
      [
        23.9829182,
        42.419074
      ],
      [
        23.9831242,
        42.4192577
      ],
      [
        23.9833559,
        42.4195999
      ],
      [
        23.983313,
        42.4197329
      ],
      [
        23.9829954,
        42.4201701
      ],
      [
        23.9829611,
        42.4203475
      ],
      [
        23.9830383,
        42.4204869
      ],
      [
        23.9832272,
        42.42062
      ],
      [
        23.9833473,
        42.4206453
      ],
      [
        23.9836134,
        42.420601
      ],
      [
        23.9853987,
        42.4200751
      ],
      [
        23.9869093,
        42.4199167
      ],
      [
        23.9873728,
        42.419942
      ],
      [
        23.9876818,
        42.4201131
      ],
      [
        23.9878963,
        42.4205123
      ],
      [
        23.9881882,
        42.4207404
      ],
      [
        23.988377,
        42.4207657
      ],
      [
        23.9891323,
        42.4206263
      ],
      [
        23.9893469,
        42.420639
      ],
      [
        23.9896988,
        42.4208101
      ],
      [
        23.9901194,
        42.4211902
      ],
      [
        23.9902739,
        42.4215007
      ],
      [
        23.9904198,
        42.4220519
      ],
      [
        23.9906,
        42.4223181
      ],
      [
        23.9907373,
        42.4223941
      ],
      [
        23.9910635,
        42.422223
      ]
    ]
  }
},
{
  "type": "Feature",
  "id": "way/292835905",
  "properties": {
    "highway": "tertiary",
    "nat_ref": "803",
    "ref": "803",
    "smoothness": "intermediate",
    "waterway": "dam",
    "id": "way/292835905"
  },
  "geometry": {
    "type": "LineString",
    "coordinates": [
      [
        23.9995557,
        42.4203638
      ],
      [
        23.9999231,
        42.4200427
      ],
      [
        24.0004278,
        42.4195379
      ],
      [
        24.0018106,
        42.4185113
      ],
      [
        24.0024975,
        42.4180929
      ]
    ]
  }
},
{
  "type": "Feature",
  "id": "way/42471404",
  "properties": {
    "highway": "tertiary",
    "nat_ref": "803",
    "ref": "803",
    "id": "way/42471404"
  },
  "geometry": {
    "type": "LineString",
    "coordinates": [
      [
        23.9910635,
        42.422223
      ],
      [
        23.9914755,
        42.4220456
      ],
      [
        23.9921518,
        42.4220152
      ],
      [
        23.9928247,
        42.4220248
      ],
      [
        23.9933166,
        42.4220766
      ],
      [
        23.9937459,
        42.4220939
      ],
      [
        23.9940143,
        42.4220991
      ],
      [
        23.9943145,
        42.4219795
      ],
      [
        23.9957401,
        42.4214575
      ],
      [
        23.9964822,
        42.4211829
      ],
      [
        23.9972755,
        42.4208893
      ],
      [
        23.9974711,
        42.4208442
      ],
      [
        23.997762,
        42.4208978
      ],
      [
        23.9978861,
        42.4209793
      ],
      [
        23.998236,
        42.4212312
      ],
      [
        23.9984929,
        42.4212765
      ],
      [
        23.9987996,
        42.4212279
      ],
      [
        23.9990486,
        42.42113
      ],
      [
        23.9992302,
        42.4209284
      ],
      [
        23.9993304,
        42.4206233
      ],
      [
        23.9995557,
        42.4203638
      ]
    ]
  }
}
]
}
