{
"type": "FeatureCollection",
"features": [
{
  "type": "Feature",
  "id": "way/196777484",
  "properties": {
    "highway": "tertiary",
    "lanes": "2",
    "maxspeed": "90",
    "ref": "2009",
    "smoothness": "intermediate",
    "surface": "asphalt",
    "id": "way/196777484"
  },
  "geometry": {
    "type": "LineString",
    "coordinates": [
      [
        27.6009395,
        43.2777351
      ],
      [
        27.6014256,
        43.2764999
      ],
      [
        27.6021817,
        43.27441
      ],
      [
        27.6027318,
        43.2728906
      ],
      [
        27.6028334,
        43.27261
      ],
      [
        27.6031724,
        43.2713617
      ],
      [
        27.60313,
        43.2707837
      ],
      [
        27.6028251,
        43.2675816
      ],
      [
        27.6031577,
        43.2655199
      ],
      [
        27.6039328,
        43.2606054
      ],
      [
        27.6041109,
        43.259242
      ],
      [
        27.6045218,
        43.2564725
      ],
      [
        27.6046008,
        43.2559552
      ],
      [
        27.6048917,
        43.2537491
      ],
      [
        27.605001,
        43.253388
      ],
      [
        27.6054333,
        43.2525616
      ],
      [
        27.6074009,
        43.2498807
      ],
      [
        27.607763,
        43.2492522
      ],
      [
        27.6079372,
        43.24876
      ],
      [
        27.6073544,
        43.246055
      ],
      [
        27.6072651,
        43.2456634
      ],
      [
        27.6070075,
        43.2444282
      ],
      [
        27.6069479,
        43.2437841
      ],
      [
        27.6069169,
        43.2433846
      ],
      [
        27.6069013,
        43.243083
      ],
      [
        27.6068874,
        43.2425946
      ],
      [
        27.6069011,
        43.2422288
      ],
      [
        27.6070065,
        43.2412453
      ],
      [
        27.6073304,
        43.2393069
      ]
    ]
  }
},
{
  "type": "Feature",
  "id": "way/194114240",
  "properties": {
    "highway": "tertiary",
    "lanes": "2",
    "maxspeed": "90",
    "oneway": "-1",
    "ref": "2009",
    "smoothness": "bad",
    "surface": "asphalt",
    "id": "way/194114240"
  },
  "geometry": {
    "type": "LineString",
    "coordinates": [
      [
        27.6104181,
        43.2275887
      ],
      [
        27.610292,
        43.2279268
      ],
      [
        27.6101329,
        43.2285288
      ]
    ]
  }
},
{
  "type": "Feature",
  "id": "way/194114243",
  "properties": {
    "highway": "tertiary",
    "lanes": "2",
    "maxspeed": "90",
    "oneway": "yes",
    "ref": "2009",
    "smoothness": "bad",
    "surface": "asphalt",
    "id": "way/194114243"
  },
  "geometry": {
    "type": "LineString",
    "coordinates": [
      [
        27.6106005,
        43.2276219
      ],
      [
        27.6104514,
        43.2279699
      ],
      [
        27.6101329,
        43.2285288
      ]
    ]
  }
},
{
  "type": "Feature",
  "id": "way/226602134",
  "properties": {
    "bridge": "yes",
    "highway": "tertiary",
    "lanes": "2",
    "layer": "1",
    "maxspeed": "90",
    "ref": "2009",
    "smoothness": "bad",
    "surface": "asphalt",
    "id": "way/226602134"
  },
  "geometry": {
    "type": "LineString",
    "coordinates": [
      [
        27.6090523,
        43.231262
      ],
      [
        27.6094482,
        43.2302496
      ]
    ]
  }
},
{
  "type": "Feature",
  "id": "way/194114241",
  "properties": {
    "highway": "tertiary",
    "lanes": "2",
    "maxspeed": "90",
    "ref": "2009",
    "smoothness": "bad",
    "surface": "asphalt",
    "id": "way/194114241"
  },
  "geometry": {
    "type": "LineString",
    "coordinates": [
      [
        27.6101329,
        43.2285288
      ],
      [
        27.6100272,
        43.2288036
      ],
      [
        27.6099653,
        43.2289772
      ],
      [
        27.6094482,
        43.2302496
      ]
    ]
  }
},
{
  "type": "Feature",
  "id": "way/178331429",
  "properties": {
    "highway": "tertiary",
    "lanes": "2",
    "maxspeed": "90",
    "ref": "2009",
    "surface": "asphalt",
    "id": "way/178331429"
  },
  "geometry": {
    "type": "LineString",
    "coordinates": [
      [
        27.608401,
        43.2332131
      ],
      [
        27.6086227,
        43.2324072
      ],
      [
        27.6090523,
        43.231262
      ]
    ]
  }
},
{
  "type": "Feature",
  "id": "way/196776679",
  "properties": {
    "highway": "tertiary",
    "lanes": "2",
    "maxspeed": "90",
    "ref": "2009",
    "smoothness": "intermediate",
    "surface": "asphalt",
    "id": "way/196776679"
  },
  "geometry": {
    "type": "LineString",
    "coordinates": [
      [
        27.6073654,
        43.2390869
      ],
      [
        27.608401,
        43.2332131
      ]
    ]
  }
},
{
  "type": "Feature",
  "id": "way/196776678",
  "properties": {
    "bridge": "yes",
    "highway": "tertiary",
    "lanes": "2",
    "layer": "1",
    "maxspeed": "90",
    "ref": "2009",
    "smoothness": "intermediate",
    "surface": "asphalt",
    "id": "way/196776678"
  },
  "geometry": {
    "type": "LineString",
    "coordinates": [
      [
        27.6073304,
        43.2393069
      ],
      [
        27.6073654,
        43.2390869
      ]
    ]
  }
},
{
  "type": "Feature",
  "id": "way/194970921",
  "properties": {
    "highway": "tertiary",
    "lanes": "2",
    "maxspeed": "90",
    "ref": "2009",
    "smoothness": "intermediate",
    "surface": "asphalt",
    "id": "way/194970921"
  },
  "geometry": {
    "type": "LineString",
    "coordinates": [
      [
        27.596119,
        43.3223165
      ],
      [
        27.5964716,
        43.3210826
      ],
      [
        27.5980717,
        43.3159566
      ],
      [
        27.5983983,
        43.314485
      ],
      [
        27.5984467,
        43.31089
      ],
      [
        27.5983934,
        43.30882
      ],
      [
        27.5979433,
        43.30412
      ],
      [
        27.5979447,
        43.3037712
      ],
      [
        27.5979501,
        43.3023833
      ],
      [
        27.5981563,
        43.3003385
      ],
      [
        27.5983183,
        43.2980043
      ],
      [
        27.5983393,
        43.297701
      ],
      [
        27.5982632,
        43.2969387
      ],
      [
        27.5979217,
        43.2961202
      ],
      [
        27.5970984,
        43.294695
      ],
      [
        27.5953233,
        43.2918733
      ],
      [
        27.5949356,
        43.291173
      ],
      [
        27.5947831,
        43.290169
      ],
      [
        27.5948445,
        43.2901402
      ],
      [
        27.5951236,
        43.2894158
      ],
      [
        27.595235,
        43.2891267
      ],
      [
        27.5957489,
        43.2877263
      ],
      [
        27.5960158,
        43.2872096
      ],
      [
        27.5967185,
        43.2854363
      ],
      [
        27.5977533,
        43.282825
      ],
      [
        27.5981193,
        43.28202
      ],
      [
        27.598597,
        43.28121
      ],
      [
        27.5991616,
        43.2804119
      ],
      [
        27.5994129,
        43.2800606
      ],
      [
        27.5997003,
        43.2796624
      ],
      [
        27.6002241,
        43.2789443
      ],
      [
        27.6005473,
        43.2784446
      ]
    ]
  }
},
{
  "type": "Feature",
  "id": "way/196777483",
  "properties": {
    "bridge": "yes",
    "highway": "tertiary",
    "lanes": "2",
    "layer": "1",
    "maxspeed": "90",
    "ref": "2009",
    "smoothness": "intermediate",
    "surface": "asphalt",
    "id": "way/196777483"
  },
  "geometry": {
    "type": "LineString",
    "coordinates": [
      [
        27.6005473,
        43.2784446
      ],
      [
        27.6009395,
        43.2777351
      ]
    ]
  }
}
]
}
