{
"type": "FeatureCollection",
"features": [
{
  "type": "Feature",
  "id": "way/42943093",
  "properties": {
    "highway": "tertiary",
    "ref": "303",
    "smoothness": "good",
    "id": "way/42943093"
  },
  "geometry": {
    "type": "LineString",
    "coordinates": [
      [
        25.4516923,
        43.001521
      ],
      [
        25.4517841,
        43.0017409
      ],
      [
        25.4519326,
        43.0019372
      ],
      [
        25.4521484,
        43.0021836
      ],
      [
        25.4524905,
        43.0024409
      ],
      [
        25.4558551,
        43.0040604
      ],
      [
        25.4565675,
        43.0050898
      ],
      [
        25.4574515,
        43.0057551
      ],
      [
        25.4583442,
        43.0058618
      ],
      [
        25.458739,
        43.0061945
      ],
      [
        25.4591681,
        43.007274
      ],
      [
        25.4597432,
        43.0077636
      ],
      [
        25.4639918,
        43.0093766
      ],
      [
        25.4662406,
        43.0108202
      ],
      [
        25.4663522,
        43.0112155
      ],
      [
        25.4661204,
        43.0114478
      ],
      [
        25.465039,
        43.0121067
      ],
      [
        25.4646613,
        43.0128473
      ],
      [
        25.4647214,
        43.013977
      ],
      [
        25.4651076,
        43.0143661
      ],
      [
        25.4650218,
        43.0146924
      ],
      [
        25.4642321,
        43.0152133
      ],
      [
        25.4639232,
        43.0156212
      ],
      [
        25.4641635,
        43.0159852
      ],
      [
        25.4653026,
        43.0167737
      ],
      [
        25.4655539,
        43.0169077
      ],
      [
        25.4660221,
        43.0171027
      ],
      [
        25.4662515,
        43.0172115
      ],
      [
        25.466437,
        43.0173766
      ],
      [
        25.4676654,
        43.0190727
      ],
      [
        25.468058,
        43.0202053
      ],
      [
        25.4680511,
        43.0202792
      ],
      [
        25.4680283,
        43.0204035
      ],
      [
        25.4679732,
        43.0205156
      ],
      [
        25.4678848,
        43.020613
      ],
      [
        25.4677667,
        43.0206812
      ],
      [
        25.4662953,
        43.021373
      ],
      [
        25.4646524,
        43.0221777
      ],
      [
        25.4630175,
        43.0230475
      ],
      [
        25.4613482,
        43.023779
      ],
      [
        25.4612767,
        43.0240994
      ],
      [
        25.4616606,
        43.0246593
      ],
      [
        25.4616578,
        43.0255326
      ],
      [
        25.4616093,
        43.0264497
      ],
      [
        25.4614986,
        43.0284052
      ],
      [
        25.4610346,
        43.0290588
      ],
      [
        25.4605409,
        43.0295795
      ],
      [
        25.4605969,
        43.0297343
      ],
      [
        25.460706,
        43.0298571
      ],
      [
        25.463303,
        43.0306388
      ],
      [
        25.4635193,
        43.0310348
      ],
      [
        25.4638373,
        43.0313837
      ],
      [
        25.4643853,
        43.0317152
      ],
      [
        25.4651772,
        43.0320453
      ],
      [
        25.4671504,
        43.0321993
      ],
      [
        25.467566,
        43.0323955
      ],
      [
        25.46794,
        43.0326761
      ],
      [
        25.4686095,
        43.033567
      ],
      [
        25.469128,
        43.034052
      ],
      [
        25.4694678,
        43.0344955
      ],
      [
        25.4692962,
        43.0356499
      ],
      [
        25.4694678,
        43.036296
      ],
      [
        25.4688155,
        43.036547
      ],
      [
        25.4686212,
        43.0366769
      ],
      [
        25.468235,
        43.0373356
      ],
      [
        25.4679346,
        43.0382767
      ],
      [
        25.4671621,
        43.0386844
      ],
      [
        25.4666919,
        43.039311
      ],
      [
        25.4661664,
        43.0398889
      ],
      [
        25.4656641,
        43.0409377
      ],
      [
        25.4652333,
        43.0421622
      ],
      [
        25.4649047,
        43.0425675
      ],
      [
        25.4648447,
        43.0428748
      ],
      [
        25.465188,
        43.0433641
      ],
      [
        25.4652996,
        43.0447316
      ],
      [
        25.4651365,
        43.0455533
      ],
      [
        25.4651461,
        43.045924
      ],
      [
        25.4652333,
        43.0462218
      ],
      [
        25.4650085,
        43.0465213
      ],
      [
        25.4648447,
        43.0467639
      ],
      [
        25.4648103,
        43.0469709
      ],
      [
        25.4651794,
        43.0472657
      ],
      [
        25.4669475,
        43.0477173
      ],
      [
        25.467514,
        43.0480372
      ],
      [
        25.4679346,
        43.0487021
      ],
      [
        25.4683551,
        43.0490596
      ],
      [
        25.4725608,
        43.0506088
      ],
      [
        25.4728012,
        43.050866
      ],
      [
        25.4728527,
        43.0511858
      ],
      [
        25.4724063,
        43.0521078
      ],
      [
        25.4723548,
        43.0524465
      ],
      [
        25.472578,
        43.0530173
      ],
      [
        25.4724407,
        43.0534939
      ],
      [
        25.4713077,
        43.0542089
      ],
      [
        25.4702863,
        43.0544598
      ],
      [
        25.4696855,
        43.0548486
      ],
      [
        25.468501,
        43.0551873
      ],
      [
        25.4676388,
        43.0556706
      ],
      [
        25.4668273,
        43.0562158
      ],
      [
        25.4665355,
        43.0566485
      ],
      [
        25.4667243,
        43.0575704
      ],
      [
        25.4670419,
        43.0583105
      ],
      [
        25.4673879,
        43.0587989
      ],
      [
        25.467823,
        43.0592449
      ],
      [
        25.4686641,
        43.05964
      ],
      [
        25.4689903,
        43.0600476
      ],
      [
        25.4697284,
        43.0603988
      ],
      [
        25.4697628,
        43.0606872
      ],
      [
        25.4694795,
        43.0610384
      ],
      [
        25.4695568,
        43.0612328
      ],
      [
        25.4720201,
        43.062857
      ],
      [
        25.4744758,
        43.0635885
      ],
      [
        25.4766635,
        43.0643494
      ],
      [
        25.4767665,
        43.0645814
      ],
      [
        25.476655,
        43.0647696
      ],
      [
        25.4757366,
        43.0650831
      ],
      [
        25.474946,
        43.0652236
      ],
      [
        25.4743853,
        43.0652414
      ],
      [
        25.4738427,
        43.0651366
      ],
      [
        25.4732646,
        43.0650078
      ],
      [
        25.4714568,
        43.0650854
      ],
      [
        25.4712839,
        43.0651139
      ],
      [
        25.4711803,
        43.065182
      ],
      [
        25.4711699,
        43.0653258
      ],
      [
        25.4714279,
        43.0655722
      ],
      [
        25.4733419,
        43.0665755
      ],
      [
        25.4737391,
        43.0668811
      ],
      [
        25.474035,
        43.0672377
      ],
      [
        25.4741069,
        43.0677892
      ],
      [
        25.4740457,
        43.0682998
      ]
    ]
  }
},
{
  "type": "Feature",
  "id": "way/42612968",
  "properties": {
    "highway": "tertiary",
    "ref": "303",
    "smoothness": "intermediate",
    "id": "way/42612968"
  },
  "geometry": {
    "type": "LineString",
    "coordinates": [
      [
        25.3652174,
        43.1862266
      ],
      [
        25.365372,
        43.1861491
      ],
      [
        25.3657876,
        43.1858824
      ],
      [
        25.3664449,
        43.1854607
      ],
      [
        25.3676895,
        43.1833641
      ],
      [
        25.3685478,
        43.1819559
      ],
      [
        25.3692344,
        43.1807355
      ],
      [
        25.3717235,
        43.1763229
      ],
      [
        25.3768733,
        43.170971
      ],
      [
        25.3847269,
        43.1660256
      ],
      [
        25.3858856,
        43.1655248
      ],
      [
        25.3860369,
        43.1654816
      ],
      [
        25.3868726,
        43.1652431
      ],
      [
        25.4075149,
        43.1629893
      ],
      [
        25.4096607,
        43.1628015
      ],
      [
        25.4109481,
        43.1624259
      ],
      [
        25.4212907,
        43.1576676
      ],
      [
        25.4229215,
        43.1569163
      ]
    ]
  }
},
{
  "type": "Feature",
  "id": "way/168809100",
  "properties": {
    "highway": "tertiary",
    "lanes": "2",
    "maxspeed": "90",
    "ref": "303",
    "smoothness": "intermediate",
    "surface": "asphalt",
    "id": "way/168809100"
  },
  "geometry": {
    "type": "LineString",
    "coordinates": [
      [
        25.3086086,
        43.2231408
      ],
      [
        25.3102687,
        43.2227486
      ],
      [
        25.3143028,
        43.2218417
      ],
      [
        25.3188947,
        43.2207784
      ],
      [
        25.3206972,
        43.2203719
      ],
      [
        25.3225854,
        43.2199341
      ],
      [
        25.3239158,
        43.2194962
      ],
      [
        25.3250316,
        43.218902
      ],
      [
        25.3260187,
        43.2180576
      ],
      [
        25.327349,
        43.2166815
      ],
      [
        25.3286365,
        43.2152428
      ],
      [
        25.3309539,
        43.2128345
      ],
      [
        25.3325418,
        43.2109891
      ],
      [
        25.3344301,
        43.2093939
      ],
      [
        25.334668,
        43.2092074
      ]
    ]
  }
},
{
  "type": "Feature",
  "id": "way/240545026",
  "properties": {
    "highway": "tertiary",
    "lanes": "2",
    "maxspeed": "90",
    "ref": "303",
    "smoothness": "intermediate",
    "surface": "asphalt",
    "id": "way/240545026"
  },
  "geometry": {
    "type": "LineString",
    "coordinates": [
      [
        25.3353973,
        43.2086358
      ],
      [
        25.3367046,
        43.207611
      ],
      [
        25.3404382,
        43.2047018
      ],
      [
        25.3434852,
        43.202387
      ],
      [
        25.3489569,
        43.1979752
      ],
      [
        25.3497231,
        43.1973801
      ]
    ]
  }
},
{
  "type": "Feature",
  "id": "way/42181227",
  "properties": {
    "highway": "tertiary",
    "maxspeed": "BG:urban",
    "oneway": "yes",
    "ref": "303",
    "smoothness": "intermediate",
    "id": "way/42181227"
  },
  "geometry": {
    "type": "LineString",
    "coordinates": [
      [
        25.3652174,
        43.1862266
      ],
      [
        25.3650701,
        43.1863181
      ],
      [
        25.3641006,
        43.1869202
      ],
      [
        25.3634658,
        43.1873211
      ],
      [
        25.3617917,
        43.1883783
      ],
      [
        25.3595633,
        43.1897692
      ],
      [
        25.3595258,
        43.1897926
      ],
      [
        25.3574315,
        43.1911068
      ],
      [
        25.3543159,
        43.1936411
      ],
      [
        25.3499103,
        43.1972277
      ],
      [
        25.3497231,
        43.1973801
      ]
    ]
  }
},
{
  "type": "Feature",
  "id": "way/42181247",
  "properties": {
    "highway": "tertiary",
    "maxspeed": "BG:urban",
    "oneway": "yes",
    "ref": "303",
    "smoothness": "intermediate",
    "id": "way/42181247"
  },
  "geometry": {
    "type": "LineString",
    "coordinates": [
      [
        25.3497231,
        43.1973801
      ],
      [
        25.3503419,
        43.1967071
      ],
      [
        25.3507796,
        43.1963067
      ],
      [
        25.3516379,
        43.1955934
      ],
      [
        25.3527452,
        43.1947048
      ],
      [
        25.3536635,
        43.1939539
      ],
      [
        25.3546506,
        43.1931592
      ],
      [
        25.3556891,
        43.1922832
      ],
      [
        25.3567449,
        43.1914071
      ],
      [
        25.3570281,
        43.1911693
      ],
      [
        25.3574487,
        43.190894
      ],
      [
        25.3587533,
        43.1900617
      ],
      [
        25.3593977,
        43.1896493
      ],
      [
        25.3598777,
        43.1893421
      ],
      [
        25.3605042,
        43.1889916
      ],
      [
        25.3615771,
        43.1883408
      ],
      [
        25.3622466,
        43.1879027
      ],
      [
        25.3632959,
        43.1872098
      ],
      [
        25.3636113,
        43.1870016
      ],
      [
        25.3640319,
        43.1867325
      ],
      [
        25.3644267,
        43.1865197
      ],
      [
        25.3646842,
        43.1864196
      ],
      [
        25.3652174,
        43.1862266
      ]
    ]
  }
},
{
  "type": "Feature",
  "id": "way/240545028",
  "properties": {
    "bridge": "yes",
    "highway": "tertiary",
    "lanes": "2",
    "maxspeed": "90",
    "ref": "303",
    "smoothness": "intermediate",
    "surface": "asphalt",
    "id": "way/240545028"
  },
  "geometry": {
    "type": "LineString",
    "coordinates": [
      [
        25.334668,
        43.2092074
      ],
      [
        25.3353973,
        43.2086358
      ]
    ]
  }
},
{
  "type": "Feature",
  "id": "way/234267518",
  "properties": {
    "highway": "tertiary",
    "ref": "303",
    "smoothness": "intermediate",
    "id": "way/234267518"
  },
  "geometry": {
    "type": "LineString",
    "coordinates": [
      [
        25.4263135,
        43.1493724
      ],
      [
        25.4263088,
        43.1493225
      ],
      [
        25.4262689,
        43.1489014
      ],
      [
        25.4262327,
        43.1485739
      ],
      [
        25.426163,
        43.1479435
      ],
      [
        25.4260163,
        43.147307
      ],
      [
        25.4254964,
        43.1455824
      ],
      [
        25.4254453,
        43.145345
      ],
      [
        25.4252446,
        43.1447987
      ],
      [
        25.4243806,
        43.1433279
      ],
      [
        25.4236511,
        43.1422633
      ],
      [
        25.4233507,
        43.141637
      ],
      [
        25.4230932,
        43.1409794
      ],
      [
        25.4230932,
        43.1397581
      ],
      [
        25.4232648,
        43.1375661
      ],
      [
        25.4232219,
        43.1364387
      ],
      [
        25.4230073,
        43.1349355
      ],
      [
        25.4228357,
        43.1342465
      ],
      [
        25.4228357,
        43.1334009
      ],
      [
        25.422664,
        43.1323987
      ],
      [
        25.422149,
        43.1315531
      ],
      [
        25.421634,
        43.1306762
      ],
      [
        25.4210332,
        43.1300811
      ],
      [
        25.4200462,
        43.1291415
      ],
      [
        25.4200462,
        43.1287343
      ],
      [
        25.4206899,
        43.1282959
      ],
      [
        25.4223636,
        43.1282332
      ],
      [
        25.4238227,
        43.1283272
      ],
      [
        25.4246381,
        43.1282332
      ],
      [
        25.4269985,
        43.1277947
      ],
      [
        25.4288009,
        43.1273875
      ],
      [
        25.4299596,
        43.1269804
      ],
      [
        25.4308608,
        43.1263539
      ],
      [
        25.4313758,
        43.1256022
      ],
      [
        25.4315904,
        43.1248818
      ],
      [
        25.431805,
        43.1238482
      ],
      [
        25.4322341,
        43.1226892
      ],
      [
        25.4329637,
        43.1216868
      ],
      [
        25.4337791,
        43.1208098
      ],
      [
        25.434337,
        43.1201519
      ],
      [
        25.4347661,
        43.1193375
      ],
      [
        25.435324,
        43.1182724
      ],
      [
        25.4357532,
        43.1173326
      ],
      [
        25.4366973,
        43.1165808
      ],
      [
        25.4374384,
        43.1163554
      ],
      [
        25.4382423,
        43.1161109
      ],
      [
        25.4408172,
        43.1154844
      ],
      [
        25.4420618,
        43.1151398
      ],
      [
        25.4430488,
        43.1145445
      ],
      [
        25.4441217,
        43.1135734
      ],
      [
        25.4456237,
        43.1120696
      ],
      [
        25.4470399,
        43.1107538
      ],
      [
        25.4482416,
        43.1094692
      ],
      [
        25.4491857,
        43.10831
      ],
      [
        25.4497436,
        43.1074641
      ],
      [
        25.450044,
        43.1065868
      ],
      [
        25.4506019,
        43.1055841
      ],
      [
        25.4511598,
        43.1048948
      ],
      [
        25.4520181,
        43.1041115
      ],
      [
        25.4527477,
        43.1035475
      ],
      [
        25.4533056,
        43.1025135
      ],
      [
        25.4539922,
        43.1012915
      ],
      [
        25.4547218,
        43.0998187
      ],
      [
        25.4554943,
        43.0989413
      ],
      [
        25.4564384,
        43.0982206
      ],
      [
        25.4577259,
        43.0976252
      ],
      [
        25.4592279,
        43.0967791
      ],
      [
        25.4602149,
        43.0962777
      ],
      [
        25.4614595,
        43.0955256
      ],
      [
        25.4628295,
        43.0943097
      ],
      [
        25.463676,
        43.0935723
      ],
      [
        25.4641364,
        43.0931081
      ],
      [
        25.4643651,
        43.0927828
      ],
      [
        25.4646462,
        43.0922233
      ],
      [
        25.4648717,
        43.0917168
      ],
      [
        25.4649647,
        43.0913844
      ],
      [
        25.4649873,
        43.0910812
      ],
      [
        25.4649277,
        43.090739
      ],
      [
        25.4647941,
        43.0904329
      ],
      [
        25.4645578,
        43.0901087
      ],
      [
        25.4640767,
        43.0895963
      ],
      [
        25.4633259,
        43.0887951
      ],
      [
        25.4631743,
        43.0886158
      ],
      [
        25.463093,
        43.0884802
      ]
    ]
  }
},
{
  "type": "Feature",
  "id": "way/42674642",
  "properties": {
    "highway": "tertiary",
    "ref": "303",
    "smoothness": "intermediate",
    "id": "way/42674642"
  },
  "geometry": {
    "type": "LineString",
    "coordinates": [
      [
        25.4768902,
        43.0772137
      ],
      [
        25.4769331,
        43.0765554
      ],
      [
        25.4767701,
        43.0758909
      ],
      [
        25.476195,
        43.075521
      ],
      [
        25.4748131,
        43.0754269
      ],
      [
        25.4744441,
        43.0752263
      ],
      [
        25.4742724,
        43.0749943
      ],
      [
        25.4737402,
        43.0734771
      ],
      [
        25.4742209,
        43.072662
      ],
      [
        25.4753968,
        43.0717842
      ],
      [
        25.4755049,
        43.0716886
      ]
    ]
  }
},
{
  "type": "Feature",
  "id": "way/144599078",
  "properties": {
    "highway": "tertiary",
    "ref": "303",
    "id": "way/144599078"
  },
  "geometry": {
    "type": "LineString",
    "coordinates": [
      [
        25.4740457,
        43.0682998
      ],
      [
        25.4732561,
        43.0682998
      ],
      [
        25.4732561,
        43.0685506
      ],
      [
        25.4732522,
        43.0688374
      ],
      [
        25.4732263,
        43.0691628
      ],
      [
        25.4732833,
        43.0693066
      ],
      [
        25.4734698,
        43.0694012
      ],
      [
        25.4748838,
        43.0698591
      ],
      [
        25.4750548,
        43.0700067
      ],
      [
        25.4752102,
        43.0701732
      ],
      [
        25.4753138,
        43.0703321
      ],
      [
        25.4753189,
        43.0705061
      ],
      [
        25.4752827,
        43.070684
      ],
      [
        25.4753034,
        43.0708845
      ],
      [
        25.4754122,
        43.0710283
      ],
      [
        25.4755054,
        43.0711002
      ],
      [
        25.4755779,
        43.0711607
      ],
      [
        25.4756867,
        43.0712932
      ],
      [
        25.475663,
        43.0714337
      ],
      [
        25.4755936,
        43.0715631
      ],
      [
        25.4755049,
        43.0716886
      ]
    ]
  }
},
{
  "type": "Feature",
  "id": "way/195245527",
  "properties": {
    "highway": "tertiary",
    "ref": "303",
    "smoothness": "intermediate",
    "id": "way/195245527"
  },
  "geometry": {
    "type": "LineString",
    "coordinates": [
      [
        25.4632375,
        43.087664
      ],
      [
        25.4633804,
        43.0875424
      ],
      [
        25.4636044,
        43.0874103
      ],
      [
        25.465809,
        43.0864313
      ],
      [
        25.466353,
        43.086235
      ],
      [
        25.4666911,
        43.0861598
      ],
      [
        25.4670041,
        43.0861368
      ],
      [
        25.4677665,
        43.0861391
      ],
      [
        25.4679964,
        43.086133
      ],
      [
        25.4681172,
        43.0861092
      ],
      [
        25.4681981,
        43.086057
      ],
      [
        25.4682537,
        43.0859834
      ],
      [
        25.4682695,
        43.0858837
      ],
      [
        25.4682128,
        43.0855647
      ],
      [
        25.4681571,
        43.0853668
      ],
      [
        25.4680531,
        43.0851797
      ],
      [
        25.4678053,
        43.0849373
      ],
      [
        25.4668137,
        43.0838025
      ],
      [
        25.4657837,
        43.083044
      ],
      [
        25.4657837,
        43.0827869
      ],
      [
        25.468908,
        43.0824798
      ],
      [
        25.4702298,
        43.0824923
      ],
      [
        25.4705817,
        43.082229
      ],
      [
        25.4705645,
        43.0820284
      ],
      [
        25.4701954,
        43.08132
      ],
      [
        25.4707791,
        43.0803797
      ],
      [
        25.4712597,
        43.0801853
      ],
      [
        25.4731051,
        43.0800412
      ],
      [
        25.4764954,
        43.0778031
      ],
      [
        25.4768902,
        43.0772137
      ]
    ]
  }
},
{
  "type": "Feature",
  "id": "way/42674640",
  "properties": {
    "highway": "tertiary",
    "oneway": "yes",
    "ref": "303",
    "id": "way/42674640"
  },
  "geometry": {
    "type": "LineString",
    "coordinates": [
      [
        25.4638379,
        43.0881008
      ],
      [
        25.4634472,
        43.0881257
      ],
      [
        25.4632807,
        43.0881542
      ],
      [
        25.4632047,
        43.0881925
      ],
      [
        25.4631522,
        43.0882488
      ],
      [
        25.4631266,
        43.0883133
      ],
      [
        25.463093,
        43.0884802
      ]
    ]
  }
},
{
  "type": "Feature",
  "id": "way/42674641",
  "properties": {
    "highway": "tertiary_link",
    "oneway": "yes",
    "ref": "303",
    "id": "way/42674641"
  },
  "geometry": {
    "type": "LineString",
    "coordinates": [
      [
        25.4632375,
        43.087664
      ],
      [
        25.4631728,
        43.0877668
      ],
      [
        25.463141,
        43.0878508
      ],
      [
        25.4631049,
        43.087978
      ],
      [
        25.4630566,
        43.0880641
      ]
    ]
  }
},
{
  "type": "Feature",
  "id": "way/106882417",
  "properties": {
    "highway": "tertiary",
    "ref": "303",
    "smoothness": "intermediate",
    "id": "way/106882417"
  },
  "geometry": {
    "type": "LineString",
    "coordinates": [
      [
        25.4630566,
        43.0880641
      ],
      [
        25.4630435,
        43.0881786
      ],
      [
        25.4630478,
        43.0882688
      ],
      [
        25.4630611,
        43.0883464
      ],
      [
        25.463093,
        43.0884802
      ]
    ]
  }
},
{
  "type": "Feature",
  "id": "way/106882469",
  "properties": {
    "highway": "tertiary",
    "oneway": "yes",
    "ref": "303",
    "id": "way/106882469"
  },
  "geometry": {
    "type": "LineString",
    "coordinates": [
      [
        25.463093,
        43.0884802
      ],
      [
        25.4629984,
        43.0883272
      ],
      [
        25.4629505,
        43.0882295
      ],
      [
        25.4629069,
        43.0881648
      ],
      [
        25.4628153,
        43.0881096
      ],
      [
        25.4626874,
        43.0880746
      ],
      [
        25.4624954,
        43.0880332
      ]
    ]
  }
},
{
  "type": "Feature",
  "id": "way/195245528",
  "properties": {
    "highway": "tertiary_link",
    "oneway": "yes",
    "ref": "303",
    "id": "way/195245528"
  },
  "geometry": {
    "type": "LineString",
    "coordinates": [
      [
        25.4630566,
        43.0880641
      ],
      [
        25.463007,
        43.0879976
      ],
      [
        25.4629939,
        43.0879525
      ],
      [
        25.4630012,
        43.0879021
      ],
      [
        25.4630186,
        43.0878591
      ]
    ]
  }
},
{
  "type": "Feature",
  "id": "way/195245529",
  "properties": {
    "highway": "tertiary_link",
    "oneway": "yes",
    "ref": "303",
    "id": "way/195245529"
  },
  "geometry": {
    "type": "LineString",
    "coordinates": [
      [
        25.4631728,
        43.0877668
      ],
      [
        25.4631728,
        43.0878496
      ],
      [
        25.4631944,
        43.0879247
      ],
      [
        25.4632457,
        43.0879885
      ],
      [
        25.4633259,
        43.0880342
      ],
      [
        25.4634644,
        43.0880832
      ]
    ]
  }
},
{
  "type": "Feature",
  "id": "way/195245530",
  "properties": {
    "highway": "tertiary_link",
    "oneway": "yes",
    "ref": "303",
    "id": "way/195245530"
  },
  "geometry": {
    "type": "LineString",
    "coordinates": [
      [
        25.4625737,
        43.0880375
      ],
      [
        25.4627985,
        43.0879981
      ],
      [
        25.4628694,
        43.08797
      ],
      [
        25.4629343,
        43.0879334
      ],
      [
        25.4630186,
        43.0878591
      ],
      [
        25.463076,
        43.0877944
      ],
      [
        25.4631538,
        43.0877227
      ],
      [
        25.4632375,
        43.087664
      ]
    ]
  }
},
{
  "type": "Feature",
  "id": "way/234267517",
  "properties": {
    "highway": "tertiary",
    "maxspeed": "50",
    "ref": "303",
    "smoothness": "intermediate",
    "id": "way/234267517"
  },
  "geometry": {
    "type": "LineString",
    "coordinates": [
      [
        25.4229215,
        43.1569163
      ],
      [
        25.424062,
        43.1563859
      ],
      [
        25.4244386,
        43.1562405
      ],
      [
        25.4253529,
        43.1560335
      ],
      [
        25.4264835,
        43.1557266
      ],
      [
        25.4266411,
        43.1555975
      ],
      [
        25.4267312,
        43.1554342
      ],
      [
        25.4268119,
        43.1552212
      ],
      [
        25.4268329,
        43.1550924
      ],
      [
        25.4268142,
        43.1549628
      ],
      [
        25.4263547,
        43.1542239
      ],
      [
        25.4259526,
        43.1536962
      ],
      [
        25.4257996,
        43.1534489
      ],
      [
        25.4253866,
        43.1525113
      ],
      [
        25.4252824,
        43.1521959
      ],
      [
        25.4252168,
        43.1517989
      ],
      [
        25.4252206,
        43.1515483
      ],
      [
        25.425288,
        43.1513568
      ],
      [
        25.4254518,
        43.1511298
      ],
      [
        25.4257968,
        43.1508426
      ],
      [
        25.4261065,
        43.150511
      ],
      [
        25.4262839,
        43.1502004
      ],
      [
        25.4263439,
        43.1499495
      ],
      [
        25.4263135,
        43.1493724
      ]
    ]
  }
},
{
  "type": "Feature",
  "id": "way/157270118",
  "properties": {
    "highway": "tertiary",
    "lanes": "2",
    "ref": "303",
    "smoothness": "intermediate",
    "surface": "asphalt",
    "id": "way/157270118"
  },
  "geometry": {
    "type": "LineString",
    "coordinates": [
      [
        25.1846165,
        43.3523713
      ],
      [
        25.177325,
        43.354661
      ],
      [
        25.176799,
        43.354792
      ],
      [
        25.176202,
        43.354888
      ],
      [
        25.171198,
        43.355748
      ],
      [
        25.169024,
        43.356285
      ],
      [
        25.157308,
        43.359223
      ],
      [
        25.1551566,
        43.3597917
      ],
      [
        25.1542717,
        43.3600257
      ],
      [
        25.1526327,
        43.360459
      ],
      [
        25.1520879,
        43.3606143
      ],
      [
        25.1519679,
        43.3606486
      ],
      [
        25.151721,
        43.3607147
      ],
      [
        25.1506706,
        43.3609962
      ],
      [
        25.1482165,
        43.3608529
      ],
      [
        25.148063,
        43.3608567
      ],
      [
        25.148005,
        43.3609629
      ],
      [
        25.1478958,
        43.3616948
      ],
      [
        25.147888,
        43.361747
      ],
      [
        25.1468922,
        43.3620017
      ],
      [
        25.14684,
        43.362015
      ],
      [
        25.146255,
        43.36219
      ],
      [
        25.1453968,
        43.3624291
      ],
      [
        25.1452216,
        43.3624779
      ],
      [
        25.1440043,
        43.3628414
      ],
      [
        25.14271,
        43.3632786
      ],
      [
        25.1422789,
        43.3634242
      ],
      [
        25.1420039,
        43.3637078
      ],
      [
        25.141127,
        43.364661
      ],
      [
        25.140636,
        43.365229
      ],
      [
        25.1401945,
        43.3662994
      ],
      [
        25.1400965,
        43.3665371
      ],
      [
        25.1400556,
        43.3666173
      ],
      [
        25.1398346,
        43.3669225
      ],
      [
        25.139593,
        43.3672675
      ],
      [
        25.1392712,
        43.3677269
      ],
      [
        25.1385541,
        43.3686799
      ],
      [
        25.1382564,
        43.3690913
      ],
      [
        25.1379786,
        43.369475
      ],
      [
        25.1377838,
        43.3697657
      ],
      [
        25.1377306,
        43.3698312
      ],
      [
        25.1375096,
        43.3701535
      ],
      [
        25.133117,
        43.376513
      ],
      [
        25.130172,
        43.380932
      ],
      [
        25.130052,
        43.381177
      ],
      [
        25.129992,
        43.38143
      ],
      [
        25.128855,
        43.388896
      ],
      [
        25.128711,
        43.38997
      ],
      [
        25.128652,
        43.390205
      ],
      [
        25.127837,
        43.392388
      ],
      [
        25.127718,
        43.392528
      ],
      [
        25.125012,
        43.394824
      ],
      [
        25.124641,
        43.395208
      ],
      [
        25.123348,
        43.396605
      ],
      [
        25.123108,
        43.396815
      ],
      [
        25.122761,
        43.397024
      ],
      [
        25.119972,
        43.398561
      ],
      [
        25.119756,
        43.398735
      ],
      [
        25.119565,
        43.398945
      ],
      [
        25.11644,
        43.403676
      ],
      [
        25.116248,
        43.403886
      ],
      [
        25.116021,
        43.404104
      ],
      [
        25.110789,
        43.407691
      ],
      [
        25.110142,
        43.408093
      ]
    ]
  }
},
{
  "type": "Feature",
  "id": "way/75531357",
  "properties": {
    "highway": "tertiary",
    "ref": "303",
    "smoothness": "good",
    "id": "way/75531357"
  },
  "geometry": {
    "type": "LineString",
    "coordinates": [
      [
        25.102013,
        43.419884
      ],
      [
        25.101019,
        43.42197
      ],
      [
        25.10084,
        43.422153
      ],
      [
        25.093058,
        43.428916
      ],
      [
        25.085587,
        43.435433
      ],
      [
        25.0847881,
        43.4360961
      ]
    ]
  }
},
{
  "type": "Feature",
  "id": "way/27763881",
  "properties": {
    "highway": "tertiary",
    "ref": "303",
    "id": "way/27763881"
  },
  "geometry": {
    "type": "LineString",
    "coordinates": [
      [
        25.110142,
        43.408093
      ],
      [
        25.103869,
        43.407953
      ],
      [
        25.103605,
        43.407997
      ],
      [
        25.103486,
        43.408145
      ],
      [
        25.102887,
        43.409778
      ],
      [
        25.102959,
        43.414744
      ],
      [
        25.101355,
        43.418226
      ],
      [
        25.101319,
        43.418383
      ],
      [
        25.101343,
        43.418531
      ],
      [
        25.102013,
        43.419884
      ]
    ]
  }
},
{
  "type": "Feature",
  "id": "way/232408319",
  "properties": {
    "highway": "tertiary",
    "oneway": "yes",
    "ref": "303",
    "smoothness": "good",
    "id": "way/232408319"
  },
  "geometry": {
    "type": "LineString",
    "coordinates": [
      [
        25.0825887,
        43.4378111
      ],
      [
        25.0832167,
        43.437414
      ],
      [
        25.0847881,
        43.4360961
      ]
    ]
  }
},
{
  "type": "Feature",
  "id": "way/44037580",
  "properties": {
    "highway": "tertiary",
    "ref": "303",
    "smoothness": "intermediate",
    "source:ref": "tt4919",
    "id": "way/44037580"
  },
  "geometry": {
    "type": "LineString",
    "coordinates": [
      [
        25.1857214,
        43.3520548
      ],
      [
        25.1861522,
        43.3519034
      ],
      [
        25.1865212,
        43.3516802
      ],
      [
        25.1867691,
        43.3514838
      ],
      [
        25.1871253,
        43.3507111
      ],
      [
        25.1872309,
        43.3504611
      ],
      [
        25.1872624,
        43.3502035
      ],
      [
        25.1872068,
        43.3484058
      ],
      [
        25.1871836,
        43.3480917
      ],
      [
        25.1871247,
        43.3478064
      ],
      [
        25.1864871,
        43.345301
      ],
      [
        25.1864763,
        43.3452576
      ],
      [
        25.1864305,
        43.3451202
      ],
      [
        25.1862939,
        43.3448941
      ],
      [
        25.1860909,
        43.3446951
      ],
      [
        25.1858115,
        43.3444332
      ],
      [
        25.1857233,
        43.3442269
      ],
      [
        25.1857233,
        43.3440486
      ],
      [
        25.1858472,
        43.3437905
      ],
      [
        25.1870017,
        43.3417429
      ],
      [
        25.1902059,
        43.3367968
      ],
      [
        25.19198,
        43.333927
      ],
      [
        25.192744,
        43.332565
      ],
      [
        25.192995,
        43.332195
      ],
      [
        25.193269,
        43.331837
      ],
      [
        25.193747,
        43.331299
      ],
      [
        25.19438,
        43.329532
      ],
      [
        25.194488,
        43.329412
      ],
      [
        25.194703,
        43.329341
      ],
      [
        25.195383,
        43.329102
      ],
      [
        25.195694,
        43.32903
      ],
      [
        25.196411,
        43.328923
      ],
      [
        25.20151,
        43.326689
      ],
      [
        25.201654,
        43.326641
      ],
      [
        25.201857,
        43.326653
      ],
      [
        25.202299,
        43.326689
      ],
      [
        25.202514,
        43.326653
      ],
      [
        25.202705,
        43.32651
      ],
      [
        25.204198,
        43.324241
      ],
      [
        25.205631,
        43.322234
      ],
      [
        25.207458,
        43.319965
      ],
      [
        25.2095736,
        43.3173375
      ],
      [
        25.2138915,
        43.3120417
      ],
      [
        25.2141397,
        43.3116891
      ],
      [
        25.2143077,
        43.3113412
      ],
      [
        25.2151366,
        43.3091939
      ],
      [
        25.2155229,
        43.30757
      ],
      [
        25.2158662,
        43.3056338
      ],
      [
        25.215995,
        43.3041035
      ],
      [
        25.2168996,
        43.2988034
      ],
      [
        25.216939,
        43.2986317
      ],
      [
        25.2170023,
        43.2985724
      ],
      [
        25.2170985,
        43.2985584
      ],
      [
        25.2173542,
        43.2985702
      ],
      [
        25.2173823,
        43.2985715
      ],
      [
        25.2174114,
        43.2985729
      ],
      [
        25.2175104,
        43.2985792
      ],
      [
        25.2179607,
        43.2986152
      ],
      [
        25.2202865,
        43.2992626
      ],
      [
        25.220544,
        43.2999185
      ],
      [
        25.2208444,
        43.301199
      ],
      [
        25.2208015,
        43.3023546
      ],
      [
        25.221265,
        43.302635
      ],
      [
        25.223403,
        43.302145
      ],
      [
        25.225159,
        43.301859
      ],
      [
        25.227105,
        43.30168
      ],
      [
        25.227571,
        43.30168
      ],
      [
        25.228025,
        43.301751
      ],
      [
        25.23027,
        43.302217
      ],
      [
        25.23156,
        43.303041
      ],
      [
        25.2325836,
        43.303297
      ],
      [
        25.2327159,
        43.3032767
      ],
      [
        25.2328161,
        43.3032134
      ],
      [
        25.2330028,
        43.3026876
      ],
      [
        25.2330798,
        43.3024071
      ],
      [
        25.2331946,
        43.3014055
      ],
      [
        25.2333925,
        43.2989651
      ],
      [
        25.2335269,
        43.2982241
      ],
      [
        25.2339856,
        43.2967937
      ],
      [
        25.2346137,
        43.2948601
      ],
      [
        25.2348042,
        43.2943666
      ],
      [
        25.2350965,
        43.2938309
      ],
      [
        25.2355498,
        43.2932366
      ],
      [
        25.2394365,
        43.2879144
      ],
      [
        25.2409814,
        43.28604
      ],
      [
        25.243213,
        43.2841656
      ],
      [
        25.2500795,
        43.2806665
      ],
      [
        25.2529021,
        43.2787391
      ],
      [
        25.2569459,
        43.2752926
      ],
      [
        25.2600358,
        43.271668
      ],
      [
        25.2643274,
        43.2677932
      ],
      [
        25.2708505,
        43.2651683
      ],
      [
        25.2794566,
        43.2615225
      ],
      [
        25.2816238,
        43.2600154
      ],
      [
        25.2824565,
        43.2593849
      ],
      [
        25.2831365,
        43.2589693
      ],
      [
        25.2837436,
        43.2586999
      ],
      [
        25.2868193,
        43.2575095
      ],
      [
        25.2878632,
        43.2570192
      ],
      [
        25.2884825,
        43.2566331
      ],
      [
        25.2909299,
        43.2549963
      ],
      [
        25.294564,
        43.2527901
      ],
      [
        25.295453,
        43.2521909
      ],
      [
        25.2961397,
        43.2515989
      ],
      [
        25.2968696,
        43.250746
      ],
      [
        25.2976742,
        43.2493436
      ],
      [
        25.2977348,
        43.2492116
      ],
      [
        25.2978003,
        43.2489932
      ],
      [
        25.2978207,
        43.2477909
      ],
      [
        25.2977996,
        43.2474508
      ],
      [
        25.2977758,
        43.2473422
      ],
      [
        25.2977315,
        43.2472492
      ],
      [
        25.2975626,
        43.2470202
      ],
      [
        25.2973938,
        43.246781
      ],
      [
        25.2973468,
        43.2465691
      ],
      [
        25.2973187,
        43.2459643
      ],
      [
        25.2972891,
        43.2443238
      ],
      [
        25.2972671,
        43.2431004
      ],
      [
        25.2972117,
        43.2411748
      ],
      [
        25.2971596,
        43.2393676
      ],
      [
        25.29714,
        43.2386864
      ],
      [
        25.2978273,
        43.2386881
      ],
      [
        25.2982731,
        43.238725
      ],
      [
        25.298545,
        43.2389192
      ],
      [
        25.298693,
        43.2389876
      ],
      [
        25.3002917,
        43.2389017
      ],
      [
        25.3011403,
        43.2388574
      ],
      [
        25.3021541,
        43.2388044
      ],
      [
        25.3048041,
        43.2386641
      ],
      [
        25.3051232,
        43.2386473
      ],
      [
        25.3054545,
        43.2386414
      ],
      [
        25.3059094,
        43.2386352
      ],
      [
        25.3066388,
        43.2387339
      ]
    ]
  }
},
{
  "type": "Feature",
  "id": "way/26767833",
  "properties": {
    "highway": "tertiary_link",
    "oneway": "yes",
    "ref": "303",
    "id": "way/26767833"
  },
  "geometry": {
    "type": "LineString",
    "coordinates": [
      [
        25.3086086,
        43.2231408
      ],
      [
        25.308082,
        43.2233013
      ],
      [
        25.3079614,
        43.2233593
      ],
      [
        25.3078596,
        43.2234538
      ]
    ]
  }
},
{
  "type": "Feature",
  "id": "way/168809098",
  "properties": {
    "highway": "tertiary_link",
    "oneway": "yes",
    "ref": "303",
    "id": "way/168809098"
  },
  "geometry": {
    "type": "LineString",
    "coordinates": [
      [
        25.3078638,
        43.2233301
      ],
      [
        25.3079667,
        43.223255
      ],
      [
        25.3082052,
        43.2231912
      ],
      [
        25.3086086,
        43.2231408
      ]
    ]
  }
},
{
  "type": "Feature",
  "id": "way/168809099",
  "properties": {
    "highway": "tertiary_link",
    "oneway": "yes",
    "ref": "303",
    "id": "way/168809099"
  },
  "geometry": {
    "type": "LineString",
    "coordinates": [
      [
        25.3078655,
        43.222905
      ],
      [
        25.3079203,
        43.2230338
      ],
      [
        25.3080011,
        43.2231121
      ],
      [
        25.3080899,
        43.2231661
      ],
      [
        25.3082052,
        43.2231912
      ]
    ]
  }
},
{
  "type": "Feature",
  "id": "way/233340794",
  "properties": {
    "highway": "tertiary",
    "note": "This is not the route of III-303. It goes through the railway station.",
    "ref": "303",
    "smoothness": "intermediate",
    "id": "way/233340794"
  },
  "geometry": {
    "type": "LineString",
    "coordinates": [
      [
        25.3078596,
        43.2375351
      ],
      [
        25.307298,
        43.2372087
      ],
      [
        25.3073555,
        43.2363868
      ],
      [
        25.3073952,
        43.2358193
      ],
      [
        25.3074116,
        43.2355663
      ],
      [
        25.3074051,
        43.2353408
      ],
      [
        25.3069307,
        43.2341685
      ],
      [
        25.3067614,
        43.2337376
      ],
      [
        25.3066637,
        43.2334891
      ],
      [
        25.3063537,
        43.2327001
      ]
    ]
  }
},
{
  "type": "Feature",
  "id": "way/234267516",
  "properties": {
    "highway": "tertiary",
    "ref": "303",
    "smoothness": "intermediate",
    "id": "way/234267516"
  },
  "geometry": {
    "type": "LineString",
    "coordinates": [
      [
        25.307352,
        43.237917
      ],
      [
        25.3078596,
        43.2375351
      ]
    ]
  }
},
{
  "type": "Feature",
  "id": "way/157270117",
  "properties": {
    "bridge": "yes",
    "highway": "tertiary",
    "layer": "1",
    "ref": "303",
    "smoothness": "intermediate",
    "id": "way/157270117"
  },
  "geometry": {
    "type": "LineString",
    "coordinates": [
      [
        25.1857214,
        43.3520548
      ],
      [
        25.1846165,
        43.3523713
      ]
    ]
  }
}
]
}
