{
"type": "FeatureCollection",
"features": [
{
  "type": "Feature",
  "id": "way/278821748",
  "properties": {
    "highway": "residential",
    "lanes": "4",
    "name": "бул. Христо Ботев",
    "ref": "101",
    "id": "way/278821748"
  },
  "geometry": {
    "type": "LineString",
    "coordinates": [
      [
        23.5487734,
        43.2038558
      ],
      [
        23.5487007,
        43.2042033
      ],
      [
        23.5486567,
        43.204522
      ],
      [
        23.5486459,
        43.2045999
      ],
      [
        23.5486307,
        43.2047102
      ],
      [
        23.5484277,
        43.205061
      ],
      [
        23.5482109,
        43.2054357
      ],
      [
        23.5479221,
        43.2059348
      ],
      [
        23.5478313,
        43.2060914
      ],
      [
        23.5477787,
        43.2061784
      ],
      [
        23.5468688,
        43.207683
      ],
      [
        23.5465589,
        43.2080693
      ],
      [
        23.5461156,
        43.2086061
      ],
      [
        23.545781,
        43.209202
      ],
      [
        23.5454975,
        43.209707
      ],
      [
        23.5453443,
        43.20998
      ],
      [
        23.5451606,
        43.2102443
      ],
      [
        23.5451195,
        43.2103706
      ],
      [
        23.5449182,
        43.2107898
      ],
      [
        23.54482,
        43.2109918
      ],
      [
        23.5447125,
        43.211213
      ],
      [
        23.5446714,
        43.2112975
      ]
    ]
  }
},
{
  "type": "Feature",
  "id": "way/229177928",
  "properties": {
    "highway": "residential",
    "lanes": "4",
    "name": "бул. Христо Ботев",
    "ref": "101",
    "id": "way/229177928"
  },
  "geometry": {
    "type": "LineString",
    "coordinates": [
      [
        23.5497833,
        43.2002484
      ],
      [
        23.5496302,
        43.2004613
      ],
      [
        23.54912,
        43.201164
      ]
    ]
  }
},
{
  "type": "Feature",
  "id": "way/278821747",
  "properties": {
    "highway": "pedestrian",
    "lanes": "4",
    "name": "бул. Христо Ботев",
    "ref": "101",
    "id": "way/278821747"
  },
  "geometry": {
    "type": "LineString",
    "coordinates": [
      [
        23.54912,
        43.201164
      ],
      [
        23.5490398,
        43.2018496
      ],
      [
        23.5490159,
        43.201998
      ],
      [
        23.5490204,
        43.2021401
      ],
      [
        23.5490438,
        43.2028882
      ],
      [
        23.5490521,
        43.2031527
      ],
      [
        23.5487734,
        43.2038558
      ]
    ]
  }
},
{
  "type": "Feature",
  "id": "way/229177932",
  "properties": {
    "highway": "tertiary",
    "maxspeed": "50",
    "name": "бул. Христо Ботев",
    "ref": "101",
    "id": "way/229177932"
  },
  "geometry": {
    "type": "LineString",
    "coordinates": [
      [
        23.5428664,
        43.217855
      ],
      [
        23.5428992,
        43.217725
      ],
      [
        23.5429541,
        43.2175335
      ],
      [
        23.5430172,
        43.2173643
      ],
      [
        23.5432755,
        43.2168793
      ]
    ]
  }
},
{
  "type": "Feature",
  "id": "way/229174825",
  "properties": {
    "highway": "tertiary",
    "junction": "roundabout",
    "name": "бул. Христо Ботев",
    "oneway": "yes",
    "ref": "101",
    "id": "way/229174825"
  },
  "geometry": {
    "type": "LineString",
    "coordinates": [
      [
        23.5442052,
        43.2125538
      ],
      [
        23.5441455,
        43.2125294
      ],
      [
        23.5441071,
        43.212495
      ],
      [
        23.5440881,
        43.2124552
      ],
      [
        23.5440906,
        43.2124049
      ],
      [
        23.5441175,
        43.212362
      ],
      [
        23.5441616,
        43.2123308
      ],
      [
        23.5442307,
        43.212311
      ],
      [
        23.5443117,
        43.2123159
      ],
      [
        23.5443747,
        43.2123433
      ],
      [
        23.5444158,
        43.2123863
      ],
      [
        23.544428,
        43.2124484
      ],
      [
        23.5444038,
        43.2124999
      ],
      [
        23.5443404,
        43.2125441
      ],
      [
        23.5442764,
        43.2125589
      ],
      [
        23.5442052,
        43.2125538
      ]
    ]
  }
},
{
  "type": "Feature",
  "id": "way/229174836",
  "properties": {
    "highway": "tertiary",
    "lanes": "4",
    "name": "бул. Христо Ботев",
    "oneway": "yes",
    "ref": "101",
    "id": "way/229174836"
  },
  "geometry": {
    "type": "LineString",
    "coordinates": [
      [
        23.5443455,
        43.2128169
      ],
      [
        23.5443358,
        43.2126699
      ],
      [
        23.5442953,
        43.2126023
      ],
      [
        23.5442052,
        43.2125538
      ]
    ]
  }
},
{
  "type": "Feature",
  "id": "way/229174838",
  "properties": {
    "highway": "tertiary",
    "lanes": "4",
    "name": "бул. Христо Ботев",
    "oneway": "yes",
    "ref": "101",
    "id": "way/229174838"
  },
  "geometry": {
    "type": "LineString",
    "coordinates": [
      [
        23.5441175,
        43.212362
      ],
      [
        23.5442005,
        43.2122372
      ],
      [
        23.5442689,
        43.21212
      ],
      [
        23.5444427,
        43.2117104
      ],
      [
        23.5446714,
        43.2112975
      ]
    ]
  }
},
{
  "type": "Feature",
  "id": "way/229174839",
  "properties": {
    "highway": "tertiary",
    "lanes": "4",
    "name": "бул. Христо Ботев",
    "oneway": "yes",
    "ref": "101",
    "id": "way/229174839"
  },
  "geometry": {
    "type": "LineString",
    "coordinates": [
      [
        23.5446714,
        43.2112975
      ],
      [
        23.5445623,
        43.2117435
      ],
      [
        23.5445507,
        43.2118064
      ],
      [
        23.5444581,
        43.2123075
      ],
      [
        23.544428,
        43.2124484
      ],
      [
        23.5443455,
        43.2128169
      ]
    ]
  }
},
{
  "type": "Feature",
  "id": "way/229177929",
  "properties": {
    "highway": "tertiary",
    "lanes": "4",
    "maxspeed": "50",
    "name": "бул. Христо Ботев",
    "ref": "101",
    "surface": "asphalt",
    "id": "way/229177929"
  },
  "geometry": {
    "type": "LineString",
    "coordinates": [
      [
        23.5432755,
        43.2168793
      ],
      [
        23.5435487,
        43.2164442
      ],
      [
        23.5437239,
        43.2161164
      ],
      [
        23.5438192,
        43.215761
      ],
      [
        23.5438252,
        43.215726
      ],
      [
        23.5438541,
        43.2155588
      ],
      [
        23.5438736,
        43.2154457
      ],
      [
        23.5439607,
        43.2149412
      ],
      [
        23.5439725,
        43.214873
      ],
      [
        23.5440187,
        43.2146035
      ],
      [
        23.5441238,
        43.2139907
      ],
      [
        23.5441897,
        43.2136066
      ],
      [
        23.5443455,
        43.2128169
      ]
    ]
  }
},
{
  "type": "Feature",
  "id": "way/62084152",
  "properties": {
    "highway": "tertiary",
    "name": "101",
    "ref": "101",
    "smoothness": "intermediate",
    "id": "way/62084152"
  },
  "geometry": {
    "type": "LineString",
    "coordinates": [
      [
        23.482373,
        43.3715531
      ],
      [
        23.4827441,
        43.3709159
      ],
      [
        23.4830616,
        43.3705719
      ],
      [
        23.485219,
        43.368408
      ],
      [
        23.485359,
        43.368251
      ],
      [
        23.485676,
        43.367557
      ],
      [
        23.486119,
        43.366336
      ],
      [
        23.486766,
        43.363561
      ],
      [
        23.488072,
        43.359842
      ],
      [
        23.488807,
        43.358454
      ],
      [
        23.489023,
        43.358177
      ],
      [
        23.491647,
        43.3553
      ],
      [
        23.491888,
        43.354985
      ],
      [
        23.492091,
        43.354671
      ],
      [
        23.493473,
        43.352098
      ],
      [
        23.4936,
        43.351802
      ],
      [
        23.493676,
        43.351451
      ],
      [
        23.493625,
        43.350276
      ],
      [
        23.493574,
        43.348869
      ],
      [
        23.493638,
        43.348527
      ],
      [
        23.493841,
        43.34812
      ],
      [
        23.494817,
        43.346612
      ],
      [
        23.495273,
        43.34602
      ],
      [
        23.495996,
        43.345215
      ],
      [
        23.496174,
        43.344928
      ],
      [
        23.496326,
        43.344585
      ],
      [
        23.498747,
        43.338098
      ]
    ]
  }
},
{
  "type": "Feature",
  "id": "way/156231702",
  "properties": {
    "highway": "tertiary",
    "ref": "101",
    "smoothness": "intermediate",
    "id": "way/156231702"
  },
  "geometry": {
    "type": "LineString",
    "coordinates": [
      [
        23.383739,
        43.4371671
      ],
      [
        23.3839956,
        43.437158
      ],
      [
        23.3857359,
        43.4367412
      ],
      [
        23.3861301,
        43.4366118
      ],
      [
        23.3865603,
        43.4364551
      ],
      [
        23.3872817,
        43.4362795
      ],
      [
        23.3878879,
        43.4361508
      ],
      [
        23.388685,
        43.436077
      ],
      [
        23.3897876,
        43.436021
      ],
      [
        23.3911707,
        43.435938
      ],
      [
        23.3916167,
        43.4358737
      ],
      [
        23.3925589,
        43.4356597
      ],
      [
        23.3954636,
        43.4340048
      ],
      [
        23.3958934,
        43.4338207
      ],
      [
        23.3968409,
        43.4335355
      ],
      [
        23.3971543,
        43.4334811
      ],
      [
        23.3975379,
        43.4334451
      ],
      [
        23.3978597,
        43.4333828
      ],
      [
        23.3987322,
        43.4331191
      ],
      [
        23.3998735,
        43.432805
      ],
      [
        23.4042499,
        43.4312521
      ],
      [
        23.404619,
        43.431047
      ],
      [
        23.4050129,
        43.4307884
      ],
      [
        23.4059894,
        43.4300868
      ],
      [
        23.4065328,
        43.4297827
      ],
      [
        23.4074189,
        43.4293761
      ],
      [
        23.4096383,
        43.4284059
      ],
      [
        23.4100835,
        43.4281743
      ],
      [
        23.4107562,
        43.4277668
      ],
      [
        23.4128103,
        43.4264368
      ],
      [
        23.4144337,
        43.4254386
      ],
      [
        23.4186945,
        43.4223789
      ],
      [
        23.4190882,
        43.4220644
      ],
      [
        23.419823,
        43.4214075
      ],
      [
        23.4223098,
        43.4194542
      ],
      [
        23.4227217,
        43.4192057
      ],
      [
        23.4234279,
        43.418888
      ],
      [
        23.4242566,
        43.4185341
      ],
      [
        23.4253429,
        43.4180103
      ],
      [
        23.4264281,
        43.417304
      ],
      [
        23.4272939,
        43.4169856
      ],
      [
        23.4279445,
        43.4167463
      ],
      [
        23.4304573,
        43.4158671
      ],
      [
        23.4321715,
        43.4146752
      ],
      [
        23.4322785,
        43.4145974
      ],
      [
        23.4337487,
        43.4135276
      ],
      [
        23.4372186,
        43.4107511
      ],
      [
        23.4375364,
        43.4104363
      ],
      [
        23.4394891,
        43.4082335
      ],
      [
        23.4413759,
        43.406176
      ],
      [
        23.4417929,
        43.4057863
      ],
      [
        23.4496942,
        43.3991314
      ],
      [
        23.4578212,
        43.3922254
      ],
      [
        23.4630831,
        43.3876771
      ],
      [
        23.4634994,
        43.3873102
      ],
      [
        23.4638138,
        43.3869047
      ],
      [
        23.465067,
        43.3852892
      ],
      [
        23.4654389,
        43.3849674
      ],
      [
        23.4660633,
        43.3846038
      ],
      [
        23.4689052,
        43.3833191
      ],
      [
        23.4701656,
        43.3827142
      ],
      [
        23.4702881,
        43.3826565
      ]
    ]
  }
},
{
  "type": "Feature",
  "id": "way/218043162",
  "properties": {
    "highway": "tertiary",
    "ref": "101",
    "smoothness": "bad",
    "id": "way/218043162"
  },
  "geometry": {
    "type": "LineString",
    "coordinates": [
      [
        23.491743,
        43.525726
      ],
      [
        23.489045,
        43.52545
      ],
      [
        23.485709,
        43.525164
      ],
      [
        23.483743,
        43.525035
      ],
      [
        23.483241,
        43.524986
      ],
      [
        23.482211,
        43.524808
      ],
      [
        23.481817,
        43.524739
      ],
      [
        23.481411,
        43.52472
      ],
      [
        23.481017,
        43.52473
      ],
      [
        23.474753,
        43.525292
      ],
      [
        23.474346,
        43.525302
      ],
      [
        23.473112,
        43.525272
      ],
      [
        23.472854,
        43.525272
      ],
      [
        23.472624,
        43.525292
      ],
      [
        23.468551,
        43.526154
      ],
      [
        23.468311,
        43.526187
      ],
      [
        23.468086,
        43.526176
      ],
      [
        23.461688,
        43.525391
      ],
      [
        23.461358,
        43.52538
      ],
      [
        23.461089,
        43.525435
      ],
      [
        23.4558756,
        43.5277851
      ],
      [
        23.4553104,
        43.5280768
      ],
      [
        23.4552426,
        43.5281118
      ],
      [
        23.4535241,
        43.5287919
      ],
      [
        23.4525346,
        43.5289533
      ],
      [
        23.4523994,
        43.5289753
      ],
      [
        23.4508652,
        43.5291075
      ],
      [
        23.4507524,
        43.5291162
      ],
      [
        23.4501675,
        43.5291613
      ],
      [
        23.4499863,
        43.5291753
      ],
      [
        23.4484456,
        43.5292942
      ],
      [
        23.4483439,
        43.529302
      ],
      [
        23.4469234,
        43.5294682
      ],
      [
        23.4467655,
        43.5294867
      ],
      [
        23.4444192,
        43.5298534
      ],
      [
        23.432648,
        43.531693
      ],
      [
        23.417064,
        43.53419
      ],
      [
        23.416479,
        43.534255
      ],
      [
        23.41095,
        43.534571
      ],
      [
        23.410455,
        43.534593
      ],
      [
        23.410006,
        43.53456
      ],
      [
        23.405526,
        43.534059
      ],
      [
        23.40139,
        43.533841
      ],
      [
        23.39619,
        43.533503
      ],
      [
        23.3947726,
        43.5337896
      ],
      [
        23.394197,
        43.533906
      ],
      [
        23.392324,
        43.533644
      ],
      [
        23.392144,
        43.533568
      ],
      [
        23.391305,
        43.532478
      ],
      [
        23.391215,
        43.531442
      ],
      [
        23.390121,
        43.53093
      ],
      [
        23.388758,
        43.530297
      ],
      [
        23.3876904,
        43.5297112
      ],
      [
        23.3863494,
        43.528785
      ],
      [
        23.3852587,
        43.5279805
      ],
      [
        23.3845996,
        43.5275987
      ],
      [
        23.3839891,
        43.5273866
      ],
      [
        23.383173,
        43.5270162
      ],
      [
        23.3828319,
        43.5268385
      ],
      [
        23.3824942,
        43.5266121
      ],
      [
        23.3821,
        43.5262557
      ],
      [
        23.3809886,
        43.5259201
      ],
      [
        23.3772307,
        43.5247603
      ],
      [
        23.3760077,
        43.5243979
      ],
      [
        23.3747605,
        43.524072
      ],
      [
        23.3740343,
        43.5239096
      ],
      [
        23.3733341,
        43.5238683
      ],
      [
        23.3726247,
        43.5237912
      ],
      [
        23.3719382,
        43.5236558
      ],
      [
        23.3713589,
        43.5234896
      ],
      [
        23.3706511,
        43.5232259
      ],
      [
        23.3701517,
        43.5229325
      ],
      [
        23.3668282,
        43.5202665
      ],
      [
        23.3620252,
        43.5166217
      ],
      [
        23.3592414,
        43.5145503
      ],
      [
        23.358024,
        43.513691
      ],
      [
        23.357725,
        43.513451
      ],
      [
        23.356346,
        43.512884
      ],
      [
        23.356451,
        43.512567
      ],
      [
        23.356496,
        43.512349
      ],
      [
        23.356481,
        43.512153
      ],
      [
        23.356376,
        43.511978
      ],
      [
        23.355702,
        43.511313
      ],
      [
        23.355537,
        43.511193
      ],
      [
        23.355282,
        43.511084
      ],
      [
        23.353509,
        43.5104441
      ],
      [
        23.350641,
        43.509409
      ],
      [
        23.350483,
        43.509302
      ],
      [
        23.35,
        43.508427
      ],
      [
        23.349876,
        43.508272
      ],
      [
        23.349652,
        43.508174
      ],
      [
        23.349292,
        43.508067
      ],
      [
        23.347999,
        43.507814
      ],
      [
        23.347606,
        43.507691
      ],
      [
        23.347258,
        43.507503
      ],
      [
        23.34655,
        43.507069
      ]
    ]
  }
},
{
  "type": "Feature",
  "id": "way/156231696",
  "properties": {
    "highway": "tertiary",
    "ref": "101",
    "smoothness": "intermediate",
    "id": "way/156231696"
  },
  "geometry": {
    "type": "LineString",
    "coordinates": [
      [
        23.3354622,
        43.4708909
      ],
      [
        23.3355091,
        43.4707097
      ],
      [
        23.3356126,
        43.4698449
      ],
      [
        23.3356621,
        43.4695684
      ],
      [
        23.3358395,
        43.4691985
      ],
      [
        23.3360813,
        43.4689196
      ],
      [
        23.3364788,
        43.4685983
      ],
      [
        23.3448732,
        43.4640944
      ],
      [
        23.3452108,
        43.4638255
      ],
      [
        23.346021,
        43.4629179
      ],
      [
        23.3476064,
        43.4613935
      ],
      [
        23.3495218,
        43.4599892
      ],
      [
        23.3501943,
        43.4595459
      ],
      [
        23.3507911,
        43.4592685
      ],
      [
        23.3566347,
        43.4571627
      ],
      [
        23.3569257,
        43.4569793
      ],
      [
        23.3582447,
        43.4558613
      ],
      [
        23.3584983,
        43.4557039
      ],
      [
        23.3622382,
        43.453746
      ],
      [
        23.3624536,
        43.4535984
      ],
      [
        23.3642794,
        43.4520285
      ],
      [
        23.3649436,
        43.4514297
      ],
      [
        23.3661685,
        43.4504954
      ],
      [
        23.3665488,
        43.4501902
      ],
      [
        23.3677921,
        43.449432
      ],
      [
        23.3696553,
        43.4482959
      ],
      [
        23.3723941,
        43.446837
      ],
      [
        23.3726595,
        43.4466435
      ],
      [
        23.374333,
        43.445073
      ],
      [
        23.3745607,
        43.4447783
      ],
      [
        23.3755628,
        43.4433922
      ],
      [
        23.3775022,
        43.4411377
      ],
      [
        23.3778467,
        43.4408419
      ],
      [
        23.3783606,
        43.4405429
      ],
      [
        23.3789936,
        43.4401184
      ],
      [
        23.3797701,
        43.4395633
      ],
      [
        23.3800373,
        43.4393538
      ],
      [
        23.3802883,
        43.4390765
      ],
      [
        23.3809509,
        43.438117
      ],
      [
        23.3811295,
        43.4379494
      ],
      [
        23.3816623,
        43.4375889
      ],
      [
        23.381929,
        43.4374596
      ],
      [
        23.3830593,
        43.4370341
      ],
      [
        23.3832895,
        43.4370149
      ],
      [
        23.3834936,
        43.4370521
      ]
    ]
  }
},
{
  "type": "Feature",
  "id": "way/157261041",
  "properties": {
    "bridge": "yes",
    "highway": "tertiary",
    "layer": "1",
    "ref": "101",
    "smoothness": "intermediate",
    "id": "way/157261041"
  },
  "geometry": {
    "type": "LineString",
    "coordinates": [
      [
        23.3353925,
        43.4711421
      ],
      [
        23.3354622,
        43.4708909
      ]
    ]
  }
},
{
  "type": "Feature",
  "id": "way/276498208",
  "properties": {
    "highway": "tertiary",
    "ref": "101",
    "smoothness": "intermediate",
    "id": "way/276498208"
  },
  "geometry": {
    "type": "LineString",
    "coordinates": [
      [
        23.335398,
        43.471469
      ],
      [
        23.3353667,
        43.4713737
      ],
      [
        23.3353925,
        43.4711421
      ]
    ]
  }
},
{
  "type": "Feature",
  "id": "way/276498206",
  "properties": {
    "highway": "tertiary",
    "name": "ул. Георги Димитров",
    "ref": "101",
    "smoothness": "intermediate",
    "id": "way/276498206"
  },
  "geometry": {
    "type": "LineString",
    "coordinates": [
      [
        23.3391905,
        43.4803347
      ],
      [
        23.3392832,
        43.480119
      ],
      [
        23.3402568,
        43.4787983
      ],
      [
        23.340326,
        43.4786251
      ],
      [
        23.3402988,
        43.4785002
      ],
      [
        23.3400673,
        43.4781819
      ],
      [
        23.3392654,
        43.4770747
      ],
      [
        23.3389062,
        43.4765433
      ],
      [
        23.338075,
        43.4753137
      ],
      [
        23.337075,
        43.4739074
      ],
      [
        23.336342,
        43.4728767
      ],
      [
        23.3360417,
        43.4724543
      ],
      [
        23.335398,
        43.471469
      ]
    ]
  }
},
{
  "type": "Feature",
  "id": "way/157261040",
  "properties": {
    "highway": "tertiary",
    "ref": "101",
    "smoothness": "intermediate",
    "id": "way/157261040"
  },
  "geometry": {
    "type": "LineString",
    "coordinates": [
      [
        23.3404349,
        43.4823043
      ],
      [
        23.339306,
        43.480591
      ],
      [
        23.3391905,
        43.4803347
      ]
    ]
  }
},
{
  "type": "Feature",
  "id": "way/157261042",
  "properties": {
    "bridge": "yes",
    "highway": "tertiary",
    "layer": "1",
    "ref": "101",
    "smoothness": "intermediate",
    "id": "way/157261042"
  },
  "geometry": {
    "type": "LineString",
    "coordinates": [
      [
        23.3412395,
        43.4834564
      ],
      [
        23.3404349,
        43.4823043
      ]
    ]
  }
},
{
  "type": "Feature",
  "id": "way/165725444",
  "properties": {
    "highway": "tertiary",
    "ref": "101",
    "smoothness": "intermediate",
    "id": "way/165725444"
  },
  "geometry": {
    "type": "LineString",
    "coordinates": [
      [
        23.34655,
        43.507069
      ],
      [
        23.346548,
        43.506659
      ],
      [
        23.346474,
        43.50562
      ],
      [
        23.346314,
        43.503875
      ],
      [
        23.34628,
        43.503624
      ],
      [
        23.346035,
        43.502958
      ],
      [
        23.34599,
        43.502771
      ],
      [
        23.345968,
        43.502535
      ],
      [
        23.345901,
        43.502292
      ],
      [
        23.345533,
        43.501455
      ],
      [
        23.345477,
        43.501244
      ],
      [
        23.345488,
        43.501049
      ],
      [
        23.345533,
        43.500814
      ],
      [
        23.346001,
        43.499368
      ],
      [
        23.346157,
        43.499076
      ],
      [
        23.346581,
        43.498499
      ],
      [
        23.346704,
        43.498304
      ],
      [
        23.346793,
        43.498077
      ],
      [
        23.347474,
        43.494634
      ],
      [
        23.347619,
        43.493976
      ],
      [
        23.348768,
        43.490305
      ],
      [
        23.34879,
        43.490166
      ],
      [
        23.348768,
        43.49002
      ],
      [
        23.3486111,
        43.4895978
      ],
      [
        23.346794,
        43.485422
      ],
      [
        23.346629,
        43.4852
      ],
      [
        23.346375,
        43.484997
      ],
      [
        23.345881,
        43.484665
      ],
      [
        23.345298,
        43.484323
      ],
      [
        23.344981,
        43.484194
      ],
      [
        23.344575,
        43.484129
      ],
      [
        23.344258,
        43.484092
      ],
      [
        23.343878,
        43.48412
      ],
      [
        23.34313,
        43.484249
      ],
      [
        23.342217,
        43.48436
      ],
      [
        23.341951,
        43.484351
      ],
      [
        23.341786,
        43.484268
      ],
      [
        23.341634,
        43.484111
      ],
      [
        23.341393,
        43.483751
      ],
      [
        23.3412395,
        43.4834564
      ]
    ]
  }
},
{
  "type": "Feature",
  "id": "way/156231693",
  "properties": {
    "bridge": "yes",
    "highway": "tertiary",
    "layer": "1",
    "ref": "101",
    "smoothness": "intermediate",
    "id": "way/156231693"
  },
  "geometry": {
    "type": "LineString",
    "coordinates": [
      [
        23.3834936,
        43.4370521
      ],
      [
        23.383739,
        43.4371671
      ]
    ]
  }
},
{
  "type": "Feature",
  "id": "way/330650129",
  "properties": {
    "highway": "tertiary",
    "ref": "101",
    "smoothness": "intermediate",
    "id": "way/330650129"
  },
  "geometry": {
    "type": "LineString",
    "coordinates": [
      [
        23.5024947,
        43.324512
      ],
      [
        23.5037014,
        43.3220285
      ],
      [
        23.5050889,
        43.3191854
      ],
      [
        23.5051629,
        43.3188718
      ],
      [
        23.5051773,
        43.3185419
      ],
      [
        23.5051045,
        43.3181557
      ],
      [
        23.504967,
        43.3178366
      ],
      [
        23.5047535,
        43.317524
      ],
      [
        23.5037721,
        43.3163634
      ],
      [
        23.5036146,
        43.3160897
      ],
      [
        23.5035021,
        43.3157665
      ],
      [
        23.5034571,
        43.3154114
      ],
      [
        23.5035063,
        43.315046
      ],
      [
        23.5036584,
        43.3146561
      ],
      [
        23.5038575,
        43.3143104
      ],
      [
        23.5041497,
        43.3140142
      ],
      [
        23.504772,
        43.3135009
      ],
      [
        23.504883,
        43.3134277
      ],
      [
        23.5062063,
        43.3125551
      ],
      [
        23.5069644,
        43.3121216
      ],
      [
        23.5079862,
        43.3115958
      ],
      [
        23.5084188,
        43.3113634
      ],
      [
        23.5089449,
        43.3111888
      ],
      [
        23.5106097,
        43.3107751
      ],
      [
        23.5111682,
        43.3106075
      ],
      [
        23.51153,
        43.3104363
      ],
      [
        23.511841,
        43.3102292
      ],
      [
        23.5184265,
        43.3053272
      ],
      [
        23.5188479,
        43.3049942
      ],
      [
        23.5191548,
        43.3045999
      ],
      [
        23.5193178,
        43.3043242
      ],
      [
        23.5194158,
        43.3040185
      ],
      [
        23.5194421,
        43.3036836
      ],
      [
        23.519392,
        43.3033943
      ],
      [
        23.5191012,
        43.3025843
      ],
      [
        23.5190221,
        43.3022417
      ],
      [
        23.519012,
        43.3019284
      ],
      [
        23.5190707,
        43.3015544
      ],
      [
        23.5191849,
        43.3012547
      ],
      [
        23.5194395,
        43.3008929
      ],
      [
        23.5197923,
        43.3005267
      ],
      [
        23.5202906,
        43.3001871
      ],
      [
        23.5239675,
        43.2981181
      ],
      [
        23.5246605,
        43.2976826
      ],
      [
        23.5250528,
        43.2973793
      ],
      [
        23.5254992,
        43.2969388
      ],
      [
        23.5256812,
        43.2966852
      ],
      [
        23.5258254,
        43.2964127
      ],
      [
        23.5265736,
        43.2947242
      ],
      [
        23.5267952,
        43.2943256
      ],
      [
        23.5270433,
        43.2940128
      ],
      [
        23.5273822,
        43.2937051
      ],
      [
        23.5278476,
        43.2933475
      ],
      [
        23.5284001,
        43.2929453
      ],
      [
        23.5348718,
        43.2883463
      ],
      [
        23.5354158,
        43.2879486
      ],
      [
        23.535857,
        43.2875755
      ],
      [
        23.5362533,
        43.287137
      ],
      [
        23.5365953,
        43.2866409
      ],
      [
        23.5367843,
        43.2863177
      ],
      [
        23.5369466,
        43.2859033
      ],
      [
        23.5370432,
        43.2853407
      ],
      [
        23.5370564,
        43.2847734
      ],
      [
        23.5369948,
        43.284206
      ],
      [
        23.5362468,
        43.2809317
      ],
      [
        23.5356468,
        43.2782706
      ],
      [
        23.5355483,
        43.2777817
      ],
      [
        23.5350701,
        43.274098
      ],
      [
        23.5350109,
        43.2734575
      ],
      [
        23.5350058,
        43.2730893
      ],
      [
        23.5355101,
        43.2666228
      ],
      [
        23.5356579,
        43.2646766
      ],
      [
        23.5359257,
        43.2613742
      ],
      [
        23.5361014,
        43.2600626
      ],
      [
        23.5365775,
        43.2568517
      ],
      [
        23.5368803,
        43.254849
      ],
      [
        23.537214,
        43.2528255
      ],
      [
        23.5374226,
        43.2515684
      ],
      [
        23.5377949,
        43.2493183
      ],
      [
        23.537795,
        43.249318
      ],
      [
        23.5381384,
        43.2473285
      ],
      [
        23.538578,
        43.2447456
      ],
      [
        23.5391228,
        43.241469
      ],
      [
        23.5393653,
        43.239738
      ],
      [
        23.5394281,
        43.2393387
      ],
      [
        23.539823,
        43.2380007
      ],
      [
        23.5400688,
        43.2371608
      ],
      [
        23.540195,
        43.2364928
      ],
      [
        23.5406497,
        43.233719
      ],
      [
        23.5409427,
        43.2322878
      ],
      [
        23.5413769,
        43.2296029
      ],
      [
        23.541538,
        43.2289336
      ],
      [
        23.541964,
        43.2265496
      ],
      [
        23.5419711,
        43.2265012
      ],
      [
        23.5419778,
        43.2264619
      ]
    ]
  }
},
{
  "type": "Feature",
  "id": "way/229174834",
  "properties": {
    "bridge": "yes",
    "highway": "tertiary",
    "layer": "1",
    "maxspeed": "50",
    "name": "бул. Стоян Ц. Даскалов",
    "ref": "101",
    "id": "way/229174834"
  },
  "geometry": {
    "type": "LineString",
    "coordinates": [
      [
        23.5429426,
        43.2195593
      ],
      [
        23.5428716,
        43.2188904
      ],
      [
        23.5428365,
        43.2184364
      ],
      [
        23.5428538,
        43.2180451
      ],
      [
        23.5428664,
        43.217855
      ]
    ]
  }
},
{
  "type": "Feature",
  "id": "way/277064351",
  "properties": {
    "highway": "tertiary",
    "name": "бул. Стоян Ц. Даскалов",
    "ref": "101",
    "smoothness": "intermediate",
    "id": "way/277064351"
  },
  "geometry": {
    "type": "LineString",
    "coordinates": [
      [
        23.5419778,
        43.2264619
      ],
      [
        23.5422638,
        43.2246326
      ],
      [
        23.5422675,
        43.2246114
      ],
      [
        23.5423576,
        43.2240933
      ],
      [
        23.5426927,
        43.2221673
      ],
      [
        23.5429103,
        43.2209989
      ],
      [
        23.5429261,
        43.2208942
      ],
      [
        23.5429848,
        43.2205041
      ],
      [
        23.5429728,
        43.2200353
      ],
      [
        23.5429426,
        43.2195593
      ]
    ]
  }
},
{
  "type": "Feature",
  "id": "way/157261043",
  "properties": {
    "highway": "tertiary",
    "ref": "101",
    "smoothness": "intermediate",
    "id": "way/157261043"
  },
  "geometry": {
    "type": "LineString",
    "coordinates": [
      [
        23.498747,
        43.338098
      ],
      [
        23.5010733,
        43.3316001
      ],
      [
        23.5012159,
        43.3310215
      ],
      [
        23.5019316,
        43.3259808
      ],
      [
        23.5019543,
        43.3257927
      ],
      [
        23.5021033,
        43.3253323
      ],
      [
        23.502322,
        43.3248522
      ]
    ]
  }
},
{
  "type": "Feature",
  "id": "way/330650125",
  "properties": {
    "bridge": "yes",
    "highway": "tertiary",
    "level": "1",
    "ref": "101",
    "smoothness": "intermediate",
    "id": "way/330650125"
  },
  "geometry": {
    "type": "LineString",
    "coordinates": [
      [
        23.502322,
        43.3248522
      ],
      [
        23.5024947,
        43.324512
      ]
    ]
  }
},
{
  "type": "Feature",
  "id": "way/27810520",
  "properties": {
    "highway": "tertiary",
    "name": "101",
    "ref": "101",
    "smoothness": "bad",
    "id": "way/27810520"
  },
  "geometry": {
    "type": "LineString",
    "coordinates": [
      [
        23.605222,
        43.574722
      ],
      [
        23.603494,
        43.573585
      ],
      [
        23.603261,
        43.573376
      ],
      [
        23.603138,
        43.573147
      ],
      [
        23.602191,
        43.571023
      ],
      [
        23.602123,
        43.570873
      ],
      [
        23.601958,
        43.570734
      ],
      [
        23.599668,
        43.568679
      ],
      [
        23.597323,
        43.566865
      ],
      [
        23.597076,
        43.566635
      ],
      [
        23.593743,
        43.562925
      ],
      [
        23.593593,
        43.562776
      ],
      [
        23.593373,
        43.562646
      ],
      [
        23.588751,
        43.560213
      ],
      [
        23.588395,
        43.560073
      ],
      [
        23.587997,
        43.559993
      ],
      [
        23.577958,
        43.558338
      ],
      [
        23.577711,
        43.558258
      ],
      [
        23.577492,
        43.558138
      ],
      [
        23.577245,
        43.557999
      ],
      [
        23.5736239,
        43.5554368
      ],
      [
        23.566616,
        43.550478
      ],
      [
        23.563188,
        43.548064
      ],
      [
        23.5626435,
        43.5477413
      ],
      [
        23.5505873,
        43.5404967
      ],
      [
        23.549287,
        43.5397451
      ],
      [
        23.5476281,
        43.5386334
      ],
      [
        23.5461075,
        43.5375499
      ],
      [
        23.5433952,
        43.5357661
      ],
      [
        23.5423759,
        43.5351031
      ],
      [
        23.5422145,
        43.5350164
      ],
      [
        23.5387982,
        43.5336513
      ],
      [
        23.5370058,
        43.5329648
      ],
      [
        23.5353023,
        43.5322783
      ],
      [
        23.5341738,
        43.5318839
      ],
      [
        23.5328377,
        43.5316684
      ],
      [
        23.5316072,
        43.5314455
      ],
      [
        23.5311567,
        43.531367
      ],
      [
        23.5265037,
        43.530538
      ]
    ]
  }
},
{
  "type": "Feature",
  "id": "way/62056139",
  "properties": {
    "highway": "tertiary",
    "name": "101",
    "ref": "101",
    "smoothness": "bad",
    "id": "way/62056139"
  },
  "geometry": {
    "type": "LineString",
    "coordinates": [
      [
        23.7007687,
        43.6313507
      ],
      [
        23.697767,
        43.629607
      ],
      [
        23.69752,
        43.629467
      ],
      [
        23.692693,
        43.627246
      ],
      [
        23.692267,
        43.627096
      ],
      [
        23.689429,
        43.626309
      ],
      [
        23.689086,
        43.62618
      ],
      [
        23.688757,
        43.62604
      ],
      [
        23.688496,
        43.625871
      ],
      [
        23.688222,
        43.625672
      ],
      [
        23.688002,
        43.625452
      ],
      [
        23.687769,
        43.625134
      ],
      [
        23.687577,
        43.624825
      ],
      [
        23.687166,
        43.624008
      ],
      [
        23.683243,
        43.616426
      ],
      [
        23.682955,
        43.615977
      ],
      [
        23.680994,
        43.613347
      ],
      [
        23.680789,
        43.613138
      ],
      [
        23.680542,
        43.612958
      ],
      [
        23.678485,
        43.611902
      ],
      [
        23.67699,
        43.611244
      ],
      [
        23.676674,
        43.611085
      ],
      [
        23.667828,
        43.605494
      ],
      [
        23.667348,
        43.605046
      ],
      [
        23.66536,
        43.603611
      ],
      [
        23.663796,
        43.602465
      ],
      [
        23.662919,
        43.601578
      ],
      [
        23.6604605,
        43.6001508
      ],
      [
        23.6563632,
        43.5979475
      ],
      [
        23.650288,
        43.594671
      ],
      [
        23.647339,
        43.593066
      ],
      [
        23.646626,
        43.592647
      ],
      [
        23.643938,
        43.591092
      ],
      [
        23.643636,
        43.590943
      ],
      [
        23.643252,
        43.590823
      ],
      [
        23.638178,
        43.589358
      ],
      [
        23.63789,
        43.589258
      ],
      [
        23.637629,
        43.589098
      ],
      [
        23.637437,
        43.588879
      ],
      [
        23.637287,
        43.58868
      ],
      [
        23.636272,
        43.586317
      ],
      [
        23.636066,
        43.586038
      ],
      [
        23.634338,
        43.584214
      ],
      [
        23.634118,
        43.583944
      ],
      [
        23.628482,
        43.576487
      ],
      [
        23.628235,
        43.576178
      ]
    ]
  }
},
{
  "type": "Feature",
  "id": "way/28099150",
  "properties": {
    "highway": "tertiary",
    "ref": "101",
    "smoothness": "intermediate",
    "id": "way/28099150"
  },
  "geometry": {
    "type": "LineString",
    "coordinates": [
      [
        23.5265037,
        43.530538
      ],
      [
        23.5247445,
        43.5302132
      ],
      [
        23.523323,
        43.5299503
      ],
      [
        23.5206244,
        43.5294558
      ],
      [
        23.516815,
        43.528879
      ],
      [
        23.5160277,
        43.5287797
      ],
      [
        23.5149083,
        43.5286134
      ],
      [
        23.5120627,
        43.5282254
      ],
      [
        23.503757,
        43.527186
      ],
      [
        23.500245,
        43.526693
      ],
      [
        23.49813,
        43.526397
      ],
      [
        23.491743,
        43.525726
      ]
    ]
  }
},
{
  "type": "Feature",
  "id": "way/61337809",
  "properties": {
    "highway": "tertiary",
    "name": "101",
    "ref": "101",
    "smoothness": "bad",
    "id": "way/61337809"
  },
  "geometry": {
    "type": "LineString",
    "coordinates": [
      [
        23.7164996,
        43.6400079
      ],
      [
        23.7144842,
        43.6394889
      ],
      [
        23.7136729,
        43.6392397
      ],
      [
        23.711906,
        43.638571
      ],
      [
        23.70926,
        43.637396
      ],
      [
        23.708039,
        43.636051
      ],
      [
        23.70579,
        43.634537
      ],
      [
        23.704981,
        43.63397
      ],
      [
        23.703404,
        43.632984
      ],
      [
        23.7007687,
        43.6313507
      ]
    ]
  }
},
{
  "type": "Feature",
  "id": "way/49577510",
  "properties": {
    "highway": "tertiary",
    "name": "101",
    "ref": "101",
    "smoothness": "bad",
    "id": "way/49577510"
  },
  "geometry": {
    "type": "LineString",
    "coordinates": [
      [
        23.7369115,
        43.6455014
      ],
      [
        23.7389634,
        43.646078
      ],
      [
        23.7398239,
        43.6463034
      ],
      [
        23.7403805,
        43.6463721
      ],
      [
        23.7455317,
        43.6470083
      ],
      [
        23.7488487,
        43.647418
      ],
      [
        23.7496749,
        43.6475267
      ],
      [
        23.7498785,
        43.6476332
      ],
      [
        23.7499419,
        43.6477904
      ],
      [
        23.7508291,
        43.6501421
      ],
      [
        23.7510826,
        43.6503779
      ],
      [
        23.7515896,
        43.650581
      ],
      [
        23.7518883,
        43.6506661
      ],
      [
        23.752006,
        43.6506792
      ],
      [
        23.7524406,
        43.6508823
      ],
      [
        23.7528842,
        43.6511705
      ],
      [
        23.7533097,
        43.6514915
      ],
      [
        23.7537442,
        43.6517732
      ],
      [
        23.7540339,
        43.6519828
      ],
      [
        23.7546133,
        43.6522055
      ],
      [
        23.755247,
        43.6523692
      ],
      [
        23.7556363,
        43.652343
      ],
      [
        23.7563787,
        43.6522448
      ],
      [
        23.7569309,
        43.65214
      ],
      [
        23.7591761,
        43.6514849
      ],
      [
        23.7602428,
        43.6511793
      ]
    ]
  }
},
{
  "type": "Feature",
  "id": "way/61337808",
  "properties": {
    "highway": "tertiary",
    "name": "101",
    "ref": "101",
    "smoothness": "bad",
    "id": "way/61337808"
  },
  "geometry": {
    "type": "LineString",
    "coordinates": [
      [
        23.7369115,
        43.6455014
      ],
      [
        23.722563,
        43.641739
      ],
      [
        23.7164996,
        43.6400079
      ]
    ]
  }
},
{
  "type": "Feature",
  "id": "way/165730075",
  "properties": {
    "highway": "tertiary",
    "name": "101",
    "ref": "101",
    "smoothness": "good",
    "id": "way/165730075"
  },
  "geometry": {
    "type": "LineString",
    "coordinates": [
      [
        23.7602428,
        43.6511793
      ],
      [
        23.7604842,
        43.6513345
      ],
      [
        23.7608436,
        43.6514898
      ],
      [
        23.7619808,
        43.6519284
      ],
      [
        23.7626621,
        43.6522156
      ],
      [
        23.7660471,
        43.6543387
      ],
      [
        23.7678763,
        43.6553866
      ],
      [
        23.7687078,
        43.6559183
      ],
      [
        23.7703801,
        43.6572166
      ],
      [
        23.7919808,
        43.6735462
      ],
      [
        23.7931085,
        43.6744484
      ],
      [
        23.7942362,
        43.6753505
      ],
      [
        23.7942903,
        43.6753799
      ],
      [
        23.7951012,
        43.6760175
      ],
      [
        23.7965317,
        43.6772262
      ],
      [
        23.7976952,
        43.6783265
      ],
      [
        23.7989956,
        43.6797014
      ],
      [
        23.7997335,
        43.6804897
      ]
    ]
  }
},
{
  "type": "Feature",
  "id": "way/296297898",
  "properties": {
    "highway": "tertiary",
    "name": "бул.\"Ленин\"",
    "ref": "101",
    "smoothness": "good",
    "id": "way/296297898"
  },
  "geometry": {
    "type": "LineString",
    "coordinates": [
      [
        23.7997335,
        43.6804897
      ],
      [
        23.8009583,
        43.6818618
      ],
      [
        23.8012905,
        43.6822244
      ],
      [
        23.8014732,
        43.6825716
      ],
      [
        23.8017234,
        43.6831585
      ],
      [
        23.8022535,
        43.6845943
      ],
      [
        23.8023748,
        43.6849228
      ],
      [
        23.8028157,
        43.6860296
      ],
      [
        23.8029123,
        43.6861871
      ],
      [
        23.8029908,
        43.6863068
      ],
      [
        23.8030372,
        43.6863591
      ],
      [
        23.8033017,
        43.68664
      ],
      [
        23.8071801,
        43.6890716
      ],
      [
        23.8072301,
        43.6890992
      ],
      [
        23.807763,
        43.6894092
      ],
      [
        23.8086914,
        43.6899047
      ],
      [
        23.8092036,
        43.6901615
      ],
      [
        23.8114124,
        43.6912692
      ],
      [
        23.8118047,
        43.6915235
      ],
      [
        23.8119976,
        43.6916585
      ]
    ]
  }
}
]
}
