{
"type": "FeatureCollection",
"features": [
{
  "type": "Feature",
  "id": "way/289038395",
  "properties": {
    "highway": "tertiary",
    "name": "5302",
    "ref": "5302",
    "source": "bgtopomaps",
    "id": "way/289038395"
  },
  "geometry": {
    "type": "LineString",
    "coordinates": [
      [
        25.6370658,
        43.0485699
      ],
      [
        25.6367647,
        43.0489145
      ],
      [
        25.6359937,
        43.0497973
      ],
      [
        25.6358877,
        43.0499663
      ],
      [
        25.6358697,
        43.0501483
      ],
      [
        25.6359847,
        43.0503043
      ],
      [
        25.6361707,
        43.0503823
      ],
      [
        25.6364017,
        43.0504083
      ],
      [
        25.6368797,
        43.0503693
      ],
      [
        25.6373057,
        43.0502983
      ],
      [
        25.638553,
        43.049983
      ],
      [
        25.638819,
        43.049918
      ],
      [
        25.639315,
        43.049814
      ],
      [
        25.640485,
        43.049632
      ],
      [
        25.6412968,
        43.0495213
      ],
      [
        25.6417562,
        43.0494547
      ],
      [
        25.6421834,
        43.0493928
      ],
      [
        25.6440837,
        43.0490111
      ],
      [
        25.6447562,
        43.0488761
      ],
      [
        25.6457084,
        43.0486848
      ],
      [
        25.6468943,
        43.0484941
      ],
      [
        25.6481638,
        43.0483172
      ],
      [
        25.6512894,
        43.0478134
      ],
      [
        25.6522224,
        43.0477057
      ],
      [
        25.6525657,
        43.0476664
      ],
      [
        25.6530489,
        43.0475382
      ],
      [
        25.6538411,
        43.0473081
      ],
      [
        25.6541859,
        43.047208
      ],
      [
        25.6549874,
        43.0469752
      ],
      [
        25.6552411,
        43.0469015
      ]
    ]
  }
},
{
  "type": "Feature",
  "id": "way/195458436",
  "properties": {
    "highway": "tertiary",
    "name": "5302",
    "ref": "5302",
    "source": "bgtopomaps; gpstrack",
    "id": "way/195458436"
  },
  "geometry": {
    "type": "LineString",
    "coordinates": [
      [
        25.6885578,
        43.0375506
      ],
      [
        25.689007,
        43.0373955
      ],
      [
        25.6893211,
        43.0373539
      ],
      [
        25.6894595,
        43.0373431
      ],
      [
        25.6899535,
        43.0373045
      ],
      [
        25.6912549,
        43.0372165
      ],
      [
        25.6926185,
        43.0370558
      ],
      [
        25.693065,
        43.0369803
      ],
      [
        25.6961927,
        43.0362809
      ],
      [
        25.6967612,
        43.0361145
      ],
      [
        25.6980465,
        43.0356898
      ],
      [
        25.6984155,
        43.0356257
      ],
      [
        25.6988053,
        43.0356102
      ],
      [
        25.699081,
        43.035631
      ],
      [
        25.699409,
        43.035651
      ],
      [
        25.701686,
        43.035956
      ],
      [
        25.701934,
        43.036015
      ],
      [
        25.707065,
        43.03725
      ],
      [
        25.707313,
        43.037308
      ],
      [
        25.707562,
        43.037347
      ],
      [
        25.708111,
        43.037406
      ],
      [
        25.708448,
        43.037425
      ],
      [
        25.708838,
        43.03738
      ],
      [
        25.709458,
        43.037302
      ],
      [
        25.7097262,
        43.0373377
      ],
      [
        25.7099686,
        43.0374087
      ],
      [
        25.7103123,
        43.0375608
      ],
      [
        25.7107105,
        43.0377382
      ],
      [
        25.710991,
        43.037789
      ],
      [
        25.711337,
        43.037835
      ],
      [
        25.711709,
        43.037848
      ],
      [
        25.712064,
        43.037828
      ],
      [
        25.7124,
        43.037783
      ],
      [
        25.714669,
        43.037165
      ],
      [
        25.7150278,
        43.037137
      ],
      [
        25.7156429,
        43.0371283
      ],
      [
        25.717336,
        43.036814
      ],
      [
        25.7174867,
        43.0367605
      ],
      [
        25.7179896,
        43.0365819
      ],
      [
        25.718333,
        43.0365716
      ],
      [
        25.7194051,
        43.0365922
      ],
      [
        25.7198041,
        43.0365998
      ],
      [
        25.72284,
        43.036658
      ],
      [
        25.7232735,
        43.0366606
      ],
      [
        25.7251495,
        43.0366252
      ],
      [
        25.7262312,
        43.0365851
      ],
      [
        25.7271191,
        43.0365639
      ],
      [
        25.7276325,
        43.0366465
      ],
      [
        25.7283364,
        43.0368069
      ],
      [
        25.7288305,
        43.0368353
      ],
      [
        25.7292341,
        43.0367833
      ],
      [
        25.7318656,
        43.036139
      ],
      [
        25.7323564,
        43.0360635
      ],
      [
        25.7342228,
        43.0361249
      ],
      [
        25.7354698,
        43.0360917
      ],
      [
        25.7365602,
        43.0358925
      ],
      [
        25.7376506,
        43.0354276
      ],
      [
        25.7386198,
        43.0348741
      ],
      [
        25.7393467,
        43.034542
      ],
      [
        25.7400434,
        43.0343427
      ],
      [
        25.7408309,
        43.0342985
      ],
      [
        25.7429491,
        43.0342404
      ]
    ]
  }
},
{
  "type": "Feature",
  "id": "way/27814423",
  "properties": {
    "highway": "tertiary",
    "name": "5302",
    "ref": "5302",
    "source": "bgtopomaps",
    "id": "way/27814423"
  },
  "geometry": {
    "type": "LineString",
    "coordinates": [
      [
        25.6353947,
        43.0470708
      ],
      [
        25.6360428,
        43.0471388
      ],
      [
        25.6362417,
        43.0471593
      ],
      [
        25.6366497,
        43.0472303
      ],
      [
        25.6368977,
        43.0473023
      ],
      [
        25.6370544,
        43.0473768
      ],
      [
        25.6371918,
        43.0474772
      ],
      [
        25.6373057,
        43.0476073
      ],
      [
        25.6373937,
        43.0477893
      ],
      [
        25.6374207,
        43.0479973
      ],
      [
        25.6373757,
        43.0481793
      ],
      [
        25.6371759,
        43.0484438
      ],
      [
        25.6370658,
        43.0485699
      ]
    ]
  }
},
{
  "type": "Feature",
  "id": "way/195458437",
  "properties": {
    "highway": "tertiary",
    "name": "5302",
    "ref": "5302",
    "smoothness": "intermediate",
    "source": "bgtopomaps",
    "id": "way/195458437"
  },
  "geometry": {
    "type": "LineString",
    "coordinates": [
      [
        25.6609412,
        43.046316
      ],
      [
        25.6613392,
        43.0461939
      ],
      [
        25.661825,
        43.046077
      ],
      [
        25.6619857,
        43.0460407
      ],
      [
        25.662082,
        43.046019
      ],
      [
        25.662303,
        43.045999
      ],
      [
        25.6626688,
        43.0460247
      ],
      [
        25.6633758,
        43.0461638
      ],
      [
        25.6637612,
        43.0462409
      ],
      [
        25.6640278,
        43.0462457
      ],
      [
        25.664218,
        43.046253
      ],
      [
        25.6646714,
        43.0462417
      ],
      [
        25.6654611,
        43.0463358
      ],
      [
        25.6673626,
        43.0466631
      ],
      [
        25.668152,
        43.046714
      ],
      [
        25.668418,
        43.046662
      ],
      [
        25.669526,
        43.046396
      ],
      [
        25.6696548,
        43.0463089
      ],
      [
        25.6698137,
        43.0461902
      ],
      [
        25.6699432,
        43.0460916
      ],
      [
        25.6702226,
        43.0458232
      ],
      [
        25.6704475,
        43.0455094
      ],
      [
        25.6706727,
        43.0453255
      ],
      [
        25.670958,
        43.0451751
      ],
      [
        25.6712111,
        43.0450928
      ],
      [
        25.671506,
        43.0450332
      ],
      [
        25.671874,
        43.044998
      ],
      [
        25.67245,
        43.04492
      ],
      [
        25.672805,
        43.044842
      ],
      [
        25.673115,
        43.044738
      ],
      [
        25.673337,
        43.044608
      ],
      [
        25.673718,
        43.044342
      ],
      [
        25.674019,
        43.044186
      ],
      [
        25.674418,
        43.044088
      ],
      [
        25.674825,
        43.04401
      ],
      [
        25.675206,
        43.043965
      ],
      [
        25.675446,
        43.043932
      ],
      [
        25.675667,
        43.043867
      ],
      [
        25.676979,
        43.043302
      ],
      [
        25.677174,
        43.043139
      ],
      [
        25.677404,
        43.042951
      ],
      [
        25.677635,
        43.042847
      ],
      [
        25.677892,
        43.042756
      ],
      [
        25.678175,
        43.042743
      ],
      [
        25.679593,
        43.042736
      ],
      [
        25.679903,
        43.042684
      ],
      [
        25.680178,
        43.04258
      ],
      [
        25.680391,
        43.042444
      ],
      [
        25.680603,
        43.042242
      ],
      [
        25.681587,
        43.041202
      ],
      [
        25.68172,
        43.041027
      ],
      [
        25.681915,
        43.040416
      ],
      [
        25.682057,
        43.040175
      ],
      [
        25.682287,
        43.039987
      ],
      [
        25.682518,
        43.03987
      ],
      [
        25.682819,
        43.039785
      ],
      [
        25.683067,
        43.03972
      ],
      [
        25.683377,
        43.03961
      ],
      [
        25.68538,
        43.038771
      ],
      [
        25.68561,
        43.038706
      ],
      [
        25.68585,
        43.038699
      ],
      [
        25.686142,
        43.038673
      ],
      [
        25.686523,
        43.038602
      ],
      [
        25.686913,
        43.038504
      ],
      [
        25.68723,
        43.0383523
      ],
      [
        25.6874895,
        43.0381841
      ],
      [
        25.6885578,
        43.0375506
      ]
    ]
  }
},
{
  "type": "Feature",
  "id": "way/195458438",
  "properties": {
    "highway": "tertiary",
    "name": "5302",
    "ref": "5302",
    "smoothness": "bad",
    "source": "bgtopomaps",
    "id": "way/195458438"
  },
  "geometry": {
    "type": "LineString",
    "coordinates": [
      [
        25.6552411,
        43.0469015
      ],
      [
        25.656392,
        43.046591
      ],
      [
        25.657499,
        43.0464146
      ],
      [
        25.6583665,
        43.0462764
      ],
      [
        25.658747,
        43.046331
      ],
      [
        25.6594851,
        43.0464733
      ],
      [
        25.6596865,
        43.0465061
      ],
      [
        25.6599683,
        43.046552
      ],
      [
        25.660336,
        43.046506
      ],
      [
        25.6607237,
        43.0463843
      ],
      [
        25.6609412,
        43.046316
      ]
    ]
  }
},
{
  "type": "Feature",
  "id": "way/69907538",
  "properties": {
    "highway": "tertiary",
    "network": "bg:national",
    "ref": "5302",
    "route": "road",
    "type": "route",
    "id": "way/69907538"
  },
  "geometry": {
    "type": "LineString",
    "coordinates": [
      [
        25.8379707,
        43.0251771
      ],
      [
        25.8376736,
        43.0245185
      ],
      [
        25.8372613,
        43.0236046
      ],
      [
        25.8367078,
        43.0223777
      ],
      [
        25.8366435,
        43.0222757
      ],
      [
        25.8365308,
        43.0221933
      ],
      [
        25.8341734,
        43.0216001
      ],
      [
        25.8340178,
        43.0215531
      ],
      [
        25.8338915,
        43.0214795
      ],
      [
        25.8337764,
        43.0213766
      ],
      [
        25.8337067,
        43.0212433
      ],
      [
        25.8336233,
        43.020852
      ],
      [
        25.8335857,
        43.020703
      ],
      [
        25.8334785,
        43.0205422
      ],
      [
        25.8333282,
        43.0204324
      ],
      [
        25.8331673,
        43.02035
      ],
      [
        25.8329474,
        43.0203069
      ],
      [
        25.8327089,
        43.0203137
      ],
      [
        25.829682,
        43.020799
      ],
      [
        25.8288197,
        43.0209373
      ],
      [
        25.8278577,
        43.0210489
      ],
      [
        25.8271299,
        43.0211334
      ],
      [
        25.826792,
        43.0211844
      ],
      [
        25.8265989,
        43.0212001
      ],
      [
        25.8263575,
        43.0212119
      ],
      [
        25.8260731,
        43.0212197
      ],
      [
        25.8258156,
        43.021208
      ],
      [
        25.8251397,
        43.0211687
      ],
      [
        25.8248179,
        43.021153
      ],
      [
        25.8245389,
        43.0211491
      ],
      [
        25.8242653,
        43.0211609
      ],
      [
        25.8232994,
        43.0212222
      ],
      [
        25.8221035,
        43.0212982
      ],
      [
        25.821669,
        43.0213178
      ],
      [
        25.8212344,
        43.0213295
      ],
      [
        25.8208697,
        43.0213295
      ],
      [
        25.8204054,
        43.0212952
      ],
      [
        25.8200328,
        43.021255
      ],
      [
        25.818045,
        43.0210521
      ],
      [
        25.8177368,
        43.0210275
      ],
      [
        25.8174579,
        43.0210315
      ],
      [
        25.8172165,
        43.0210354
      ],
      [
        25.8168195,
        43.0210589
      ],
      [
        25.8126728,
        43.0215413
      ],
      [
        25.8122329,
        43.0215727
      ],
      [
        25.8119701,
        43.0215845
      ],
      [
        25.8111708,
        43.0215962
      ],
      [
        25.8106451,
        43.0215923
      ],
      [
        25.8101086,
        43.0215923
      ],
      [
        25.8072065,
        43.0214943
      ],
      [
        25.8068363,
        43.0214903
      ],
      [
        25.8003347,
        43.0215139
      ],
      [
        25.8000289,
        43.021506
      ],
      [
        25.7998465,
        43.0214903
      ],
      [
        25.7993208,
        43.0214354
      ],
      [
        25.7989345,
        43.0214119
      ],
      [
        25.7987546,
        43.0213854
      ],
      [
        25.7985859,
        43.0213335
      ],
      [
        25.7984005,
        43.021256
      ],
      [
        25.7981674,
        43.021157
      ],
      [
        25.7972609,
        43.0207099
      ],
      [
        25.7970785,
        43.0205804
      ],
      [
        25.7968907,
        43.0204393
      ],
      [
        25.7966465,
        43.0202301
      ],
      [
        25.7963596,
        43.0199843
      ],
      [
        25.7961558,
        43.0198313
      ],
      [
        25.7959841,
        43.0197254
      ],
      [
        25.7948761,
        43.019197
      ],
      [
        25.793771,
        43.0187106
      ],
      [
        25.7919441,
        43.0180065
      ],
      [
        25.791695,
        43.0179105
      ],
      [
        25.7912444,
        43.0177301
      ],
      [
        25.7910459,
        43.0176516
      ],
      [
        25.7909374,
        43.0175912
      ],
      [
        25.7907079,
        43.0174634
      ],
      [
        25.7905309,
        43.0173653
      ],
      [
        25.7903593,
        43.0173183
      ],
      [
        25.7893937,
        43.0171457
      ],
      [
        25.7892246,
        43.0171259
      ],
      [
        25.7891254,
        43.0171143
      ],
      [
        25.7889162,
        43.0171104
      ],
      [
        25.7882832,
        43.0171261
      ],
      [
        25.7881813,
        43.0171221
      ],
      [
        25.7880794,
        43.0171025
      ],
      [
        25.7874464,
        43.0169417
      ],
      [
        25.787264,
        43.0168633
      ],
      [
        25.7871084,
        43.0167456
      ],
      [
        25.7870065,
        43.0166397
      ],
      [
        25.7868724,
        43.016424
      ],
      [
        25.7867866,
        43.0163063
      ],
      [
        25.7866954,
        43.016224
      ],
      [
        25.7864283,
        43.0160465
      ],
      [
        25.7861053,
        43.0158317
      ],
      [
        25.7860004,
        43.0157886
      ],
      [
        25.7859336,
        43.0157611
      ],
      [
        25.7854401,
        43.0156513
      ],
      [
        25.7847449,
        43.0154834
      ],
      [
        25.7835448,
        43.0150157
      ],
      [
        25.7829416,
        43.0147496
      ]
    ]
  }
},
{
  "type": "Feature",
  "id": "way/242533866",
  "properties": {
    "highway": "tertiary",
    "network": "bg:national",
    "ref": "5302",
    "route": "road",
    "type": "route",
    "id": "way/242533866"
  },
  "geometry": {
    "type": "LineString",
    "coordinates": [
      [
        25.7786838,
        43.0190665
      ],
      [
        25.7782185,
        43.0197171
      ],
      [
        25.7780236,
        43.019954
      ],
      [
        25.7772265,
        43.0205899
      ],
      [
        25.7761725,
        43.0209255
      ],
      [
        25.7740774,
        43.0215177
      ],
      [
        25.7718989,
        43.022272
      ],
      [
        25.767516,
        43.0237333
      ],
      [
        25.7619102,
        43.0260569
      ],
      [
        25.7616028,
        43.0261679
      ],
      [
        25.7613942,
        43.0262758
      ],
      [
        25.7611975,
        43.026384
      ],
      [
        25.760974,
        43.0265071
      ],
      [
        25.7594244,
        43.0273599
      ],
      [
        25.7584563,
        43.0278791
      ],
      [
        25.7574063,
        43.0281848
      ],
      [
        25.7546924,
        43.0288969
      ],
      [
        25.751952,
        43.0295755
      ],
      [
        25.7476259,
        43.0305713
      ],
      [
        25.7465801,
        43.0308007
      ],
      [
        25.7464937,
        43.0308427
      ],
      [
        25.745781,
        43.0312862
      ],
      [
        25.7447741,
        43.031952
      ],
      [
        25.7436691,
        43.0333087
      ],
      [
        25.7429491,
        43.0342404
      ]
    ]
  }
},
{
  "type": "Feature",
  "id": "way/226527891",
  "properties": {
    "highway": "tertiary",
    "name": "ул. 1-ва",
    "network": "bg:national",
    "ref": "5302",
    "route": "road",
    "type": "route",
    "id": "way/226527891"
  },
  "geometry": {
    "type": "LineString",
    "coordinates": [
      [
        25.7818941,
        43.0159712
      ],
      [
        25.7817228,
        43.0161604
      ],
      [
        25.7814978,
        43.0163932
      ],
      [
        25.7810741,
        43.0168315
      ],
      [
        25.7807892,
        43.0171092
      ],
      [
        25.7794847,
        43.0183809
      ],
      [
        25.7786838,
        43.0190665
      ]
    ]
  }
},
{
  "type": "Feature",
  "id": "way/226527890",
  "properties": {
    "bridge": "yes",
    "highway": "tertiary",
    "network": "bg:national",
    "ref": "5302",
    "route": "road",
    "type": "route",
    "id": "way/226527890"
  },
  "geometry": {
    "type": "LineString",
    "coordinates": [
      [
        25.7820656,
        43.0157819
      ],
      [
        25.7818941,
        43.0159712
      ]
    ]
  }
},
{
  "type": "Feature",
  "id": "way/242533862",
  "properties": {
    "highway": "tertiary",
    "name": "ул. 1-ва",
    "network": "bg:national",
    "ref": "5302",
    "route": "road",
    "type": "route",
    "id": "way/242533862"
  },
  "geometry": {
    "type": "LineString",
    "coordinates": [
      [
        25.7829416,
        43.0147496
      ],
      [
        25.7821964,
        43.0156278
      ],
      [
        25.7820656,
        43.0157819
      ]
    ]
  }
}
]
}
