{
"type": "FeatureCollection",
"features": [
{
  "type": "Feature",
  "id": "way/159044574",
  "properties": {
    "highway": "tertiary",
    "ref": "812",
    "smoothness": "good",
    "id": "way/159044574"
  },
  "geometry": {
    "type": "LineString",
    "coordinates": [
      [
        23.1593887,
        43.2193128
      ],
      [
        23.1605209,
        43.2185935
      ],
      [
        23.1611601,
        43.2181751
      ],
      [
        23.1617815,
        43.2179724
      ],
      [
        23.1624917,
        43.2179164
      ],
      [
        23.1630598,
        43.2179552
      ],
      [
        23.1646637,
        43.2184037
      ],
      [
        23.1653561,
        43.2183994
      ],
      [
        23.1659361,
        43.2182916
      ],
      [
        23.1665398,
        43.2179897
      ],
      [
        23.1682857,
        43.2164974
      ],
      [
        23.1696232,
        43.2157124
      ],
      [
        23.1730137,
        43.2128016
      ],
      [
        23.1736977,
        43.2124181
      ],
      [
        23.1776239,
        43.2110209
      ],
      [
        23.1778699,
        43.2109333
      ],
      [
        23.1795337,
        43.2103412
      ],
      [
        23.1798748,
        43.2102079
      ],
      [
        23.1802428,
        43.209951
      ],
      [
        23.1816145,
        43.2084942
      ],
      [
        23.1833934,
        43.2065368
      ]
    ]
  }
},
{
  "type": "Feature",
  "id": "way/176587007",
  "properties": {
    "highway": "tertiary",
    "ref": "812",
    "smoothness": "good",
    "source": "Bing",
    "id": "way/176587007"
  },
  "geometry": {
    "type": "LineString",
    "coordinates": [
      [
        23.203238,
        43.1971721
      ],
      [
        23.2049483,
        43.1983109
      ],
      [
        23.2054025,
        43.1985474
      ],
      [
        23.2058783,
        43.1985908
      ],
      [
        23.2063919,
        43.1984804
      ],
      [
        23.2067704,
        43.1982439
      ],
      [
        23.2070299,
        43.1978419
      ],
      [
        23.2072083,
        43.1973019
      ],
      [
        23.2071921,
        43.196691
      ],
      [
        23.2071867,
        43.1960446
      ],
      [
        23.2072948,
        43.1957805
      ],
      [
        23.2075273,
        43.1956741
      ],
      [
        23.2077436,
        43.1956229
      ],
      [
        23.2080409,
        43.195678
      ],
      [
        23.20876,
        43.1958948
      ],
      [
        23.209437,
        43.1960818
      ],
      [
        23.209697,
        43.1960762
      ],
      [
        23.2098614,
        43.1959814
      ],
      [
        23.2099493,
        43.1957612
      ],
      [
        23.210129,
        43.1951899
      ],
      [
        23.2102322,
        43.1950143
      ],
      [
        23.2104119,
        43.1948944
      ],
      [
        23.2106987,
        43.1948248
      ],
      [
        23.2110198,
        43.1948526
      ],
      [
        23.2112262,
        43.1949808
      ],
      [
        23.2119717,
        43.1956748
      ],
      [
        23.2124229,
        43.1959201
      ],
      [
        23.2130116,
        43.1961347
      ],
      [
        23.2134627,
        43.1962016
      ],
      [
        23.2139177,
        43.1961737
      ],
      [
        23.2148047,
        43.1960455
      ],
      [
        23.2152214,
        43.1960622
      ],
      [
        23.2156801,
        43.1961347
      ],
      [
        23.2160701,
        43.1962044
      ],
      [
        23.2163339,
        43.1961904
      ],
      [
        23.2167162,
        43.1960901
      ],
      [
        23.2170335,
        43.1959786
      ],
      [
        23.2174464,
        43.1958894
      ],
      [
        23.218276,
        43.1958309
      ],
      [
        23.2187233,
        43.1958309
      ],
      [
        23.2189565,
        43.1958894
      ],
      [
        23.2192318,
        43.1959898
      ],
      [
        23.2196791,
        43.1962072
      ],
      [
        23.2200805,
        43.1964441
      ],
      [
        23.2203519,
        43.1965054
      ],
      [
        23.2205737,
        43.1964664
      ],
      [
        23.2208528,
        43.196341
      ],
      [
        23.2219538,
        43.1956358
      ],
      [
        23.2221985,
        43.1955188
      ],
      [
        23.2225426,
        43.1954212
      ],
      [
        23.2230243,
        43.1953181
      ],
      [
        23.2233569,
        43.1951871
      ],
      [
        23.2235863,
        43.1950282
      ],
      [
        23.2242706,
        43.1944903
      ],
      [
        23.2244656,
        43.1942952
      ],
      [
        23.2246453,
        43.1940248
      ],
      [
        23.2250735,
        43.1928542
      ],
      [
        23.2251767,
        43.192425
      ],
      [
        23.2251652,
        43.1920292
      ],
      [
        23.2249741,
        43.1909589
      ],
      [
        23.2248211,
        43.1905993
      ],
      [
        23.2245,
        43.1899359
      ],
      [
        23.2243777,
        43.1895903
      ],
      [
        23.2242247,
        43.1889882
      ],
      [
        23.2240603,
        43.1886147
      ],
      [
        23.2238921,
        43.1883666
      ],
      [
        23.2237698,
        43.1881603
      ],
      [
        23.2237621,
        43.188021
      ],
      [
        23.2238845,
        43.1879011
      ],
      [
        23.2241215,
        43.1878314
      ],
      [
        23.224607,
        43.1878035
      ],
      [
        23.2251117,
        43.1878537
      ],
      [
        23.225559,
        43.1878537
      ],
      [
        23.2258648,
        43.1877868
      ],
      [
        23.2260636,
        43.1876614
      ],
      [
        23.2262395,
        43.187391
      ],
      [
        23.2262267,
        43.1871975
      ],
      [
        23.2262726,
        43.1871029
      ],
      [
        23.2264294,
        43.1870812
      ],
      [
        23.2267511,
        43.1871068
      ],
      [
        23.2275946,
        43.1873453
      ],
      [
        23.2279081,
        43.1873789
      ],
      [
        23.2281595,
        43.1873237
      ],
      [
        23.2283245,
        43.1871877
      ],
      [
        23.2284677,
        43.1868999
      ],
      [
        23.2285677,
        43.1865254
      ],
      [
        23.2287002,
        43.1856542
      ],
      [
        23.2287975,
        43.1850825
      ],
      [
        23.2289084,
        43.1848736
      ],
      [
        23.2290327,
        43.1847435
      ],
      [
        23.2292517,
        43.1846154
      ],
      [
        23.2295734,
        43.1845188
      ],
      [
        23.2298735,
        43.1844498
      ],
      [
        23.2302222,
        43.184436
      ],
      [
        23.2310701,
        43.1844481
      ],
      [
        23.2315212,
        43.1844927
      ],
      [
        23.2317391,
        43.1845429
      ],
      [
        23.2319341,
        43.184646
      ],
      [
        23.2322935,
        43.1849359
      ],
      [
        23.2324923,
        43.1850391
      ]
    ]
  }
},
{
  "type": "Feature",
  "id": "way/217972232",
  "properties": {
    "highway": "tertiary",
    "ref": "812",
    "smoothness": "good",
    "id": "way/217972232"
  },
  "geometry": {
    "type": "LineString",
    "coordinates": [
      [
        23.1833934,
        43.2065368
      ],
      [
        23.1837878,
        43.2061347
      ],
      [
        23.1866937,
        43.2044307
      ],
      [
        23.1890394,
        43.2025622
      ],
      [
        23.1921776,
        43.1986831
      ],
      [
        23.1929125,
        43.1981434
      ],
      [
        23.1945379,
        43.1970719
      ],
      [
        23.1954177,
        43.1967043
      ],
      [
        23.1962277,
        43.1964344
      ],
      [
        23.1967584,
        43.1961411
      ],
      [
        23.1969027,
        43.1960985
      ],
      [
        23.1975913,
        43.195926
      ],
      [
        23.197972,
        43.1958428
      ],
      [
        23.1982339,
        43.1958206
      ],
      [
        23.1987594,
        43.1958243
      ],
      [
        23.199224,
        43.1958588
      ],
      [
        23.1995383,
        43.195913
      ],
      [
        23.1997935,
        43.1959795
      ],
      [
        23.1999692,
        43.1960436
      ],
      [
        23.2018371,
        43.1966848
      ],
      [
        23.203238,
        43.1971721
      ]
    ]
  }
},
{
  "type": "Feature",
  "id": "way/176586240",
  "properties": {
    "highway": "tertiary",
    "ref": "812",
    "smoothness": "good",
    "source": "Bing",
    "id": "way/176586240"
  },
  "geometry": {
    "type": "LineString",
    "coordinates": [
      [
        23.2324923,
        43.1850391
      ],
      [
        23.2329702,
        43.1852537
      ],
      [
        23.2340177,
        43.1857304
      ],
      [
        23.2342547,
        43.18592
      ],
      [
        23.2346523,
        43.1863046
      ],
      [
        23.2350117,
        43.1865332
      ],
      [
        23.2354322,
        43.1866642
      ],
      [
        23.2375808,
        43.1873249
      ],
      [
        23.2395,
        43.1878824
      ],
      [
        23.2416868,
        43.1885458
      ],
      [
        23.242352,
        43.1888217
      ],
      [
        23.2452155,
        43.1901123
      ],
      [
        23.2503496,
        43.1924459
      ],
      [
        23.2535021,
        43.1938739
      ],
      [
        23.2543293,
        43.1942483
      ],
      [
        23.255016,
        43.1945282
      ],
      [
        23.2560108,
        43.1948711
      ],
      [
        23.2586384,
        43.1958013
      ],
      [
        23.2595143,
        43.1960851
      ],
      [
        23.260255,
        43.1962743
      ],
      [
        23.2631097,
        43.1968774
      ],
      [
        23.2654995,
        43.1973661
      ],
      [
        23.2690408,
        43.1980165
      ],
      [
        23.2695166,
        43.1980677
      ],
      [
        23.2702411,
        43.1980637
      ],
      [
        23.2712681,
        43.1979961
      ],
      [
        23.2715434,
        43.197932
      ],
      [
        23.2719257,
        43.1977452
      ],
      [
        23.2724571,
        43.1973188
      ],
      [
        23.2733937,
        43.1965217
      ],
      [
        23.2736881,
        43.1963183
      ],
      [
        23.2740433,
        43.1961781
      ],
      [
        23.2789603,
        43.1951054
      ],
      [
        23.279902,
        43.1948954
      ],
      [
        23.2803527,
        43.1947958
      ],
      [
        23.2814081,
        43.1945987
      ],
      [
        23.2825914,
        43.1943486
      ],
      [
        23.2827044,
        43.1943286
      ],
      [
        23.2835888,
        43.1941205
      ],
      [
        23.2834851,
        43.1933994
      ],
      [
        23.2834033,
        43.193133
      ],
      [
        23.283614,
        43.1930281
      ],
      [
        23.2838041,
        43.1931105
      ],
      [
        23.2839906,
        43.1932662
      ],
      [
        23.2851919,
        43.1943581
      ],
      [
        23.2853043,
        43.1944555
      ],
      [
        23.2853972,
        43.194563
      ],
      [
        23.2865927,
        43.1938731
      ]
    ]
  }
},
{
  "type": "Feature",
  "id": "way/176586238",
  "properties": {
    "highway": "tertiary",
    "ref": "812",
    "smoothness": "good",
    "id": "way/176586238"
  },
  "geometry": {
    "type": "LineString",
    "coordinates": [
      [
        23.2865927,
        43.1938731
      ],
      [
        23.2873152,
        43.1945208
      ],
      [
        23.2878929,
        43.195087
      ],
      [
        23.2886001,
        43.1959503
      ],
      [
        23.2887905,
        43.1963697
      ],
      [
        23.2890105,
        43.196867
      ],
      [
        23.2894638,
        43.1978319
      ],
      [
        23.2899034,
        43.1986364
      ],
      [
        23.2903631,
        43.1995172
      ],
      [
        23.2905871,
        43.1998427
      ],
      [
        23.2919656,
        43.2011109
      ],
      [
        23.2922067,
        43.2013437
      ],
      [
        23.2953653,
        43.2041623
      ],
      [
        23.2956335,
        43.2044634
      ],
      [
        23.2982575,
        43.2086832
      ],
      [
        23.2991212,
        43.2100164
      ],
      [
        23.2993089,
        43.2102119
      ],
      [
        23.2996415,
        43.2104778
      ],
      [
        23.3002209,
        43.2108179
      ],
      [
        23.3017873,
        43.2114318
      ],
      [
        23.3025168,
        43.2121473
      ],
      [
        23.3028548,
        43.2123623
      ],
      [
        23.3054029,
        43.2136798
      ],
      [
        23.3063524,
        43.2142194
      ],
      [
        23.3071034,
        43.2145126
      ],
      [
        23.3074253,
        43.2147159
      ],
      [
        23.3083675,
        43.2156975
      ],
      [
        23.3090991,
        43.2159937
      ],
      [
        23.3094073,
        43.2161875
      ]
    ]
  }
}
]
}
