{
"type": "FeatureCollection",
"features": [
{
  "type": "Feature",
  "id": "way/286613026",
  "properties": {
    "highway": "tertiary",
    "lanes": "2",
    "name": "235",
    "ref": "235",
    "surface": "asphalt",
    "id": "way/286613026"
  },
  "geometry": {
    "type": "LineString",
    "coordinates": [
      [
        26.9125594,
        43.8268793
      ],
      [
        26.912489,
        43.8270224
      ],
      [
        26.912441,
        43.8271674
      ],
      [
        26.912418,
        43.8273504
      ],
      [
        26.912441,
        43.8275984
      ],
      [
        26.912498,
        43.8278994
      ],
      [
        26.912515,
        43.8280794
      ],
      [
        26.912462,
        43.8282204
      ],
      [
        26.912326,
        43.8283494
      ],
      [
        26.912161,
        43.8284334
      ],
      [
        26.91192,
        43.8284684
      ],
      [
        26.911705,
        43.8284454
      ],
      [
        26.911501,
        43.8283724
      ],
      [
        26.911367,
        43.8282464
      ],
      [
        26.911298,
        43.8280714
      ],
      [
        26.911115,
        43.8273084
      ],
      [
        26.911003,
        43.8269044
      ],
      [
        26.910284,
        43.8253434
      ],
      [
        26.910165,
        43.8251644
      ],
      [
        26.91002,
        43.8250044
      ],
      [
        26.909834,
        43.8248894
      ],
      [
        26.909635,
        43.8248174
      ],
      [
        26.909402,
        43.8247904
      ],
      [
        26.9092074,
        43.8247991
      ],
      [
        26.9088607,
        43.8248374
      ],
      [
        26.9085201,
        43.824886
      ],
      [
        26.908239,
        43.8249394
      ],
      [
        26.9080111,
        43.825014
      ],
      [
        26.9078796,
        43.8250741
      ],
      [
        26.9077667,
        43.8251417
      ],
      [
        26.9076705,
        43.8252277
      ],
      [
        26.9075783,
        43.8253441
      ],
      [
        26.907534,
        43.8254478
      ],
      [
        26.907505,
        43.8255534
      ],
      [
        26.907484,
        43.8257334
      ],
      [
        26.907514,
        43.8261414
      ],
      [
        26.907505,
        43.8263394
      ],
      [
        26.907434,
        43.8265184
      ],
      [
        26.907316,
        43.8266524
      ],
      [
        26.90715,
        43.8267474
      ],
      [
        26.906946,
        43.8268044
      ],
      [
        26.906667,
        43.8268244
      ],
      [
        26.9064296,
        43.8267823
      ],
      [
        26.906105,
        43.8266674
      ],
      [
        26.905416,
        43.8263894
      ],
      [
        26.904918,
        43.8262214
      ],
      [
        26.904485,
        43.8261254
      ],
      [
        26.903621,
        43.8259774
      ],
      [
        26.903331,
        43.8259544
      ],
      [
        26.903068,
        43.8259544
      ],
      [
        26.902795,
        43.8259694
      ],
      [
        26.902523,
        43.8260154
      ],
      [
        26.902313,
        43.8260804
      ],
      [
        26.902135,
        43.8261524
      ],
      [
        26.901979,
        43.8262444
      ],
      [
        26.901479,
        43.8266374
      ],
      [
        26.899913,
        43.8280214
      ],
      [
        26.89977,
        43.8281284
      ],
      [
        26.899629,
        43.8282274
      ],
      [
        26.899469,
        43.8283194
      ],
      [
        26.899318,
        43.8284034
      ],
      [
        26.89917,
        43.8284684
      ],
      [
        26.899023,
        43.8285174
      ],
      [
        26.898723,
        43.8286014
      ],
      [
        26.898407,
        43.8286814
      ],
      [
        26.897827,
        43.8288074
      ],
      [
        26.8967,
        43.8290364
      ],
      [
        26.896539,
        43.8290784
      ],
      [
        26.8964,
        43.8291284
      ],
      [
        26.896293,
        43.8291624
      ],
      [
        26.896202,
        43.8292084
      ],
      [
        26.89604,
        43.8292994
      ],
      [
        26.8953814,
        43.8297404
      ],
      [
        26.895155,
        43.8298984
      ],
      [
        26.895017,
        43.8299944
      ],
      [
        26.89492,
        43.8300434
      ],
      [
        26.894823,
        43.8300774
      ],
      [
        26.8939567,
        43.8303707
      ],
      [
        26.8938687,
        43.8304124
      ],
      [
        26.8938074,
        43.8304499
      ],
      [
        26.8937359,
        43.8305048
      ],
      [
        26.893682,
        43.8305712
      ],
      [
        26.8936476,
        43.8306355
      ],
      [
        26.8936198,
        43.8307186
      ],
      [
        26.8935815,
        43.8309306
      ],
      [
        26.893482,
        43.8314814
      ],
      [
        26.893461,
        43.8315584
      ],
      [
        26.893432,
        43.8316264
      ],
      [
        26.893402,
        43.8316834
      ],
      [
        26.893343,
        43.8317444
      ],
      [
        26.8933159,
        43.8317692
      ],
      [
        26.8932797,
        43.8318022
      ],
      [
        26.8931863,
        43.8318628
      ],
      [
        26.8930859,
        43.8319072
      ],
      [
        26.8918602,
        43.8324489
      ],
      [
        26.8916828,
        43.8325172
      ],
      [
        26.8915552,
        43.8325507
      ],
      [
        26.891454,
        43.8325654
      ],
      [
        26.8913569,
        43.8325643
      ],
      [
        26.8912254,
        43.8325487
      ],
      [
        26.8909185,
        43.8324713
      ],
      [
        26.8903077,
        43.8323137
      ],
      [
        26.890189,
        43.8322924
      ],
      [
        26.8900434,
        43.8322847
      ],
      [
        26.8898636,
        43.8322903
      ],
      [
        26.8894123,
        43.8323279
      ],
      [
        26.8892058,
        43.8323527
      ],
      [
        26.88904,
        43.8323839
      ],
      [
        26.8889221,
        43.8324218
      ],
      [
        26.8888135,
        43.8324765
      ],
      [
        26.8887212,
        43.8325582
      ],
      [
        26.8886737,
        43.8326159
      ],
      [
        26.888631,
        43.832688
      ],
      [
        26.888412,
        43.8331294
      ],
      [
        26.887172,
        43.8356704
      ],
      [
        26.887083,
        43.8358194
      ],
      [
        26.886991,
        43.8359604
      ],
      [
        26.8869,
        43.8360824
      ],
      [
        26.886802,
        43.8361894
      ],
      [
        26.886697,
        43.8362844
      ],
      [
        26.886572,
        43.8363764
      ],
      [
        26.884153,
        43.8379364
      ],
      [
        26.88401,
        43.8380234
      ],
      [
        26.883869,
        43.8381044
      ],
      [
        26.883714,
        43.8381724
      ],
      [
        26.883564,
        43.8382334
      ],
      [
        26.883403,
        43.8382914
      ],
      [
        26.883253,
        43.8383364
      ],
      [
        26.883075,
        43.8383824
      ],
      [
        26.882887,
        43.8384134
      ],
      [
        26.882684,
        43.8384394
      ],
      [
        26.882484,
        43.8384624
      ],
      [
        26.8808823,
        43.8386011
      ],
      [
        26.8793363,
        43.838735
      ],
      [
        26.8782218,
        43.8388288
      ],
      [
        26.8770014,
        43.8389253
      ],
      [
        26.8768212,
        43.8389441
      ],
      [
        26.876699,
        43.8389709
      ],
      [
        26.8765881,
        43.8390101
      ],
      [
        26.8764558,
        43.8390663
      ],
      [
        26.8760535,
        43.8393197
      ],
      [
        26.87575,
        43.8395225
      ],
      [
        26.8756196,
        43.8396291
      ],
      [
        26.8755255,
        43.8397309
      ],
      [
        26.875457,
        43.8398318
      ],
      [
        26.8754015,
        43.839939
      ],
      [
        26.8753615,
        43.8400412
      ],
      [
        26.8748792,
        43.841333
      ],
      [
        26.8745011,
        43.8423685
      ],
      [
        26.8744454,
        43.842552
      ],
      [
        26.8744082,
        43.8427543
      ],
      [
        26.8743122,
        43.8434291
      ],
      [
        26.8742484,
        43.843752
      ],
      [
        26.874176,
        43.8441694
      ],
      [
        26.874138,
        43.8443564
      ],
      [
        26.874111,
        43.8444824
      ],
      [
        26.874063,
        43.8446154
      ],
      [
        26.874014,
        43.8447344
      ],
      [
        26.873956,
        43.8448374
      ],
      [
        26.8738464,
        43.8449824
      ],
      [
        26.8737705,
        43.8450599
      ],
      [
        26.8736432,
        43.8451576
      ],
      [
        26.873512,
        43.8452524
      ],
      [
        26.8733586,
        43.8453479
      ],
      [
        26.873205,
        43.8454284
      ],
      [
        26.873056,
        43.8455007
      ],
      [
        26.8728389,
        43.8455765
      ],
      [
        26.8724104,
        43.8456952
      ],
      [
        26.868171,
        43.8467364
      ],
      [
        26.867969,
        43.8467934
      ],
      [
        26.86778,
        43.8468514
      ],
      [
        26.86762,
        43.8469044
      ],
      [
        26.867475,
        43.8469614
      ],
      [
        26.867321,
        43.8470414
      ],
      [
        26.86718,
        43.8471254
      ],
      [
        26.86704,
        43.8472134
      ],
      [
        26.866901,
        43.8473284
      ],
      [
        26.866682,
        43.8475454
      ],
      [
        26.866001,
        43.8483424
      ],
      [
        26.865871,
        43.8484764
      ],
      [
        26.865747,
        43.8485984
      ],
      [
        26.86561,
        43.8487124
      ],
      [
        26.865469,
        43.8488044
      ],
      [
        26.865335,
        43.8488844
      ],
      [
        26.8652,
        43.8489644
      ],
      [
        26.861562,
        43.8509134
      ],
      [
        26.86141,
        43.8509974
      ],
      [
        26.861274,
        43.8510894
      ],
      [
        26.861147,
        43.8511774
      ],
      [
        26.861038,
        43.8512604
      ],
      [
        26.860954,
        43.8513414
      ],
      [
        26.860872,
        43.8514444
      ],
      [
        26.860798,
        43.8515474
      ],
      [
        26.860727,
        43.8516614
      ],
      [
        26.860443,
        43.8521954
      ],
      [
        26.860368,
        43.8523294
      ],
      [
        26.860286,
        43.8524514
      ],
      [
        26.860185,
        43.8525734
      ],
      [
        26.860069,
        43.8526764
      ],
      [
        26.859933,
        43.8527794
      ],
      [
        26.859766,
        43.8528704
      ],
      [
        26.859584,
        43.8529544
      ],
      [
        26.859413,
        43.8530114
      ],
      [
        26.85922,
        43.8530464
      ],
      [
        26.859027,
        43.8530724
      ],
      [
        26.858827,
        43.8530764
      ],
      [
        26.85864,
        43.8530724
      ],
      [
        26.858287,
        43.8530534
      ],
      [
        26.857942,
        43.8530274
      ],
      [
        26.857492,
        43.8530084
      ],
      [
        26.857267,
        43.8530114
      ],
      [
        26.857057,
        43.8530304
      ],
      [
        26.856861,
        43.8530574
      ],
      [
        26.856666,
        43.8530954
      ],
      [
        26.856483,
        43.8531414
      ],
      [
        26.856279,
        43.8532064
      ],
      [
        26.856098,
        43.8532864
      ],
      [
        26.855932,
        43.8533704
      ],
      [
        26.855775,
        43.8534584
      ],
      [
        26.855613,
        43.8535654
      ],
      [
        26.854461,
        43.8545075
      ],
      [
        26.854213,
        43.8547095
      ],
      [
        26.854082,
        43.8547895
      ],
      [
        26.853946,
        43.8548545
      ],
      [
        26.853786,
        43.8549195
      ],
      [
        26.853609,
        43.8549845
      ],
      [
        26.853405,
        43.8550295
      ],
      [
        26.853201,
        43.8550525
      ],
      [
        26.852981,
        43.8550645
      ],
      [
        26.85276,
        43.8550565
      ],
      [
        26.851993,
        43.8549805
      ],
      [
        26.851587,
        43.8549455
      ],
      [
        26.851427,
        43.8549455
      ],
      [
        26.8513103,
        43.8549507
      ],
      [
        26.8511809,
        43.8549596
      ],
      [
        26.8510592,
        43.8549763
      ],
      [
        26.8509375,
        43.8550051
      ],
      [
        26.850785,
        43.8550451
      ],
      [
        26.8506386,
        43.8550996
      ],
      [
        26.8505123,
        43.8551618
      ],
      [
        26.8503967,
        43.8552329
      ],
      [
        26.8502596,
        43.8553373
      ],
      [
        26.8501549,
        43.8554328
      ],
      [
        26.8500594,
        43.8555484
      ],
      [
        26.8499608,
        43.8557017
      ],
      [
        26.8499022,
        43.8558316
      ],
      [
        26.8498622,
        43.8559416
      ],
      [
        26.8498252,
        43.8560838
      ],
      [
        26.849628,
        43.8570095
      ],
      [
        26.8495774,
        43.857327
      ],
      [
        26.8495604,
        43.857497
      ],
      [
        26.8495651,
        43.8576758
      ],
      [
        26.8495835,
        43.8578235
      ],
      [
        26.8496174,
        43.8579568
      ],
      [
        26.8496667,
        43.8580968
      ],
      [
        26.8497222,
        43.8582312
      ],
      [
        26.849863,
        43.8585571
      ],
      [
        26.850229,
        43.8593515
      ],
      [
        26.850578,
        43.8601455
      ],
      [
        26.850711,
        43.8605155
      ],
      [
        26.8509219,
        43.8612665
      ],
      [
        26.851328,
        43.8627125
      ],
      [
        26.851389,
        43.8629685
      ],
      [
        26.851431,
        43.8632235
      ],
      [
        26.851427,
        43.8633765
      ],
      [
        26.851398,
        43.8635325
      ],
      [
        26.8510628,
        43.8644551
      ],
      [
        26.8509699,
        43.8647251
      ],
      [
        26.8507623,
        43.8653029
      ],
      [
        26.8502318,
        43.8667389
      ],
      [
        26.8501839,
        43.8668842
      ],
      [
        26.8501411,
        43.8670304
      ],
      [
        26.850107,
        43.8671535
      ],
      [
        26.8500807,
        43.8672837
      ],
      [
        26.849971,
        43.8680305
      ],
      [
        26.84959,
        43.8705095
      ],
      [
        26.849189,
        43.8731685
      ],
      [
        26.849172,
        43.8732985
      ],
      [
        26.849166,
        43.8734095
      ],
      [
        26.849166,
        43.8735425
      ],
      [
        26.849178,
        43.8736795
      ],
      [
        26.849189,
        43.8737905
      ],
      [
        26.84922,
        43.8739275
      ],
      [
        26.849258,
        43.8740575
      ],
      [
        26.849306,
        43.8741875
      ],
      [
        26.849954,
        43.8756105
      ],
      [
        26.849998,
        43.8757245
      ],
      [
        26.850048,
        43.8758545
      ],
      [
        26.850074,
        43.8759845
      ],
      [
        26.85009,
        43.8761095
      ],
      [
        26.850095,
        43.8762395
      ],
      [
        26.850084,
        43.8763695
      ],
      [
        26.850048,
        43.8765405
      ],
      [
        26.849975,
        43.8767085
      ],
      [
        26.849374,
        43.8779715
      ],
      [
        26.848915,
        43.8790245
      ],
      [
        26.848829,
        43.8792185
      ],
      [
        26.848764,
        43.8794015
      ],
      [
        26.848734,
        43.8795015
      ],
      [
        26.848711,
        43.8796115
      ],
      [
        26.848255,
        43.8821795
      ],
      [
        26.848219,
        43.8823505
      ],
      [
        26.848175,
        43.8825035
      ],
      [
        26.848125,
        43.8826485
      ],
      [
        26.848074,
        43.8827855
      ],
      [
        26.848018,
        43.8829035
      ],
      [
        26.847959,
        43.8830255
      ],
      [
        26.8467301,
        43.8849541
      ],
      [
        26.8465821,
        43.8851397
      ],
      [
        26.8464592,
        43.8852754
      ],
      [
        26.8463128,
        43.8854262
      ],
      [
        26.8461803,
        43.8855484
      ],
      [
        26.8460403,
        43.8856938
      ],
      [
        26.8458793,
        43.8858275
      ],
      [
        26.8453348,
        43.8862316
      ],
      [
        26.8420996,
        43.8888161
      ],
      [
        26.84193,
        43.8889348
      ],
      [
        26.8417042,
        43.8891281
      ],
      [
        26.8399897,
        43.8904344
      ],
      [
        26.8398175,
        43.890606
      ],
      [
        26.8396754,
        43.8907274
      ],
      [
        26.8395134,
        43.8908906
      ],
      [
        26.8393878,
        43.8910135
      ],
      [
        26.8392478,
        43.8911608
      ],
      [
        26.8391438,
        43.8912903
      ],
      [
        26.8390306,
        43.8914708
      ],
      [
        26.8389088,
        43.8916854
      ],
      [
        26.8374014,
        43.8943327
      ],
      [
        26.8358704,
        43.8969277
      ],
      [
        26.8344091,
        43.8994433
      ],
      [
        26.8343174,
        43.8995917
      ],
      [
        26.8337482,
        43.9007173
      ],
      [
        26.8336195,
        43.900911
      ],
      [
        26.8335358,
        43.901066
      ],
      [
        26.8334704,
        43.9012306
      ],
      [
        26.8334269,
        43.9013895
      ],
      [
        26.8333604,
        43.9015661
      ],
      [
        26.8333191,
        43.901795
      ],
      [
        26.8331362,
        43.9032332
      ],
      [
        26.8331163,
        43.903392
      ],
      [
        26.8330981,
        43.9035157
      ],
      [
        26.8330959,
        43.9036584
      ],
      [
        26.8331211,
        43.9038342
      ],
      [
        26.8334312,
        43.9046602
      ],
      [
        26.833862,
        43.9060122
      ],
      [
        26.8339827,
        43.9063724
      ],
      [
        26.8340368,
        43.906532
      ],
      [
        26.834046,
        43.906697
      ],
      [
        26.8340481,
        43.9068609
      ],
      [
        26.834039,
        43.9070197
      ],
      [
        26.8340229,
        43.9071654
      ],
      [
        26.8340111,
        43.9073262
      ],
      [
        26.8338904,
        43.9078379
      ],
      [
        26.8338915,
        43.9079894
      ],
      [
        26.8338877,
        43.9082418
      ],
      [
        26.8339097,
        43.9084509
      ],
      [
        26.8339505,
        43.9086124
      ],
      [
        26.8340374,
        43.9095914
      ],
      [
        26.834084,
        43.9107357
      ],
      [
        26.8341942,
        43.9114235
      ],
      [
        26.8358538,
        43.9117563
      ],
      [
        26.8360249,
        43.9118112
      ],
      [
        26.8361654,
        43.9118588
      ],
      [
        26.8363178,
        43.9119643
      ],
      [
        26.8375865,
        43.9128523
      ],
      [
        26.8382549,
        43.9133137
      ],
      [
        26.8383284,
        43.9134277
      ],
      [
        26.8383745,
        43.9135182
      ],
      [
        26.8383933,
        43.9136248
      ],
      [
        26.8384029,
        43.9138181
      ],
      [
        26.8385174,
        43.9148381
      ]
    ]
  }
},
{
  "type": "Feature",
  "id": "way/164492407",
  "properties": {
    "highway": "tertiary",
    "name": "235",
    "ref": "235",
    "smoothness": "good",
    "id": "way/164492407"
  },
  "geometry": {
    "type": "LineString",
    "coordinates": [
      [
        26.8385174,
        43.9148381
      ],
      [
        26.8386754,
        43.9150915
      ],
      [
        26.8386931,
        43.9152094
      ],
      [
        26.8388407,
        43.917299
      ],
      [
        26.8388774,
        43.9180939
      ],
      [
        26.838889,
        43.9182454
      ],
      [
        26.8389297,
        43.918387
      ],
      [
        26.8390059,
        43.9185883
      ],
      [
        26.8391362,
        43.9188394
      ],
      [
        26.8399548,
        43.9201863
      ],
      [
        26.8408468,
        43.9216093
      ],
      [
        26.8426248,
        43.9244663
      ],
      [
        26.8435328,
        43.9259123
      ],
      [
        26.8444218,
        43.9273663
      ],
      [
        26.8453178,
        43.9288073
      ],
      [
        26.8461918,
        43.9302274
      ],
      [
        26.8479788,
        43.9331034
      ],
      [
        26.8497158,
        43.9359374
      ],
      [
        26.8514828,
        43.9387524
      ],
      [
        26.8532088,
        43.9415984
      ],
      [
        26.8551238,
        43.9446924
      ],
      [
        26.8568728,
        43.9475224
      ],
      [
        26.8577578,
        43.9489454
      ],
      [
        26.8581928,
        43.9496514
      ],
      [
        26.8586586,
        43.9504443
      ]
    ]
  }
},
{
  "type": "Feature",
  "id": "way/339137714",
  "properties": {
    "highway": "tertiary",
    "name": "235",
    "ref": "235",
    "smoothness": "good",
    "id": "way/339137714"
  },
  "geometry": {
    "type": "LineString",
    "coordinates": [
      [
        26.8586586,
        43.9504443
      ],
      [
        26.8591207,
        43.9511779
      ],
      [
        26.8603958,
        43.9532024
      ],
      [
        26.8605308,
        43.9534124
      ],
      [
        26.8605748,
        43.9535044
      ],
      [
        26.8606048,
        43.9536074
      ],
      [
        26.8608038,
        43.9542214
      ],
      [
        26.8608268,
        43.9542974
      ],
      [
        26.8608358,
        43.9543774
      ],
      [
        26.8608318,
        43.9544544
      ],
      [
        26.8608098,
        43.9545454
      ],
      [
        26.8606729,
        43.9549871
      ],
      [
        26.8605469,
        43.9552204
      ],
      [
        26.8605268,
        43.9553076
      ],
      [
        26.8605282,
        43.955404
      ],
      [
        26.8606055,
        43.9558859
      ],
      [
        26.8609353,
        43.9572889
      ],
      [
        26.86118,
        43.9584391
      ],
      [
        26.8612478,
        43.9587304
      ],
      [
        26.8612998,
        43.9588834
      ],
      [
        26.8613718,
        43.9590394
      ],
      [
        26.8617318,
        43.9596012
      ],
      [
        26.8617861,
        43.9597094
      ],
      [
        26.8621537,
        43.960313
      ],
      [
        26.8623958,
        43.9609274
      ],
      [
        26.8624628,
        43.9611564
      ],
      [
        26.8625258,
        43.9613964
      ],
      [
        26.8625468,
        43.9616184
      ],
      [
        26.8625877,
        43.9619008
      ],
      [
        26.8624931,
        43.9618464
      ],
      [
        26.8627107,
        43.9639199
      ],
      [
        26.8628122,
        43.9656574
      ],
      [
        26.8627721,
        43.9658813
      ],
      [
        26.8627533,
        43.9659464
      ],
      [
        26.8627337,
        43.9660165
      ],
      [
        26.8626931,
        43.9661349
      ],
      [
        26.8620812,
        43.9681462
      ],
      [
        26.8611356,
        43.9712803
      ],
      [
        26.8610577,
        43.9715108
      ],
      [
        26.8609763,
        43.9717094
      ],
      [
        26.8609009,
        43.9718536
      ],
      [
        26.8608089,
        43.9719822
      ],
      [
        26.8606494,
        43.9721817
      ],
      [
        26.8604689,
        43.9723485
      ],
      [
        26.8552308,
        43.9765446
      ],
      [
        26.853543,
        43.9778031
      ],
      [
        26.8519073,
        43.9790666
      ],
      [
        26.8516054,
        43.9793324
      ],
      [
        26.8514567,
        43.979475
      ],
      [
        26.8512706,
        43.9796633
      ],
      [
        26.8505255,
        43.9805155
      ],
      [
        26.8481791,
        43.9833076
      ],
      [
        26.8457677,
        43.9859237
      ],
      [
        26.8456579,
        43.9860485
      ],
      [
        26.8455698,
        43.9861672
      ],
      [
        26.8453787,
        43.9864448
      ],
      [
        26.8450885,
        43.986922
      ],
      [
        26.8448528,
        43.9873805
      ],
      [
        26.8442084,
        43.9884625
      ],
      [
        26.8425582,
        43.9912793
      ],
      [
        26.841863,
        43.9924776
      ],
      [
        26.8410377,
        43.9939005
      ],
      [
        26.8395879,
        43.9964111
      ],
      [
        26.8390614,
        43.9972184
      ],
      [
        26.8384964,
        43.9977946
      ]
    ]
  }
},
{
  "type": "Feature",
  "id": "way/258645287",
  "properties": {
    "bicycle": "yes",
    "foot": "yes",
    "highway": "tertiary",
    "horse": "yes",
    "name": "ул. \"Дунав\"",
    "name:en": "Dunav Str.",
    "ref": "235",
    "smoothness": "intermediate",
    "surface": "asphalt",
    "id": "way/258645287"
  },
  "geometry": {
    "type": "LineString",
    "coordinates": [
      [
        26.8242528,
        44.0029508
      ],
      [
        26.8247116,
        44.004183
      ],
      [
        26.8247361,
        44.0056741
      ],
      [
        26.8247369,
        44.0057247
      ],
      [
        26.8247596,
        44.0071817
      ],
      [
        26.8248137,
        44.0074173
      ],
      [
        26.8250846,
        44.0084493
      ]
    ]
  }
},
{
  "type": "Feature",
  "id": "way/258784627",
  "properties": {
    "bicycle": "yes",
    "foot": "yes",
    "highway": "tertiary",
    "horse": "yes",
    "name": "ул. \"Генерал Атила Зафиров\"",
    "name:en": "General Atila Zafirov Str.",
    "ref": "235",
    "smoothness": "intermediate",
    "surface": "asphalt",
    "id": "way/258784627"
  },
  "geometry": {
    "type": "LineString",
    "coordinates": [
      [
        26.8385589,
        43.9978553
      ],
      [
        26.8381299,
        43.9981739
      ],
      [
        26.8374676,
        43.9987731
      ],
      [
        26.8368683,
        43.9993153
      ],
      [
        26.8358381,
        44.0000718
      ],
      [
        26.8350917,
        44.0005716
      ],
      [
        26.8342343,
        44.001141
      ],
      [
        26.8336998,
        44.0015001
      ],
      [
        26.8335529,
        44.0015731
      ],
      [
        26.8333937,
        44.0016337
      ],
      [
        26.8328005,
        44.0017993
      ],
      [
        26.8325019,
        44.0018826
      ],
      [
        26.8307779,
        44.0023656
      ],
      [
        26.8301177,
        44.0024514
      ],
      [
        26.8299468,
        44.0024579
      ],
      [
        26.8288329,
        44.0024118
      ],
      [
        26.8280191,
        44.0023935
      ],
      [
        26.8264232,
        44.002628
      ],
      [
        26.8251051,
        44.0028151
      ],
      [
        26.8242528,
        44.0029508
      ]
    ]
  }
},
{
  "type": "Feature",
  "id": "way/258645288",
  "properties": {
    "highway": "tertiary",
    "name": "235",
    "ref": "235",
    "smoothness": "intermediate",
    "surface": "asphalt",
    "id": "way/258645288"
  },
  "geometry": {
    "type": "LineString",
    "coordinates": [
      [
        26.8250846,
        44.0084493
      ],
      [
        26.8273461,
        44.0175208
      ],
      [
        26.8316106,
        44.0348414
      ],
      [
        26.8407247,
        44.0469422
      ]
    ]
  }
},
{
  "type": "Feature",
  "id": "way/175858929",
  "properties": {
    "highway": "tertiary",
    "name": "235",
    "ref": "235",
    "smoothness": "intermediate",
    "surface": "asphalt",
    "id": "way/175858929"
  },
  "geometry": {
    "type": "LineString",
    "coordinates": [
      [
        26.8407247,
        44.0469422
      ],
      [
        26.8459791,
        44.0539386
      ],
      [
        26.8462865,
        44.0543153
      ],
      [
        26.8467076,
        44.0548313
      ],
      [
        26.8477744,
        44.0554014
      ],
      [
        26.8485683,
        44.0557572
      ],
      [
        26.8488072,
        44.0558612
      ],
      [
        26.8490107,
        44.0559733
      ],
      [
        26.8491363,
        44.0560776
      ],
      [
        26.8492041,
        44.0561842
      ],
      [
        26.8492448,
        44.0562923
      ],
      [
        26.8492706,
        44.0563945
      ],
      [
        26.84926,
        44.0565115
      ],
      [
        26.8492282,
        44.056598
      ],
      [
        26.8491287,
        44.0567775
      ],
      [
        26.8487935,
        44.0572039
      ],
      [
        26.8484638,
        44.0576473
      ],
      [
        26.8482791,
        44.057886
      ],
      [
        26.8481721,
        44.0580124
      ],
      [
        26.8480675,
        44.0581215
      ],
      [
        26.8479595,
        44.0582004
      ],
      [
        26.8478144,
        44.058278
      ],
      [
        26.8476622,
        44.0583428
      ],
      [
        26.8473225,
        44.0584674
      ],
      [
        26.8463638,
        44.0588208
      ],
      [
        26.8461953,
        44.0589105
      ],
      [
        26.8461275,
        44.058957
      ],
      [
        26.8460744,
        44.0590041
      ],
      [
        26.8460436,
        44.0590395
      ],
      [
        26.8460169,
        44.0590726
      ],
      [
        26.8459773,
        44.0591364
      ],
      [
        26.8459336,
        44.0592463
      ],
      [
        26.8459221,
        44.0593094
      ],
      [
        26.8459182,
        44.0593769
      ],
      [
        26.8459228,
        44.0594317
      ],
      [
        26.8459315,
        44.0594823
      ],
      [
        26.845949,
        44.0595368
      ],
      [
        26.8459713,
        44.0595877
      ],
      [
        26.8460214,
        44.0596691
      ],
      [
        26.8460731,
        44.0597314
      ],
      [
        26.8473516,
        44.0610629
      ],
      [
        26.8474263,
        44.0611575
      ],
      [
        26.8474829,
        44.0612542
      ],
      [
        26.8475036,
        44.0613181
      ],
      [
        26.8475116,
        44.0613943
      ],
      [
        26.8475291,
        44.0618183
      ],
      [
        26.8475568,
        44.0619407
      ],
      [
        26.8475966,
        44.0620468
      ],
      [
        26.8476284,
        44.0620962
      ],
      [
        26.8476656,
        44.0621409
      ],
      [
        26.8477594,
        44.0622248
      ],
      [
        26.8487528,
        44.0631458
      ]
    ]
  }
},
{
  "type": "Feature",
  "id": "way/286616613",
  "properties": {
    "highway": "tertiary",
    "lanes": "2",
    "name": "235",
    "ref": "235",
    "surface": "asphalt",
    "id": "way/286616613"
  },
  "geometry": {
    "type": "LineString",
    "coordinates": [
      [
        26.9807227,
        43.7779972
      ],
      [
        26.9805425,
        43.778166
      ],
      [
        26.9804292,
        43.7782411
      ],
      [
        26.9803031,
        43.7783051
      ],
      [
        26.9801362,
        43.778354
      ],
      [
        26.9799646,
        43.7783801
      ],
      [
        26.9797824,
        43.7783742
      ],
      [
        26.9796007,
        43.7783412
      ],
      [
        26.9794322,
        43.7782773
      ],
      [
        26.9792839,
        43.7781846
      ],
      [
        26.9791357,
        43.7780512
      ],
      [
        26.9786075,
        43.7774888
      ],
      [
        26.9784254,
        43.7773304
      ],
      [
        26.9782947,
        43.7772503
      ],
      [
        26.9781452,
        43.7771778
      ],
      [
        26.9779759,
        43.7771222
      ],
      [
        26.9777422,
        43.7770743
      ],
      [
        26.9775031,
        43.7770633
      ],
      [
        26.9772499,
        43.7770838
      ],
      [
        26.9770238,
        43.7771303
      ],
      [
        26.9768041,
        43.7772121
      ],
      [
        26.9765963,
        43.777339
      ],
      [
        26.9764569,
        43.7774555
      ],
      [
        26.9763302,
        43.7776141
      ],
      [
        26.976255,
        43.777758
      ],
      [
        26.9762321,
        43.777839
      ],
      [
        26.9762153,
        43.7778983
      ],
      [
        26.9762127,
        43.7780277
      ],
      [
        26.9762387,
        43.7782032
      ],
      [
        26.9763827,
        43.7786692
      ],
      [
        26.9770797,
        43.7809272
      ],
      [
        26.9771159,
        43.7810525
      ],
      [
        26.9771327,
        43.7811752
      ],
      [
        26.9771251,
        43.7812733
      ],
      [
        26.9771007,
        43.7813732
      ],
      [
        26.9770547,
        43.781486
      ],
      [
        26.9769937,
        43.7815942
      ],
      [
        26.9768953,
        43.7817215
      ],
      [
        26.9767878,
        43.7818272
      ],
      [
        26.9766508,
        43.7819171
      ],
      [
        26.976492,
        43.7819988
      ],
      [
        26.9763019,
        43.7820677
      ],
      [
        26.9760447,
        43.7821109
      ],
      [
        26.9755017,
        43.7821632
      ],
      [
        26.9692944,
        43.7827563
      ],
      [
        26.969173,
        43.7827679
      ],
      [
        26.9689922,
        43.7827858
      ],
      [
        26.9642956,
        43.7832502
      ],
      [
        26.9641886,
        43.7832606
      ],
      [
        26.9618514,
        43.7834873
      ],
      [
        26.9604433,
        43.7836238
      ],
      [
        26.9594436,
        43.7837204
      ],
      [
        26.959399,
        43.7837247
      ],
      [
        26.9591347,
        43.7837502
      ],
      [
        26.9587057,
        43.7838302
      ],
      [
        26.9583247,
        43.7839412
      ],
      [
        26.9568117,
        43.7844522
      ],
      [
        26.9564487,
        43.7845765
      ],
      [
        26.9543876,
        43.7852823
      ],
      [
        26.9543759,
        43.7852863
      ],
      [
        26.9527485,
        43.7858513
      ],
      [
        26.951876,
        43.7861517
      ],
      [
        26.9511294,
        43.7864073
      ],
      [
        26.9497935,
        43.7868619
      ],
      [
        26.9490972,
        43.7870928
      ],
      [
        26.9487204,
        43.7872196
      ],
      [
        26.9483448,
        43.7873293
      ],
      [
        26.9476233,
        43.7875046
      ],
      [
        26.9472642,
        43.7875711
      ],
      [
        26.9466443,
        43.7876579
      ],
      [
        26.9461546,
        43.7877085
      ],
      [
        26.9446939,
        43.7878506
      ],
      [
        26.9424203,
        43.7880869
      ],
      [
        26.9412319,
        43.7882075
      ],
      [
        26.9408155,
        43.7882528
      ]
    ]
  }
},
{
  "type": "Feature",
  "id": "way/339137343",
  "properties": {
    "highway": "tertiary",
    "lanes": "2",
    "name": "235",
    "ref": "235",
    "surface": "asphalt",
    "id": "way/339137343"
  },
  "geometry": {
    "type": "LineString",
    "coordinates": [
      [
        26.9408155,
        43.7882528
      ],
      [
        26.9407675,
        43.7882588
      ],
      [
        26.9403887,
        43.7883059
      ],
      [
        26.9399791,
        43.7883996
      ],
      [
        26.93969,
        43.7884973
      ],
      [
        26.9385297,
        43.7890032
      ],
      [
        26.9366885,
        43.7898383
      ],
      [
        26.9364742,
        43.7899318
      ],
      [
        26.9362878,
        43.790047
      ],
      [
        26.9361825,
        43.790142
      ],
      [
        26.9360991,
        43.7902396
      ],
      [
        26.9359675,
        43.790439
      ],
      [
        26.9358106,
        43.7907564
      ],
      [
        26.9353292,
        43.7917511
      ],
      [
        26.9350257,
        43.7923442
      ],
      [
        26.9338582,
        43.7947331
      ],
      [
        26.9335764,
        43.7953097
      ],
      [
        26.9328326,
        43.7967974
      ],
      [
        26.9324307,
        43.7976012
      ],
      [
        26.931277,
        43.8000051
      ],
      [
        26.9311157,
        43.8003066
      ],
      [
        26.9309177,
        43.8005988
      ],
      [
        26.9307045,
        43.8008282
      ],
      [
        26.9303947,
        43.8010547
      ],
      [
        26.930058,
        43.8012319
      ],
      [
        26.9275565,
        43.8022995
      ],
      [
        26.9271877,
        43.8024573
      ],
      [
        26.9268449,
        43.8026392
      ],
      [
        26.9265835,
        43.8028225
      ],
      [
        26.9263596,
        43.8030189
      ],
      [
        26.9261573,
        43.8032623
      ],
      [
        26.9260022,
        43.8035251
      ]
    ]
  }
},
{
  "type": "Feature",
  "id": "way/286616348",
  "properties": {
    "highway": "tertiary",
    "lanes": "2",
    "name": "235",
    "ref": "235",
    "surface": "asphalt",
    "id": "way/286616348"
  },
  "geometry": {
    "type": "LineString",
    "coordinates": [
      [
        26.9260022,
        43.8035251
      ],
      [
        26.9254243,
        43.80477
      ],
      [
        26.9241783,
        43.807555
      ],
      [
        26.9229353,
        43.810332
      ],
      [
        26.9217223,
        43.813067
      ],
      [
        26.9204933,
        43.81581
      ],
      [
        26.9192923,
        43.818488
      ],
      [
        26.9180787,
        43.8212423
      ],
      [
        26.9180077,
        43.8214274
      ],
      [
        26.9179319,
        43.821652
      ],
      [
        26.9175917,
        43.8232779
      ],
      [
        26.9175314,
        43.8234912
      ],
      [
        26.9171289,
        43.8245062
      ],
      [
        26.9166814,
        43.8256447
      ],
      [
        26.9166037,
        43.8257099
      ],
      [
        26.9165054,
        43.825766
      ],
      [
        26.9137017,
        43.8262869
      ],
      [
        26.9134179,
        43.826356
      ],
      [
        26.9131777,
        43.826443
      ],
      [
        26.9129448,
        43.8265605
      ],
      [
        26.9127792,
        43.8266615
      ],
      [
        26.9126534,
        43.8267629
      ],
      [
        26.9125594,
        43.8268793
      ]
    ]
  }
},
{
  "type": "Feature",
  "id": "way/246750630",
  "properties": {
    "highway": "tertiary",
    "lanes": "2",
    "name": "235",
    "ref": "235",
    "surface": "asphalt",
    "id": "way/246750630"
  },
  "geometry": {
    "type": "LineString",
    "coordinates": [
      [
        27.019149,
        43.748067
      ],
      [
        27.0190621,
        43.7481492
      ],
      [
        27.0175478,
        43.7488564
      ],
      [
        27.0174869,
        43.7488834
      ],
      [
        27.0159206,
        43.7496064
      ],
      [
        27.0154608,
        43.7498187
      ],
      [
        27.0150962,
        43.7499585
      ],
      [
        27.01473,
        43.7500716
      ],
      [
        27.0143066,
        43.7501743
      ],
      [
        27.0131368,
        43.7504347
      ],
      [
        27.0119318,
        43.7506983
      ],
      [
        27.0113062,
        43.7508352
      ],
      [
        27.0110332,
        43.7508821
      ],
      [
        27.0107917,
        43.7509026
      ],
      [
        27.0105271,
        43.7508971
      ],
      [
        27.0087983,
        43.7508084
      ],
      [
        27.0085086,
        43.7508027
      ],
      [
        27.0082754,
        43.7508385
      ],
      [
        27.0079745,
        43.7509319
      ],
      [
        27.0077403,
        43.7510575
      ],
      [
        27.0070673,
        43.7515717
      ],
      [
        27.0045108,
        43.7536068
      ],
      [
        27.0043313,
        43.7537877
      ],
      [
        27.0041657,
        43.7540316
      ],
      [
        27.0040641,
        43.7542682
      ],
      [
        27.0040125,
        43.7545013
      ],
      [
        27.0039943,
        43.7547377
      ],
      [
        27.0040573,
        43.7555927
      ],
      [
        27.0040844,
        43.7558553
      ],
      [
        27.0041812,
        43.756156
      ],
      [
        27.0043006,
        43.7563785
      ],
      [
        27.0044507,
        43.7565813
      ],
      [
        27.0046217,
        43.7567631
      ],
      [
        27.0048589,
        43.7569449
      ],
      [
        27.0051396,
        43.7571209
      ],
      [
        27.0066633,
        43.7579149
      ],
      [
        27.0068892,
        43.7580559
      ],
      [
        27.0070586,
        43.758205
      ],
      [
        27.0071715,
        43.7583693
      ],
      [
        27.0072296,
        43.7585966
      ],
      [
        27.0072293,
        43.7587817
      ],
      [
        27.0071246,
        43.7590631
      ],
      [
        27.0061817,
        43.7608548
      ],
      [
        27.0060423,
        43.7610627
      ],
      [
        27.0058899,
        43.7612236
      ],
      [
        27.0057028,
        43.7613507
      ],
      [
        27.0054414,
        43.7614538
      ],
      [
        27.0051684,
        43.7615088
      ],
      [
        27.0038955,
        43.7616587
      ],
      [
        26.9994339,
        43.7621713
      ],
      [
        26.9990373,
        43.7622516
      ],
      [
        26.9986407,
        43.7623814
      ],
      [
        26.9983063,
        43.7625467
      ],
      [
        26.9956276,
        43.7641205
      ],
      [
        26.9944443,
        43.7648157
      ],
      [
        26.9899653,
        43.7674517
      ],
      [
        26.9860117,
        43.7697496
      ]
    ]
  }
},
{
  "type": "Feature",
  "id": "way/286616612",
  "properties": {
    "highway": "tertiary",
    "lanes": "2",
    "name": "235",
    "ref": "235",
    "surface": "asphalt",
    "id": "way/286616612"
  },
  "geometry": {
    "type": "LineString",
    "coordinates": [
      [
        26.9860117,
        43.7697496
      ],
      [
        26.9858077,
        43.7698975
      ],
      [
        26.9855877,
        43.7700925
      ],
      [
        26.9854217,
        43.7702905
      ],
      [
        26.9852927,
        43.7704965
      ],
      [
        26.9852067,
        43.7706985
      ],
      [
        26.9851357,
        43.7709545
      ],
      [
        26.9850617,
        43.7712595
      ],
      [
        26.9843747,
        43.7740715
      ],
      [
        26.9842887,
        43.7743225
      ],
      [
        26.9841827,
        43.7745445
      ],
      [
        26.9840587,
        43.7747385
      ],
      [
        26.9838977,
        43.7749335
      ],
      [
        26.9834847,
        43.7753415
      ],
      [
        26.9807227,
        43.7779972
      ]
    ]
  }
}
]
}
