{
"type": "FeatureCollection",
"features": [
{
  "type": "Feature",
  "id": "way/164752233",
  "properties": {
    "highway": "tertiary",
    "name": "607",
    "ref": "607",
    "id": "way/164752233"
  },
  "geometry": {
    "type": "LineString",
    "coordinates": [
      [
        24.9459228,
        42.8217799
      ],
      [
        24.9461953,
        42.8212971
      ],
      [
        24.9463633,
        42.821177
      ],
      [
        24.9463235,
        42.8207617
      ],
      [
        24.9465035,
        42.8206093
      ],
      [
        24.9469193,
        42.8201413
      ],
      [
        24.9478582,
        42.8198544
      ],
      [
        24.9499512,
        42.8183335
      ],
      [
        24.9502641,
        42.8176448
      ],
      [
        24.9543131,
        42.8135986
      ],
      [
        24.9551738,
        42.8127663
      ],
      [
        24.957345,
        42.8113888
      ],
      [
        24.9577362,
        42.8112022
      ],
      [
        24.9582644,
        42.8105565
      ],
      [
        24.9587925,
        42.8102408
      ],
      [
        24.9596532,
        42.8100543
      ],
      [
        24.9629589,
        42.8085188
      ],
      [
        24.9637804,
        42.8084184
      ],
      [
        24.965267,
        42.8078443
      ],
      [
        24.9659712,
        42.8078156
      ],
      [
        24.9667145,
        42.8075143
      ],
      [
        24.9677317,
        42.8073564
      ],
      [
        24.9691791,
        42.806438
      ],
      [
        24.9718981,
        42.8056057
      ],
      [
        24.9739519,
        42.8043284
      ],
      [
        24.9748908,
        42.8041418
      ],
      [
        24.9753212,
        42.804027
      ],
      [
        24.9763966,
        42.80392
      ],
      [
        24.9772549,
        42.8032903
      ],
      [
        24.9781132,
        42.8026605
      ],
      [
        24.9791431,
        42.8020938
      ],
      [
        24.9800014,
        42.80159
      ],
      [
        24.9814606,
        42.8008973
      ],
      [
        24.9824047,
        42.8002675
      ],
      [
        24.9836922,
        42.799008
      ],
      [
        24.985323,
        42.7980633
      ],
      [
        24.9862671,
        42.7974965
      ],
      [
        24.9881554,
        42.7963628
      ],
      [
        24.9894428,
        42.7956071
      ],
      [
        24.990387,
        42.7943474
      ],
      [
        24.9911594,
        42.7932138
      ],
      [
        24.9909019,
        42.7919541
      ],
      [
        24.9908161,
        42.7908833
      ],
      [
        24.9906445,
        42.7900015
      ],
      [
        24.9905586,
        42.7892457
      ],
      [
        24.9909019,
        42.7882379
      ],
      [
        24.9913311,
        42.787167
      ],
      [
        24.9918461,
        42.7862222
      ],
      [
        24.9922584,
        42.7848737
      ],
      [
        24.9923549,
        42.7841931
      ],
      [
        24.9924103,
        42.7840234
      ],
      [
        24.9925608,
        42.7838328
      ]
    ]
  }
},
{
  "type": "Feature",
  "id": "way/194422785",
  "properties": {
    "highway": "tertiary",
    "name": "607",
    "ref": "607",
    "id": "way/194422785"
  },
  "geometry": {
    "type": "LineString",
    "coordinates": [
      [
        24.9925608,
        42.7838328
      ],
      [
        24.9927936,
        42.7837282
      ],
      [
        24.9930359,
        42.7836794
      ],
      [
        24.9932101,
        42.783598
      ],
      [
        24.9932101,
        42.7835201
      ],
      [
        24.9931277,
        42.7833899
      ],
      [
        24.9930137,
        42.7833167
      ],
      [
        24.9927518,
        42.7833235
      ],
      [
        24.9925823,
        42.7833456
      ],
      [
        24.9924145,
        42.7833514
      ],
      [
        24.9923385,
        42.7832793
      ],
      [
        24.9923697,
        42.7831674
      ],
      [
        24.992466,
        42.7829512
      ],
      [
        24.9924716,
        42.782832
      ],
      [
        24.9924459,
        42.7826076
      ]
    ]
  }
},
{
  "type": "Feature",
  "id": "way/164752230",
  "properties": {
    "highway": "tertiary",
    "name": "607",
    "ref": "607",
    "smoothness": "good",
    "id": "way/164752230"
  },
  "geometry": {
    "type": "LineString",
    "coordinates": [
      [
        24.8346903,
        42.8906126
      ],
      [
        24.8356055,
        42.8902325
      ],
      [
        24.8362979,
        42.8898875
      ],
      [
        24.83648,
        42.8897968
      ],
      [
        24.8365156,
        42.8897682
      ],
      [
        24.8369114,
        42.8894508
      ],
      [
        24.837162,
        42.8892586
      ],
      [
        24.8373719,
        42.8891476
      ],
      [
        24.8391733,
        42.8889981
      ],
      [
        24.8394356,
        42.8889425
      ],
      [
        24.8396455,
        42.8888614
      ],
      [
        24.8400303,
        42.8886991
      ],
      [
        24.8406424,
        42.8885026
      ],
      [
        24.8416509,
        42.888336
      ],
      [
        24.8428693,
        42.8880712
      ],
      [
        24.8434581,
        42.8880071
      ],
      [
        24.8441693,
        42.8879601
      ],
      [
        24.8455987,
        42.8879262
      ],
      [
        24.8457464,
        42.8879243
      ],
      [
        24.8462214,
        42.887926
      ],
      [
        24.8467344,
        42.8879601
      ],
      [
        24.8472358,
        42.888037
      ],
      [
        24.8477805,
        42.88807
      ],
      [
        24.8483842,
        42.8880498
      ],
      [
        24.8490313,
        42.8879858
      ],
      [
        24.8498883,
        42.8877978
      ],
      [
        24.8506228,
        42.8876911
      ],
      [
        24.8523542,
        42.8874433
      ],
      [
        24.8565924,
        42.8866659
      ],
      [
        24.8573503,
        42.8864993
      ],
      [
        24.8590875,
        42.8857347
      ],
      [
        24.8597813,
        42.8853247
      ],
      [
        24.8603431,
        42.8848987
      ],
      [
        24.8608948,
        42.8842312
      ],
      [
        24.8612269,
        42.8838839
      ],
      [
        24.8614952,
        42.8836032
      ],
      [
        24.8621232,
        42.8829186
      ],
      [
        24.8626903,
        42.8823004
      ],
      [
        24.8630957,
        42.8818727
      ],
      [
        24.8635006,
        42.88154
      ],
      [
        24.8639262,
        42.8811812
      ],
      [
        24.8641725,
        42.880989
      ],
      [
        24.8643751,
        42.8808309
      ],
      [
        24.8650805,
        42.880361
      ],
      [
        24.8658208,
        42.8797971
      ],
      [
        24.8659526,
        42.8796976
      ],
      [
        24.8662056,
        42.8795066
      ],
      [
        24.8664505,
        42.8791392
      ],
      [
        24.8664796,
        42.8789982
      ],
      [
        24.8664388,
        42.8788786
      ],
      [
        24.8662056,
        42.8784728
      ],
      [
        24.8659374,
        42.8780797
      ],
      [
        24.8657567,
        42.8776397
      ],
      [
        24.8656926,
        42.8773193
      ],
      [
        24.8658675,
        42.8766443
      ],
      [
        24.8659332,
        42.8762839
      ],
      [
        24.8655061,
        42.8734328
      ],
      [
        24.8653257,
        42.8722199
      ],
      [
        24.8652013,
        42.8712413
      ],
      [
        24.8651856,
        42.8709124
      ],
      [
        24.8651754,
        42.8706781
      ],
      [
        24.8652941,
        42.870371
      ],
      [
        24.8656695,
        42.869885
      ],
      [
        24.8671842,
        42.8689741
      ],
      [
        24.8677795,
        42.868569
      ],
      [
        24.8678682,
        42.8683001
      ],
      [
        24.8679574,
        42.8674064
      ],
      [
        24.8679653,
        42.8660152
      ],
      [
        24.867966,
        42.8658845
      ],
      [
        24.8675675,
        42.8645015
      ],
      [
        24.8666927,
        42.8624756
      ],
      [
        24.8665834,
        42.8621454
      ],
      [
        24.8665405,
        42.8618269
      ],
      [
        24.866621,
        42.8615555
      ],
      [
        24.8667443,
        42.8613039
      ],
      [
        24.8667883,
        42.8612198
      ],
      [
        24.8671145,
        42.8605961
      ],
      [
        24.8671735,
        42.8603641
      ],
      [
        24.8671325,
        42.8590278
      ],
      [
        24.8670951,
        42.8578063
      ],
      [
        24.8671038,
        42.8574739
      ],
      [
        24.8672095,
        42.8571989
      ],
      [
        24.8673559,
        42.8569902
      ],
      [
        24.8677475,
        42.8565812
      ],
      [
        24.8680854,
        42.8563444
      ],
      [
        24.869271,
        42.8559048
      ],
      [
        24.8702527,
        42.8556689
      ],
      [
        24.8712129,
        42.8554408
      ],
      [
        24.8717654,
        42.8552953
      ],
      [
        24.8725433,
        42.8549846
      ],
      [
        24.873069,
        42.8546976
      ],
      [
        24.875191,
        42.853829
      ],
      [
        24.8758979,
        42.853659
      ],
      [
        24.8767496,
        42.8536383
      ],
      [
        24.8770427,
        42.8535762
      ],
      [
        24.8773065,
        42.8535404
      ],
      [
        24.8775313,
        42.8534783
      ],
      [
        24.8777462,
        42.85339
      ],
      [
        24.8779318,
        42.8532968
      ],
      [
        24.8782347,
        42.8530366
      ],
      [
        24.8785897,
        42.8526761
      ],
      [
        24.8792182,
        42.8523323
      ],
      [
        24.8800292,
        42.8520338
      ],
      [
        24.8807,
        42.8517664
      ],
      [
        24.8809899,
        42.851628
      ],
      [
        24.8815501,
        42.8512603
      ],
      [
        24.8819897,
        42.8509738
      ],
      [
        24.8821981,
        42.8508687
      ],
      [
        24.8825271,
        42.8508019
      ],
      [
        24.8837418,
        42.8507326
      ],
      [
        24.8843932,
        42.8506323
      ],
      [
        24.8852491,
        42.8503949
      ],
      [
        24.8858131,
        42.850076
      ],
      [
        24.8861257,
        42.8499041
      ],
      [
        24.8864123,
        42.8497967
      ],
      [
        24.8867543,
        42.8497465
      ],
      [
        24.8874968,
        42.849694
      ],
      [
        24.8883989,
        42.849663
      ],
      [
        24.8894997,
        42.8496009
      ],
      [
        24.8905158,
        42.849546
      ],
      [
        24.8931277,
        42.8489371
      ],
      [
        24.8946095,
        42.848567
      ],
      [
        24.8951892,
        42.8484166
      ],
      [
        24.8957103,
        42.8482877
      ],
      [
        24.8960718,
        42.8481778
      ],
      [
        24.896163,
        42.8481253
      ],
      [
        24.8963486,
        42.8479916
      ],
      [
        24.8964724,
        42.8479247
      ],
      [
        24.8966515,
        42.8478746
      ],
      [
        24.8968534,
        42.8478436
      ],
      [
        24.8972182,
        42.8477934
      ],
      [
        24.89813,
        42.8476334
      ],
      [
        24.89898,
        42.847495
      ],
      [
        24.8994067,
        42.8473875
      ],
      [
        24.8996695,
        42.8473074
      ],
      [
        24.8997226,
        42.8472801
      ],
      [
        24.8999573,
        42.8471663
      ],
      [
        24.9006019,
        42.846664
      ],
      [
        24.9011425,
        42.8463536
      ],
      [
        24.9014617,
        42.8461626
      ],
      [
        24.9018036,
        42.8458689
      ],
      [
        24.9020316,
        42.8456468
      ],
      [
        24.9021908,
        42.845729
      ]
    ]
  }
},
{
  "type": "Feature",
  "id": "way/30354797",
  "properties": {
    "highway": "tertiary",
    "name": "607",
    "ref": "607",
    "id": "way/30354797"
  },
  "geometry": {
    "type": "LineString",
    "coordinates": [
      [
        24.7912899,
        42.9012379
      ],
      [
        24.7927177,
        42.9016866
      ],
      [
        24.7945016,
        42.9021075
      ],
      [
        24.7961399,
        42.9021881
      ],
      [
        24.7991332,
        42.9022793
      ],
      [
        24.799867,
        42.9022446
      ],
      [
        24.8003423,
        42.9022024
      ],
      [
        24.8005824,
        42.9021285
      ],
      [
        24.8007553,
        42.9020125
      ],
      [
        24.8008979,
        42.9018866
      ],
      [
        24.8011426,
        42.9016669
      ],
      [
        24.8014931,
        42.9015481
      ],
      [
        24.8021191,
        42.9013894
      ],
      [
        24.8026142,
        42.9012974
      ],
      [
        24.8034967,
        42.9011805
      ],
      [
        24.8039853,
        42.9011089
      ],
      [
        24.8045147,
        42.901084
      ],
      [
        24.8049468,
        42.9010945
      ],
      [
        24.805052,
        42.901119
      ],
      [
        24.8054461,
        42.9012106
      ],
      [
        24.8058926,
        42.9013372
      ],
      [
        24.8062047,
        42.9013759
      ],
      [
        24.8064736,
        42.9013477
      ],
      [
        24.8067283,
        42.9012816
      ],
      [
        24.8094692,
        42.9000683
      ],
      [
        24.8095508,
        42.9000322
      ],
      [
        24.8113994,
        42.8992216
      ],
      [
        24.8119567,
        42.8989772
      ],
      [
        24.8124623,
        42.8985321
      ],
      [
        24.812648,
        42.8983687
      ],
      [
        24.8134067,
        42.8977461
      ],
      [
        24.8136371,
        42.8975457
      ],
      [
        24.8138148,
        42.8972819
      ],
      [
        24.8141749,
        42.896603
      ],
      [
        24.814492,
        42.8961769
      ],
      [
        24.8146694,
        42.895991
      ],
      [
        24.8147426,
        42.8959623
      ],
      [
        24.8149107,
        42.8958965
      ],
      [
        24.8155891,
        42.895939
      ],
      [
        24.8157251,
        42.895996
      ],
      [
        24.8163703,
        42.8964138
      ],
      [
        24.8167651,
        42.8966895
      ],
      [
        24.8176925,
        42.8971335
      ],
      [
        24.8181649,
        42.8972915
      ],
      [
        24.818544,
        42.8972995
      ],
      [
        24.8189329,
        42.8972502
      ],
      [
        24.8208679,
        42.8966628
      ],
      [
        24.8217129,
        42.8964166
      ],
      [
        24.821815,
        42.8963766
      ],
      [
        24.8224072,
        42.8961447
      ],
      [
        24.8231709,
        42.8953714
      ],
      [
        24.8235609,
        42.8950277
      ],
      [
        24.8239842,
        42.8948394
      ],
      [
        24.8254739,
        42.8942626
      ],
      [
        24.8260604,
        42.8941721
      ],
      [
        24.8268187,
        42.8942274
      ],
      [
        24.8273728,
        42.8943518
      ],
      [
        24.8279628,
        42.8947042
      ],
      [
        24.8282135,
        42.8948195
      ],
      [
        24.8284525,
        42.8948665
      ],
      [
        24.8286682,
        42.8948452
      ],
      [
        24.8289538,
        42.8947256
      ],
      [
        24.8300445,
        42.8939706
      ],
      [
        24.8305278,
        42.8936151
      ],
      [
        24.8311108,
        42.8930984
      ],
      [
        24.8320267,
        42.8922668
      ],
      [
        24.833229,
        42.8912751
      ],
      [
        24.8346903,
        42.8906126
      ]
    ]
  }
},
{
  "type": "Feature",
  "id": "way/322322466",
  "properties": {
    "highway": "tertiary",
    "name": "607",
    "ref": "607",
    "smoothness": "good",
    "id": "way/322322466"
  },
  "geometry": {
    "type": "LineString",
    "coordinates": [
      [
        24.902669,
        42.8459775
      ],
      [
        24.902868,
        42.8460335
      ],
      [
        24.9030346,
        42.8460427
      ],
      [
        24.9031714,
        42.8460122
      ],
      [
        24.904373,
        42.8455763
      ],
      [
        24.9049713,
        42.8453951
      ],
      [
        24.9053394,
        42.845325
      ],
      [
        24.9064472,
        42.8452342
      ],
      [
        24.906886,
        42.8451823
      ],
      [
        24.9072117,
        42.8450993
      ],
      [
        24.9080681,
        42.8447982
      ],
      [
        24.9088078,
        42.8445699
      ],
      [
        24.9092432,
        42.8444505
      ],
      [
        24.9097457,
        42.844383
      ],
      [
        24.909905,
        42.8443467
      ],
      [
        24.9100465,
        42.8442974
      ],
      [
        24.9108721,
        42.8438035
      ],
      [
        24.9114481,
        42.8436357
      ],
      [
        24.911717,
        42.8434878
      ],
      [
        24.9118374,
        42.8434047
      ],
      [
        24.9119294,
        42.8433087
      ],
      [
        24.9120816,
        42.8431011
      ],
      [
        24.9122302,
        42.842878
      ],
      [
        24.9127788,
        42.8425925
      ],
      [
        24.9129452,
        42.8424212
      ],
      [
        24.9130478,
        42.8422603
      ],
      [
        24.9131306,
        42.8420593
      ],
      [
        24.9133132,
        42.8415389
      ],
      [
        24.9134036,
        42.8413995
      ],
      [
        24.9136539,
        42.8410134
      ],
      [
        24.9139007,
        42.8407604
      ],
      [
        24.9140069,
        42.8407267
      ],
      [
        24.9140698,
        42.8407681
      ]
    ]
  }
},
{
  "type": "Feature",
  "id": "way/322322467",
  "properties": {
    "bridge": "yes",
    "highway": "tertiary",
    "name": "607",
    "ref": "607",
    "smoothness": "good",
    "id": "way/322322467"
  },
  "geometry": {
    "type": "LineString",
    "coordinates": [
      [
        24.9021908,
        42.845729
      ],
      [
        24.902669,
        42.8459775
      ]
    ]
  }
},
{
  "type": "Feature",
  "id": "way/164752232",
  "properties": {
    "highway": "tertiary",
    "name": "607",
    "ref": "607",
    "smoothness": "good",
    "id": "way/164752232"
  },
  "geometry": {
    "type": "LineString",
    "coordinates": [
      [
        24.9243873,
        42.8323483
      ],
      [
        24.924585,
        42.8322093
      ],
      [
        24.9250911,
        42.8320121
      ],
      [
        24.9255618,
        42.8319031
      ],
      [
        24.9261175,
        42.8318278
      ],
      [
        24.9275898,
        42.8316176
      ],
      [
        24.9283436,
        42.8316202
      ],
      [
        24.9302937,
        42.8316747
      ],
      [
        24.9317589,
        42.8318823
      ],
      [
        24.933033,
        42.8320536
      ],
      [
        24.9340559,
        42.832186
      ],
      [
        24.9346752,
        42.8322742
      ],
      [
        24.9351636,
        42.8323002
      ],
      [
        24.9361121,
        42.8321263
      ],
      [
        24.9370536,
        42.8319602
      ],
      [
        24.9376021,
        42.8318564
      ],
      [
        24.938402,
        42.8315631
      ],
      [
        24.9391028,
        42.8312464
      ],
      [
        24.939985,
        42.8309328
      ],
      [
        24.9411484,
        42.8305846
      ],
      [
        24.9416899,
        42.8304262
      ],
      [
        24.942017,
        42.8303271
      ],
      [
        24.9420438,
        42.8303172
      ],
      [
        24.9423517,
        42.8301745
      ],
      [
        24.9424402,
        42.830107
      ],
      [
        24.9426278,
        42.8298396
      ],
      [
        24.9431021,
        42.8290454
      ],
      [
        24.9437639,
        42.827976
      ],
      [
        24.9439869,
        42.8275763
      ],
      [
        24.9441426,
        42.8272959
      ],
      [
        24.9442629,
        42.8270675
      ],
      [
        24.9443485,
        42.8267355
      ],
      [
        24.9442487,
        42.8249295
      ],
      [
        24.9449375,
        42.8232746
      ],
      [
        24.9453484,
        42.8221753
      ],
      [
        24.9454025,
        42.8220187
      ],
      [
        24.9459228,
        42.8217799
      ]
    ]
  }
},
{
  "type": "Feature",
  "id": "way/322323647",
  "properties": {
    "highway": "tertiary",
    "name": "607",
    "ref": "607",
    "smoothness": "good",
    "id": "way/322323647"
  },
  "geometry": {
    "type": "LineString",
    "coordinates": [
      [
        24.9142227,
        42.8409097
      ],
      [
        24.9144847,
        42.8411185
      ],
      [
        24.9146864,
        42.8412405
      ],
      [
        24.9149448,
        42.8413313
      ],
      [
        24.9152633,
        42.841404
      ],
      [
        24.9154615,
        42.8414014
      ],
      [
        24.9159641,
        42.8412301
      ],
      [
        24.9165339,
        42.8410433
      ],
      [
        24.9171356,
        42.8408901
      ],
      [
        24.9177726,
        42.8408305
      ],
      [
        24.9184592,
        42.8405969
      ],
      [
        24.9187742,
        42.8404827
      ],
      [
        24.9190255,
        42.8403556
      ],
      [
        24.9191755,
        42.8402906
      ],
      [
        24.9194894,
        42.8401546
      ],
      [
        24.919882,
        42.8400104
      ],
      [
        24.9200235,
        42.8399559
      ],
      [
        24.9201014,
        42.8398547
      ],
      [
        24.9201616,
        42.8397509
      ],
      [
        24.9201616,
        42.8396419
      ],
      [
        24.9201333,
        42.839468
      ],
      [
        24.9201156,
        42.8392967
      ],
      [
        24.9201439,
        42.8391929
      ],
      [
        24.9204094,
        42.8389637
      ],
      [
        24.9206429,
        42.8386998
      ],
      [
        24.9207101,
        42.838609
      ],
      [
        24.9207243,
        42.8384014
      ],
      [
        24.920653,
        42.8378808
      ],
      [
        24.9206187,
        42.8375547
      ],
      [
        24.9205478,
        42.8371592
      ],
      [
        24.9204726,
        42.8367606
      ],
      [
        24.9204231,
        42.8364171
      ],
      [
        24.9204532,
        42.8362816
      ],
      [
        24.9205241,
        42.8361303
      ],
      [
        24.9206294,
        42.8358735
      ],
      [
        24.9207325,
        42.8357175
      ],
      [
        24.9209796,
        42.8354182
      ],
      [
        24.9211494,
        42.8352118
      ],
      [
        24.9214588,
        42.8348667
      ],
      [
        24.9219315,
        42.8345201
      ],
      [
        24.9222237,
        42.8343247
      ],
      [
        24.9225009,
        42.8341514
      ],
      [
        24.9226728,
        42.83403
      ],
      [
        24.9227848,
        42.8338923
      ],
      [
        24.9228898,
        42.8336062
      ],
      [
        24.9233486,
        42.8329201
      ],
      [
        24.9242047,
        42.8324046
      ],
      [
        24.9243873,
        42.8323483
      ]
    ]
  }
},
{
  "type": "Feature",
  "id": "way/322323648",
  "properties": {
    "bridge": "yes",
    "highway": "tertiary",
    "name": "607",
    "ref": "607",
    "smoothness": "good",
    "id": "way/322323648"
  },
  "geometry": {
    "type": "LineString",
    "coordinates": [
      [
        24.9140698,
        42.8407681
      ],
      [
        24.9142227,
        42.8409097
      ]
    ]
  }
}
]
}
