{
"type": "FeatureCollection",
"features": [
{
  "type": "Feature",
  "id": "way/256832363",
  "properties": {
    "highway": "tertiary",
    "name": "216",
    "ref": "216",
    "smoothness": "good",
    "id": "way/256832363"
  },
  "geometry": {
    "type": "LineString",
    "coordinates": [
      [
        27.0907443,
        43.8775332
      ],
      [
        27.091927,
        43.874573
      ],
      [
        27.092134,
        43.87413
      ],
      [
        27.092241,
        43.873928
      ],
      [
        27.092403,
        43.873699
      ],
      [
        27.092854,
        43.873165
      ],
      [
        27.093084,
        43.872925
      ],
      [
        27.095343,
        43.870457
      ],
      [
        27.096153,
        43.869564
      ],
      [
        27.096367,
        43.869308
      ],
      [
        27.096453,
        43.869198
      ],
      [
        27.096527,
        43.869053
      ],
      [
        27.096586,
        43.868931
      ],
      [
        27.096621,
        43.868809
      ],
      [
        27.09729,
        43.866531
      ],
      [
        27.097794,
        43.864845
      ],
      [
        27.09787,
        43.864628
      ],
      [
        27.097982,
        43.864437
      ],
      [
        27.098127,
        43.864239
      ],
      [
        27.098347,
        43.864017
      ],
      [
        27.100374,
        43.862228
      ],
      [
        27.100744,
        43.861916
      ],
      [
        27.10339,
        43.859539
      ],
      [
        27.105974,
        43.857258
      ],
      [
        27.106779,
        43.856548
      ],
      [
        27.106962,
        43.856369
      ],
      [
        27.10714,
        43.85614
      ],
      [
        27.107187,
        43.856049
      ],
      [
        27.107229,
        43.855961
      ],
      [
        27.107306,
        43.855736
      ],
      [
        27.107841,
        43.853622
      ],
      [
        27.108229,
        43.852108
      ],
      [
        27.108271,
        43.851959
      ],
      [
        27.108318,
        43.851826
      ],
      [
        27.108374,
        43.851727
      ],
      [
        27.108437,
        43.85162
      ],
      [
        27.108513,
        43.851517
      ],
      [
        27.108608,
        43.851414
      ],
      [
        27.108797,
        43.851234
      ],
      [
        27.111719,
        43.848923
      ],
      [
        27.113808,
        43.84726
      ],
      [
        27.114843,
        43.846432
      ],
      [
        27.115009,
        43.846287
      ],
      [
        27.115149,
        43.846142
      ],
      [
        27.115276,
        43.845966
      ],
      [
        27.115696,
        43.845226
      ],
      [
        27.115829,
        43.844971
      ],
      [
        27.115883,
        43.844868
      ],
      [
        27.1159363,
        43.8447683
      ],
      [
        27.1160053,
        43.84467
      ],
      [
        27.1160915,
        43.8445929
      ],
      [
        27.1161941,
        43.8445345
      ],
      [
        27.116318,
        43.844471
      ],
      [
        27.1170313,
        43.8441695
      ],
      [
        27.117723,
        43.8438722
      ],
      [
        27.119043,
        43.843586
      ],
      [
        27.119932,
        43.843414
      ],
      [
        27.120689,
        43.843266
      ],
      [
        27.120846,
        43.843243
      ],
      [
        27.121021,
        43.843231
      ],
      [
        27.125511,
        43.842865
      ],
      [
        27.125689,
        43.84285
      ],
      [
        27.125856,
        43.842819
      ],
      [
        27.126017,
        43.842773
      ],
      [
        27.126179,
        43.842709
      ],
      [
        27.126312,
        43.842628
      ],
      [
        27.126446,
        43.842529
      ],
      [
        27.127926,
        43.841114
      ],
      [
        27.128035,
        43.841019
      ],
      [
        27.128145,
        43.840939
      ],
      [
        27.128281,
        43.840855
      ],
      [
        27.128431,
        43.840771
      ],
      [
        27.128586,
        43.840698
      ],
      [
        27.128748,
        43.84063
      ],
      [
        27.134825,
        43.838173
      ],
      [
        27.13695,
        43.837311
      ],
      [
        27.137056,
        43.837257
      ],
      [
        27.137159,
        43.837196
      ],
      [
        27.137308,
        43.83707
      ],
      [
        27.137379,
        43.836987
      ],
      [
        27.137444,
        43.836891
      ]
    ]
  }
},
{
  "type": "Feature",
  "id": "way/256310684",
  "properties": {
    "bicycle": "yes",
    "foot": "yes",
    "highway": "tertiary",
    "horse": "yes",
    "name": "ул. \"Стефан Стамболов\"",
    "name:en": "Stefan Stambolov Str.",
    "ref": "216",
    "smoothness": "good",
    "surface": "asphalt",
    "id": "way/256310684"
  },
  "geometry": {
    "type": "LineString",
    "coordinates": [
      [
        27.137444,
        43.836891
      ],
      [
        27.1374983,
        43.8367964
      ],
      [
        27.137877,
        43.836136
      ],
      [
        27.1382811,
        43.835467
      ],
      [
        27.1383769,
        43.8353083
      ],
      [
        27.1384862,
        43.8351274
      ],
      [
        27.139149,
        43.83403
      ],
      [
        27.1392361,
        43.8338807
      ],
      [
        27.1395597,
        43.833326
      ],
      [
        27.139723,
        43.833046
      ],
      [
        27.139744,
        43.832962
      ],
      [
        27.139767,
        43.832855
      ],
      [
        27.139755,
        43.832748
      ],
      [
        27.1396134,
        43.8319714
      ],
      [
        27.1395378,
        43.8315922
      ],
      [
        27.1390896,
        43.8295996
      ],
      [
        27.1390247,
        43.8290441
      ],
      [
        27.1391134,
        43.8288277
      ]
    ]
  }
},
{
  "type": "Feature",
  "id": "way/256310688",
  "properties": {
    "bicycle": "yes",
    "foot": "yes",
    "highway": "tertiary",
    "horse": "yes",
    "name": "ул. \"Силистренско шосе\"",
    "name:en": "Silistrensko shose Str.",
    "ref": "216",
    "smoothness": "good",
    "surface": "asphalt",
    "id": "way/256310688"
  },
  "geometry": {
    "type": "LineString",
    "coordinates": [
      [
        27.1391134,
        43.8288277
      ],
      [
        27.1392352,
        43.8286211
      ],
      [
        27.1395456,
        43.8283566
      ],
      [
        27.139678,
        43.8282698
      ],
      [
        27.1400288,
        43.828038
      ],
      [
        27.1402423,
        43.8278934
      ],
      [
        27.140812,
        43.8275868
      ]
    ]
  }
},
{
  "type": "Feature",
  "id": "way/256836784",
  "properties": {
    "highway": "tertiary",
    "name": "216",
    "ref": "216",
    "smoothness": "good",
    "id": "way/256836784"
  },
  "geometry": {
    "type": "LineString",
    "coordinates": [
      [
        27.043549,
        43.940731
      ],
      [
        27.043379,
        43.940514
      ],
      [
        27.04332,
        43.940411
      ],
      [
        27.04327,
        43.9403
      ],
      [
        27.043249,
        43.940189
      ],
      [
        27.043243,
        43.940071
      ],
      [
        27.043276,
        43.939949
      ],
      [
        27.043324,
        43.939835
      ],
      [
        27.043421,
        43.939663
      ],
      [
        27.044638,
        43.937817
      ],
      [
        27.044847,
        43.937557
      ],
      [
        27.045105,
        43.93729
      ],
      [
        27.047277,
        43.935394
      ],
      [
        27.049971,
        43.933071
      ],
      [
        27.051371,
        43.931923
      ],
      [
        27.052385,
        43.931046
      ],
      [
        27.052513,
        43.930927
      ],
      [
        27.052626,
        43.930798
      ],
      [
        27.052717,
        43.930683
      ],
      [
        27.052792,
        43.930553
      ],
      [
        27.052847,
        43.930454
      ],
      [
        27.052895,
        43.930336
      ],
      [
        27.053688,
        43.92812
      ],
      [
        27.05415,
        43.926487
      ],
      [
        27.054171,
        43.926365
      ],
      [
        27.054167,
        43.92627
      ],
      [
        27.054144,
        43.926174
      ],
      [
        27.054117,
        43.926083
      ],
      [
        27.054058,
        43.925983
      ],
      [
        27.053993,
        43.925903
      ],
      [
        27.053892,
        43.925819
      ],
      [
        27.053774,
        43.925739
      ],
      [
        27.0527976,
        43.9251526
      ]
    ]
  }
},
{
  "type": "Feature",
  "id": "way/256977922",
  "properties": {
    "highway": "tertiary",
    "name": "216",
    "ref": "216",
    "smoothness": "good",
    "id": "way/256977922"
  },
  "geometry": {
    "type": "LineString",
    "coordinates": [
      [
        27.023807,
        43.9544333
      ],
      [
        27.0252744,
        43.9537388
      ],
      [
        27.0253654,
        43.9537008
      ],
      [
        27.0254664,
        43.9536698
      ],
      [
        27.0255694,
        43.9536478
      ],
      [
        27.0257034,
        43.9536248
      ],
      [
        27.0273014,
        43.9534188
      ],
      [
        27.0274754,
        43.9533958
      ],
      [
        27.0276234,
        43.9533578
      ],
      [
        27.0277594,
        43.9533158
      ],
      [
        27.0278874,
        43.9532658
      ],
      [
        27.0280114,
        43.9532168
      ],
      [
        27.0281334,
        43.9531518
      ],
      [
        27.0300744,
        43.9518998
      ],
      [
        27.0301934,
        43.9517938
      ],
      [
        27.0302904,
        43.9517058
      ],
      [
        27.0325104,
        43.9491878
      ],
      [
        27.0342954,
        43.9471468
      ],
      [
        27.0345494,
        43.9468608
      ],
      [
        27.0346734,
        43.9467238
      ],
      [
        27.0347844,
        43.9466288
      ],
      [
        27.0348874,
        43.9465598
      ],
      [
        27.0350054,
        43.9464948
      ],
      [
        27.0351774,
        43.9464258
      ],
      [
        27.0354494,
        43.9463418
      ],
      [
        27.0409694,
        43.9448738
      ],
      [
        27.0411474,
        43.9448168
      ],
      [
        27.0413184,
        43.9447518
      ],
      [
        27.0414594,
        43.9446908
      ],
      [
        27.04159,
        43.9446189
      ]
    ]
  }
},
{
  "type": "Feature",
  "id": "way/256836783",
  "properties": {
    "bicycle": "yes",
    "foot": "yes",
    "highway": "tertiary",
    "horse": "yes",
    "name": "ул. \"1-ва\"",
    "name:en": "1st Str.",
    "ref": "216",
    "smoothness": "good",
    "surface": "asphalt",
    "id": "way/256836783"
  },
  "geometry": {
    "type": "LineString",
    "coordinates": [
      [
        27.0527976,
        43.9251526
      ],
      [
        27.051838,
        43.924541
      ],
      [
        27.051752,
        43.924484
      ],
      [
        27.051699,
        43.924435
      ],
      [
        27.051649,
        43.924366
      ],
      [
        27.051613,
        43.924286
      ],
      [
        27.051247,
        43.923275
      ],
      [
        27.05085,
        43.922264
      ],
      [
        27.050755,
        43.921989
      ],
      [
        27.050743,
        43.92189
      ],
      [
        27.0507504,
        43.9218544
      ],
      [
        27.050758,
        43.921818
      ],
      [
        27.050785,
        43.921741
      ],
      [
        27.050835,
        43.921665
      ],
      [
        27.051903,
        43.920921
      ],
      [
        27.0533506,
        43.919894
      ],
      [
        27.0538155,
        43.919591
      ],
      [
        27.0540383,
        43.9195913
      ],
      [
        27.0545938,
        43.9194447
      ],
      [
        27.0547513,
        43.9193006
      ],
      [
        27.0548465,
        43.9191441
      ],
      [
        27.0553984,
        43.9180408
      ],
      [
        27.055529,
        43.917908
      ],
      [
        27.055609,
        43.917831
      ],
      [
        27.055683,
        43.917767
      ],
      [
        27.055801,
        43.917706
      ],
      [
        27.056023,
        43.917622
      ],
      [
        27.0560733,
        43.9176056
      ],
      [
        27.0567877,
        43.917373
      ],
      [
        27.0577572,
        43.9170573
      ],
      [
        27.0579294,
        43.9169868
      ],
      [
        27.0580957,
        43.9169116
      ],
      [
        27.0582381,
        43.9168324
      ],
      [
        27.0584012,
        43.9167404
      ]
    ]
  }
},
{
  "type": "Feature",
  "id": "way/256836785",
  "properties": {
    "bicycle": "yes",
    "foot": "yes",
    "highway": "tertiary",
    "horse": "yes",
    "name": "ул. \"2-ра\"",
    "name:en": "2nd Str.",
    "ref": "216",
    "smoothness": "good",
    "surface": "asphalt",
    "id": "way/256836785"
  },
  "geometry": {
    "type": "LineString",
    "coordinates": [
      [
        27.04159,
        43.9446189
      ],
      [
        27.041456,
        43.944584
      ],
      [
        27.04158,
        43.944489
      ],
      [
        27.042482,
        43.943497
      ],
      [
        27.043201,
        43.942696
      ],
      [
        27.043255,
        43.942642
      ],
      [
        27.043329,
        43.942589
      ],
      [
        27.043764,
        43.942333
      ],
      [
        27.044075,
        43.942135
      ],
      [
        27.044149,
        43.942066
      ],
      [
        27.044209,
        43.941998
      ],
      [
        27.044252,
        43.941929
      ],
      [
        27.044268,
        43.941853
      ],
      [
        27.044285,
        43.941769
      ],
      [
        27.0442883,
        43.9417107
      ],
      [
        27.044264,
        43.941624
      ],
      [
        27.044226,
        43.941559
      ],
      [
        27.044146,
        43.941441
      ],
      [
        27.043549,
        43.940731
      ]
    ]
  }
},
{
  "type": "Feature",
  "id": "way/105015017",
  "properties": {
    "bicycle": "yes",
    "foot": "yes",
    "highway": "tertiary",
    "horse": "yes",
    "lanes": "2",
    "name": "ул. \"Добруджа\"",
    "name:en": "Dobrudzha Str.",
    "ref": "216",
    "smoothness": "good",
    "surface": "asphalt",
    "id": "way/105015017"
  },
  "geometry": {
    "type": "LineString",
    "coordinates": [
      [
        27.0080864,
        43.9605248
      ],
      [
        27.0080814,
        43.9603608
      ],
      [
        27.0080841,
        43.9603236
      ],
      [
        27.0080984,
        43.9601288
      ],
      [
        27.0081898,
        43.9593544
      ],
      [
        27.0081961,
        43.9592394
      ],
      [
        27.0081994,
        43.9591437
      ],
      [
        27.0081967,
        43.9590143
      ],
      [
        27.0081737,
        43.9588916
      ],
      [
        27.0081455,
        43.9587525
      ],
      [
        27.0081128,
        43.9586123
      ],
      [
        27.0081005,
        43.9584323
      ],
      [
        27.0081046,
        43.95833
      ],
      [
        27.0081282,
        43.9582039
      ],
      [
        27.0084498,
        43.9573122
      ],
      [
        27.0088114,
        43.9562341
      ],
      [
        27.0088753,
        43.9560439
      ],
      [
        27.0090112,
        43.955676
      ],
      [
        27.0090407,
        43.9556147
      ],
      [
        27.0090802,
        43.9555607
      ],
      [
        27.0091372,
        43.9555148
      ],
      [
        27.0092144,
        43.9554788
      ],
      [
        27.0093177,
        43.9554775
      ],
      [
        27.0094461,
        43.9554876
      ],
      [
        27.0103338,
        43.9555922
      ],
      [
        27.0112956,
        43.9556974
      ],
      [
        27.011342,
        43.9556967
      ],
      [
        27.0113899,
        43.9556934
      ],
      [
        27.0114348,
        43.9556836
      ],
      [
        27.0114795,
        43.9556697
      ],
      [
        27.0115291,
        43.9556497
      ],
      [
        27.0115797,
        43.9556244
      ],
      [
        27.0116233,
        43.9555945
      ],
      [
        27.011663,
        43.9555603
      ],
      [
        27.0120353,
        43.9551158
      ],
      [
        27.0127344,
        43.9542474
      ],
      [
        27.0127553,
        43.9542275
      ],
      [
        27.01278,
        43.9542098
      ],
      [
        27.0128193,
        43.954184
      ],
      [
        27.0128645,
        43.9541663
      ],
      [
        27.0129459,
        43.954151
      ],
      [
        27.0130518,
        43.9541384
      ],
      [
        27.0145857,
        43.9539747
      ],
      [
        27.0157084,
        43.9538538
      ],
      [
        27.0158174,
        43.9538538
      ],
      [
        27.0159394,
        43.9538568
      ],
      [
        27.0163621,
        43.9538741
      ],
      [
        27.0170614,
        43.9539028
      ],
      [
        27.0187879,
        43.9539872
      ],
      [
        27.0192984,
        43.9540248
      ],
      [
        27.0194314,
        43.9540478
      ],
      [
        27.0195504,
        43.9540788
      ],
      [
        27.0201199,
        43.9542132
      ],
      [
        27.0201774,
        43.9542268
      ],
      [
        27.0202408,
        43.9542415
      ],
      [
        27.0217531,
        43.9545917
      ],
      [
        27.0223884,
        43.9547388
      ],
      [
        27.0225124,
        43.9547688
      ],
      [
        27.0226364,
        43.9547838
      ],
      [
        27.0227584,
        43.9547878
      ],
      [
        27.0228824,
        43.9547768
      ],
      [
        27.0229924,
        43.9547608
      ],
      [
        27.0231054,
        43.9547388
      ],
      [
        27.0232194,
        43.9546998
      ],
      [
        27.0233474,
        43.9546508
      ],
      [
        27.023807,
        43.9544333
      ]
    ]
  }
},
{
  "type": "Feature",
  "id": "way/257314477",
  "properties": {
    "highway": "tertiary",
    "lanes": "2",
    "name": "216",
    "ref": "216",
    "smoothness": "good",
    "surface": "asphalt",
    "id": "way/257314477"
  },
  "geometry": {
    "type": "LineString",
    "coordinates": [
      [
        27.0127825,
        44.0226451
      ],
      [
        27.0126373,
        44.0217562
      ],
      [
        27.0125106,
        44.0210173
      ],
      [
        27.0124869,
        44.0208792
      ],
      [
        27.0124665,
        44.0205108
      ],
      [
        27.0121819,
        44.018172
      ],
      [
        27.0119096,
        44.015915
      ],
      [
        27.0118852,
        44.0155349
      ],
      [
        27.0118974,
        44.0153215
      ],
      [
        27.0119467,
        44.0149178
      ],
      [
        27.0119996,
        44.0143791
      ],
      [
        27.0120122,
        44.014082
      ],
      [
        27.011992,
        44.0138021
      ],
      [
        27.0119344,
        44.0134843
      ],
      [
        27.0117723,
        44.0131458
      ],
      [
        27.0106884,
        44.0112441
      ],
      [
        27.0094523,
        44.0090767
      ],
      [
        27.0083269,
        44.0070659
      ],
      [
        27.0068789,
        44.0044315
      ],
      [
        27.0068097,
        44.0043116
      ],
      [
        27.006761,
        44.0041537
      ],
      [
        27.006704,
        44.0039578
      ],
      [
        27.0065913,
        44.002925
      ],
      [
        27.0065259,
        44.002522
      ],
      [
        27.0062644,
        44.0001906
      ],
      [
        27.0060028,
        43.9978592
      ],
      [
        27.0056759,
        43.9952388
      ],
      [
        27.0053584,
        43.9924301
      ],
      [
        27.0052743,
        43.9913416
      ],
      [
        27.0052463,
        43.9909115
      ],
      [
        27.0052743,
        43.9885461
      ],
      [
        27.0053023,
        43.9861538
      ],
      [
        27.0053771,
        43.9838219
      ],
      [
        27.0054518,
        43.9812747
      ],
      [
        27.0054518,
        43.9804481
      ],
      [
        27.0055452,
        43.9796214
      ],
      [
        27.0057693,
        43.9772892
      ],
      [
        27.0059988,
        43.9749855
      ],
      [
        27.0060642,
        43.9733723
      ],
      [
        27.0066394,
        43.9707559
      ],
      [
        27.0068054,
        43.9666208
      ],
      [
        27.0068434,
        43.9660988
      ],
      [
        27.0068314,
        43.9659158
      ],
      [
        27.0068104,
        43.9657288
      ],
      [
        27.0067784,
        43.9655458
      ],
      [
        27.0067284,
        43.9653848
      ],
      [
        27.0066924,
        43.9651758
      ],
      [
        27.0066814,
        43.9650568
      ],
      [
        27.0067194,
        43.9649278
      ],
      [
        27.0069654,
        43.9635308
      ],
      [
        27.0070034,
        43.9633828
      ],
      [
        27.0070564,
        43.9632448
      ],
      [
        27.0071044,
        43.9631388
      ],
      [
        27.0071844,
        43.9630198
      ],
      [
        27.0080014,
        43.9617118
      ],
      [
        27.0080984,
        43.9615358
      ],
      [
        27.0081254,
        43.9614448
      ],
      [
        27.0081464,
        43.9613378
      ],
      [
        27.0081514,
        43.9612498
      ],
      [
        27.0081464,
        43.9611398
      ],
      [
        27.0080864,
        43.9605248
      ]
    ]
  }
},
{
  "type": "Feature",
  "id": "way/257314472",
  "properties": {
    "bicycle": "yes",
    "foot": "yes",
    "highway": "tertiary",
    "horse": "yes",
    "lanes": "2",
    "name": "ул. \"Добруджа\"",
    "name:en": "Dobrudzha Str.",
    "ref": "216",
    "smoothness": "good",
    "surface": "asphalt",
    "id": "way/257314472"
  },
  "geometry": {
    "type": "LineString",
    "coordinates": [
      [
        27.0142565,
        44.0343411
      ],
      [
        27.0142766,
        44.0340785
      ],
      [
        27.0143713,
        44.0332256
      ],
      [
        27.0144689,
        44.0327316
      ],
      [
        27.0145461,
        44.0318752
      ],
      [
        27.0145827,
        44.0316999
      ],
      [
        27.0145542,
        44.0314193
      ],
      [
        27.0144892,
        44.0309136
      ],
      [
        27.0141965,
        44.0296216
      ],
      [
        27.014168,
        44.029496
      ],
      [
        27.0141637,
        44.0294749
      ],
      [
        27.0137984,
        44.02768
      ],
      [
        27.0133374,
        44.0255632
      ],
      [
        27.0129284,
        44.023529
      ],
      [
        27.0127825,
        44.0226451
      ]
    ]
  }
},
{
  "type": "Feature",
  "id": "way/105015015",
  "properties": {
    "highway": "tertiary",
    "lanes": "2",
    "name": "216",
    "ref": "216",
    "smoothness": "good",
    "surface": "asphalt",
    "id": "way/105015015"
  },
  "geometry": {
    "type": "LineString",
    "coordinates": [
      [
        27.0070755,
        44.0480018
      ],
      [
        27.0083945,
        44.0455319
      ],
      [
        27.0098918,
        44.0427065
      ],
      [
        27.0113401,
        44.0399576
      ],
      [
        27.0117141,
        44.0393147
      ],
      [
        27.0127684,
        44.0372898
      ],
      [
        27.0139011,
        44.0350808
      ],
      [
        27.014145,
        44.0345868
      ],
      [
        27.0142565,
        44.0343411
      ]
    ]
  }
},
{
  "type": "Feature",
  "id": "way/105016137",
  "properties": {
    "highway": "tertiary",
    "name": "216",
    "oneway": "yes",
    "ref": "216",
    "surface": "asphalt",
    "id": "way/105016137"
  },
  "geometry": {
    "type": "LineString",
    "coordinates": [
      [
        27.0064198,
        44.0481837
      ],
      [
        27.0065642,
        44.0481808
      ],
      [
        27.0067228,
        44.0481603
      ],
      [
        27.0068366,
        44.0481428
      ],
      [
        27.0070277,
        44.0480727
      ]
    ]
  }
},
{
  "type": "Feature",
  "id": "way/105016371",
  "properties": {
    "highway": "tertiary",
    "name": "216",
    "oneway": "yes",
    "ref": "216",
    "surface": "asphalt",
    "id": "way/105016371"
  },
  "geometry": {
    "type": "LineString",
    "coordinates": [
      [
        27.0070755,
        44.0480018
      ],
      [
        27.0070305,
        44.0481828
      ],
      [
        27.0070019,
        44.0482665
      ],
      [
        27.0069563,
        44.0483234
      ],
      [
        27.0068638,
        44.0483677
      ]
    ]
  }
},
{
  "type": "Feature",
  "id": "way/105016519",
  "properties": {
    "highway": "tertiary",
    "name": "216",
    "oneway": "yes",
    "ref": "216",
    "surface": "asphalt",
    "id": "way/105016519"
  },
  "geometry": {
    "type": "LineString",
    "coordinates": [
      [
        27.0068638,
        44.0483677
      ],
      [
        27.0068772,
        44.0483185
      ],
      [
        27.0068916,
        44.0482727
      ],
      [
        27.0069368,
        44.0481928
      ],
      [
        27.0070277,
        44.0480727
      ],
      [
        27.0070755,
        44.0480018
      ]
    ]
  }
},
{
  "type": "Feature",
  "id": "way/105016521",
  "properties": {
    "highway": "tertiary",
    "name": "216",
    "oneway": "yes",
    "ref": "216",
    "surface": "asphalt",
    "id": "way/105016521"
  },
  "geometry": {
    "type": "LineString",
    "coordinates": [
      [
        27.0070019,
        44.0482665
      ],
      [
        27.0071313,
        44.0485173
      ]
    ]
  }
},
{
  "type": "Feature",
  "id": "way/256836782",
  "properties": {
    "highway": "tertiary",
    "name": "216",
    "ref": "216",
    "smoothness": "good",
    "id": "way/256836782"
  },
  "geometry": {
    "type": "LineString",
    "coordinates": [
      [
        27.0584012,
        43.9167404
      ],
      [
        27.0585112,
        43.9166295
      ],
      [
        27.0593365,
        43.9158292
      ],
      [
        27.0598241,
        43.9152844
      ],
      [
        27.0603399,
        43.914593
      ],
      [
        27.0617448,
        43.9123053
      ],
      [
        27.0630607,
        43.9103077
      ],
      [
        27.064589,
        43.9080041
      ],
      [
        27.0663113,
        43.9053605
      ],
      [
        27.0676685,
        43.9032308
      ],
      [
        27.0691649,
        43.9009506
      ],
      [
        27.0704709,
        43.8990316
      ],
      [
        27.0705827,
        43.8988652
      ],
      [
        27.0706873,
        43.8987191
      ],
      [
        27.0708375,
        43.8986033
      ],
      [
        27.0709947,
        43.8984883
      ],
      [
        27.0738703,
        43.8962434
      ],
      [
        27.074109,
        43.8960904
      ],
      [
        27.074433,
        43.8958907
      ],
      [
        27.0784172,
        43.893913
      ],
      [
        27.0785888,
        43.893821
      ],
      [
        27.0787254,
        43.8937433
      ],
      [
        27.0788812,
        43.89365
      ],
      [
        27.0789976,
        43.8935475
      ],
      [
        27.0791872,
        43.8933531
      ],
      [
        27.0793197,
        43.8931689
      ],
      [
        27.0807566,
        43.8909532
      ],
      [
        27.0809165,
        43.8906713
      ],
      [
        27.0810832,
        43.8902942
      ]
    ]
  }
},
{
  "type": "Feature",
  "id": "way/256832362",
  "properties": {
    "bicycle": "yes",
    "foot": "yes",
    "highway": "tertiary",
    "horse": "yes",
    "name": "ул. \"Победа\"",
    "name:en": "Pobeda Str.",
    "ref": "216",
    "smoothness": "good",
    "surface": "asphalt",
    "id": "way/256832362"
  },
  "geometry": {
    "type": "LineString",
    "coordinates": [
      [
        27.0810832,
        43.8902942
      ],
      [
        27.0812548,
        43.8899163
      ],
      [
        27.0812938,
        43.8898291
      ],
      [
        27.0816991,
        43.8888283
      ],
      [
        27.0817686,
        43.8886566
      ],
      [
        27.0818871,
        43.8884633
      ],
      [
        27.083004,
        43.8869528
      ],
      [
        27.0831946,
        43.8867016
      ],
      [
        27.0834092,
        43.8864017
      ],
      [
        27.0838725,
        43.8858082
      ],
      [
        27.083875,
        43.8858046
      ],
      [
        27.084579,
        43.8848626
      ],
      [
        27.0847599,
        43.8846262
      ],
      [
        27.0848073,
        43.8845017
      ],
      [
        27.0848455,
        43.8842918
      ],
      [
        27.084872,
        43.8841859
      ],
      [
        27.0849286,
        43.8836604
      ],
      [
        27.0850307,
        43.8833256
      ],
      [
        27.0853796,
        43.883202
      ],
      [
        27.0862066,
        43.8831479
      ],
      [
        27.0865829,
        43.8831133
      ],
      [
        27.0870829,
        43.8829679
      ],
      [
        27.0875262,
        43.8827895
      ],
      [
        27.0877625,
        43.8826764
      ],
      [
        27.0878889,
        43.8826058
      ],
      [
        27.0880675,
        43.8825094
      ],
      [
        27.0882261,
        43.8823776
      ],
      [
        27.0883078,
        43.8822845
      ],
      [
        27.088855,
        43.8817013
      ],
      [
        27.0890221,
        43.8814905
      ],
      [
        27.0891822,
        43.8812265
      ],
      [
        27.089605,
        43.8802182
      ],
      [
        27.0905249,
        43.8780013
      ],
      [
        27.0907443,
        43.8775332
      ]
    ]
  }
}
]
}
