{
"type": "FeatureCollection",
"features": [
{
  "type": "Feature",
  "id": "way/183528235",
  "properties": {
    "highway": "tertiary",
    "name": "8105",
    "ref": "8105",
    "smoothness": "intermediate",
    "id": "way/183528235"
  },
  "geometry": {
    "type": "LineString",
    "coordinates": [
      [
        23.0641131,
        43.5666574
      ],
      [
        23.0642805,
        43.5668486
      ],
      [
        23.0653197,
        43.5684518
      ],
      [
        23.0655019,
        43.5686999
      ],
      [
        23.06567,
        43.56888
      ],
      [
        23.0659329,
        43.5690778
      ],
      [
        23.07524,
        43.57384
      ],
      [
        23.08457,
        43.57858
      ],
      [
        23.09391,
        43.58334
      ],
      [
        23.10202,
        43.58748
      ],
      [
        23.10517,
        43.58937
      ],
      [
        23.11008,
        43.59296
      ],
      [
        23.11214,
        43.59437
      ],
      [
        23.11251,
        43.59457
      ],
      [
        23.11468,
        43.59637
      ],
      [
        23.1156,
        43.59688
      ],
      [
        23.11577,
        43.59693
      ],
      [
        23.11622,
        43.59695
      ],
      [
        23.11691,
        43.59686
      ],
      [
        23.11744,
        43.59671
      ],
      [
        23.11792,
        43.59663
      ],
      [
        23.11826,
        43.5966
      ],
      [
        23.12032,
        43.59686
      ],
      [
        23.12137,
        43.59688
      ],
      [
        23.12163,
        43.5969
      ],
      [
        23.12191,
        43.59699
      ],
      [
        23.12219,
        43.59714
      ],
      [
        23.1257032,
        43.5998228
      ],
      [
        23.12862,
        43.60205
      ],
      [
        23.13459,
        43.60581
      ],
      [
        23.13523,
        43.60609
      ],
      [
        23.14197,
        43.60922
      ],
      [
        23.14246,
        43.6095
      ],
      [
        23.14532,
        43.6116
      ],
      [
        23.14989,
        43.61437
      ],
      [
        23.15272,
        43.61673
      ],
      [
        23.15332,
        43.61714
      ],
      [
        23.1567176,
        43.6192257
      ],
      [
        23.15691,
        43.61935
      ],
      [
        23.15746,
        43.61961
      ],
      [
        23.15802,
        43.6198
      ],
      [
        23.1607,
        43.62072
      ],
      [
        23.16236,
        43.62126
      ],
      [
        23.1640558,
        43.6218809
      ],
      [
        23.1646867,
        43.6221305
      ],
      [
        23.16519,
        43.62237
      ]
    ]
  }
},
{
  "type": "Feature",
  "id": "way/310113203",
  "properties": {
    "highway": "tertiary",
    "name": "8105",
    "ref": "8105",
    "id": "way/310113203"
  },
  "geometry": {
    "type": "LineString",
    "coordinates": [
      [
        23.16519,
        43.62237
      ],
      [
        23.16725,
        43.62349
      ],
      [
        23.16931,
        43.62463
      ],
      [
        23.17053,
        43.62512
      ],
      [
        23.17098,
        43.62544
      ],
      [
        23.17195,
        43.62641
      ],
      [
        23.17429,
        43.62808
      ],
      [
        23.17454,
        43.62832
      ],
      [
        23.1748,
        43.62862
      ],
      [
        23.17662,
        43.63164
      ],
      [
        23.17675,
        43.63188
      ],
      [
        23.17759,
        43.63336
      ],
      [
        23.17808,
        43.63441
      ],
      [
        23.18411,
        43.64375
      ],
      [
        23.18744,
        43.64887
      ],
      [
        23.18763,
        43.64905
      ],
      [
        23.18806,
        43.64935
      ],
      [
        23.1966,
        43.65493
      ],
      [
        23.19804,
        43.65604
      ],
      [
        23.20737,
        43.66344
      ],
      [
        23.21617,
        43.67044
      ],
      [
        23.2166,
        43.67083
      ],
      [
        23.21692,
        43.67119
      ],
      [
        23.21727,
        43.67164
      ],
      [
        23.2174951,
        43.6719832
      ],
      [
        23.2178363,
        43.6725446
      ],
      [
        23.21795,
        43.67278
      ],
      [
        23.21804,
        43.67301
      ],
      [
        23.2181338,
        43.6734642
      ]
    ]
  }
},
{
  "type": "Feature",
  "id": "way/183531228",
  "properties": {
    "highway": "tertiary",
    "name": "8105",
    "ref": "8105",
    "id": "way/183531228"
  },
  "geometry": {
    "type": "LineString",
    "coordinates": [
      [
        23.2181826,
        43.6736875
      ],
      [
        23.21875,
        43.67675
      ],
      [
        23.21898,
        43.67741
      ],
      [
        23.21973,
        43.67887
      ],
      [
        23.22012,
        43.68001
      ],
      [
        23.22068,
        43.68091
      ],
      [
        23.22089,
        43.68132
      ],
      [
        23.22188,
        43.68338
      ],
      [
        23.22299,
        43.68589
      ],
      [
        23.22413,
        43.68793
      ],
      [
        23.2245,
        43.6884
      ],
      [
        23.22497,
        43.68889
      ],
      [
        23.22581,
        43.68967
      ],
      [
        23.22662,
        43.69044
      ],
      [
        23.2309284,
        43.6948927
      ],
      [
        23.2322404,
        43.6962487
      ],
      [
        23.2331663,
        43.6972054
      ],
      [
        23.23349,
        43.69754
      ],
      [
        23.23366,
        43.69763
      ],
      [
        23.2341394,
        43.6976494
      ],
      [
        23.23613,
        43.69773
      ],
      [
        23.236205,
        43.6988345
      ],
      [
        23.23628,
        43.69994
      ],
      [
        23.23636,
        43.70046
      ],
      [
        23.23649,
        43.70095
      ],
      [
        23.2370694,
        43.7023698
      ],
      [
        23.2373941,
        43.7031616
      ],
      [
        23.23771,
        43.70387
      ],
      [
        23.23795,
        43.70445
      ],
      [
        23.2380773,
        43.7051717
      ],
      [
        23.23812,
        43.70559
      ],
      [
        23.23814,
        43.70587
      ],
      [
        23.2381,
        43.70615
      ],
      [
        23.2379996,
        43.7067494
      ],
      [
        23.2378131,
        43.7078626
      ]
    ]
  }
},
{
  "type": "Feature",
  "id": "way/183531232",
  "properties": {
    "bridge": "yes",
    "highway": "tertiary",
    "layer": "1",
    "name": "8105",
    "ref": "8105",
    "id": "way/183531232"
  },
  "geometry": {
    "type": "LineString",
    "coordinates": [
      [
        23.2181338,
        43.6734642
      ],
      [
        23.2181826,
        43.6736875
      ]
    ]
  }
},
{
  "type": "Feature",
  "id": "way/183531231",
  "properties": {
    "bridge": "yes",
    "highway": "tertiary",
    "layer": "1",
    "name": "8105",
    "ref": "8105",
    "id": "way/183531231"
  },
  "geometry": {
    "type": "LineString",
    "coordinates": [
      [
        23.2378131,
        43.7078626
      ],
      [
        23.2377975,
        43.7079555
      ]
    ]
  }
},
{
  "type": "Feature",
  "id": "way/183531226",
  "properties": {
    "highway": "tertiary",
    "name": "8105",
    "ref": "8105",
    "id": "way/183531226"
  },
  "geometry": {
    "type": "LineString",
    "coordinates": [
      [
        23.2377975,
        43.7079555
      ],
      [
        23.23778,
        43.70806
      ],
      [
        23.2378,
        43.7084
      ],
      [
        23.23791,
        43.7087
      ],
      [
        23.23894,
        43.71095
      ],
      [
        23.2393,
        43.71153
      ],
      [
        23.23962,
        43.7119
      ],
      [
        23.23995,
        43.71222
      ],
      [
        23.24057,
        43.71269
      ],
      [
        23.24147,
        43.7132
      ],
      [
        23.2437106,
        43.7146592
      ],
      [
        23.24428,
        43.71503
      ],
      [
        23.24531,
        43.71572
      ],
      [
        23.2455,
        43.7158
      ]
    ]
  }
},
{
  "type": "Feature",
  "id": "way/108555509",
  "properties": {
    "highway": "tertiary_link",
    "name": "8105",
    "oneway": "yes",
    "ref": "8105",
    "id": "way/108555509"
  },
  "geometry": {
    "type": "LineString",
    "coordinates": [
      [
        23.2455,
        43.7158
      ],
      [
        23.2457446,
        43.7158187
      ],
      [
        23.2459417,
        43.7157915
      ],
      [
        23.246031,
        43.7157351
      ],
      [
        23.2460904,
        43.7156529
      ]
    ]
  }
},
{
  "type": "Feature",
  "id": "way/108555539",
  "properties": {
    "highway": "tertiary_link",
    "name": "8105",
    "oneway": "yes",
    "ref": "8105",
    "id": "way/108555539"
  },
  "geometry": {
    "type": "LineString",
    "coordinates": [
      [
        23.2463792,
        43.7162314
      ],
      [
        23.2461988,
        43.7160461
      ],
      [
        23.2460599,
        43.7159607
      ],
      [
        23.2458657,
        43.7159059
      ],
      [
        23.2456984,
        43.7158673
      ],
      [
        23.2455,
        43.7158
      ]
    ]
  }
},
{
  "type": "Feature",
  "id": "way/183939000",
  "properties": {
    "highway": "tertiary_link",
    "name": "8105",
    "oneway": "yes",
    "ref": "8105",
    "id": "way/183939000"
  },
  "geometry": {
    "type": "LineString",
    "coordinates": [
      [
        23.2461508,
        43.7157998
      ],
      [
        23.246064,
        43.7158493
      ],
      [
        23.2458657,
        43.7159059
      ]
    ]
  }
},
{
  "type": "Feature",
  "id": "way/183531233",
  "properties": {
    "highway": "tertiary_link",
    "name": "8105",
    "oneway": "yes",
    "ref": "8105",
    "id": "way/183531233"
  },
  "geometry": {
    "type": "LineString",
    "coordinates": [
      [
        23.2459417,
        43.7157915
      ],
      [
        23.2461508,
        43.7157998
      ]
    ]
  }
},
{
  "type": "Feature",
  "id": "way/183938999",
  "properties": {
    "highway": "tertiary_link",
    "name": "8105",
    "ref": "8105",
    "id": "way/183938999"
  },
  "geometry": {
    "type": "LineString",
    "coordinates": [
      [
        23.2461508,
        43.7157998
      ],
      [
        23.2462177,
        43.7157871
      ]
    ]
  }
}
]
}
