{
"type": "FeatureCollection",
"features": [
{
  "type": "Feature",
  "id": "way/175639426",
  "properties": {
    "highway": "tertiary",
    "lanes": "2",
    "maxspeed": "90",
    "ref": "2902",
    "smoothness": "good",
    "id": "way/175639426"
  },
  "geometry": {
    "type": "LineString",
    "coordinates": [
      [
        27.7978174,
        43.2780276
      ],
      [
        27.7981288,
        43.2781828
      ],
      [
        27.7994418,
        43.2788457
      ],
      [
        27.80081,
        43.2795602
      ],
      [
        27.8017943,
        43.2800592
      ],
      [
        27.8025113,
        43.2804019
      ],
      [
        27.8032789,
        43.280702
      ],
      [
        27.8040743,
        43.2809566
      ],
      [
        27.8048274,
        43.2811592
      ],
      [
        27.805628,
        43.2813284
      ],
      [
        27.806471,
        43.2814682
      ],
      [
        27.8073511,
        43.2815606
      ],
      [
        27.8081329,
        43.2815957
      ],
      [
        27.8089918,
        43.2815914
      ],
      [
        27.8099831,
        43.2815637
      ],
      [
        27.8112053,
        43.2815104
      ],
      [
        27.8115709,
        43.2814947
      ],
      [
        27.8215434,
        43.2810654
      ],
      [
        27.8222039,
        43.281037
      ],
      [
        27.8244447,
        43.2809405
      ],
      [
        27.8289379,
        43.2807334
      ],
      [
        27.8298517,
        43.2806918
      ],
      [
        27.8306269,
        43.2806488
      ],
      [
        27.8313598,
        43.2805757
      ],
      [
        27.8322047,
        43.2804644
      ],
      [
        27.8335383,
        43.2802558
      ],
      [
        27.8362869,
        43.27981
      ],
      [
        27.8396688,
        43.2792762
      ],
      [
        27.8405892,
        43.2791252
      ],
      [
        27.8450537,
        43.2783925
      ]
    ]
  }
},
{
  "type": "Feature",
  "id": "way/41123686",
  "properties": {
    "highway": "tertiary",
    "lanes": "1",
    "maxspeed": "90",
    "oneway": "yes",
    "ref": "2902",
    "smoothness": "good",
    "id": "way/41123686"
  },
  "geometry": {
    "type": "LineString",
    "coordinates": [
      [
        27.7977338,
        43.2777345
      ],
      [
        27.797717,
        43.2778934
      ],
      [
        27.7977688,
        43.2779678
      ],
      [
        27.7978174,
        43.2780276
      ]
    ]
  }
},
{
  "type": "Feature",
  "id": "way/41123747",
  "properties": {
    "highway": "tertiary",
    "lanes": "1",
    "maxspeed": "90",
    "oneway": "yes",
    "ref": "2902",
    "smoothness": "good",
    "id": "way/41123747"
  },
  "geometry": {
    "type": "LineString",
    "coordinates": [
      [
        27.7978174,
        43.2780276
      ],
      [
        27.7975986,
        43.2779856
      ],
      [
        27.7973224,
        43.2780016
      ]
    ]
  }
},
{
  "type": "Feature",
  "id": "way/252279782",
  "properties": {
    "highway": "tertiary",
    "lanes": "2",
    "maxspeed": "90",
    "ref": "2902",
    "smoothness": "bad",
    "id": "way/252279782"
  },
  "geometry": {
    "type": "LineString",
    "coordinates": [
      [
        27.8450537,
        43.2783925
      ],
      [
        27.8466052,
        43.2781378
      ],
      [
        27.8527302,
        43.2771337
      ],
      [
        27.8542597,
        43.2768833
      ],
      [
        27.8557228,
        43.2766436
      ],
      [
        27.8559546,
        43.2766057
      ],
      [
        27.8668199,
        43.2748416
      ],
      [
        27.8673758,
        43.2747655
      ],
      [
        27.867853,
        43.2747232
      ],
      [
        27.8814289,
        43.2733836
      ],
      [
        27.8819237,
        43.2733359
      ],
      [
        27.8894,
        43.2726362
      ],
      [
        27.89004,
        43.2725848
      ]
    ]
  }
},
{
  "type": "Feature",
  "id": "way/310109548",
  "properties": {
    "highway": "tertiary",
    "lanes": "2",
    "maxspeed": "90",
    "ref": "2902",
    "smoothness": "good",
    "id": "way/310109548"
  },
  "geometry": {
    "type": "LineString",
    "coordinates": [
      [
        27.89004,
        43.2725848
      ],
      [
        27.8905236,
        43.2725456
      ],
      [
        27.9011406,
        43.2714866
      ],
      [
        27.9013268,
        43.2714686
      ],
      [
        27.9016672,
        43.2714357
      ],
      [
        27.9018289,
        43.27142
      ],
      [
        27.9080085,
        43.2708212
      ],
      [
        27.9099389,
        43.2706341
      ],
      [
        27.910236,
        43.2706064
      ],
      [
        27.9120002,
        43.2704416
      ],
      [
        27.9128698,
        43.2703625
      ],
      [
        27.9137817,
        43.2703117
      ],
      [
        27.9145917,
        43.2702922
      ],
      [
        27.9152411,
        43.270307
      ],
      [
        27.9161209,
        43.2703617
      ],
      [
        27.9167485,
        43.2704269
      ]
    ]
  }
},
{
  "type": "Feature",
  "id": "way/310109539",
  "properties": {
    "highway": "tertiary",
    "lanes": "2",
    "maxspeed": "90",
    "ref": "2902",
    "smoothness": "bad",
    "id": "way/310109539"
  },
  "geometry": {
    "type": "LineString",
    "coordinates": [
      [
        27.9167485,
        43.2704269
      ],
      [
        27.9177181,
        43.2705927
      ],
      [
        27.9186365,
        43.2707999
      ],
      [
        27.9196399,
        43.2710921
      ],
      [
        27.9208147,
        43.2714905
      ],
      [
        27.9224613,
        43.2720889
      ],
      [
        27.9228081,
        43.2722135
      ],
      [
        27.9242533,
        43.2727326
      ],
      [
        27.9264635,
        43.2735411
      ],
      [
        27.9280242,
        43.2741004
      ],
      [
        27.9290613,
        43.2744678
      ],
      [
        27.929131,
        43.2744925
      ],
      [
        27.9294452,
        43.2746038
      ],
      [
        27.9299182,
        43.2747714
      ],
      [
        27.9315238,
        43.275354
      ]
    ]
  }
},
{
  "type": "Feature",
  "id": "way/275641504",
  "properties": {
    "highway": "tertiary",
    "lanes": "2",
    "maxspeed": "90",
    "ref": "2902",
    "smoothness": "bad",
    "id": "way/275641504"
  },
  "geometry": {
    "type": "LineString",
    "coordinates": [
      [
        27.9315238,
        43.275354
      ],
      [
        27.9315975,
        43.2753808
      ],
      [
        27.9316831,
        43.2754119
      ],
      [
        27.932208,
        43.2755896
      ],
      [
        27.9326755,
        43.2757478
      ],
      [
        27.9333836,
        43.2759392
      ],
      [
        27.933968,
        43.2760337
      ],
      [
        27.934024,
        43.2760384
      ]
    ]
  }
},
{
  "type": "Feature",
  "id": "way/275641503",
  "properties": {
    "highway": "tertiary",
    "lanes": "2",
    "maxspeed": "90",
    "ref": "2902",
    "smoothness": "bad",
    "surface": "asphalt",
    "id": "way/275641503"
  },
  "geometry": {
    "type": "LineString",
    "coordinates": [
      [
        27.934024,
        43.2760384
      ],
      [
        27.9344347,
        43.2760727
      ],
      [
        27.9349873,
        43.2760688
      ],
      [
        27.9354596,
        43.276029
      ],
      [
        27.9360282,
        43.2759314
      ],
      [
        27.9366934,
        43.2757634
      ],
      [
        27.9380935,
        43.2753064
      ],
      [
        27.939091,
        43.2750104
      ],
      [
        27.9396492,
        43.2748924
      ],
      [
        27.9398806,
        43.2748652
      ],
      [
        27.9401803,
        43.27483
      ],
      [
        27.9407436,
        43.2748104
      ],
      [
        27.9412958,
        43.2748385
      ],
      [
        27.9418859,
        43.2749167
      ],
      [
        27.9424293,
        43.2750356
      ],
      [
        27.9430661,
        43.2752486
      ],
      [
        27.9435972,
        43.2754791
      ],
      [
        27.9442784,
        43.2758853
      ],
      [
        27.9457646,
        43.2768882
      ],
      [
        27.9502064,
        43.2798603
      ],
      [
        27.9518197,
        43.2809171
      ],
      [
        27.9537186,
        43.2822159
      ]
    ]
  }
}
]
}
