{
"type": "FeatureCollection",
"features": [
{
  "type": "Feature",
  "id": "way/183206262",
  "properties": {
    "highway": "tertiary",
    "name": "7004",
    "ref": "7004",
    "surface": "asphalt",
    "id": "way/183206262"
  },
  "geometry": {
    "type": "LineString",
    "coordinates": [
      [
        26.8499135,
        43.3630666
      ],
      [
        26.85029,
        43.3634
      ],
      [
        26.85052,
        43.36409
      ],
      [
        26.85063,
        43.36426
      ],
      [
        26.8508,
        43.36441
      ],
      [
        26.85185,
        43.36497
      ],
      [
        26.85228,
        43.36523
      ],
      [
        26.85374,
        43.36636
      ],
      [
        26.85441,
        43.3669
      ],
      [
        26.85443,
        43.36703
      ],
      [
        26.85436,
        43.36735
      ],
      [
        26.85426,
        43.36741
      ],
      [
        26.85172,
        43.3675
      ],
      [
        26.85153,
        43.36756
      ],
      [
        26.85142,
        43.36767
      ],
      [
        26.85074,
        43.36941
      ],
      [
        26.85076,
        43.36956
      ],
      [
        26.85134,
        43.37091
      ],
      [
        26.85144,
        43.37106
      ],
      [
        26.85164,
        43.37117
      ],
      [
        26.85183,
        43.37126
      ],
      [
        26.85335,
        43.37151
      ],
      [
        26.85368,
        43.3716
      ],
      [
        26.85393,
        43.37177
      ],
      [
        26.86022,
        43.37808
      ],
      [
        26.8605,
        43.37831
      ],
      [
        26.86091,
        43.37859
      ],
      [
        26.8614133,
        43.3788665
      ],
      [
        26.86162,
        43.37898
      ],
      [
        26.8620567,
        43.3791959
      ],
      [
        26.86344,
        43.37988
      ],
      [
        26.87277,
        43.38467
      ],
      [
        26.87479,
        43.3857
      ],
      [
        26.87541,
        43.38604
      ],
      [
        26.87597,
        43.38638
      ],
      [
        26.87653,
        43.38679
      ],
      [
        26.87713,
        43.38733
      ],
      [
        26.87762,
        43.38784
      ],
      [
        26.87818,
        43.38851
      ],
      [
        26.8785,
        43.38898
      ],
      [
        26.87878,
        43.38954
      ],
      [
        26.88108,
        43.39452
      ],
      [
        26.88131,
        43.39499
      ],
      [
        26.88148,
        43.39522
      ],
      [
        26.88174,
        43.39548
      ],
      [
        26.88206,
        43.39572
      ],
      [
        26.88258,
        43.39604
      ],
      [
        26.88348,
        43.39655
      ],
      [
        26.8837,
        43.39662
      ],
      [
        26.88509,
        43.39658
      ],
      [
        26.88689,
        43.39731
      ],
      [
        26.8873,
        43.3978
      ],
      [
        26.88912,
        43.39846
      ],
      [
        26.89082,
        43.39885
      ],
      [
        26.89254,
        43.39885
      ],
      [
        26.89273,
        43.39889
      ],
      [
        26.89303,
        43.39902
      ],
      [
        26.89327,
        43.39921
      ],
      [
        26.899097,
        43.4081661
      ],
      [
        26.89908,
        43.40814
      ],
      [
        26.89932,
        43.4084
      ],
      [
        26.8993531,
        43.4084361
      ],
      [
        26.8994316,
        43.4085215
      ],
      [
        26.8995719,
        43.4086743
      ],
      [
        26.89977,
        43.40889
      ],
      [
        26.8999883,
        43.409081
      ],
      [
        26.90017,
        43.40924
      ],
      [
        26.90082,
        43.40966
      ],
      [
        26.90217,
        43.41042
      ],
      [
        26.90277,
        43.41072
      ],
      [
        26.90354,
        43.411
      ],
      [
        26.90382,
        43.41117
      ],
      [
        26.90406,
        43.41134
      ],
      [
        26.90453,
        43.41185
      ],
      [
        26.90481,
        43.41209
      ],
      [
        26.90631,
        43.4131
      ],
      [
        26.90683,
        43.41338
      ],
      [
        26.90904,
        43.41454
      ],
      [
        26.90927,
        43.41471
      ],
      [
        26.91011,
        43.41546
      ],
      [
        26.91077,
        43.41593
      ],
      [
        26.91097,
        43.41612
      ],
      [
        26.91112,
        43.41636
      ],
      [
        26.91135,
        43.41715
      ],
      [
        26.9115,
        43.41739
      ],
      [
        26.91174,
        43.4176
      ],
      [
        26.91329,
        43.4187
      ],
      [
        26.91344,
        43.41889
      ],
      [
        26.91466,
        43.42149
      ],
      [
        26.915,
        43.422
      ],
      [
        26.91532,
        43.42239
      ],
      [
        26.9149859,
        43.4230501
      ],
      [
        26.9145009,
        43.4240084
      ],
      [
        26.9139119,
        43.4251722
      ],
      [
        26.9137286,
        43.4255343
      ],
      [
        26.91367,
        43.42565
      ],
      [
        26.9136175,
        43.4257835
      ],
      [
        26.91363,
        43.42599
      ],
      [
        26.9136503,
        43.4261627
      ],
      [
        26.9136551,
        43.426203
      ],
      [
        26.9136611,
        43.4262393
      ],
      [
        26.9136657,
        43.426278
      ],
      [
        26.9136838,
        43.4264298
      ],
      [
        26.9143463,
        43.4264024
      ]
    ]
  }
},
{
  "type": "Feature",
  "id": "way/183206465",
  "properties": {
    "access": "yes",
    "highway": "tertiary",
    "maxspeed": "50",
    "motor_vehicle": "yes",
    "name": "7004",
    "oneway": "no",
    "ref": "7004",
    "surface": "asphalt",
    "id": "way/183206465"
  },
  "geometry": {
    "type": "LineString",
    "coordinates": [
      [
        26.9143463,
        43.4264024
      ],
      [
        26.9171758,
        43.4263055
      ],
      [
        26.91807,
        43.42627
      ],
      [
        26.9190978,
        43.4262293
      ],
      [
        26.91908,
        43.42623
      ],
      [
        26.91942,
        43.42627
      ],
      [
        26.9199277,
        43.426435
      ],
      [
        26.9209808,
        43.4267773
      ],
      [
        26.9211309,
        43.426826
      ],
      [
        26.92142,
        43.42692
      ],
      [
        26.9221689,
        43.4272233
      ],
      [
        26.92221,
        43.42724
      ],
      [
        26.9224,
        43.42728
      ],
      [
        26.92262,
        43.42728
      ],
      [
        26.92279,
        43.42726
      ],
      [
        26.92298,
        43.42715
      ],
      [
        26.9231093,
        43.4270164
      ],
      [
        26.9231871,
        43.4269172
      ],
      [
        26.9233092,
        43.4268375
      ],
      [
        26.92343,
        43.42677
      ],
      [
        26.92365,
        43.42666
      ],
      [
        26.9245036,
        43.4263987
      ],
      [
        26.9256819,
        43.4259265
      ],
      [
        26.92605,
        43.42584
      ],
      [
        26.92659,
        43.42578
      ],
      [
        26.9268,
        43.42582
      ],
      [
        26.9268615,
        43.4258548
      ],
      [
        26.9269543,
        43.4259358
      ],
      [
        26.927,
        43.42597
      ],
      [
        26.92721,
        43.4264
      ],
      [
        26.92751,
        43.42715
      ],
      [
        26.92762,
        43.42728
      ],
      [
        26.92775,
        43.42741
      ],
      [
        26.92798,
        43.4275
      ],
      [
        26.9295175,
        43.4278294
      ]
    ]
  }
}
]
}
