{
"type": "FeatureCollection",
"features": [
{
  "type": "Feature",
  "id": "way/295333242",
  "properties": {
    "highway": "tertiary",
    "lanes": "2",
    "maxspeed": "90",
    "name": "604",
    "ref": "604",
    "smoothness": "good",
    "id": "way/295333242"
  },
  "geometry": {
    "type": "LineString",
    "coordinates": [
      [
        22.96613,
        42.4612645
      ],
      [
        22.9657065,
        42.4601166
      ],
      [
        22.9653363,
        42.4589967
      ],
      [
        22.9650032,
        42.4580808
      ],
      [
        22.9646316,
        42.4552773
      ],
      [
        22.9641881,
        42.4518102
      ],
      [
        22.9627137,
        42.4429295
      ],
      [
        22.96193,
        42.4395971
      ],
      [
        22.9617583,
        42.4302851
      ],
      [
        22.961415,
        42.4276877
      ],
      [
        22.9604349,
        42.4245889
      ]
    ]
  }
},
{
  "type": "Feature",
  "id": "way/279534528",
  "properties": {
    "highway": "tertiary",
    "lanes": "2",
    "maxspeed": "90",
    "name": "604",
    "ref": "604",
    "smoothness": "good",
    "id": "way/279534528"
  },
  "geometry": {
    "type": "LineString",
    "coordinates": [
      [
        22.9582293,
        42.5199746
      ],
      [
        22.9581737,
        42.5197566
      ],
      [
        22.9568943,
        42.514743
      ],
      [
        22.9568798,
        42.5144972
      ],
      [
        22.9575448,
        42.5108397
      ],
      [
        22.9572846,
        42.5077171
      ],
      [
        22.9573135,
        42.5072979
      ],
      [
        22.9575448,
        42.5048258
      ],
      [
        22.9575014,
        42.5042331
      ],
      [
        22.9569376,
        42.5021225
      ],
      [
        22.9568075,
        42.5016743
      ],
      [
        22.9566629,
        42.5005178
      ],
      [
        22.9548053,
        42.4923313
      ],
      [
        22.9547947,
        42.4922846
      ],
      [
        22.9544974,
        42.4906565
      ],
      [
        22.958392,
        42.4838919
      ],
      [
        22.9607523,
        42.4797537
      ],
      [
        22.962544,
        42.4766835
      ],
      [
        22.9645396,
        42.4732966
      ],
      [
        22.9654194,
        42.4724341
      ],
      [
        22.9668368,
        42.4710183
      ],
      [
        22.9676295,
        42.4703527
      ],
      [
        22.9678441,
        42.4699491
      ],
      [
        22.9679192,
        42.4694426
      ],
      [
        22.9679407,
        42.4686987
      ],
      [
        22.9681098,
        42.4668916
      ],
      [
        22.9681445,
        42.4662295
      ],
      [
        22.9679836,
        42.4657071
      ],
      [
        22.9673828,
        42.4643537
      ],
      [
        22.9663338,
        42.4617597
      ]
    ]
  }
},
{
  "type": "Feature",
  "id": "way/295333243",
  "properties": {
    "bridge": "yes",
    "highway": "tertiary",
    "lanes": "2",
    "maxspeed": "90",
    "name": "604",
    "ref": "604",
    "smoothness": "good",
    "id": "way/295333243"
  },
  "geometry": {
    "type": "LineString",
    "coordinates": [
      [
        22.9663338,
        42.4617597
      ],
      [
        22.96613,
        42.4612645
      ]
    ]
  }
},
{
  "type": "Feature",
  "id": "way/27402201",
  "properties": {
    "highway": "tertiary",
    "lanes": "2",
    "maxspeed": "90",
    "name": "ул. Иван Соколов",
    "ref": "604",
    "smoothness": "good",
    "id": "way/27402201"
  },
  "geometry": {
    "type": "LineString",
    "coordinates": [
      [
        22.9560584,
        42.5277929
      ],
      [
        22.9567043,
        42.5270496
      ],
      [
        22.9574912,
        42.5263565
      ],
      [
        22.9580219,
        42.525889
      ],
      [
        22.9581433,
        42.5257558
      ],
      [
        22.9586208,
        42.5252317
      ],
      [
        22.958988,
        42.5248286
      ],
      [
        22.9592073,
        42.5245879
      ],
      [
        22.9593952,
        42.5243421
      ],
      [
        22.9594386,
        42.5240964
      ],
      [
        22.9593663,
        42.5234169
      ],
      [
        22.9592507,
        42.5231133
      ],
      [
        22.9591293,
        42.522829
      ],
      [
        22.9586579,
        42.5217255
      ],
      [
        22.958641,
        42.5216567
      ],
      [
        22.9583605,
        42.5205106
      ],
      [
        22.9582293,
        42.5199746
      ]
    ]
  }
}
]
}
