{
"type": "FeatureCollection",
"features": [
{
  "type": "Feature",
  "id": "way/214112840",
  "properties": {
    "highway": "tertiary",
    "lanes": "2",
    "name": "1006",
    "ref": "1006",
    "smoothness": "good",
    "width": "6",
    "id": "way/214112840"
  },
  "geometry": {
    "type": "LineString",
    "coordinates": [
      [
        23.0547235,
        41.9835025
      ],
      [
        23.0538639,
        41.9826209
      ],
      [
        23.0534996,
        41.9819671
      ],
      [
        23.0534067,
        41.9814945
      ],
      [
        23.0533535,
        41.9800462
      ],
      [
        23.0533518,
        41.9790712
      ],
      [
        23.0529801,
        41.9777776
      ],
      [
        23.0529649,
        41.9775603
      ],
      [
        23.0530878,
        41.9765221
      ],
      [
        23.0520952,
        41.9743828
      ],
      [
        23.0516207,
        41.9713137
      ],
      [
        23.0516926,
        41.9709558
      ],
      [
        23.0520933,
        41.970031
      ],
      [
        23.0523856,
        41.966898
      ],
      [
        23.0518502,
        41.9648609
      ],
      [
        23.0516522,
        41.9643734
      ],
      [
        23.0503985,
        41.9625726
      ],
      [
        23.0501547,
        41.9621692
      ],
      [
        23.0499408,
        41.9616157
      ],
      [
        23.0496172,
        41.9613039
      ],
      [
        23.0486806,
        41.9605993
      ],
      [
        23.0483932,
        41.9604886
      ],
      [
        23.0475173,
        41.9602065
      ],
      [
        23.0469319,
        41.9601224
      ],
      [
        23.0456015,
        41.9600245
      ],
      [
        23.0452918,
        41.9599
      ],
      [
        23.0449991,
        41.9595115
      ],
      [
        23.0447053,
        41.9589123
      ],
      [
        23.0444978,
        41.9586994
      ],
      [
        23.0427844,
        41.9576145
      ],
      [
        23.0422161,
        41.9569929
      ],
      [
        23.042033,
        41.9568598
      ],
      [
        23.041801,
        41.9567332
      ],
      [
        23.041339,
        41.9565831
      ],
      [
        23.041124,
        41.9565597
      ],
      [
        23.040693,
        41.9565948
      ],
      [
        23.0404077,
        41.9565363
      ],
      [
        23.0390763,
        41.9558934
      ],
      [
        23.0382046,
        41.9557721
      ],
      [
        23.0370399,
        41.9553493
      ],
      [
        23.0367879,
        41.9552538
      ],
      [
        23.0364214,
        41.9550331
      ],
      [
        23.0354991,
        41.9541555
      ],
      [
        23.0340412,
        41.9533926
      ],
      [
        23.03209,
        41.9524944
      ],
      [
        23.0318208,
        41.9523831
      ],
      [
        23.0308908,
        41.9522415
      ],
      [
        23.0297478,
        41.9521986
      ],
      [
        23.0291289,
        41.9521757
      ],
      [
        23.028739,
        41.9520671
      ],
      [
        23.0270769,
        41.9511305
      ],
      [
        23.0259611,
        41.9505645
      ],
      [
        23.0248498,
        41.9501492
      ],
      [
        23.0241563,
        41.9495688
      ],
      [
        23.0231602,
        41.94904
      ],
      [
        23.0225662,
        41.9483984
      ],
      [
        23.0223004,
        41.9480987
      ],
      [
        23.0202299,
        41.9461746
      ],
      [
        23.019831,
        41.9454541
      ],
      [
        23.0197892,
        41.945368
      ],
      [
        23.0196612,
        41.9449473
      ],
      [
        23.0192504,
        41.9443203
      ],
      [
        23.0181161,
        41.9435069
      ],
      [
        23.0176374,
        41.9433116
      ],
      [
        23.0166489,
        41.9430062
      ],
      [
        23.0155803,
        41.9426585
      ],
      [
        23.0148344,
        41.9422797
      ],
      [
        23.0134452,
        41.9414621
      ],
      [
        23.0131537,
        41.9412197
      ],
      [
        23.0129557,
        41.940974
      ],
      [
        23.0111492,
        41.9371303
      ],
      [
        23.0107198,
        41.9367149
      ],
      [
        23.0101189,
        41.9364069
      ],
      [
        23.0087241,
        41.9361419
      ],
      [
        23.0070885,
        41.935905
      ],
      [
        23.0064107,
        41.9357658
      ],
      [
        23.0060694,
        41.9355976
      ],
      [
        23.0057391,
        41.935254
      ],
      [
        23.0041255,
        41.933363
      ],
      [
        23.0033791,
        41.9326299
      ],
      [
        23.0029674,
        41.9322592
      ],
      [
        23.0023191,
        41.9316926
      ],
      [
        23.0022326,
        41.9316169
      ],
      [
        23.0016318,
        41.9310906
      ],
      [
        23.0011207,
        41.9306462
      ],
      [
        23.0004745,
        41.9300651
      ],
      [
        22.9992692,
        41.9290122
      ],
      [
        22.9984087,
        41.928272
      ],
      [
        22.9973815,
        41.9275067
      ],
      [
        22.9971749,
        41.9273887
      ],
      [
        22.9965526,
        41.9270129
      ],
      [
        22.9958502,
        41.9265041
      ],
      [
        22.9935067,
        41.9252784
      ],
      [
        22.9930851,
        41.925006
      ],
      [
        22.9926005,
        41.9245122
      ]
    ]
  }
},
{
  "type": "Feature",
  "id": "way/186966452",
  "properties": {
    "highway": "tertiary",
    "lanes": "2",
    "name": "1006",
    "ref": "1006",
    "smoothness": "intermediate",
    "width": "6",
    "id": "way/186966452"
  },
  "geometry": {
    "type": "LineString",
    "coordinates": [
      [
        23.0672338,
        41.9896266
      ],
      [
        23.066043,
        41.9889337
      ],
      [
        23.0656423,
        41.9887223
      ],
      [
        23.0651427,
        41.9886042
      ],
      [
        23.0644975,
        41.9886399
      ],
      [
        23.0625593,
        41.9889124
      ],
      [
        23.0620977,
        41.9889101
      ],
      [
        23.0615544,
        41.9888284
      ],
      [
        23.0598033,
        41.9882811
      ],
      [
        23.0594203,
        41.9881102
      ],
      [
        23.0589188,
        41.9877677
      ],
      [
        23.0569289,
        41.9857628
      ],
      [
        23.0555058,
        41.9843024
      ],
      [
        23.0547235,
        41.9835025
      ]
    ]
  }
},
{
  "type": "Feature",
  "id": "way/39096464",
  "properties": {
    "bridge": "yes",
    "highway": "tertiary",
    "lanes": "2",
    "layer": "1",
    "name": "1006",
    "ref": "1006",
    "width": "6",
    "id": "way/39096464"
  },
  "geometry": {
    "type": "LineString",
    "coordinates": [
      [
        23.0683905,
        41.9904304
      ],
      [
        23.0677492,
        41.9899876
      ],
      [
        23.0672338,
        41.9896266
      ]
    ]
  }
},
{
  "type": "Feature",
  "id": "way/39096465",
  "properties": {
    "highway": "tertiary",
    "lanes": "2",
    "name": "1006",
    "ref": "1006",
    "width": "6",
    "id": "way/39096465"
  },
  "geometry": {
    "type": "LineString",
    "coordinates": [
      [
        23.0689855,
        41.9908398
      ],
      [
        23.0687639,
        41.9906966
      ],
      [
        23.0683905,
        41.9904304
      ]
    ]
  }
},
{
  "type": "Feature",
  "id": "way/256869250",
  "properties": {
    "highway": "secondary",
    "lanes": "2",
    "maxspeed": "50",
    "name": "ул. Освобождение",
    "name:en": "Osvobojdenie",
    "ref": "1006",
    "surface": "asphalt",
    "id": "way/256869250"
  },
  "geometry": {
    "type": "LineString",
    "coordinates": [
      [
        23.0728223,
        41.9907489
      ],
      [
        23.0725205,
        41.9909558
      ],
      [
        23.0722291,
        41.9911541
      ],
      [
        23.0720455,
        41.9912126
      ],
      [
        23.0718526,
        41.9912232
      ],
      [
        23.0714708,
        41.9911541
      ],
      [
        23.0707258,
        41.9909851
      ],
      [
        23.0701563,
        41.990856
      ],
      [
        23.0697798,
        41.9907709
      ],
      [
        23.0695098,
        41.990727
      ],
      [
        23.0693341,
        41.990723
      ],
      [
        23.0692343,
        41.9907528
      ],
      [
        23.0691,
        41.9907924
      ],
      [
        23.0689855,
        41.9908398
      ]
    ]
  }
},
{
  "type": "Feature",
  "id": "way/256869253",
  "properties": {
    "bridge": "yes",
    "highway": "secondary",
    "lanes": "2",
    "layer": "1",
    "maxspeed": "50",
    "name": "ул. Освобождение",
    "name:en": "Osvobojdenie",
    "ref": "1006",
    "surface": "asphalt",
    "id": "way/256869253"
  },
  "geometry": {
    "type": "LineString",
    "coordinates": [
      [
        23.0731252,
        41.9905476
      ],
      [
        23.0728223,
        41.9907489
      ]
    ]
  }
},
{
  "type": "Feature",
  "id": "way/39096461",
  "properties": {
    "highway": "secondary",
    "lanes": "2",
    "maxspeed": "50",
    "name": "ул. Освобождение",
    "name:en": "Osvobojdenie",
    "ref": "1006",
    "surface": "asphalt",
    "id": "way/39096461"
  },
  "geometry": {
    "type": "LineString",
    "coordinates": [
      [
        23.0850752,
        41.9914156
      ],
      [
        23.0850279,
        41.9913786
      ],
      [
        23.0845626,
        41.9910537
      ],
      [
        23.0845415,
        41.9910387
      ],
      [
        23.08416,
        41.9907675
      ],
      [
        23.0839298,
        41.9905672
      ],
      [
        23.083689,
        41.9903575
      ],
      [
        23.0831405,
        41.9898535
      ],
      [
        23.0829848,
        41.9897105
      ],
      [
        23.0823474,
        41.9891299
      ],
      [
        23.0821478,
        41.9889417
      ],
      [
        23.0814947,
        41.988326
      ],
      [
        23.0812835,
        41.9881797
      ],
      [
        23.0811413,
        41.9880811
      ],
      [
        23.0800374,
        41.9875686
      ],
      [
        23.079952,
        41.9875199
      ],
      [
        23.0797341,
        41.9873956
      ],
      [
        23.0795917,
        41.9873464
      ],
      [
        23.0792551,
        41.9872998
      ],
      [
        23.0789331,
        41.9872812
      ],
      [
        23.0786684,
        41.9872612
      ],
      [
        23.0783398,
        41.9872213
      ],
      [
        23.078215,
        41.9872198
      ],
      [
        23.0781269,
        41.9872187
      ],
      [
        23.0778994,
        41.9872546
      ],
      [
        23.0775548,
        41.9873424
      ],
      [
        23.0773074,
        41.9873943
      ],
      [
        23.0769588,
        41.9874834
      ],
      [
        23.0766767,
        41.9875619
      ],
      [
        23.0762217,
        41.9876936
      ],
      [
        23.0758412,
        41.9878174
      ],
      [
        23.0755259,
        41.9879132
      ],
      [
        23.0752931,
        41.9879863
      ],
      [
        23.0748022,
        41.98813
      ],
      [
        23.0743219,
        41.9882764
      ],
      [
        23.0739627,
        41.9883841
      ],
      [
        23.0737032,
        41.9884812
      ],
      [
        23.0735369,
        41.988593
      ],
      [
        23.0733919,
        41.9887566
      ],
      [
        23.0732682,
        41.9890094
      ],
      [
        23.073219,
        41.9892409
      ],
      [
        23.0732975,
        41.9894857
      ],
      [
        23.0734438,
        41.989813
      ],
      [
        23.0734851,
        41.989942
      ],
      [
        23.0734957,
        41.9900884
      ],
      [
        23.0734212,
        41.9902747
      ],
      [
        23.073324,
        41.9904018
      ],
      [
        23.0733001,
        41.990433
      ],
      [
        23.0731252,
        41.9905476
      ]
    ]
  }
}
]
}
