{
"type": "FeatureCollection",
"features": [
{
  "type": "Feature",
  "id": "way/187097085",
  "properties": {
    "highway": "tertiary",
    "name": "1008",
    "ref": "1008",
    "id": "way/187097085"
  },
  "geometry": {
    "type": "LineString",
    "coordinates": [
      [
        23.195809,
        41.622234
      ],
      [
        23.195799,
        41.622211
      ],
      [
        23.195715,
        41.622001
      ],
      [
        23.195406,
        41.620758
      ],
      [
        23.195285,
        41.620435
      ],
      [
        23.195023,
        41.620154
      ],
      [
        23.19477,
        41.619951
      ],
      [
        23.192767,
        41.618751
      ],
      [
        23.192571,
        41.618673
      ],
      [
        23.192365,
        41.618652
      ],
      [
        23.19214,
        41.618723
      ],
      [
        23.191813,
        41.618926
      ],
      [
        23.191616,
        41.618968
      ],
      [
        23.191354,
        41.618961
      ],
      [
        23.191139,
        41.618849
      ],
      [
        23.190989,
        41.618645
      ],
      [
        23.190999,
        41.618414
      ],
      [
        23.19113,
        41.618217
      ],
      [
        23.191335,
        41.618041
      ],
      [
        23.1917,
        41.617929
      ],
      [
        23.191944,
        41.617859
      ],
      [
        23.192047,
        41.617732
      ],
      [
        23.192028,
        41.617571
      ],
      [
        23.191775,
        41.617444
      ],
      [
        23.190372,
        41.617074
      ],
      [
        23.190212,
        41.616926
      ],
      [
        23.189979,
        41.616224
      ],
      [
        23.190119,
        41.615543
      ],
      [
        23.189922,
        41.615114
      ],
      [
        23.189735,
        41.614833
      ],
      [
        23.189604,
        41.614735
      ],
      [
        23.18938,
        41.614707
      ],
      [
        23.189155,
        41.614784
      ],
      [
        23.188827,
        41.614862
      ],
      [
        23.188126,
        41.614735
      ],
      [
        23.187761,
        41.614784
      ],
      [
        23.18719,
        41.614911
      ],
      [
        23.186993,
        41.614897
      ],
      [
        23.186797,
        41.614777
      ],
      [
        23.185896,
        41.613835
      ],
      [
        23.185812,
        41.613652
      ],
      [
        23.185878,
        41.613441
      ],
      [
        23.186187,
        41.613034
      ],
      [
        23.186187,
        41.612852
      ],
      [
        23.186009,
        41.612718
      ],
      [
        23.185765,
        41.612585
      ],
      [
        23.185578,
        41.612381
      ],
      [
        23.185485,
        41.612184
      ],
      [
        23.185391,
        41.611896
      ],
      [
        23.185167,
        41.611741
      ],
      [
        23.184839,
        41.611587
      ],
      [
        23.184277,
        41.610821
      ],
      [
        23.183388,
        41.610379
      ],
      [
        23.183248,
        41.610245
      ],
      [
        23.183229,
        41.610077
      ],
      [
        23.183351,
        41.609922
      ],
      [
        23.183763,
        41.609613
      ],
      [
        23.184062,
        41.609564
      ],
      [
        23.184689,
        41.609536
      ],
      [
        23.184923,
        41.609435
      ],
      [
        23.18512,
        41.609232
      ],
      [
        23.185251,
        41.608972
      ],
      [
        23.185195,
        41.608775
      ],
      [
        23.184998,
        41.608663
      ],
      [
        23.184717,
        41.608586
      ],
      [
        23.184455,
        41.60855
      ],
      [
        23.184175,
        41.608593
      ],
      [
        23.1838,
        41.608733
      ],
      [
        23.183061,
        41.609084
      ],
      [
        23.182864,
        41.609133
      ],
      [
        23.182612,
        41.609133
      ],
      [
        23.181846,
        41.608979
      ],
      [
        23.181378,
        41.608916
      ],
      [
        23.179404,
        41.60874
      ],
      [
        23.178926,
        41.608747
      ],
      [
        23.178627,
        41.608831
      ],
      [
        23.178,
        41.609119
      ],
      [
        23.177822,
        41.609162
      ],
      [
        23.177626,
        41.609098
      ],
      [
        23.177457,
        41.608888
      ],
      [
        23.176437,
        41.607504
      ],
      [
        23.176297,
        41.607406
      ],
      [
        23.176128,
        41.607441
      ],
      [
        23.176072,
        41.607581
      ],
      [
        23.176119,
        41.607771
      ],
      [
        23.176484,
        41.608803
      ],
      [
        23.176503,
        41.608958
      ],
      [
        23.176437,
        41.609063
      ],
      [
        23.176278,
        41.609091
      ],
      [
        23.176138,
        41.609007
      ],
      [
        23.174979,
        41.608024
      ],
      [
        23.174736,
        41.607897
      ],
      [
        23.174212,
        41.607694
      ],
      [
        23.173454,
        41.606984
      ],
      [
        23.173267,
        41.606654
      ],
      [
        23.172967,
        41.605987
      ],
      [
        23.172817,
        41.605551
      ],
      [
        23.17264,
        41.605362
      ],
      [
        23.172378,
        41.605221
      ],
      [
        23.172003,
        41.604968
      ],
      [
        23.171685,
        41.604863
      ],
      [
        23.171329,
        41.604877
      ],
      [
        23.171002,
        41.604975
      ],
      [
        23.170787,
        41.605144
      ],
      [
        23.170571,
        41.605418
      ],
      [
        23.17036,
        41.605565
      ],
      [
        23.170042,
        41.605706
      ],
      [
        23.169855,
        41.605825
      ],
      [
        23.16948,
        41.606233
      ],
      [
        23.169293,
        41.606373
      ],
      [
        23.168966,
        41.606556
      ],
      [
        23.168834,
        41.606682
      ],
      [
        23.16876,
        41.606935
      ],
      [
        23.168722,
        41.607272
      ],
      [
        23.16861,
        41.607427
      ],
      [
        23.16846,
        41.607483
      ],
      [
        23.16831,
        41.607455
      ],
      [
        23.168217,
        41.607328
      ],
      [
        23.168105,
        41.607188
      ],
      [
        23.167749,
        41.606991
      ],
      [
        23.167337,
        41.606731
      ],
      [
        23.166167,
        41.606296
      ],
      [
        23.165915,
        41.606289
      ],
      [
        23.165653,
        41.606345
      ],
      [
        23.164913,
        41.606738
      ],
      [
        23.164717,
        41.606802
      ],
      [
        23.164511,
        41.606802
      ],
      [
        23.164314,
        41.606738
      ],
      [
        23.163613,
        41.60631
      ],
      [
        23.163379,
        41.606233
      ],
      [
        23.163135,
        41.606198
      ],
      [
        23.162873,
        41.606254
      ],
      [
        23.162392,
        41.606401
      ],
      [
        23.161934,
        41.606464
      ],
      [
        23.160745,
        41.606507
      ],
      [
        23.159379,
        41.606275
      ],
      [
        23.159164,
        41.606275
      ],
      [
        23.158892,
        41.606324
      ],
      [
        23.158265,
        41.606556
      ],
      [
        23.15747,
        41.606886
      ],
      [
        23.157236,
        41.606935
      ],
      [
        23.157002,
        41.606963
      ],
      [
        23.156674,
        41.606935
      ],
      [
        23.156248,
        41.606886
      ],
      [
        23.154339,
        41.60645
      ],
      [
        23.154067,
        41.606366
      ],
      [
        23.153833,
        41.60624
      ],
      [
        23.153403,
        41.606001
      ],
      [
        23.153159,
        41.605889
      ],
      [
        23.152879,
        41.605825
      ],
      [
        23.15256,
        41.605811
      ],
      [
        23.152214,
        41.605853
      ],
      [
        23.150127,
        41.606345
      ],
      [
        23.149996,
        41.606443
      ],
      [
        23.149959,
        41.606584
      ],
      [
        23.150043,
        41.606745
      ],
      [
        23.150174,
        41.606949
      ],
      [
        23.150109,
        41.607644
      ],
      [
        23.150015,
        41.607764
      ],
      [
        23.149856,
        41.607792
      ],
      [
        23.149659,
        41.607729
      ],
      [
        23.14881,
        41.607132
      ],
      [
        23.14851,
        41.607019
      ],
      [
        23.148042,
        41.606914
      ],
      [
        23.147284,
        41.606809
      ],
      [
        23.146629,
        41.606696
      ],
      [
        23.146423,
        41.606724
      ],
      [
        23.146208,
        41.606809
      ],
      [
        23.145562,
        41.60709
      ],
      [
        23.143887,
        41.60801
      ],
      [
        23.141652,
        41.610076
      ],
      [
        23.141419,
        41.610266
      ],
      [
        23.141157,
        41.610406
      ],
      [
        23.140773,
        41.61054
      ],
      [
        23.140352,
        41.610652
      ],
      [
        23.139987,
        41.610708
      ],
      [
        23.139631,
        41.610701
      ],
      [
        23.138602,
        41.610575
      ],
      [
        23.13789,
        41.610504
      ],
      [
        23.136646,
        41.610441
      ],
      [
        23.136408,
        41.610448
      ],
      [
        23.13595,
        41.610511
      ],
      [
        23.135416,
        41.610582
      ],
      [
        23.135154,
        41.61061
      ],
      [
        23.134518,
        41.610778
      ],
      [
        23.134087,
        41.610877
      ],
      [
        23.13361,
        41.61094
      ],
      [
        23.13318,
        41.610947
      ],
      [
        23.132805,
        41.610891
      ],
      [
        23.132365,
        41.610736
      ],
      [
        23.13099,
        41.610364
      ],
      [
        23.130512,
        41.610153
      ],
      [
        23.129942,
        41.609879
      ],
      [
        23.129446,
        41.609725
      ],
      [
        23.128955,
        41.609598
      ],
      [
        23.128225,
        41.609409
      ],
      [
        23.127729,
        41.609191
      ],
      [
        23.127318,
        41.609079
      ],
      [
        23.126906,
        41.609022
      ],
      [
        23.126475,
        41.609058
      ],
      [
        23.12611,
        41.609198
      ],
      [
        23.125418,
        41.609816
      ],
      [
        23.125334,
        41.610027
      ],
      [
        23.125305,
        41.610476
      ],
      [
        23.124969,
        41.611235
      ],
      [
        23.124632,
        41.611705
      ],
      [
        23.124491,
        41.611832
      ],
      [
        23.124304,
        41.611888
      ],
      [
        23.124117,
        41.61186
      ],
      [
        23.123949,
        41.611733
      ],
      [
        23.123808,
        41.61153
      ],
      [
        23.123724,
        41.611326
      ],
      [
        23.123705,
        41.611115
      ],
      [
        23.123705,
        41.610849
      ],
      [
        23.12363,
        41.610708
      ],
      [
        23.123462,
        41.610652
      ],
      [
        23.123265,
        41.610659
      ],
      [
        23.123106,
        41.610743
      ],
      [
        23.122947,
        41.610884
      ],
      [
        23.122498,
        41.611319
      ],
      [
        23.122255,
        41.611431
      ],
      [
        23.120842,
        41.61174
      ],
      [
        23.120495,
        41.611797
      ],
      [
        23.120187,
        41.611762
      ],
      [
        23.119924,
        41.611621
      ],
      [
        23.119812,
        41.611446
      ],
      [
        23.119859,
        41.611291
      ],
      [
        23.120027,
        41.611151
      ],
      [
        23.120205,
        41.610947
      ],
      [
        23.120205,
        41.610764
      ],
      [
        23.120093,
        41.610596
      ],
      [
        23.119887,
        41.610462
      ],
      [
        23.119475,
        41.610294
      ],
      [
        23.118427,
        41.609816
      ],
      [
        23.118259,
        41.609781
      ],
      [
        23.118053,
        41.60983
      ],
      [
        23.117454,
        41.610146
      ],
      [
        23.116846,
        41.610518
      ],
      [
        23.116565,
        41.610617
      ],
      [
        23.114764,
        41.611045
      ],
      [
        23.114587,
        41.611073
      ],
      [
        23.114371,
        41.611031
      ],
      [
        23.114259,
        41.610926
      ],
      [
        23.114137,
        41.610743
      ],
      [
        23.113922,
        41.610329
      ],
      [
        23.1138,
        41.610238
      ],
      [
        23.113454,
        41.610139
      ],
      [
        23.113164,
        41.610013
      ],
      [
        23.113024,
        41.609872
      ],
      [
        23.112939,
        41.609697
      ],
      [
        23.112968,
        41.609556
      ],
      [
        23.113089,
        41.609402
      ],
      [
        23.113239,
        41.609247
      ],
      [
        23.113276,
        41.609086
      ],
      [
        23.113164,
        41.608966
      ],
      [
        23.112986,
        41.60891
      ],
      [
        23.112743,
        41.608931
      ],
      [
        23.111639,
        41.609058
      ],
      [
        23.111171,
        41.609022
      ],
      [
        23.110815,
        41.608966
      ],
      [
        23.110403,
        41.60877
      ],
      [
        23.109673,
        41.608369
      ],
      [
        23.109308,
        41.608187
      ],
      [
        23.10914,
        41.608138
      ],
      [
        23.108869,
        41.60813
      ],
      [
        23.108045,
        41.608198
      ],
      [
        23.107034,
        41.608268
      ],
      [
        23.106651,
        41.608282
      ],
      [
        23.10623,
        41.608275
      ],
      [
        23.105883,
        41.608359
      ],
      [
        23.105444,
        41.608514
      ],
      [
        23.105032,
        41.608697
      ],
      [
        23.10477,
        41.608788
      ],
      [
        23.104461,
        41.608795
      ],
      [
        23.104059,
        41.608676
      ],
      [
        23.103722,
        41.60864
      ],
      [
        23.103422,
        41.608704
      ],
      [
        23.102767,
        41.609055
      ],
      [
        23.102552,
        41.609273
      ],
      [
        23.102168,
        41.609813
      ],
      [
        23.102005,
        41.61002
      ],
      [
        23.101856,
        41.610104
      ],
      [
        23.101603,
        41.61016
      ],
      [
        23.099881,
        41.610392
      ],
      [
        23.099582,
        41.610413
      ],
      [
        23.099319,
        41.610371
      ],
      [
        23.098777,
        41.610223
      ],
      [
        23.098543,
        41.610188
      ],
      [
        23.09829,
        41.610202
      ],
      [
        23.098028,
        41.610266
      ],
      [
        23.096896,
        41.610743
      ],
      [
        23.096662,
        41.610813
      ],
      [
        23.09639,
        41.610849
      ],
      [
        23.095763,
        41.610898
      ],
      [
        23.095391,
        41.610966
      ],
      [
        23.09496,
        41.611127
      ],
      [
        23.094614,
        41.611317
      ],
      [
        23.094343,
        41.61157
      ],
      [
        23.094099,
        41.611689
      ],
      [
        23.093894,
        41.611696
      ],
      [
        23.093725,
        41.611605
      ],
      [
        23.093613,
        41.611415
      ],
      [
        23.093463,
        41.611127
      ],
      [
        23.093248,
        41.610818
      ],
      [
        23.09292,
        41.610573
      ],
      [
        23.092724,
        41.610467
      ],
      [
        23.092434,
        41.61039
      ],
      [
        23.092097,
        41.610362
      ],
      [
        23.0919,
        41.610425
      ],
      [
        23.091797,
        41.610544
      ],
      [
        23.091788,
        41.610741
      ],
      [
        23.091863,
        41.610973
      ],
      [
        23.091966,
        41.611212
      ],
      [
        23.091956,
        41.611401
      ],
      [
        23.091835,
        41.611552
      ],
      [
        23.091498,
        41.611783
      ],
      [
        23.090225,
        41.612465
      ],
      [
        23.089654,
        41.612777
      ],
      [
        23.089374,
        41.612995
      ],
      [
        23.087988,
        41.614491
      ],
      [
        23.087886,
        41.614687
      ],
      [
        23.087521,
        41.615774
      ],
      [
        23.087455,
        41.616202
      ],
      [
        23.087371,
        41.616413
      ],
      [
        23.087184,
        41.616581
      ],
      [
        23.086729,
        41.616873
      ],
      [
        23.086345,
        41.617133
      ],
      [
        23.086008,
        41.617385
      ],
      [
        23.085737,
        41.617442
      ],
      [
        23.085363,
        41.617385
      ],
      [
        23.085072,
        41.617343
      ],
      [
        23.084782,
        41.617385
      ],
      [
        23.084586,
        41.617477
      ],
      [
        23.084417,
        41.617694
      ],
      [
        23.08394,
        41.618453
      ],
      [
        23.083585,
        41.618874
      ],
      [
        23.082499,
        41.618877
      ],
      [
        23.082326,
        41.618945
      ],
      [
        23.082005,
        41.619304
      ],
      [
        23.08184,
        41.619403
      ],
      [
        23.081551,
        41.619396
      ],
      [
        23.080892,
        41.619254
      ],
      [
        23.080463,
        41.619273
      ],
      [
        23.078922,
        41.619662
      ],
      [
        23.078691,
        41.619669
      ],
      [
        23.078386,
        41.619539
      ],
      [
        23.078015,
        41.619347
      ],
      [
        23.077793,
        41.619347
      ],
      [
        23.077644,
        41.619514
      ],
      [
        23.07757,
        41.61991
      ],
      [
        23.077662,
        41.620492
      ],
      [
        23.077638,
        41.620659
      ],
      [
        23.077473,
        41.62077
      ],
      [
        23.076649,
        41.621073
      ],
      [
        23.075964,
        41.621172
      ],
      [
        23.075272,
        41.62129
      ],
      [
        23.074934,
        41.621277
      ],
      [
        23.074654,
        41.621154
      ],
      [
        23.074357,
        41.620999
      ],
      [
        23.073953,
        41.620869
      ],
      [
        23.073417,
        41.620727
      ],
      [
        23.073124,
        41.62069
      ],
      [
        23.072514,
        41.62069
      ],
      [
        23.072028,
        41.620801
      ],
      [
        23.071442,
        41.621073
      ],
      [
        23.071121,
        41.621253
      ],
      [
        23.070832,
        41.621556
      ],
      [
        23.070676,
        41.621636
      ],
      [
        23.070428,
        41.621636
      ],
      [
        23.06986,
        41.621587
      ],
      [
        23.06953,
        41.621648
      ],
      [
        23.068401,
        41.621958
      ],
      [
        23.068038,
        41.62197
      ],
      [
        23.067173,
        41.621964
      ],
      [
        23.06695,
        41.62202
      ],
      [
        23.066785,
        41.622143
      ],
      [
        23.066348,
        41.62262
      ],
      [
        23.065981,
        41.622767
      ],
      [
        23.064546,
        41.623225
      ],
      [
        23.06434,
        41.623268
      ],
      [
        23.064142,
        41.623268
      ],
      [
        23.063945,
        41.623188
      ],
      [
        23.063343,
        41.622953
      ],
      [
        23.063096,
        41.622941
      ],
      [
        23.062024,
        41.62299
      ],
      [
        23.061818,
        41.622959
      ],
      [
        23.06167,
        41.622854
      ],
      [
        23.061595,
        41.622662
      ],
      [
        23.061538,
        41.622125
      ],
      [
        23.061505,
        41.621977
      ],
      [
        23.061373,
        41.62189
      ],
      [
        23.061224,
        41.621909
      ],
      [
        23.061134,
        41.621989
      ],
      [
        23.060928,
        41.622323
      ],
      [
        23.060697,
        41.62249
      ],
      [
        23.059922,
        41.6228
      ],
      [
        23.059767,
        41.622868
      ],
      [
        23.059586,
        41.622886
      ],
      [
        23.059421,
        41.622837
      ],
      [
        23.059042,
        41.622657
      ],
      [
        23.058852,
        41.622633
      ],
      [
        23.058671,
        41.622719
      ],
      [
        23.058028,
        41.623517
      ],
      [
        23.057855,
        41.623622
      ],
      [
        23.057607,
        41.623628
      ],
      [
        23.057434,
        41.623517
      ],
      [
        23.057311,
        41.623257
      ],
      [
        23.056783,
        41.622162
      ],
      [
        23.056618,
        41.621977
      ],
      [
        23.056495,
        41.621927
      ],
      [
        23.05628,
        41.621934
      ],
      [
        23.056107,
        41.621971
      ],
      [
        23.055959,
        41.621958
      ],
      [
        23.055802,
        41.621822
      ],
      [
        23.055777,
        41.621649
      ],
      [
        23.055703,
        41.621525
      ],
      [
        23.055538,
        41.621464
      ],
      [
        23.05525,
        41.62147
      ],
      [
        23.054615,
        41.621569
      ],
      [
        23.054404,
        41.62155
      ],
      [
        23.054223,
        41.621507
      ],
      [
        23.054132,
        41.621352
      ],
      [
        23.053934,
        41.620735
      ],
      [
        23.053976,
        41.62058
      ],
      [
        23.054173,
        41.620469
      ],
      [
        23.054363,
        41.620302
      ],
      [
        23.054421,
        41.62011
      ],
      [
        23.054396,
        41.619986
      ],
      [
        23.054256,
        41.619906
      ],
      [
        23.054033,
        41.619881
      ],
      [
        23.053786,
        41.619888
      ],
      [
        23.053563,
        41.619949
      ],
      [
        23.053464,
        41.620036
      ],
      [
        23.053374,
        41.620296
      ],
      [
        23.053316,
        41.620506
      ],
      [
        23.053118,
        41.620723
      ],
      [
        23.052929,
        41.62092
      ],
      [
        23.052698,
        41.621237
      ],
      [
        23.052195,
        41.621985
      ],
      [
        23.052071,
        41.622102
      ],
      [
        23.051931,
        41.622152
      ],
      [
        23.051758,
        41.62209
      ],
      [
        23.051701,
        41.621935
      ],
      [
        23.051956,
        41.620915
      ],
      [
        23.051973,
        41.620674
      ],
      [
        23.051898,
        41.620519
      ],
      [
        23.051701,
        41.620457
      ],
      [
        23.051527,
        41.620457
      ],
      [
        23.051305,
        41.620544
      ],
      [
        23.050851,
        41.620692
      ],
      [
        23.050604,
        41.620686
      ],
      [
        23.05034,
        41.620606
      ],
      [
        23.050134,
        41.620569
      ],
      [
        23.049854,
        41.620637
      ],
      [
        23.048832,
        41.621039
      ],
      [
        23.048609,
        41.621076
      ],
      [
        23.048163,
        41.621039
      ],
      [
        23.047635,
        41.620952
      ],
      [
        23.047363,
        41.620797
      ],
      [
        23.046984,
        41.620507
      ],
      [
        23.046794,
        41.620457
      ],
      [
        23.046473,
        41.62047
      ],
      [
        23.046209,
        41.620513
      ],
      [
        23.045789,
        41.620661
      ],
      [
        23.045344,
        41.620711
      ],
      [
        23.044948,
        41.620766
      ],
      [
        23.044445,
        41.620896
      ],
      [
        23.043777,
        41.620921
      ],
      [
        23.04353,
        41.620847
      ],
      [
        23.043357,
        41.620717
      ],
      [
        23.043192,
        41.620686
      ],
      [
        23.043003,
        41.620717
      ],
      [
        23.042755,
        41.620797
      ],
      [
        23.042557,
        41.620773
      ],
      [
        23.042409,
        41.620698
      ],
      [
        23.04231,
        41.620569
      ],
      [
        23.042294,
        41.620335
      ],
      [
        23.042302,
        41.620112
      ],
      [
        23.042219,
        41.619995
      ],
      [
        23.042065,
        41.619945
      ],
      [
        23.041801,
        41.619964
      ],
      [
        23.041553,
        41.619964
      ],
      [
        23.041372,
        41.619877
      ],
      [
        23.04129,
        41.619729
      ],
      [
        23.041183,
        41.619531
      ],
      [
        23.040985,
        41.619407
      ],
      [
        23.040828,
        41.619228
      ],
      [
        23.040556,
        41.619061
      ],
      [
        23.040317,
        41.618999
      ],
      [
        23.040045,
        41.61903
      ],
      [
        23.039171,
        41.619382
      ],
      [
        23.038842,
        41.619494
      ],
      [
        23.038627,
        41.619512
      ],
      [
        23.038396,
        41.619401
      ],
      [
        23.037852,
        41.619036
      ],
      [
        23.037663,
        41.618993
      ],
      [
        23.037473,
        41.619036
      ],
      [
        23.03702,
        41.619351
      ],
      [
        23.036847,
        41.619413
      ],
      [
        23.036657,
        41.619351
      ],
      [
        23.036438,
        41.619203
      ],
      [
        23.036199,
        41.619135
      ],
      [
        23.035952,
        41.619209
      ],
      [
        23.035267,
        41.619636
      ],
      [
        23.03502,
        41.61997
      ],
      [
        23.034863,
        41.620192
      ],
      [
        23.034723,
        41.620285
      ],
      [
        23.034509,
        41.620316
      ],
      [
        23.034196,
        41.620242
      ],
      [
        23.033784,
        41.620087
      ],
      [
        23.033578,
        41.619865
      ],
      [
        23.033446,
        41.619568
      ],
      [
        23.033034,
        41.618201
      ],
      [
        23.03286,
        41.617911
      ],
      [
        23.032621,
        41.617737
      ],
      [
        23.032349,
        41.617626
      ],
      [
        23.031978,
        41.617521
      ],
      [
        23.03141,
        41.617527
      ],
      [
        23.030899,
        41.61762
      ],
      [
        23.030717,
        41.617694
      ],
      [
        23.030486,
        41.617898
      ],
      [
        23.030149,
        41.618028
      ],
      [
        23.029652,
        41.618072
      ],
      [
        23.029207,
        41.618054
      ],
      [
        23.028935,
        41.618115
      ],
      [
        23.028375,
        41.618443
      ],
      [
        23.02788,
        41.618734
      ],
      [
        23.027204,
        41.618963
      ],
      [
        23.026108,
        41.619408
      ],
      [
        23.025679,
        41.619872
      ],
      [
        23.025526,
        41.619966
      ],
      [
        23.02532,
        41.620016
      ],
      [
        23.024965,
        41.620003
      ],
      [
        23.024545,
        41.619991
      ],
      [
        23.024274,
        41.620036
      ],
      [
        23.024026,
        41.620145
      ],
      [
        23.023828,
        41.620288
      ],
      [
        23.023506,
        41.620789
      ],
      [
        23.023251,
        41.621086
      ],
      [
        23.023061,
        41.62124
      ],
      [
        23.022484,
        41.621556
      ],
      [
        23.021652,
        41.622044
      ],
      [
        23.021289,
        41.622193
      ],
      [
        23.020044,
        41.622626
      ],
      [
        23.019815,
        41.622678
      ],
      [
        23.019584,
        41.622678
      ],
      [
        23.019337,
        41.622653
      ],
      [
        23.019164,
        41.622672
      ],
      [
        23.01904,
        41.622746
      ],
      [
        23.018884,
        41.622888
      ],
      [
        23.018735,
        41.623005
      ],
      [
        23.018529,
        41.623036
      ],
      [
        23.018348,
        41.623018
      ],
      [
        23.018224,
        41.622907
      ],
      [
        23.018167,
        41.62277
      ],
      [
        23.018175,
        41.62256
      ],
      [
        23.018282,
        41.622232
      ],
      [
        23.01843,
        41.621886
      ],
      [
        23.018595,
        41.621583
      ],
      [
        23.018834,
        41.621286
      ],
      [
        23.019049,
        41.621088
      ],
      [
        23.019255,
        41.621002
      ],
      [
        23.019518,
        41.620995
      ],
      [
        23.019733,
        41.620989
      ],
      [
        23.019914,
        41.620927
      ],
      [
        23.020062,
        41.620785
      ],
      [
        23.020112,
        41.620649
      ],
      [
        23.020145,
        41.620457
      ],
      [
        23.020178,
        41.620148
      ],
      [
        23.020255,
        41.619951
      ],
      [
        23.020478,
        41.619778
      ],
      [
        23.020832,
        41.619679
      ],
      [
        23.021014,
        41.619537
      ],
      [
        23.021047,
        41.61937
      ],
      [
        23.020997,
        41.619042
      ],
      [
        23.021047,
        41.618875
      ],
      [
        23.021203,
        41.618603
      ],
      [
        23.021673,
        41.617984
      ],
      [
        23.021838,
        41.617891
      ],
      [
        23.023107,
        41.617633
      ],
      [
        23.023298,
        41.617541
      ],
      [
        23.023376,
        41.617398
      ],
      [
        23.02335,
        41.61723
      ],
      [
        23.023195,
        41.617146
      ],
      [
        23.023022,
        41.617107
      ],
      [
        23.022833,
        41.617127
      ],
      [
        23.022548,
        41.617172
      ],
      [
        23.022359,
        41.617165
      ],
      [
        23.021703,
        41.616997
      ],
      [
        23.020677,
        41.616699
      ],
      [
        23.020487,
        41.61668
      ],
      [
        23.020237,
        41.616738
      ],
      [
        23.01853,
        41.617508
      ],
      [
        23.018366,
        41.617541
      ],
      [
        23.018185,
        41.617502
      ],
      [
        23.017914,
        41.61736
      ],
      [
        23.017578,
        41.617114
      ],
      [
        23.017405,
        41.617068
      ],
      [
        23.017164,
        41.617062
      ],
      [
        23.016767,
        41.617081
      ],
      [
        23.016241,
        41.616965
      ],
      [
        23.015827,
        41.616932
      ],
      [
        23.014861,
        41.616965
      ],
      [
        23.014637,
        41.616926
      ],
      [
        23.014258,
        41.616797
      ],
      [
        23.014016,
        41.61679
      ],
      [
        23.01343,
        41.616868
      ],
      [
        23.01312,
        41.616874
      ],
      [
        23.012921,
        41.616842
      ],
      [
        23.012809,
        41.616932
      ],
      [
        23.012775,
        41.617237
      ],
      [
        23.012723,
        41.617372
      ],
      [
        23.012594,
        41.617411
      ],
      [
        23.012447,
        41.617372
      ],
      [
        23.012369,
        41.617237
      ],
      [
        23.012188,
        41.616971
      ],
      [
        23.011955,
        41.616764
      ],
      [
        23.011628,
        41.616609
      ],
      [
        23.010964,
        41.616428
      ],
      [
        23.010584,
        41.616318
      ],
      [
        23.010365,
        41.616298
      ],
      [
        23.010141,
        41.616363
      ],
      [
        23.009667,
        41.616797
      ],
      [
        23.009538,
        41.616887
      ],
      [
        23.009365,
        41.616913
      ],
      [
        23.009218,
        41.616881
      ],
      [
        23.009106,
        41.616732
      ],
      [
        23.009106,
        41.616557
      ],
      [
        23.00921,
        41.616369
      ],
      [
        23.009365,
        41.616188
      ],
      [
        23.009391,
        41.616026
      ],
      [
        23.009262,
        41.615852
      ],
      [
        23.008951,
        41.615677
      ],
      [
        23.008589,
        41.61558
      ],
      [
        23.008011,
        41.615476
      ],
      [
        23.007675,
        41.615431
      ],
      [
        23.007278,
        41.615231
      ],
      [
        23.007054,
        41.615095
      ],
      [
        23.006683,
        41.615005
      ],
      [
        23.006416,
        41.614869
      ],
      [
        23.005976,
        41.61483
      ],
      [
        23.00551,
        41.614552
      ],
      [
        23.005105,
        41.614235
      ],
      [
        23.004898,
        41.613969
      ],
      [
        23.004519,
        41.613678
      ],
      [
        23.004355,
        41.6136
      ],
      [
        23.004053,
        41.613633
      ],
      [
        23.003708,
        41.613685
      ],
      [
        23.003484,
        41.613652
      ],
      [
        23.003372,
        41.613536
      ],
      [
        23.00332,
        41.613322
      ],
      [
        23.003248,
        41.613129
      ],
      [
        23.003041,
        41.61298
      ],
      [
        23.002765,
        41.612935
      ],
      [
        23.002403,
        41.612922
      ],
      [
        23.002178,
        41.612922
      ],
      [
        23.001963,
        41.612864
      ],
      [
        23.001808,
        41.61276
      ],
      [
        23.001273,
        41.61234
      ],
      [
        23.001032,
        41.612249
      ],
      [
        23.000756,
        41.61221
      ],
      [
        23.00048,
        41.612223
      ],
      [
        23.00023,
        41.612288
      ],
      [
        22.999083,
        41.612767
      ],
      [
        22.998902,
        41.612825
      ],
      [
        22.998539,
        41.612857
      ],
      [
        22.998212,
        41.613
      ],
      [
        22.997505,
        41.613472
      ],
      [
        22.997358,
        41.613615
      ],
      [
        22.997237,
        41.613867
      ],
      [
        22.997125,
        41.613978
      ],
      [
        22.99697,
        41.614023
      ],
      [
        22.996823,
        41.613971
      ],
      [
        22.996754,
        41.613848
      ],
      [
        22.996789,
        41.61368
      ],
      [
        22.99697,
        41.613201
      ],
      [
        22.997349,
        41.612683
      ],
      [
        22.997479,
        41.61247
      ],
      [
        22.997513,
        41.612329
      ],
      [
        22.99747,
        41.612199
      ],
      [
        22.997349,
        41.612122
      ],
      [
        22.997186,
        41.61207
      ],
      [
        22.996763,
        41.612038
      ],
      [
        22.996332,
        41.612038
      ],
      [
        22.996108,
        41.611999
      ],
      [
        22.995884,
        41.611869
      ],
      [
        22.995582,
        41.611623
      ],
      [
        22.994875,
        41.611073
      ],
      [
        22.994668,
        41.610957
      ],
      [
        22.994452,
        41.610866
      ],
      [
        22.994167,
        41.610873
      ],
      [
        22.993719,
        41.61097
      ],
      [
        22.993236,
        41.61108
      ],
      [
        22.992745,
        41.611222
      ],
      [
        22.992451,
        41.61141
      ],
      [
        22.991977,
        41.611928
      ],
      [
        22.991934,
        41.612458
      ],
      [
        22.9919,
        41.612944
      ],
      [
        22.991848,
        41.613131
      ],
      [
        22.991736,
        41.613248
      ],
      [
        22.991581,
        41.613287
      ],
      [
        22.991374,
        41.613241
      ],
      [
        22.99121,
        41.613131
      ],
      [
        22.991098,
        41.612898
      ],
      [
        22.991011,
        41.612549
      ],
      [
        22.991011,
        41.61218
      ],
      [
        22.990434,
        41.610886
      ],
      [
        22.990266,
        41.61052
      ],
      [
        22.990254,
        41.610381
      ],
      [
        22.99032,
        41.610169
      ],
      [
        22.990242,
        41.609903
      ],
      [
        22.990122,
        41.609681
      ],
      [
        22.99008,
        41.609347
      ],
      [
        22.99005,
        41.609153
      ],
      [
        22.989887,
        41.609104
      ],
      [
        22.989616,
        41.609126
      ],
      [
        22.989352,
        41.609221
      ],
      [
        22.989237,
        41.609343
      ],
      [
        22.989087,
        41.609736
      ],
      [
        22.988955,
        41.609849
      ],
      [
        22.988672,
        41.609916
      ],
      [
        22.988456,
        41.609943
      ],
      [
        22.988197,
        41.610124
      ],
      [
        22.988113,
        41.610277
      ],
      [
        22.988077,
        41.610639
      ],
      [
        22.987956,
        41.610842
      ],
      [
        22.987801,
        41.61095
      ],
      [
        22.987548,
        41.61104
      ],
      [
        22.98735,
        41.611108
      ],
      [
        22.98726,
        41.611225
      ],
      [
        22.987224,
        41.611491
      ],
      [
        22.987175,
        41.611654
      ],
      [
        22.987043,
        41.611753
      ],
      [
        22.98673,
        41.611889
      ],
      [
        22.986538,
        41.612119
      ],
      [
        22.986357,
        41.612218
      ],
      [
        22.986021,
        41.612245
      ],
      [
        22.985786,
        41.612313
      ],
      [
        22.985648,
        41.612439
      ],
      [
        22.985618,
        41.612615
      ],
      [
        22.985666,
        41.61296
      ],
      [
        22.985612,
        41.613087
      ],
      [
        22.985449,
        41.613168
      ],
      [
        22.985209,
        41.613222
      ],
      [
        22.985064,
        41.613312
      ],
      [
        22.985016,
        41.613461
      ],
      [
        22.985016,
        41.613678
      ],
      [
        22.984962,
        41.613792
      ],
      [
        22.984787,
        41.613941
      ],
      [
        22.984613,
        41.614026
      ],
      [
        22.984505,
        41.614144
      ],
      [
        22.984499,
        41.61432
      ],
      [
        22.984601,
        41.614618
      ],
      [
        22.984667,
        41.614789
      ],
      [
        22.984799,
        41.614911
      ],
      [
        22.98498,
        41.615006
      ],
      [
        22.985076,
        41.61511
      ],
      [
        22.985088,
        41.615281
      ],
      [
        22.985022,
        41.615462
      ],
      [
        22.984878,
        41.615773
      ],
      [
        22.984824,
        41.61599
      ],
      [
        22.984787,
        41.616157
      ],
      [
        22.984751,
        41.61622
      ],
      [
        22.984655,
        41.616251
      ],
      [
        22.984439,
        41.616265
      ],
      [
        22.984336,
        41.616324
      ],
      [
        22.984138,
        41.616527
      ],
      [
        22.984011,
        41.616599
      ],
      [
        22.983849,
        41.616594
      ],
      [
        22.983693,
        41.61654
      ],
      [
        22.9835,
        41.616491
      ],
      [
        22.983296,
        41.616482
      ],
      [
        22.983007,
        41.616509
      ],
      [
        22.982857,
        41.616576
      ],
      [
        22.982814,
        41.616689
      ],
      [
        22.982857,
        41.616807
      ],
      [
        22.982971,
        41.61696
      ],
      [
        22.983109,
        41.617077
      ],
      [
        22.983217,
        41.617222
      ],
      [
        22.983248,
        41.617299
      ],
      [
        22.983217,
        41.617389
      ],
      [
        22.983097,
        41.617461
      ],
      [
        22.982911,
        41.617511
      ],
      [
        22.982688,
        41.617506
      ],
      [
        22.98252,
        41.617466
      ],
      [
        22.982285,
        41.617466
      ],
      [
        22.982123,
        41.617506
      ],
      [
        22.981942,
        41.61761
      ],
      [
        22.981804,
        41.617741
      ],
      [
        22.981696,
        41.617958
      ],
      [
        22.981617,
        41.618048
      ],
      [
        22.981533,
        41.61808
      ],
      [
        22.981335,
        41.618071
      ],
      [
        22.981172,
        41.618052
      ],
      [
        22.981082,
        41.61812
      ],
      [
        22.981058,
        41.618233
      ],
      [
        22.981076,
        41.618836
      ],
      [
        22.981046,
        41.618976
      ],
      [
        22.980962,
        41.619143
      ],
      [
        22.980817,
        41.61931
      ],
      [
        22.980667,
        41.619427
      ],
      [
        22.98039,
        41.61954
      ],
      [
        22.980011,
        41.619662
      ],
      [
        22.979909,
        41.619734
      ],
      [
        22.979879,
        41.619838
      ],
      [
        22.979927,
        41.619946
      ],
      [
        22.980126,
        41.620104
      ],
      [
        22.98014,
        41.620195
      ],
      [
        22.98002,
        41.620272
      ],
      [
        22.979887,
        41.620285
      ],
      [
        22.979701,
        41.620276
      ],
      [
        22.979563,
        41.620236
      ],
      [
        22.97943,
        41.620195
      ],
      [
        22.97931,
        41.620213
      ],
      [
        22.979148,
        41.620317
      ],
      [
        22.978985,
        41.620421
      ],
      [
        22.978672,
        41.620755
      ],
      [
        22.978384,
        41.621089
      ],
      [
        22.978336,
        41.62122
      ],
      [
        22.978408,
        41.62136
      ],
      [
        22.978588,
        41.621531
      ],
      [
        22.978684,
        41.621748
      ],
      [
        22.978793,
        41.622041
      ],
      [
        22.978811,
        41.622163
      ],
      [
        22.978696,
        41.622285
      ],
      [
        22.97857,
        41.622366
      ],
      [
        22.97842,
        41.622398
      ],
      [
        22.978239,
        41.622353
      ],
      [
        22.978053,
        41.62224
      ],
      [
        22.977644,
        41.622001
      ],
      [
        22.977313,
        41.621748
      ],
      [
        22.977132,
        41.621662
      ],
      [
        22.976892,
        41.621653
      ],
      [
        22.976633,
        41.621689
      ],
      [
        22.976363,
        41.621734
      ],
      [
        22.976164,
        41.621748
      ],
      [
        22.976032,
        41.621829
      ],
      [
        22.975833,
        41.621843
      ],
      [
        22.975629,
        41.621779
      ],
      [
        22.975206,
        41.62177
      ],
      [
        22.975044,
        41.621859
      ],
      [
        22.974963,
        41.621938
      ],
      [
        22.974876,
        41.621938
      ],
      [
        22.974627,
        41.621892
      ],
      [
        22.974191,
        41.621976
      ],
      [
        22.973936,
        41.622083
      ],
      [
        22.973824,
        41.62227
      ],
      [
        22.973761,
        41.622345
      ],
      [
        22.973655,
        41.622364
      ],
      [
        22.973263,
        41.622317
      ],
      [
        22.973051,
        41.622345
      ],
      [
        22.972839,
        41.622452
      ],
      [
        22.972721,
        41.622485
      ],
      [
        22.972603,
        41.622438
      ],
      [
        22.972528,
        41.62227
      ],
      [
        22.972403,
        41.622228
      ],
      [
        22.972204,
        41.622261
      ],
      [
        22.971992,
        41.622373
      ],
      [
        22.971868,
        41.622537
      ],
      [
        22.971824,
        41.622677
      ]
    ]
  }
},
{
  "type": "Feature",
  "id": "way/187097082",
  "properties": {
    "highway": "tertiary",
    "name": "1008",
    "ref": "1008",
    "id": "way/187097082"
  },
  "geometry": {
    "type": "LineString",
    "coordinates": [
      [
        23.1976117,
        41.624433
      ],
      [
        23.1976168,
        41.624321
      ],
      [
        23.1975869,
        41.6241721
      ],
      [
        23.197308,
        41.623787
      ],
      [
        23.196306,
        41.622809
      ],
      [
        23.19593,
        41.622429
      ],
      [
        23.195809,
        41.622234
      ]
    ]
  }
},
{
  "type": "Feature",
  "id": "way/105825999",
  "properties": {
    "highway": "tertiary",
    "name": "1008",
    "ref": "1008",
    "id": "way/105825999"
  },
  "geometry": {
    "type": "LineString",
    "coordinates": [
      [
        23.2035417,
        41.6294701
      ],
      [
        23.2034986,
        41.6290346
      ],
      [
        23.2034172,
        41.6288348
      ],
      [
        23.2031881,
        41.6285345
      ],
      [
        23.2017831,
        41.6273403
      ],
      [
        23.2010027,
        41.6267019
      ],
      [
        23.20058,
        41.6263931
      ],
      [
        23.1998566,
        41.6260158
      ],
      [
        23.1994315,
        41.6257875
      ],
      [
        23.1990037,
        41.6255225
      ],
      [
        23.198096,
        41.624872
      ],
      [
        23.1978723,
        41.6246117
      ],
      [
        23.1977584,
        41.6244927
      ],
      [
        23.1976117,
        41.624433
      ]
    ]
  }
},
{
  "type": "Feature",
  "id": "way/299339939",
  "properties": {
    "highway": "tertiary",
    "name": "1008",
    "ref": "1008",
    "id": "way/299339939"
  },
  "geometry": {
    "type": "LineString",
    "coordinates": [
      [
        23.2034356,
        41.6306192
      ],
      [
        23.2033925,
        41.6311307
      ],
      [
        23.2032668,
        41.6317452
      ],
      [
        23.203038,
        41.632376
      ],
      [
        23.2022234,
        41.6345564
      ],
      [
        23.2022437,
        41.6347083
      ],
      [
        23.2022969,
        41.6347735
      ]
    ]
  }
},
{
  "type": "Feature",
  "id": "way/27962812",
  "properties": {
    "bridge": "yes",
    "highway": "tertiary",
    "layer": "1",
    "name": "1008",
    "ref": "1008",
    "id": "way/27962812"
  },
  "geometry": {
    "type": "LineString",
    "coordinates": [
      [
        23.2034356,
        41.6306192
      ],
      [
        23.2035417,
        41.6294701
      ]
    ]
  }
},
{
  "type": "Feature",
  "id": "way/27211672",
  "properties": {
    "highway": "tertiary",
    "name": "1008",
    "oneway": "yes",
    "ref": "1008",
    "id": "way/27211672"
  },
  "geometry": {
    "type": "LineString",
    "coordinates": [
      [
        23.2021007,
        41.6348849
      ],
      [
        23.2022234,
        41.6345564
      ]
    ]
  }
},
{
  "type": "Feature",
  "id": "way/299339937",
  "properties": {
    "highway": "tertiary",
    "name": "1008",
    "oneway": "yes",
    "ref": "1008",
    "id": "way/299339937"
  },
  "geometry": {
    "type": "LineString",
    "coordinates": [
      [
        23.2022234,
        41.6345564
      ],
      [
        23.2023085,
        41.6346518
      ],
      [
        23.2024119,
        41.634714
      ]
    ]
  }
}
]
}
