{
"type": "FeatureCollection",
"features": [
{
  "type": "Feature",
  "id": "way/339142714",
  "properties": {
    "highway": "tertiary",
    "name": "218",
    "ref": "218",
    "smoothness": "intermediate",
    "id": "way/339142714"
  },
  "geometry": {
    "type": "LineString",
    "coordinates": [
      [
        27.1247148,
        43.9254295
      ],
      [
        27.1248,
        43.92487
      ],
      [
        27.124941,
        43.9244
      ],
      [
        27.1255907,
        43.9236592
      ],
      [
        27.1262238,
        43.9229371
      ],
      [
        27.1270933,
        43.9219456
      ],
      [
        27.13242,
        43.915871
      ],
      [
        27.13307,
        43.914879
      ],
      [
        27.142191,
        43.895329
      ],
      [
        27.14267,
        43.894711
      ],
      [
        27.14435,
        43.893059
      ],
      [
        27.15267,
        43.88504
      ],
      [
        27.15309,
        43.884411
      ],
      [
        27.153431,
        43.883621
      ],
      [
        27.153601,
        43.88253
      ],
      [
        27.153299,
        43.881451
      ],
      [
        27.149389,
        43.874561
      ],
      [
        27.14724,
        43.87088
      ],
      [
        27.14665,
        43.869751
      ],
      [
        27.146521,
        43.869179
      ],
      [
        27.1465,
        43.868511
      ],
      [
        27.14666,
        43.867802
      ],
      [
        27.1488742,
        43.8599644
      ],
      [
        27.1489636,
        43.8596487
      ],
      [
        27.149,
        43.85952
      ],
      [
        27.149099,
        43.8589607
      ],
      [
        27.149099,
        43.858874
      ],
      [
        27.14879,
        43.85759
      ],
      [
        27.1483757,
        43.8565675
      ],
      [
        27.1474016,
        43.8541633
      ],
      [
        27.141279,
        43.83905
      ],
      [
        27.1399279,
        43.8356313
      ],
      [
        27.1398199,
        43.8353579
      ],
      [
        27.1392361,
        43.8338807
      ]
    ]
  }
},
{
  "type": "Feature",
  "id": "way/180384139",
  "properties": {
    "highway": "tertiary",
    "name": "218",
    "ref": "218",
    "smoothness": "intermediate",
    "id": "way/180384139"
  },
  "geometry": {
    "type": "LineString",
    "coordinates": [
      [
        27.1655952,
        44.0130686
      ],
      [
        27.16559,
        44.010208
      ],
      [
        27.1646278,
        44.0062405
      ],
      [
        27.1645273,
        44.0058261
      ],
      [
        27.1641579,
        44.0043033
      ],
      [
        27.1637769,
        44.0027322
      ],
      [
        27.163231,
        44.000481
      ],
      [
        27.1632312,
        44.0004175
      ],
      [
        27.1632356,
        43.9992058
      ],
      [
        27.1632448,
        43.9966859
      ],
      [
        27.1632458,
        43.9964119
      ],
      [
        27.1632497,
        43.9953506
      ],
      [
        27.16325,
        43.995258
      ],
      [
        27.1631246,
        43.9929734
      ],
      [
        27.163102,
        43.9925352
      ],
      [
        27.1630969,
        43.9924525
      ],
      [
        27.163071,
        43.992039
      ],
      [
        27.16292,
        43.991428
      ],
      [
        27.1624775,
        43.9908032
      ],
      [
        27.1617651,
        43.9897974
      ],
      [
        27.1613555,
        43.9892191
      ],
      [
        27.16057,
        43.98811
      ],
      [
        27.1604899,
        43.987987
      ],
      [
        27.1601357,
        43.9874197
      ],
      [
        27.1588041,
        43.9853994
      ],
      [
        27.158211,
        43.984489
      ],
      [
        27.15777,
        43.98402
      ],
      [
        27.15708,
        43.98341
      ],
      [
        27.15365,
        43.981579
      ],
      [
        27.1532,
        43.9813
      ],
      [
        27.14958,
        43.977928
      ],
      [
        27.14909,
        43.977341
      ],
      [
        27.148701,
        43.976719
      ],
      [
        27.148439,
        43.975868
      ],
      [
        27.148399,
        43.97522
      ],
      [
        27.148529,
        43.97456
      ],
      [
        27.149509,
        43.971668
      ],
      [
        27.154791,
        43.956921
      ],
      [
        27.15477,
        43.955891
      ],
      [
        27.15427,
        43.954769
      ],
      [
        27.153681,
        43.95409
      ],
      [
        27.14975,
        43.950081
      ],
      [
        27.149191,
        43.949551
      ],
      [
        27.1486,
        43.949268
      ],
      [
        27.14793,
        43.9491
      ],
      [
        27.14715,
        43.94907
      ],
      [
        27.14468,
        43.949539
      ],
      [
        27.14394,
        43.949501
      ],
      [
        27.14316,
        43.949329
      ],
      [
        27.137569,
        43.947029
      ],
      [
        27.13714,
        43.946678
      ],
      [
        27.13678,
        43.946152
      ],
      [
        27.136471,
        43.944611
      ],
      [
        27.13645,
        43.944019
      ],
      [
        27.137211,
        43.94202
      ],
      [
        27.137051,
        43.940849
      ],
      [
        27.136511,
        43.94017
      ],
      [
        27.131201,
        43.936539
      ],
      [
        27.130409,
        43.935749
      ],
      [
        27.129641,
        43.93465
      ],
      [
        27.1295959,
        43.9344883
      ],
      [
        27.1295975,
        43.9343152
      ],
      [
        27.13026,
        43.93298
      ],
      [
        27.1302353,
        43.9328141
      ],
      [
        27.13022,
        43.932739
      ],
      [
        27.129634,
        43.9315512
      ],
      [
        27.1295242,
        43.931425
      ],
      [
        27.1289393,
        43.9307839
      ],
      [
        27.1284712,
        43.9302708
      ],
      [
        27.1275339,
        43.9292609
      ],
      [
        27.1264225,
        43.9281502
      ],
      [
        27.1260422,
        43.927949
      ],
      [
        27.125644,
        43.9277627
      ]
    ]
  }
},
{
  "type": "Feature",
  "id": "way/339142777",
  "properties": {
    "highway": "tertiary",
    "name": "218",
    "ref": "218",
    "smoothness": "intermediate",
    "id": "way/339142777"
  },
  "geometry": {
    "type": "LineString",
    "coordinates": [
      [
        27.125644,
        43.9277627
      ],
      [
        27.1248,
        43.927368
      ],
      [
        27.12454,
        43.92704
      ],
      [
        27.1245351,
        43.9265654
      ],
      [
        27.1247148,
        43.9254295
      ]
    ]
  }
},
{
  "type": "Feature",
  "id": "way/180384135",
  "properties": {
    "highway": "tertiary",
    "name": "218",
    "ref": "218",
    "smoothness": "intermediate",
    "id": "way/180384135"
  },
  "geometry": {
    "type": "LineString",
    "coordinates": [
      [
        27.1715089,
        44.0227127
      ],
      [
        27.1710126,
        44.0225083
      ],
      [
        27.1705886,
        44.022216
      ],
      [
        27.1701297,
        44.0216995
      ],
      [
        27.1692076,
        44.0200975
      ],
      [
        27.1690402,
        44.0196978
      ],
      [
        27.1685773,
        44.0179704
      ],
      [
        27.1683477,
        44.0173161
      ],
      [
        27.16595,
        44.0142115
      ],
      [
        27.1657041,
        44.0138132
      ],
      [
        27.1656066,
        44.0135136
      ],
      [
        27.1655952,
        44.0130686
      ]
    ]
  }
},
{
  "type": "Feature",
  "id": "way/164519745",
  "properties": {
    "highway": "tertiary",
    "name": "218",
    "ref": "218",
    "smoothness": "intermediate",
    "id": "way/164519745"
  },
  "geometry": {
    "type": "LineString",
    "coordinates": [
      [
        27.2059689,
        44.0767049
      ],
      [
        27.2057755,
        44.0763293
      ],
      [
        27.202199,
        44.0718325
      ],
      [
        27.2019929,
        44.0715682
      ],
      [
        27.2017358,
        44.0712578
      ],
      [
        27.2015252,
        44.0709582
      ],
      [
        27.2013922,
        44.0707113
      ],
      [
        27.2012828,
        44.0703949
      ],
      [
        27.1998257,
        44.0646462
      ],
      [
        27.1990829,
        44.060462
      ],
      [
        27.1987989,
        44.0588619
      ],
      [
        27.196898,
        44.0529794
      ],
      [
        27.1936354,
        44.0428814
      ],
      [
        27.1907121,
        44.0348521
      ],
      [
        27.1906102,
        44.0345722
      ],
      [
        27.189947,
        44.0336174
      ],
      [
        27.1876217,
        44.0306229
      ],
      [
        27.1858375,
        44.0283251
      ],
      [
        27.1836569,
        44.0241128
      ],
      [
        27.1826421,
        44.0229727
      ],
      [
        27.1824185,
        44.0228241
      ],
      [
        27.1807934,
        44.0221681
      ],
      [
        27.1789812,
        44.021999
      ],
      [
        27.1762701,
        44.0224601
      ],
      [
        27.1745066,
        44.0227432
      ],
      [
        27.1734517,
        44.0229566
      ],
      [
        27.1726811,
        44.0229799
      ],
      [
        27.1720121,
        44.0228725
      ],
      [
        27.1715089,
        44.0227127
      ]
    ]
  }
}
]
}
