{
"type": "FeatureCollection",
"features": [
{
  "type": "Feature",
  "id": "way/25815450",
  "properties": {
    "highway": "tertiary",
    "name": "906",
    "oneway": "no",
    "ref": "906",
    "smoothness": "good",
    "id": "way/25815450"
  },
  "geometry": {
    "type": "LineString",
    "coordinates": [
      [
        27.4906678,
        42.5516418
      ],
      [
        27.4909086,
        42.5517425
      ],
      [
        27.4911695,
        42.5518913
      ],
      [
        27.4913466,
        42.5520332
      ],
      [
        27.4915936,
        42.5523101
      ],
      [
        27.4917024,
        42.5525355
      ],
      [
        27.4917536,
        42.552745
      ],
      [
        27.4917645,
        42.553007
      ],
      [
        27.4917303,
        42.5532702
      ],
      [
        27.4915765,
        42.5535998
      ],
      [
        27.4909971,
        42.5545296
      ],
      [
        27.4907899,
        42.5548874
      ],
      [
        27.4906955,
        42.5551874
      ],
      [
        27.4906085,
        42.5555776
      ],
      [
        27.4906038,
        42.5560205
      ],
      [
        27.4906411,
        42.5564885
      ],
      [
        27.4907188,
        42.5568867
      ],
      [
        27.4908089,
        42.5571853
      ],
      [
        27.4909378,
        42.557492
      ],
      [
        27.4911258,
        42.5577964
      ],
      [
        27.4940666,
        42.5623324
      ],
      [
        27.4942101,
        42.5625541
      ],
      [
        27.4949444,
        42.5636882
      ],
      [
        27.495696,
        42.5648442
      ],
      [
        27.49602,
        42.5653425
      ],
      [
        27.4972373,
        42.5672147
      ],
      [
        27.4983858,
        42.5689656
      ],
      [
        27.4994437,
        42.5705752
      ],
      [
        27.4997198,
        42.5709843
      ],
      [
        27.5003358,
        42.5719273
      ],
      [
        27.5012373,
        42.5732628
      ],
      [
        27.5024826,
        42.5751507
      ],
      [
        27.5047097,
        42.5785124
      ],
      [
        27.504998,
        42.5789005
      ],
      [
        27.5054324,
        42.5793951
      ],
      [
        27.5094747,
        42.5837858
      ],
      [
        27.5095234,
        42.5838388
      ],
      [
        27.5103446,
        42.5847318
      ],
      [
        27.512469,
        42.5870156
      ],
      [
        27.5161758,
        42.5910005
      ],
      [
        27.5168295,
        42.5915581
      ],
      [
        27.5175239,
        42.5920792
      ],
      [
        27.5245646,
        42.5963227
      ],
      [
        27.5251148,
        42.5967391
      ],
      [
        27.5256701,
        42.5972704
      ],
      [
        27.5265504,
        42.5983798
      ],
      [
        27.527525,
        42.5996631
      ],
      [
        27.5279817,
        42.6002644
      ],
      [
        27.5284366,
        42.6007446
      ],
      [
        27.5321359,
        42.6041182
      ],
      [
        27.532565,
        42.6046173
      ],
      [
        27.532977,
        42.6051606
      ],
      [
        27.5333289,
        42.6057608
      ],
      [
        27.5356978,
        42.6106818
      ],
      [
        27.5379895,
        42.6154825
      ],
      [
        27.5404759,
        42.6204144
      ],
      [
        27.540802,
        42.6208692
      ]
    ]
  }
},
{
  "type": "Feature",
  "id": "way/25815444",
  "properties": {
    "highway": "tertiary",
    "name": "906",
    "oneway": "yes",
    "ref": "906",
    "smoothness": "good",
    "id": "way/25815444"
  },
  "geometry": {
    "type": "LineString",
    "coordinates": [
      [
        27.4863748,
        42.5520436
      ],
      [
        27.4871512,
        42.5520474
      ],
      [
        27.4875576,
        42.5520064
      ],
      [
        27.4879531,
        42.5519455
      ],
      [
        27.4881238,
        42.5518934
      ],
      [
        27.4884862,
        42.5517911
      ],
      [
        27.4888938,
        42.5516578
      ]
    ]
  }
},
{
  "type": "Feature",
  "id": "way/25815449",
  "properties": {
    "bridge": "yes",
    "highway": "tertiary",
    "layer": "1",
    "name": "906",
    "oneway": "no",
    "ref": "906",
    "smoothness": "good",
    "id": "way/25815449"
  },
  "geometry": {
    "type": "LineString",
    "coordinates": [
      [
        27.4900309,
        42.5515148
      ],
      [
        27.4903307,
        42.551556
      ],
      [
        27.4906678,
        42.5516418
      ]
    ]
  }
},
{
  "type": "Feature",
  "id": "way/330919618",
  "properties": {
    "highway": "tertiary",
    "name": "906",
    "oneway": "no",
    "ref": "906",
    "smoothness": "good",
    "id": "way/330919618"
  },
  "geometry": {
    "type": "LineString",
    "coordinates": [
      [
        27.4888938,
        42.5516578
      ],
      [
        27.4892138,
        42.5515686
      ],
      [
        27.4896425,
        42.5515091
      ],
      [
        27.4900309,
        42.5515148
      ]
    ]
  }
},
{
  "type": "Feature",
  "id": "way/25815622",
  "properties": {
    "highway": "tertiary",
    "name": "906",
    "oneway": "yes",
    "ref": "906",
    "smoothness": "good",
    "id": "way/25815622"
  },
  "geometry": {
    "type": "LineString",
    "coordinates": [
      [
        27.4936168,
        42.5527034
      ],
      [
        27.4926474,
        42.5527041
      ],
      [
        27.4924019,
        42.5527418
      ],
      [
        27.4922248,
        42.5528357
      ],
      [
        27.4920897,
        42.5529741
      ],
      [
        27.492012,
        42.5531286
      ],
      [
        27.4917381,
        42.5539014
      ],
      [
        27.4916526,
        42.5540444
      ],
      [
        27.491561,
        42.5541371
      ],
      [
        27.4913979,
        42.5542355
      ],
      [
        27.491265,
        42.554297
      ],
      [
        27.4911679,
        42.5543656
      ],
      [
        27.4909971,
        42.5545296
      ]
    ]
  }
},
{
  "type": "Feature",
  "id": "way/179323121",
  "properties": {
    "highway": "tertiary",
    "name": "906",
    "ref": "906",
    "smoothness": "intermediate",
    "id": "way/179323121"
  },
  "geometry": {
    "type": "LineString",
    "coordinates": [
      [
        27.540802,
        42.6208692
      ],
      [
        27.5415487,
        42.6213113
      ],
      [
        27.5435829,
        42.6225302
      ],
      [
        27.544055,
        42.6229155
      ],
      [
        27.5446387,
        42.6234776
      ],
      [
        27.5449906,
        42.6238691
      ],
      [
        27.5474223,
        42.6270025
      ],
      [
        27.5478257,
        42.6274762
      ],
      [
        27.5482463,
        42.6279056
      ],
      [
        27.550907,
        42.6306274
      ],
      [
        27.5551027,
        42.6349525
      ],
      [
        27.5556637,
        42.6355917
      ],
      [
        27.5558948,
        42.6358994
      ],
      [
        27.5562474,
        42.6364541
      ],
      [
        27.5594034,
        42.6414224
      ],
      [
        27.5632089,
        42.6475021
      ]
    ]
  }
},
{
  "type": "Feature",
  "id": "way/176754576",
  "properties": {
    "bridge": "yes",
    "highway": "tertiary",
    "name": "906",
    "ref": "906",
    "smoothness": "intermediate",
    "id": "way/176754576"
  },
  "geometry": {
    "type": "LineString",
    "coordinates": [
      [
        27.5632089,
        42.6475021
      ],
      [
        27.5633517,
        42.6477433
      ]
    ]
  }
},
{
  "type": "Feature",
  "id": "way/176754577",
  "properties": {
    "highway": "tertiary",
    "name": "906",
    "ref": "906",
    "smoothness": "intermediate",
    "id": "way/176754577"
  },
  "geometry": {
    "type": "LineString",
    "coordinates": [
      [
        27.5633517,
        42.6477433
      ],
      [
        27.5642517,
        42.6491322
      ],
      [
        27.5644338,
        42.6494295
      ],
      [
        27.5649107,
        42.6501715
      ],
      [
        27.5669561,
        42.6534669
      ],
      [
        27.5675487,
        42.6542528
      ],
      [
        27.5678399,
        42.6546391
      ]
    ]
  }
},
{
  "type": "Feature",
  "id": "way/32782705",
  "properties": {
    "highway": "tertiary",
    "lanes": "2",
    "name": "Черно море",
    "ref": "906",
    "smoothness": "intermediate",
    "id": "way/32782705"
  },
  "geometry": {
    "type": "LineString",
    "coordinates": [
      [
        27.5678399,
        42.6546391
      ],
      [
        27.5679375,
        42.6547612
      ],
      [
        27.5691763,
        42.6562851
      ],
      [
        27.5695558,
        42.656752
      ],
      [
        27.5696147,
        42.6568245
      ],
      [
        27.5701652,
        42.6575441
      ],
      [
        27.5707322,
        42.6581863
      ],
      [
        27.5707633,
        42.658322
      ],
      [
        27.5709331,
        42.6584376
      ],
      [
        27.5713625,
        42.6587684
      ],
      [
        27.5732647,
        42.6595698
      ],
      [
        27.5738765,
        42.6598243
      ],
      [
        27.5743669,
        42.6600393
      ],
      [
        27.5751227,
        42.6603407
      ],
      [
        27.5757444,
        42.6605541
      ],
      [
        27.5770273,
        42.6610174
      ],
      [
        27.5779607,
        42.661376
      ],
      [
        27.5795198,
        42.6619606
      ],
      [
        27.5811962,
        42.6626428
      ]
    ]
  }
},
{
  "type": "Feature",
  "id": "way/32782749",
  "properties": {
    "highway": "tertiary",
    "name": "906",
    "ref": "906",
    "smoothness": "intermediate",
    "id": "way/32782749"
  },
  "geometry": {
    "type": "LineString",
    "coordinates": [
      [
        27.5811962,
        42.6626428
      ],
      [
        27.5824725,
        42.6631672
      ],
      [
        27.5828711,
        42.6634335
      ],
      [
        27.583232,
        42.6637257
      ],
      [
        27.5834542,
        42.6640095
      ],
      [
        27.583682,
        42.6644174
      ],
      [
        27.5839571,
        42.6651414
      ],
      [
        27.5846211,
        42.6670281
      ],
      [
        27.5853521,
        42.6692099
      ],
      [
        27.585456,
        42.6700876
      ],
      [
        27.5854573,
        42.6707271
      ],
      [
        27.5847992,
        42.6763899
      ],
      [
        27.5842822,
        42.6801079
      ],
      [
        27.5840237,
        42.6810225
      ],
      [
        27.5836791,
        42.6819075
      ],
      [
        27.58119,
        42.6863125
      ],
      [
        27.579777,
        42.6886322
      ],
      [
        27.5795157,
        42.6894078
      ],
      [
        27.5794458,
        42.6901856
      ],
      [
        27.5795063,
        42.6905987
      ],
      [
        27.5799294,
        42.6925621
      ],
      [
        27.5803646,
        42.6932452
      ],
      [
        27.5844966,
        42.6969549
      ],
      [
        27.5879593,
        42.6998342
      ],
      [
        27.5891566,
        42.7002491
      ],
      [
        27.5907696,
        42.7006804
      ],
      [
        27.5921433,
        42.7010946
      ],
      [
        27.5932255,
        42.7015821
      ],
      [
        27.5936677,
        42.7020099
      ],
      [
        27.5940238,
        42.702803
      ]
    ]
  }
},
{
  "type": "Feature",
  "id": "way/170771337",
  "properties": {
    "highway": "tertiary",
    "name": "906",
    "ref": "906",
    "smoothness": "intermediate",
    "id": "way/170771337"
  },
  "geometry": {
    "type": "LineString",
    "coordinates": [
      [
        27.5943727,
        42.703823
      ],
      [
        27.5945656,
        42.7043257
      ],
      [
        27.5948657,
        42.7047037
      ],
      [
        27.5952592,
        42.7050403
      ],
      [
        27.5971182,
        42.7061523
      ],
      [
        27.6048894,
        42.7101426
      ],
      [
        27.6054906,
        42.7103652
      ],
      [
        27.6062876,
        42.7105296
      ],
      [
        27.6068981,
        42.7105467
      ],
      [
        27.6075467,
        42.7104788
      ],
      [
        27.6082971,
        42.7102939
      ],
      [
        27.6121941,
        42.7090878
      ],
      [
        27.6127833,
        42.7089589
      ],
      [
        27.613594,
        42.7089541
      ],
      [
        27.6141682,
        42.7090247
      ],
      [
        27.6147589,
        42.7091781
      ],
      [
        27.6152063,
        42.7093904
      ],
      [
        27.6157679,
        42.709812
      ],
      [
        27.6170114,
        42.7111213
      ]
    ]
  }
},
{
  "type": "Feature",
  "id": "way/179323120",
  "properties": {
    "highway": "tertiary",
    "name": "906",
    "ref": "906",
    "smoothness": "good",
    "id": "way/179323120"
  },
  "geometry": {
    "type": "LineString",
    "coordinates": [
      [
        27.6170114,
        42.7111213
      ],
      [
        27.626785,
        42.7217076
      ],
      [
        27.627101,
        42.7221423
      ],
      [
        27.6272953,
        42.7226253
      ],
      [
        27.6273626,
        42.7232431
      ],
      [
        27.6272149,
        42.7238475
      ],
      [
        27.6268061,
        42.7245779
      ],
      [
        27.6262705,
        42.7250668
      ],
      [
        27.6143398,
        42.7310319
      ],
      [
        27.6137656,
        42.7315236
      ],
      [
        27.6132233,
        42.7321662
      ],
      [
        27.6130154,
        42.732843
      ],
      [
        27.6130194,
        42.7331556
      ]
    ]
  }
},
{
  "type": "Feature",
  "id": "way/170771336",
  "properties": {
    "bridge": "yes",
    "highway": "tertiary",
    "name": "906",
    "ref": "906",
    "smoothness": "intermediate",
    "id": "way/170771336"
  },
  "geometry": {
    "type": "LineString",
    "coordinates": [
      [
        27.5940238,
        42.702803
      ],
      [
        27.5943727,
        42.703823
      ]
    ]
  }
},
{
  "type": "Feature",
  "id": "way/176755106",
  "properties": {
    "bridge": "yes",
    "highway": "tertiary",
    "name": "906",
    "ref": "906",
    "smoothness": "good",
    "id": "way/176755106"
  },
  "geometry": {
    "type": "LineString",
    "coordinates": [
      [
        27.6130194,
        42.7331556
      ],
      [
        27.6130228,
        42.7334165
      ]
    ]
  }
},
{
  "type": "Feature",
  "id": "way/176755107",
  "properties": {
    "highway": "tertiary",
    "name": "906",
    "ref": "906",
    "smoothness": "good",
    "id": "way/176755107"
  },
  "geometry": {
    "type": "LineString",
    "coordinates": [
      [
        27.6130228,
        42.7334165
      ],
      [
        27.6131957,
        42.7340618
      ],
      [
        27.613747,
        42.734893
      ],
      [
        27.6192709,
        42.7431926
      ],
      [
        27.6209136,
        42.7456737
      ],
      [
        27.6210035,
        42.7461733
      ],
      [
        27.6210826,
        42.746582
      ],
      [
        27.6212207,
        42.7473647
      ],
      [
        27.6213948,
        42.7485158
      ],
      [
        27.6213975,
        42.7486367
      ]
    ]
  }
},
{
  "type": "Feature",
  "id": "way/32762063",
  "properties": {
    "highway": "tertiary",
    "name": "906",
    "ref": "906",
    "smoothness": "good",
    "id": "way/32762063"
  },
  "geometry": {
    "type": "LineString",
    "coordinates": [
      [
        27.615788,
        42.754258
      ],
      [
        27.6052998,
        42.7621269
      ],
      [
        27.6044375,
        42.7627739
      ],
      [
        27.6037402,
        42.7633327
      ],
      [
        27.6024694,
        42.7645505
      ],
      [
        27.6020338,
        42.7646306
      ],
      [
        27.6017044,
        42.7647171
      ],
      [
        27.6014135,
        42.7647934
      ],
      [
        27.601219,
        42.7648445
      ],
      [
        27.6007786,
        42.7651308
      ],
      [
        27.5999436,
        42.7658249
      ],
      [
        27.5996754,
        42.7663256
      ],
      [
        27.5994758,
        42.7667069
      ],
      [
        27.599402,
        42.7668636
      ],
      [
        27.5992811,
        42.7678345
      ],
      [
        27.599215,
        42.7684355
      ],
      [
        27.5991826,
        42.7687296
      ],
      [
        27.5991357,
        42.7691567
      ],
      [
        27.5990397,
        42.7705519
      ],
      [
        27.5988165,
        42.7721844
      ],
      [
        27.5987551,
        42.7725264
      ],
      [
        27.5986748,
        42.7729617
      ],
      [
        27.5985732,
        42.773512
      ],
      [
        27.5973536,
        42.7793799
      ],
      [
        27.596487,
        42.7839055
      ],
      [
        27.5976028,
        42.7864252
      ],
      [
        27.5976691,
        42.7898999
      ]
    ]
  }
},
{
  "type": "Feature",
  "id": "way/180084298",
  "properties": {
    "highway": "tertiary",
    "name": "906",
    "ref": "906",
    "smoothness": "good",
    "id": "way/180084298"
  },
  "geometry": {
    "type": "LineString",
    "coordinates": [
      [
        27.5976691,
        42.7898999
      ],
      [
        27.5978603,
        42.7912123
      ],
      [
        27.5982895,
        42.7934797
      ],
      [
        27.5997486,
        42.7949913
      ],
      [
        27.6004353,
        42.796062
      ],
      [
        27.6023235,
        42.7963139
      ],
      [
        27.6036968,
        42.7970696
      ],
      [
        27.6039543,
        42.7982033
      ],
      [
        27.6045551,
        42.7986441
      ],
      [
        27.6045551,
        42.7993998
      ],
      [
        27.6049843,
        42.8000926
      ],
      [
        27.6043835,
        42.8000926
      ],
      [
        27.6032677,
        42.7992109
      ],
      [
        27.6027527,
        42.7982662
      ],
      [
        27.6021519,
        42.7986441
      ],
      [
        27.6021519,
        42.7991479
      ],
      [
        27.6031818,
        42.7994628
      ],
      [
        27.6036968,
        42.8007223
      ],
      [
        27.6038685,
        42.8023597
      ],
      [
        27.6038685,
        42.8029894
      ],
      [
        27.6043835,
        42.8030524
      ],
      [
        27.6048985,
        42.8023597
      ],
      [
        27.6061001,
        42.8021078
      ],
      [
        27.6073875,
        42.8028005
      ],
      [
        27.6083317,
        42.8041859
      ],
      [
        27.6100483,
        42.8035562
      ],
      [
        27.6108208,
        42.8041229
      ],
      [
        27.6118507,
        42.8041229
      ],
      [
        27.6115074,
        42.8055713
      ],
      [
        27.6103058,
        42.8071455
      ],
      [
        27.609705,
        42.8091605
      ],
      [
        27.6085892,
        42.8099161
      ],
      [
        27.6088467,
        42.8109236
      ],
      [
        27.6103916,
        42.8109236
      ],
      [
        27.6112499,
        42.8114903
      ],
      [
        27.6123657,
        42.8132533
      ],
      [
        27.6121082,
        42.8141347
      ],
      [
        27.612237,
        42.816118
      ],
      [
        27.6126661,
        42.8165273
      ],
      [
        27.6133099,
        42.8166847
      ],
      [
        27.6139965,
        42.8188567
      ],
      [
        27.6134815,
        42.819864
      ],
      [
        27.6132669,
        42.8201788
      ],
      [
        27.6134386,
        42.8211546
      ],
      [
        27.613224,
        42.8223193
      ],
      [
        27.6135244,
        42.8225081
      ],
      [
        27.6149406,
        42.8217212
      ],
      [
        27.6161423,
        42.8216897
      ],
      [
        27.6169577,
        42.8221304
      ],
      [
        27.6175156,
        42.8229803
      ],
      [
        27.6180305,
        42.8232951
      ],
      [
        27.6189747,
        42.8227285
      ],
      [
        27.6195755,
        42.8218786
      ],
      [
        27.6200905,
        42.8217842
      ],
      [
        27.6210346,
        42.8220675
      ],
      [
        27.6216784,
        42.8218786
      ],
      [
        27.6227083,
        42.8208084
      ],
      [
        27.6248541,
        42.8197066
      ],
      [
        27.6254549,
        42.8196437
      ],
      [
        27.6251545,
        42.8200529
      ],
      [
        27.6245108,
        42.8208713
      ],
      [
        27.6236954,
        42.8211546
      ],
      [
        27.6233521,
        42.8218156
      ],
      [
        27.6235666,
        42.8220675
      ],
      [
        27.6238695,
        42.8221687
      ]
    ]
  }
},
{
  "type": "Feature",
  "id": "way/220919178",
  "properties": {
    "highway": "tertiary",
    "lanes": "2",
    "maxspeed": "50",
    "name": "ул.1-ви май",
    "ref": "906",
    "smoothness": "good",
    "surface": "asphalt",
    "id": "way/220919178"
  },
  "geometry": {
    "type": "LineString",
    "coordinates": [
      [
        27.618845,
        42.7519732
      ],
      [
        27.6187791,
        42.7520386
      ],
      [
        27.6169937,
        42.7533647
      ],
      [
        27.6168008,
        42.7535143
      ],
      [
        27.616244,
        42.7539231
      ],
      [
        27.615788,
        42.754258
      ]
    ]
  }
},
{
  "type": "Feature",
  "id": "way/32762062",
  "properties": {
    "highway": "tertiary",
    "lanes": "2",
    "maxspeed": "50",
    "name": "ул.1-ви май",
    "ref": "906",
    "smoothness": "good",
    "surface": "asphalt",
    "id": "way/32762062"
  },
  "geometry": {
    "type": "LineString",
    "coordinates": [
      [
        27.6213975,
        42.7486367
      ],
      [
        27.6211484,
        42.7491821
      ],
      [
        27.6210804,
        42.749281
      ],
      [
        27.6208882,
        42.7495603
      ],
      [
        27.620522,
        42.7500926
      ],
      [
        27.620283,
        42.7503965
      ],
      [
        27.6201793,
        42.7505283
      ],
      [
        27.6200255,
        42.7507669
      ],
      [
        27.6197472,
        42.7510775
      ],
      [
        27.6190492,
        42.7517705
      ],
      [
        27.6190192,
        42.7518003
      ]
    ]
  }
},
{
  "type": "Feature",
  "id": "way/220919177",
  "properties": {
    "bridge": "yes",
    "highway": "tertiary",
    "lanes": "2",
    "layer": "1",
    "maxspeed": "50",
    "name": "ул.1-ви май",
    "ref": "906",
    "smoothness": "good",
    "surface": "asphalt",
    "id": "way/220919177"
  },
  "geometry": {
    "type": "LineString",
    "coordinates": [
      [
        27.6190192,
        42.7518003
      ],
      [
        27.618845,
        42.7519732
      ]
    ]
  }
},
{
  "type": "Feature",
  "id": "way/262673788",
  "properties": {
    "highway": "tertiary",
    "name": "906",
    "ref": "906",
    "smoothness": "good",
    "id": "way/262673788"
  },
  "geometry": {
    "type": "LineString",
    "coordinates": [
      [
        27.6275343,
        42.8229995
      ],
      [
        27.6280727,
        42.8232321
      ],
      [
        27.6283077,
        42.8233835
      ],
      [
        27.6315918,
        42.8270721
      ],
      [
        27.6342525,
        42.8287717
      ],
      [
        27.63554,
        42.8292438
      ],
      [
        27.637042,
        42.8295271
      ],
      [
        27.6380291,
        42.8298103
      ],
      [
        27.6391449,
        42.8298418
      ],
      [
        27.6427069,
        42.8308489
      ],
      [
        27.643651,
        42.8317931
      ],
      [
        27.6491013,
        42.8334926
      ],
      [
        27.6498308,
        42.8339646
      ],
      [
        27.6506891,
        42.835192
      ],
      [
        27.6503887,
        42.8365767
      ],
      [
        27.6505604,
        42.8370802
      ],
      [
        27.6515045,
        42.8378354
      ],
      [
        27.6517191,
        42.838811
      ],
      [
        27.6518478,
        42.8397236
      ],
      [
        27.652792,
        42.8400697
      ],
      [
        27.6530495,
        42.8404788
      ],
      [
        27.652277,
        42.8423039
      ],
      [
        27.6538219,
        42.8438457
      ],
      [
        27.6539507,
        42.8451358
      ],
      [
        27.6549377,
        42.8456078
      ],
      [
        27.6555795,
        42.8457945
      ],
      [
        27.6567264,
        42.8465477
      ],
      [
        27.6576598,
        42.8472667
      ],
      [
        27.6586152,
        42.848021
      ],
      [
        27.6610136,
        42.849943
      ],
      [
        27.6618925,
        42.850597
      ],
      [
        27.6624836,
        42.8510367
      ],
      [
        27.6633062,
        42.8516488
      ],
      [
        27.6638212,
        42.851728
      ],
      [
        27.6655512,
        42.8519941
      ],
      [
        27.666864,
        42.852196
      ],
      [
        27.6676949,
        42.8522443
      ],
      [
        27.6693573,
        42.8524039
      ],
      [
        27.6702585,
        42.8522466
      ],
      [
        27.6709023,
        42.8513971
      ],
      [
        27.6716318,
        42.8511139
      ],
      [
        27.6724472,
        42.8513656
      ],
      [
        27.6737776,
        42.8529073
      ],
      [
        27.6742496,
        42.8532848
      ],
      [
        27.67661,
        42.8538196
      ],
      [
        27.6786699,
        42.8535679
      ],
      [
        27.6821032,
        42.8542601
      ],
      [
        27.6845922,
        42.8540713
      ],
      [
        27.6891508,
        42.8534778
      ],
      [
        27.6906232,
        42.8533046
      ],
      [
        27.6942464,
        42.8533002
      ],
      [
        27.6945518,
        42.8533035
      ],
      [
        27.6946984,
        42.853329
      ],
      [
        27.6948134,
        42.8533763
      ],
      [
        27.6948778,
        42.853472
      ],
      [
        27.6949174,
        42.8535999
      ],
      [
        27.6948179,
        42.8537752
      ],
      [
        27.6932716,
        42.8550507
      ],
      [
        27.6919442,
        42.8556646
      ],
      [
        27.69133,
        42.8558016
      ],
      [
        27.6904235,
        42.8560201
      ],
      [
        27.690238,
        42.856117
      ],
      [
        27.6902419,
        42.8563023
      ],
      [
        27.6903663,
        42.8564078
      ],
      [
        27.6905694,
        42.8564313
      ],
      [
        27.691294,
        42.8563298
      ],
      [
        27.6929607,
        42.8563679
      ],
      [
        27.6956385,
        42.8563505
      ],
      [
        27.6982403,
        42.8559516
      ],
      [
        27.7051572,
        42.855083
      ],
      [
        27.7063387,
        42.8550178
      ],
      [
        27.7081743,
        42.8552526
      ]
    ]
  }
},
{
  "type": "Feature",
  "id": "way/262673776",
  "properties": {
    "highway": "tertiary",
    "name": "906",
    "ref": "906",
    "smoothness": "good",
    "id": "way/262673776"
  },
  "geometry": {
    "type": "LineString",
    "coordinates": [
      [
        27.6238695,
        42.8221687
      ],
      [
        27.62401,
        42.8221492
      ],
      [
        27.6243989,
        42.8219188
      ],
      [
        27.6246969,
        42.8218033
      ],
      [
        27.624934,
        42.8217784
      ],
      [
        27.6252041,
        42.8218553
      ],
      [
        27.6275343,
        42.8229995
      ]
    ]
  }
},
{
  "type": "Feature",
  "id": "way/40158030",
  "properties": {
    "highway": "tertiary",
    "name": "906",
    "ref": "906",
    "smoothness": "good",
    "id": "way/40158030"
  },
  "geometry": {
    "type": "LineString",
    "coordinates": [
      [
        27.7081743,
        42.8552526
      ],
      [
        27.7083269,
        42.8553392
      ],
      [
        27.7084387,
        42.8554776
      ],
      [
        27.7092312,
        42.8575049
      ],
      [
        27.7092597,
        42.8576588
      ],
      [
        27.709296,
        42.8579324
      ],
      [
        27.7093168,
        42.85813
      ],
      [
        27.709353,
        42.8583275
      ],
      [
        27.7094107,
        42.8584405
      ],
      [
        27.7094712,
        42.8585399
      ],
      [
        27.7095738,
        42.8586124
      ],
      [
        27.7097351,
        42.8586823
      ],
      [
        27.7104021,
        42.8589053
      ],
      [
        27.7109299,
        42.8590088
      ],
      [
        27.7116815,
        42.8590468
      ],
      [
        27.7124382,
        42.8590658
      ],
      [
        27.7131379,
        42.859005
      ],
      [
        27.7138413,
        42.8589407
      ],
      [
        27.7148722,
        42.8586518
      ],
      [
        27.7151107,
        42.8585644
      ],
      [
        27.7153366,
        42.8583818
      ],
      [
        27.7155451,
        42.8581373
      ],
      [
        27.7157953,
        42.8578594
      ],
      [
        27.715974,
        42.8576081
      ],
      [
        27.7160415,
        42.8575592
      ],
      [
        27.7162151,
        42.8575516
      ],
      [
        27.7163499,
        42.8575725
      ],
      [
        27.7164872,
        42.8576884
      ],
      [
        27.7165235,
        42.8577454
      ],
      [
        27.716508,
        42.8578442
      ],
      [
        27.716444,
        42.8580373
      ],
      [
        27.7164829,
        42.8582539
      ],
      [
        27.7165727,
        42.8584908
      ],
      [
        27.7166531,
        42.8588347
      ],
      [
        27.7166297,
        42.8589772
      ],
      [
        27.7165199,
        42.8592091
      ],
      [
        27.7163852,
        42.8594827
      ],
      [
        27.716196,
        42.8597353
      ],
      [
        27.7160083,
        42.8599251
      ],
      [
        27.7158425,
        42.8600904
      ],
      [
        27.7156637,
        42.860229
      ],
      [
        27.7154408,
        42.8603468
      ],
      [
        27.715319,
        42.8603867
      ],
      [
        27.7150883,
        42.8604855
      ],
      [
        27.7149717,
        42.8605938
      ],
      [
        27.7149458,
        42.8606831
      ],
      [
        27.7149924,
        42.8608122
      ],
      [
        27.7150909,
        42.8608521
      ],
      [
        27.7152438,
        42.8608559
      ],
      [
        27.7154123,
        42.8608217
      ],
      [
        27.7156118,
        42.8606622
      ],
      [
        27.7158684,
        42.8605254
      ],
      [
        27.7162623,
        42.8604304
      ],
      [
        27.7175193,
        42.8600013
      ],
      [
        27.7197295,
        42.8584681
      ],
      [
        27.7203644,
        42.8582819
      ],
      [
        27.7208983,
        42.858248
      ],
      [
        27.7228401,
        42.8587584
      ],
      [
        27.723537,
        42.8592423
      ]
    ]
  }
},
{
  "type": "Feature",
  "id": "way/176046464",
  "properties": {
    "highway": "tertiary",
    "name": "906",
    "ref": "906",
    "smoothness": "good",
    "id": "way/176046464"
  },
  "geometry": {
    "type": "LineString",
    "coordinates": [
      [
        27.7239117,
        42.8595025
      ],
      [
        27.7247717,
        42.8600996
      ],
      [
        27.7250037,
        42.8601516
      ],
      [
        27.7252011,
        42.8601958
      ],
      [
        27.7255241,
        42.8601796
      ],
      [
        27.7261805,
        42.8601466
      ],
      [
        27.7264162,
        42.860196
      ],
      [
        27.7266585,
        42.8603547
      ],
      [
        27.726778,
        42.8605833
      ],
      [
        27.72683,
        42.8608879
      ],
      [
        27.7268929,
        42.8612566
      ],
      [
        27.7269068,
        42.8613383
      ],
      [
        27.7279486,
        42.8628633
      ],
      [
        27.7284492,
        42.8633959
      ],
      [
        27.7285447,
        42.8634976
      ],
      [
        27.729722,
        42.8639988
      ],
      [
        27.7335391,
        42.8656239
      ],
      [
        27.7336187,
        42.8656578
      ],
      [
        27.7338503,
        42.8658113
      ],
      [
        27.7339431,
        42.8660418
      ],
      [
        27.7339122,
        42.8662383
      ],
      [
        27.7337236,
        42.8664579
      ],
      [
        27.7333293,
        42.8667458
      ],
      [
        27.731536,
        42.8680554
      ],
      [
        27.7313744,
        42.8683914
      ],
      [
        27.731389,
        42.8688776
      ],
      [
        27.7312813,
        42.8693306
      ],
      [
        27.7310864,
        42.8697219
      ],
      [
        27.730022,
        42.8710845
      ],
      [
        27.7294642,
        42.8719528
      ],
      [
        27.7286884,
        42.8728146
      ],
      [
        27.7286534,
        42.8730209
      ],
      [
        27.7288046,
        42.8733428
      ],
      [
        27.7315264,
        42.8784767
      ],
      [
        27.7316339,
        42.8789151
      ],
      [
        27.731464,
        42.8793212
      ],
      [
        27.7289493,
        42.8839068
      ],
      [
        27.7281386,
        42.8847141
      ],
      [
        27.7260056,
        42.8863416
      ],
      [
        27.7245634,
        42.8874285
      ],
      [
        27.7237147,
        42.8886632
      ],
      [
        27.720896,
        42.8929466
      ],
      [
        27.7179592,
        42.8946607
      ],
      [
        27.7174457,
        42.8949716
      ],
      [
        27.7164889,
        42.8955309
      ],
      [
        27.7156384,
        42.896947
      ],
      [
        27.7155225,
        42.8974921
      ],
      [
        27.7155031,
        42.8990356
      ],
      [
        27.7155708,
        42.8997294
      ],
      [
        27.7158317,
        42.9005011
      ],
      [
        27.7174768,
        42.9046003
      ],
      [
        27.7183578,
        42.9059312
      ],
      [
        27.7185544,
        42.9060442
      ],
      [
        27.7190259,
        42.906283
      ],
      [
        27.7191261,
        42.9062914
      ],
      [
        27.7193333,
        42.9063089
      ],
      [
        27.7197423,
        42.9062967
      ],
      [
        27.722302,
        42.9054286
      ],
      [
        27.7252409,
        42.9046853
      ],
      [
        27.7294911,
        42.9031221
      ],
      [
        27.72996,
        42.902944
      ],
      [
        27.730571,
        42.90272
      ],
      [
        27.7309475,
        42.9025827
      ],
      [
        27.7313676,
        42.902479
      ],
      [
        27.7318506,
        42.9024418
      ],
      [
        27.7324166,
        42.9025334
      ],
      [
        27.7330327,
        42.9026697
      ],
      [
        27.7336582,
        42.9029375
      ],
      [
        27.7363903,
        42.9040729
      ],
      [
        27.740722,
        42.9050851
      ],
      [
        27.7415146,
        42.9051816
      ],
      [
        27.7432138,
        42.9053164
      ],
      [
        27.7482019,
        42.9056539
      ],
      [
        27.7521426,
        42.9064093
      ],
      [
        27.7532888,
        42.9066685
      ],
      [
        27.7543147,
        42.9069596
      ],
      [
        27.7553468,
        42.9074182
      ],
      [
        27.7570755,
        42.9081935
      ],
      [
        27.7579445,
        42.9085293
      ],
      [
        27.7587864,
        42.9087924
      ],
      [
        27.7606332,
        42.9090869
      ],
      [
        27.7634374,
        42.9095911
      ],
      [
        27.770002,
        42.9106458
      ],
      [
        27.7722913,
        42.9110756
      ],
      [
        27.7726106,
        42.9111427
      ],
      [
        27.7729617,
        42.9112853
      ],
      [
        27.7737467,
        42.9116158
      ],
      [
        27.7742958,
        42.9119267
      ],
      [
        27.7835617,
        42.9171112
      ],
      [
        27.7837975,
        42.9174088
      ],
      [
        27.7839809,
        42.9176401
      ],
      [
        27.7841633,
        42.9178703
      ],
      [
        27.7842232,
        42.9181568
      ],
      [
        27.7842729,
        42.9183942
      ],
      [
        27.7843333,
        42.9186831
      ],
      [
        27.783296,
        42.922186
      ],
      [
        27.7828385,
        42.9240061
      ],
      [
        27.7827612,
        42.9243137
      ],
      [
        27.7827065,
        42.9245314
      ],
      [
        27.7828368,
        42.9248276
      ],
      [
        27.7829465,
        42.9250771
      ],
      [
        27.783072,
        42.9253623
      ],
      [
        27.7836572,
        42.9259537
      ],
      [
        27.7840054,
        42.9262799
      ],
      [
        27.7842768,
        42.9265727
      ],
      [
        27.7846228,
        42.9269922
      ],
      [
        27.7847414,
        42.9271792
      ],
      [
        27.7848481,
        42.9274066
      ],
      [
        27.7849372,
        42.927637
      ],
      [
        27.7849501,
        42.9276954
      ],
      [
        27.7849689,
        42.9278097
      ]
    ]
  }
},
{
  "type": "Feature",
  "id": "way/176046463",
  "properties": {
    "bridge": "yes",
    "highway": "tertiary",
    "name": "906",
    "ref": "906",
    "smoothness": "good",
    "id": "way/176046463"
  },
  "geometry": {
    "type": "LineString",
    "coordinates": [
      [
        27.723537,
        42.8592423
      ],
      [
        27.7239117,
        42.8595025
      ]
    ]
  }
},
{
  "type": "Feature",
  "id": "way/223268637",
  "properties": {
    "highway": "tertiary",
    "name": "906",
    "ref": "906",
    "smoothness": "good",
    "id": "way/223268637"
  },
  "geometry": {
    "type": "LineString",
    "coordinates": [
      [
        27.7850216,
        42.9280484
      ],
      [
        27.7852867,
        42.9292019
      ],
      [
        27.7854428,
        42.9297482
      ],
      [
        27.7857337,
        42.9300055
      ]
    ]
  }
},
{
  "type": "Feature",
  "id": "way/223268636",
  "properties": {
    "bridge": "yes",
    "highway": "tertiary",
    "name": "906",
    "ref": "906",
    "smoothness": "good",
    "id": "way/223268636"
  },
  "geometry": {
    "type": "LineString",
    "coordinates": [
      [
        27.7849689,
        42.9278097
      ],
      [
        27.7850216,
        42.9280484
      ]
    ]
  }
}
]
}
