{
"type": "FeatureCollection",
"features": [
{
  "type": "Feature",
  "id": "way/156490625",
  "properties": {
    "highway": "primary_link",
    "name": "103",
    "oneway": "yes",
    "ref": "103",
    "surface": "asphalt",
    "id": "way/156490625"
  },
  "geometry": {
    "type": "LineString",
    "coordinates": [
      [
        23.6973793,
        43.1400656
      ],
      [
        23.6983093,
        43.1395409
      ]
    ]
  }
},
{
  "type": "Feature",
  "id": "way/280005924",
  "properties": {
    "highway": "tertiary",
    "name": "103",
    "ref": "103",
    "smoothness": "bad",
    "id": "way/280005924"
  },
  "geometry": {
    "type": "LineString",
    "coordinates": [
      [
        23.9177967,
        43.171115
      ],
      [
        23.9172822,
        43.1718421
      ],
      [
        23.9170526,
        43.1721199
      ],
      [
        23.9168178,
        43.172333
      ],
      [
        23.9166039,
        43.1725232
      ],
      [
        23.9163952,
        43.1726488
      ],
      [
        23.9158567,
        43.1729817
      ],
      [
        23.9125208,
        43.1749008
      ],
      [
        23.9096615,
        43.1764931
      ],
      [
        23.9068134,
        43.177985
      ],
      [
        23.90393,
        43.17907
      ],
      [
        23.9031481,
        43.1794423
      ],
      [
        23.898773,
        43.1815256
      ],
      [
        23.8976481,
        43.1820754
      ],
      [
        23.8965201,
        43.1826266
      ],
      [
        23.8958181,
        43.1829246
      ],
      [
        23.8951762,
        43.1830605
      ],
      [
        23.8948028,
        43.1831179
      ],
      [
        23.8944407,
        43.1831941
      ],
      [
        23.8941245,
        43.1832487
      ],
      [
        23.893849,
        43.18329
      ],
      [
        23.8931482,
        43.1833582
      ],
      [
        23.8930009,
        43.1833763
      ],
      [
        23.8928896,
        43.1833899
      ],
      [
        23.8925417,
        43.1835026
      ],
      [
        23.8921912,
        43.183606
      ],
      [
        23.8917616,
        43.183745
      ],
      [
        23.8914686,
        43.1838432
      ],
      [
        23.8913669,
        43.1838695
      ],
      [
        23.8908112,
        43.1840335
      ],
      [
        23.8902321,
        43.184136
      ],
      [
        23.8899947,
        43.1842231
      ],
      [
        23.8893223,
        43.1846606
      ],
      [
        23.8891372,
        43.1847431
      ],
      [
        23.8886777,
        43.1848659
      ],
      [
        23.8876518,
        43.1851016
      ],
      [
        23.8870606,
        43.1852109
      ],
      [
        23.8866674,
        43.1852942
      ],
      [
        23.8862415,
        43.1853959
      ],
      [
        23.8859314,
        43.1855805
      ],
      [
        23.8856686,
        43.1858426
      ],
      [
        23.8853584,
        43.1861133
      ],
      [
        23.8851045,
        43.1862807
      ],
      [
        23.8848237,
        43.1864289
      ],
      [
        23.8833798,
        43.1869436
      ],
      [
        23.8828938,
        43.1871435
      ],
      [
        23.882727,
        43.1871881
      ],
      [
        23.882558,
        43.1872325
      ],
      [
        23.8816021,
        43.1873884
      ],
      [
        23.8813918,
        43.1874615
      ],
      [
        23.8799681,
        43.1884825
      ],
      [
        23.8796368,
        43.18869
      ],
      [
        23.8792517,
        43.1888766
      ],
      [
        23.8787272,
        43.18903
      ],
      [
        23.8780715,
        43.1892218
      ],
      [
        23.8776981,
        43.1893759
      ],
      [
        23.8763684,
        43.1899834
      ],
      [
        23.876114,
        43.1900935
      ],
      [
        23.8756706,
        43.1904538
      ],
      [
        23.8751516,
        43.1907549
      ],
      [
        23.8739546,
        43.1913344
      ],
      [
        23.8736418,
        43.1914779
      ],
      [
        23.8723721,
        43.1921128
      ],
      [
        23.8717552,
        43.1924112
      ],
      [
        23.8713399,
        43.1925775
      ],
      [
        23.8706705,
        43.1927687
      ],
      [
        23.8702872,
        43.1928843
      ],
      [
        23.8564667,
        43.1968083
      ],
      [
        23.8548479,
        43.1973365
      ],
      [
        23.8496334,
        43.199415
      ],
      [
        23.8419304,
        43.2024906
      ],
      [
        23.8400582,
        43.2032492
      ],
      [
        23.8391248,
        43.2035972
      ],
      [
        23.8201026,
        43.2094036
      ],
      [
        23.8196573,
        43.2095288
      ],
      [
        23.8177154,
        43.2096656
      ],
      [
        23.8173871,
        43.20971
      ],
      [
        23.8160793,
        43.209994
      ],
      [
        23.8091377,
        43.2114055
      ],
      [
        23.8083384,
        43.2115736
      ],
      [
        23.8060693,
        43.2119177
      ],
      [
        23.8045404,
        43.2121679
      ],
      [
        23.8041488,
        43.2122383
      ],
      [
        23.8037626,
        43.2122773
      ],
      [
        23.8031081,
        43.2122656
      ],
      [
        23.8004152,
        43.2122656
      ],
      [
        23.7992886,
        43.2123008
      ],
      [
        23.7978134,
        43.2125549
      ],
      [
        23.7966654,
        43.2127973
      ],
      [
        23.7953351,
        43.2132079
      ],
      [
        23.7947343,
        43.2133818
      ],
      [
        23.7941388,
        43.2134815
      ],
      [
        23.7935594,
        43.213548
      ],
      [
        23.7929613,
        43.2135832
      ],
      [
        23.7903381,
        43.2135402
      ],
      [
        23.7878667,
        43.2135517
      ],
      [
        23.7867708,
        43.2138686
      ],
      [
        23.7862075,
        43.2140132
      ],
      [
        23.7856817,
        43.214095
      ],
      [
        23.7833267,
        43.21424
      ],
      [
        23.7825578,
        43.2143095
      ],
      [
        23.7820922,
        43.2143294
      ],
      [
        23.7813834,
        43.2142133
      ],
      [
        23.779655,
        43.2137117
      ],
      [
        23.7793679,
        43.2135871
      ],
      [
        23.7790919,
        43.213431
      ],
      [
        23.7788129,
        43.2131808
      ],
      [
        23.77851,
        43.2128133
      ],
      [
        23.7782684,
        43.2124848
      ],
      [
        23.777662,
        43.2121952
      ],
      [
        23.7770577,
        43.2118882
      ],
      [
        23.7757317,
        43.211075
      ],
      [
        23.7756021,
        43.2109715
      ],
      [
        23.774125,
        43.2103934
      ],
      [
        23.7708267,
        43.2092534
      ],
      [
        23.7697441,
        43.2088602
      ],
      [
        23.7691862,
        43.2086608
      ],
      [
        23.7686551,
        43.2084301
      ],
      [
        23.7683547,
        43.2082189
      ],
      [
        23.7680811,
        43.2079648
      ],
      [
        23.7675584,
        43.2074567
      ],
      [
        23.7664117,
        43.2062867
      ],
      [
        23.7659557,
        43.2058949
      ],
      [
        23.7646372,
        43.2046725
      ],
      [
        23.7638433,
        43.2038279
      ],
      [
        23.7634409,
        43.203429
      ],
      [
        23.7632424,
        43.2032335
      ],
      [
        23.7629884,
        43.203055
      ],
      [
        23.7619228,
        43.2024945
      ],
      [
        23.760915,
        43.2018583
      ],
      [
        23.7600882,
        43.2011845
      ],
      [
        23.7592966,
        43.2004767
      ],
      [
        23.75694,
        43.1993317
      ],
      [
        23.7544584,
        43.198335
      ],
      [
        23.7537796,
        43.1982164
      ],
      [
        23.7531037,
        43.1981148
      ],
      [
        23.75174,
        43.1979784
      ],
      [
        23.751194,
        43.1978449
      ],
      [
        23.7507529,
        43.1976283
      ],
      [
        23.75013,
        43.1969517
      ],
      [
        23.7495084,
        43.1959937
      ],
      [
        23.7493379,
        43.195784
      ],
      [
        23.7492198,
        43.1955141
      ],
      [
        23.7490234,
        43.1949817
      ],
      [
        23.7486467,
        43.1938267
      ],
      [
        23.7484957,
        43.1933162
      ],
      [
        23.7484313,
        43.1930542
      ],
      [
        23.7484317,
        43.192775
      ],
      [
        23.7485386,
        43.1922446
      ],
      [
        23.7485654,
        43.1919826
      ],
      [
        23.7482833,
        43.19114
      ],
      [
        23.7479968,
        43.1903282
      ],
      [
        23.7477875,
        43.1899136
      ],
      [
        23.74744,
        43.18956
      ],
      [
        23.7465821,
        43.188803
      ],
      [
        23.746171,
        43.188437
      ],
      [
        23.7458456,
        43.188267
      ],
      [
        23.7454916,
        43.1882357
      ],
      [
        23.7452019,
        43.1882514
      ],
      [
        23.7449873,
        43.1882318
      ],
      [
        23.7448747,
        43.1881497
      ],
      [
        23.7448586,
        43.1880284
      ],
      [
        23.7449229,
        43.1879228
      ],
      [
        23.745684,
        43.187491
      ],
      [
        23.74584,
        43.187349
      ],
      [
        23.745933,
        43.187173
      ],
      [
        23.745936,
        43.186979
      ],
      [
        23.745836,
        43.186694
      ],
      [
        23.745647,
        43.18644
      ],
      [
        23.7454379,
        43.1863231
      ],
      [
        23.7448908,
        43.1861627
      ],
      [
        23.744352,
        43.186052
      ],
      [
        23.7441183,
        43.1860689
      ],
      [
        23.7439091,
        43.1861393
      ],
      [
        23.7435443,
        43.1863231
      ],
      [
        23.743378,
        43.1863779
      ],
      [
        23.741882,
        43.186493
      ],
      [
        23.7377775,
        43.1863779
      ],
      [
        23.7373055,
        43.1863818
      ],
      [
        23.7371954,
        43.186389
      ],
      [
        23.7368233,
        43.1864133
      ],
      [
        23.7355994,
        43.1866822
      ],
      [
        23.7341494,
        43.1870007
      ],
      [
        23.734028,
        43.1870274
      ],
      [
        23.7337537,
        43.1870846
      ],
      [
        23.732942,
        43.187034
      ],
      [
        23.7324906,
        43.1870269
      ],
      [
        23.732435,
        43.187026
      ],
      [
        23.732233,
        43.187093
      ],
      [
        23.731615,
        43.1874451
      ],
      [
        23.73148,
        43.187522
      ],
      [
        23.7313628,
        43.1875595
      ],
      [
        23.731277,
        43.187587
      ],
      [
        23.730908,
        43.187623
      ],
      [
        23.7300367,
        43.1875865
      ],
      [
        23.7298758,
        43.1875474
      ],
      [
        23.7297309,
        43.1874261
      ],
      [
        23.7297041,
        43.1873009
      ],
      [
        23.7297095,
        43.1871171
      ],
      [
        23.729771,
        43.186768
      ],
      [
        23.729767,
        43.186619
      ],
      [
        23.729609,
        43.186404
      ],
      [
        23.7295563,
        43.1863628
      ],
      [
        23.7294442,
        43.1862752
      ],
      [
        23.729302,
        43.186164
      ],
      [
        23.7292758,
        43.1861066
      ],
      [
        23.7292024,
        43.1859459
      ],
      [
        23.72918,
        43.185897
      ],
      [
        23.72917,
        43.185674
      ],
      [
        23.7293232,
        43.1849541
      ],
      [
        23.7293232,
        43.1844954
      ],
      [
        23.7293232,
        43.1843351
      ],
      [
        23.7293232,
        43.184207
      ],
      [
        23.7291567,
        43.18346
      ],
      [
        23.7287366,
        43.18214
      ],
      [
        23.7280679,
        43.1815354
      ],
      [
        23.7276978,
        43.1812577
      ],
      [
        23.7272767,
        43.1810384
      ],
      [
        23.7266433,
        43.180729
      ],
      [
        23.7261904,
        43.1805223
      ],
      [
        23.725772,
        43.1802876
      ],
      [
        23.7253857,
        43.179959
      ],
      [
        23.7247531,
        43.1794281
      ],
      [
        23.7243695,
        43.1790407
      ],
      [
        23.7243182,
        43.1787346
      ],
      [
        23.7243665,
        43.1784803
      ],
      [
        23.7244767,
        43.178205
      ],
      [
        23.7245703,
        43.17796
      ],
      [
        23.7248654,
        43.1775884
      ],
      [
        23.7259834,
        43.1764084
      ],
      [
        23.7278483,
        43.1744817
      ],
      [
        23.7286849,
        43.1735433
      ],
      [
        23.7290926,
        43.1730504
      ],
      [
        23.7294359,
        43.1724831
      ],
      [
        23.7299294,
        43.1714307
      ],
      [
        23.7304444,
        43.1703626
      ],
      [
        23.7309486,
        43.1690285
      ],
      [
        23.7307983,
        43.1686183
      ],
      [
        23.72985,
        43.166645
      ],
      [
        23.7291086,
        43.1651746
      ],
      [
        23.7289584,
        43.1649829
      ],
      [
        23.7287617,
        43.164845
      ],
      [
        23.72697,
        43.1640583
      ],
      [
        23.7264694,
        43.1637816
      ],
      [
        23.7262333,
        43.1636369
      ],
      [
        23.7260241,
        43.1634647
      ],
      [
        23.72541,
        43.162615
      ],
      [
        23.7224867,
        43.15863
      ],
      [
        23.7222744,
        43.158143
      ],
      [
        23.7221939,
        43.1578926
      ],
      [
        23.7222786,
        43.1576093
      ],
      [
        23.7226583,
        43.156575
      ],
      [
        23.7232283,
        43.155445
      ],
      [
        23.72378,
        43.1544567
      ],
      [
        23.7254384,
        43.15293
      ]
    ]
  }
},
{
  "type": "Feature",
  "id": "way/102353949",
  "properties": {
    "highway": "primary_link",
    "name": "103",
    "ref": "103",
    "surface": "asphalt",
    "id": "way/102353949"
  },
  "geometry": {
    "type": "LineString",
    "coordinates": [
      [
        23.6998488,
        43.1392899
      ],
      [
        23.6996854,
        43.1391809
      ],
      [
        23.6995455,
        43.1391151
      ],
      [
        23.699379,
        43.1390811
      ],
      [
        23.6991955,
        43.1390935
      ],
      [
        23.6989933,
        43.1391355
      ],
      [
        23.6986963,
        43.1392751
      ],
      [
        23.6983093,
        43.1395409
      ]
    ]
  }
},
{
  "type": "Feature",
  "id": "way/156490627",
  "properties": {
    "bridge": "yes",
    "highway": "primary_link",
    "layer": "1",
    "name": "103",
    "ref": "103",
    "surface": "asphalt",
    "id": "way/156490627"
  },
  "geometry": {
    "type": "LineString",
    "coordinates": [
      [
        23.7001412,
        43.1395863
      ],
      [
        23.6998488,
        43.1392899
      ]
    ]
  }
},
{
  "type": "Feature",
  "id": "way/193045178",
  "properties": {
    "highway": "primary_link",
    "name": "103",
    "ref": "103",
    "surface": "asphalt",
    "id": "way/193045178"
  },
  "geometry": {
    "type": "LineString",
    "coordinates": [
      [
        23.700614,
        43.1399604
      ],
      [
        23.7003862,
        43.1398066
      ],
      [
        23.7001412,
        43.1395863
      ]
    ]
  }
},
{
  "type": "Feature",
  "id": "way/208530093",
  "properties": {
    "highway": "tertiary",
    "lanes": "2",
    "layer": "1",
    "maxspeed": "50",
    "name": "103",
    "oneway": "no",
    "ref": "103",
    "surface": "asphalt",
    "id": "way/208530093"
  },
  "geometry": {
    "type": "LineString",
    "coordinates": [
      [
        23.700614,
        43.1399604
      ],
      [
        23.700849,
        43.1400766
      ],
      [
        23.7010662,
        43.1401375
      ],
      [
        23.7015139,
        43.1402435
      ],
      [
        23.7039094,
        43.1408246
      ],
      [
        23.7042962,
        43.1409192
      ]
    ]
  }
},
{
  "type": "Feature",
  "id": "way/279089160",
  "properties": {
    "highway": "tertiary",
    "lanes": "2",
    "maxspeed": "50",
    "name": "ул. Янко Сакъзов",
    "oneway": "no",
    "ref": "103",
    "surface": "asphalt",
    "id": "way/279089160"
  },
  "geometry": {
    "type": "LineString",
    "coordinates": [
      [
        23.7071734,
        43.141395
      ],
      [
        23.707177,
        43.141454
      ],
      [
        23.7071912,
        43.1416896
      ],
      [
        23.7071976,
        43.1417947
      ],
      [
        23.7072258,
        43.1418574
      ],
      [
        23.707417,
        43.1422822
      ],
      [
        23.7075128,
        43.1424951
      ],
      [
        23.7076587,
        43.1428173
      ]
    ]
  }
},
{
  "type": "Feature",
  "id": "way/253944190",
  "properties": {
    "bicycle": "yes",
    "foot": "yes",
    "highway": "tertiary",
    "horse": "yes",
    "lanes": "2",
    "name": "ул. Александър Стамболийски",
    "oneway": "yes",
    "ref": "103",
    "id": "way/253944190"
  },
  "geometry": {
    "type": "LineString",
    "coordinates": [
      [
        23.7075128,
        43.1424951
      ],
      [
        23.7082532,
        43.142553
      ],
      [
        23.7100623,
        43.1426907
      ],
      [
        23.7107672,
        43.142784
      ],
      [
        23.710995,
        43.1428279
      ],
      [
        23.7112713,
        43.1429006
      ],
      [
        23.7115884,
        43.1429999
      ],
      [
        23.7119094,
        43.143141
      ],
      [
        23.7122198,
        43.1432797
      ],
      [
        23.7126183,
        43.1435034
      ],
      [
        23.7127465,
        43.1435955
      ],
      [
        23.7130352,
        43.1438028
      ],
      [
        23.71402,
        43.14451
      ],
      [
        23.7147658,
        43.1449988
      ],
      [
        23.71534,
        43.145375
      ],
      [
        23.7169115,
        43.1464728
      ],
      [
        23.717452,
        43.1468434
      ],
      [
        23.7176987,
        43.1469647
      ],
      [
        23.7182137,
        43.1472192
      ],
      [
        23.7184367,
        43.1472783
      ],
      [
        23.7187501,
        43.1473679
      ],
      [
        23.7189755,
        43.1473992
      ],
      [
        23.7192222,
        43.1474305
      ],
      [
        23.7194422,
        43.1474344
      ],
      [
        23.7197104,
        43.1474383
      ],
      [
        23.7199196,
        43.1474266
      ],
      [
        23.7202484,
        43.1473967
      ],
      [
        23.7204668,
        43.1473483
      ],
      [
        23.720794,
        43.1472739
      ]
    ]
  }
},
{
  "type": "Feature",
  "id": "way/279089159",
  "properties": {
    "highway": "tertiary",
    "lanes": "2",
    "maxspeed": "50",
    "name": "ул. Христо Ботев",
    "oneway": "no",
    "ref": "103",
    "surface": "asphalt",
    "id": "way/279089159"
  },
  "geometry": {
    "type": "LineString",
    "coordinates": [
      [
        23.7042962,
        43.1409192
      ],
      [
        23.7045312,
        43.1409766
      ],
      [
        23.7055567,
        43.141165
      ],
      [
        23.7067972,
        43.1413415
      ],
      [
        23.7071734,
        43.141395
      ]
    ]
  }
},
{
  "type": "Feature",
  "id": "way/253944189",
  "properties": {
    "highway": "tertiary",
    "name": "ул. Св.Св.Кирил и Методий",
    "oneway": "no",
    "ref": "103",
    "id": "way/253944189"
  },
  "geometry": {
    "type": "LineString",
    "coordinates": [
      [
        23.7210496,
        43.1474667
      ],
      [
        23.721465,
        43.14774
      ],
      [
        23.7221359,
        43.1482283
      ],
      [
        23.7224524,
        43.1484587
      ],
      [
        23.7231565,
        43.148947
      ],
      [
        23.7235658,
        43.1492308
      ],
      [
        23.7236151,
        43.149265
      ],
      [
        23.7241391,
        43.1497747
      ]
    ]
  }
},
{
  "type": "Feature",
  "id": "way/253944187",
  "properties": {
    "highway": "tertiary",
    "name": "ул. Св.Св.Кирил и Методий",
    "oneway": "no",
    "ref": "103",
    "id": "way/253944187"
  },
  "geometry": {
    "type": "LineString",
    "coordinates": [
      [
        23.720794,
        43.1472739
      ],
      [
        23.7210496,
        43.1474667
      ]
    ]
  }
},
{
  "type": "Feature",
  "id": "way/279089171",
  "properties": {
    "highway": "tertiary",
    "name": "103",
    "oneway": "no",
    "ref": "103",
    "smoothness": "bad",
    "id": "way/279089171"
  },
  "geometry": {
    "type": "LineString",
    "coordinates": [
      [
        23.7241391,
        43.1497747
      ],
      [
        23.72471,
        43.1503317
      ],
      [
        23.7256857,
        43.1513081
      ],
      [
        23.7259001,
        43.1515616
      ],
      [
        23.7259667,
        43.1517163
      ],
      [
        23.7260234,
        43.1519752
      ],
      [
        23.7259815,
        43.1522504
      ],
      [
        23.7258976,
        43.152495
      ],
      [
        23.7256709,
        43.1527341
      ],
      [
        23.7254384,
        43.15293
      ]
    ]
  }
},
{
  "type": "Feature",
  "id": "way/105920190",
  "properties": {
    "highway": "tertiary",
    "name": "103",
    "ref": "103",
    "smoothness": "intermediate",
    "id": "way/105920190"
  },
  "geometry": {
    "type": "LineString",
    "coordinates": [
      [
        23.9302455,
        43.1394702
      ],
      [
        23.9302043,
        43.1389849
      ],
      [
        23.9301447,
        43.1382844
      ],
      [
        23.9300441,
        43.1371009
      ],
      [
        23.9300054,
        43.1366455
      ],
      [
        23.9299955,
        43.1365288
      ],
      [
        23.929873,
        43.1349937
      ],
      [
        23.929455,
        43.1295497
      ],
      [
        23.929369,
        43.1283787
      ],
      [
        23.929296,
        43.1277757
      ],
      [
        23.929296,
        43.1275777
      ],
      [
        23.929316,
        43.1273757
      ],
      [
        23.929365,
        43.1271427
      ],
      [
        23.929434,
        43.1269067
      ],
      [
        23.929522,
        43.1266927
      ],
      [
        23.929638,
        43.1264757
      ],
      [
        23.929768,
        43.1262927
      ],
      [
        23.929916,
        43.1261057
      ],
      [
        23.930099,
        43.1259447
      ],
      [
        23.930292,
        43.1257847
      ],
      [
        23.930573,
        43.1255977
      ],
      [
        23.930851,
        43.1254337
      ],
      [
        23.931076,
        43.1253157
      ],
      [
        23.931269,
        43.1252207
      ],
      [
        23.9312978,
        43.1252114
      ],
      [
        23.931484,
        43.1251517
      ],
      [
        23.931719,
        43.1250907
      ],
      [
        23.93194,
        43.1250367
      ],
      [
        23.932201,
        43.1249877
      ],
      [
        23.934208,
        43.1247437
      ],
      [
        23.934862,
        43.1246477
      ],
      [
        23.93516,
        43.1245987
      ],
      [
        23.935453,
        43.1245417
      ],
      [
        23.935781,
        43.1244607
      ],
      [
        23.936108,
        43.1243777
      ],
      [
        23.936386,
        43.1242937
      ],
      [
        23.936674,
        43.1241867
      ],
      [
        23.940538,
        43.1227487
      ],
      [
        23.940727,
        43.1226717
      ],
      [
        23.940828,
        43.1226297
      ],
      [
        23.940947,
        43.1225997
      ],
      [
        23.941193,
        43.1225657
      ],
      [
        23.942202,
        43.1224657
      ],
      [
        23.942501,
        43.1224207
      ],
      [
        23.942759,
        43.1223707
      ],
      [
        23.944614,
        43.1218287
      ],
      [
        23.944773,
        43.1217947
      ],
      [
        23.944946,
        43.1217607
      ],
      [
        23.945122,
        43.1217567
      ],
      [
        23.945345,
        43.1217607
      ],
      [
        23.946547,
        43.1218477
      ],
      [
        23.946768,
        43.1218517
      ],
      [
        23.946985,
        43.1218407
      ],
      [
        23.947174,
        43.1218257
      ],
      [
        23.947361,
        43.1217907
      ],
      [
        23.94754,
        43.1217567
      ],
      [
        23.947737,
        43.1216877
      ],
      [
        23.950794,
        43.1203907
      ],
      [
        23.95117,
        43.1202347
      ],
      [
        23.951344,
        43.1201807
      ],
      [
        23.951513,
        43.1201387
      ],
      [
        23.951696,
        43.1201127
      ],
      [
        23.951889,
        43.1200937
      ],
      [
        23.952045,
        43.1200897
      ],
      [
        23.952221,
        43.1200857
      ],
      [
        23.955173,
        43.1202727
      ],
      [
        23.95565,
        43.1202877
      ],
      [
        23.955919,
        43.1202767
      ],
      [
        23.956165,
        43.1202347
      ],
      [
        23.95636,
        43.1201847
      ],
      [
        23.956553,
        43.1201197
      ],
      [
        23.956921,
        43.1199597
      ],
      [
        23.958649,
        43.1189027
      ],
      [
        23.95903,
        43.1186967
      ],
      [
        23.959431,
        43.1184947
      ],
      [
        23.959595,
        43.1184227
      ],
      [
        23.959774,
        43.1183467
      ],
      [
        23.959942,
        43.1182847
      ],
      [
        23.960129,
        43.1182277
      ],
      [
        23.962553,
        43.1176097
      ],
      [
        23.96277,
        43.1175487
      ],
      [
        23.96295,
        43.1174837
      ],
      [
        23.963106,
        43.1174157
      ],
      [
        23.963261,
        43.1173277
      ],
      [
        23.963413,
        43.1172137
      ],
      [
        23.963518,
        43.1170907
      ],
      [
        23.9636,
        43.1169957
      ],
      [
        23.96368,
        43.1168587
      ],
      [
        23.963718,
        43.1167407
      ],
      [
        23.96373,
        43.1166147
      ],
      [
        23.963627,
        43.1149927
      ],
      [
        23.963633,
        43.1148707
      ],
      [
        23.963659,
        43.1147417
      ],
      [
        23.963709,
        43.1146457
      ],
      [
        23.963774,
        43.1145657
      ],
      [
        23.963858,
        43.1144897
      ],
      [
        23.963947,
        43.1144137
      ],
      [
        23.964046,
        43.1143527
      ],
      [
        23.964172,
        43.1142947
      ],
      [
        23.96431,
        43.1142527
      ],
      [
        23.964428,
        43.1142297
      ],
      [
        23.964556,
        43.1142337
      ],
      [
        23.965309,
        43.1143297
      ],
      [
        23.965452,
        43.1143407
      ],
      [
        23.965586,
        43.1143407
      ],
      [
        23.96574,
        43.1143297
      ],
      [
        23.9659,
        43.1143137
      ],
      [
        23.96603,
        43.1142797
      ],
      [
        23.966146,
        43.1142187
      ],
      [
        23.966246,
        43.1141617
      ],
      [
        23.96633,
        43.1140927
      ],
      [
        23.966417,
        43.1140207
      ],
      [
        23.966501,
        43.1139287
      ],
      [
        23.966545,
        43.1138527
      ],
      [
        23.966595,
        43.1137417
      ],
      [
        23.966604,
        43.1136347
      ],
      [
        23.966627,
        43.1124907
      ],
      [
        23.966654,
        43.1123687
      ],
      [
        23.96669,
        43.1122767
      ],
      [
        23.966766,
        43.1121627
      ],
      [
        23.966852,
        43.1120747
      ],
      [
        23.966972,
        43.1119867
      ],
      [
        23.967531,
        43.1116167
      ],
      [
        23.967667,
        43.1115257
      ],
      [
        23.967789,
        43.1114227
      ],
      [
        23.967897,
        43.1113047
      ],
      [
        23.967993,
        43.1111707
      ],
      [
        23.968712,
        43.1099957
      ],
      [
        23.968779,
        43.1098927
      ],
      [
        23.968853,
        43.1097857
      ],
      [
        23.968927,
        43.1097017
      ],
      [
        23.969023,
        43.1096217
      ],
      [
        23.969452,
        43.1092597
      ],
      [
        23.969545,
        43.1091797
      ],
      [
        23.969624,
        43.1090877
      ],
      [
        23.9697,
        43.1089967
      ],
      [
        23.969763,
        43.1088857
      ],
      [
        23.97123,
        43.1063567
      ],
      [
        23.971378,
        43.1061427
      ],
      [
        23.971533,
        43.1059557
      ],
      [
        23.971712,
        43.1057577
      ],
      [
        23.971909,
        43.1055627
      ],
      [
        23.972094,
        43.1054027
      ],
      [
        23.972296,
        43.1052427
      ],
      [
        23.972612,
        43.1050217
      ],
      [
        23.972948,
        43.1047967
      ],
      [
        23.979225,
        43.1004097
      ],
      [
        23.980394,
        43.0996737
      ],
      [
        23.980654,
        43.0995167
      ],
      [
        23.980921,
        43.0993677
      ],
      [
        23.981153,
        43.0992387
      ],
      [
        23.981403,
        43.0991087
      ],
      [
        23.983,
        43.0983727
      ],
      [
        23.984644,
        43.0976437
      ],
      [
        23.98485,
        43.0975447
      ],
      [
        23.985037,
        43.0974417
      ],
      [
        23.985188,
        43.0973467
      ],
      [
        23.98534,
        43.0972437
      ],
      [
        23.986115,
        43.0966827
      ],
      [
        23.986277,
        43.0965567
      ],
      [
        23.986446,
        43.0964387
      ],
      [
        23.986609,
        43.0963427
      ],
      [
        23.98679,
        43.0962397
      ],
      [
        23.99119,
        43.0941917
      ],
      [
        23.991417,
        43.0940737
      ],
      [
        23.991583,
        43.0939737
      ],
      [
        23.991705,
        43.0938867
      ],
      [
        23.991835,
        43.0937837
      ],
      [
        23.991989,
        43.0936197
      ],
      [
        23.992079,
        43.0934817
      ],
      [
        23.992176,
        43.0933337
      ],
      [
        23.99225,
        43.0931687
      ],
      [
        23.992317,
        43.0930357
      ],
      [
        23.992369,
        43.0928487
      ],
      [
        23.99243,
        43.0920437
      ],
      [
        23.992439,
        43.0918337
      ],
      [
        23.992476,
        43.0916277
      ],
      [
        23.992531,
        43.0914217
      ],
      [
        23.992605,
        43.0912197
      ],
      [
        23.992693,
        43.0910487
      ],
      [
        23.992786,
        43.0908997
      ],
      [
        23.992907,
        43.0907277
      ],
      [
        23.993067,
        43.0905717
      ],
      [
        23.993202,
        43.0904377
      ],
      [
        23.993366,
        43.0903047
      ],
      [
        23.997732,
        43.0877337
      ],
      [
        23.997881,
        43.0876497
      ],
      [
        23.998034,
        43.0875697
      ],
      [
        23.998184,
        43.0875047
      ],
      [
        23.998356,
        43.0874507
      ],
      [
        23.998503,
        43.0874247
      ],
      [
        23.998667,
        43.0874127
      ],
      [
        24.002195,
        43.0874047
      ],
      [
        24.0155537,
        43.087422
      ],
      [
        24.016832,
        43.0874277
      ],
      [
        24.029514,
        43.0874587
      ],
      [
        24.035372,
        43.0874357
      ],
      [
        24.037506,
        43.0874587
      ],
      [
        24.042206,
        43.0874737
      ],
      [
        24.047119,
        43.0874817
      ],
      [
        24.056305,
        43.0874817
      ],
      [
        24.061207,
        43.0874817
      ],
      [
        24.063631,
        43.0875047
      ],
      [
        24.071592,
        43.0877407
      ],
      [
        24.075754,
        43.0878897
      ],
      [
        24.0792937,
        43.0879827
      ],
      [
        24.084316,
        43.0881647
      ],
      [
        24.096901,
        43.0885497
      ],
      [
        24.106504,
        43.0888467
      ],
      [
        24.108446,
        43.0888927
      ],
      [
        24.109657,
        43.0888697
      ],
      [
        24.110903,
        43.0888047
      ],
      [
        24.115044,
        43.0886867
      ],
      [
        24.121513,
        43.0884387
      ],
      [
        24.123014,
        43.0884387
      ],
      [
        24.124657,
        43.0885877
      ],
      [
        24.125731,
        43.0887827
      ],
      [
        24.130922,
        43.0899797
      ],
      [
        24.1381,
        43.0916437
      ],
      [
        24.139055,
        43.0918227
      ],
      [
        24.14016,
        43.0919867
      ],
      [
        24.1402672,
        43.0919949
      ],
      [
        24.141104,
        43.0920587
      ],
      [
        24.1422401,
        43.0920788
      ],
      [
        24.145653,
        43.0920817
      ],
      [
        24.145693,
        43.0920818
      ],
      [
        24.1486648,
        43.0920869
      ],
      [
        24.1505196,
        43.0921091
      ],
      [
        24.15134,
        43.092102
      ],
      [
        24.151909,
        43.092072
      ],
      [
        24.152489,
        43.091923
      ],
      [
        24.1531486,
        43.0917579
      ],
      [
        24.1547053,
        43.0913684
      ],
      [
        24.1552582,
        43.09123
      ],
      [
        24.1569015,
        43.0908188
      ],
      [
        24.158571,
        43.090401
      ],
      [
        24.160353,
        43.089954
      ],
      [
        24.1608549,
        43.0897851
      ]
    ]
  }
},
{
  "type": "Feature",
  "id": "way/280004824",
  "properties": {
    "fixme": "need better",
    "highway": "tertiary",
    "lanes": "2",
    "maxspeed": "40",
    "name": "Булевард \"Христо Ботев\"",
    "oneway": "no",
    "ref": "103",
    "smoothness": "intermediate",
    "surface": "paved",
    "id": "way/280004824"
  },
  "geometry": {
    "type": "LineString",
    "coordinates": [
      [
        23.9167985,
        43.1570531
      ],
      [
        23.917878,
        43.1564261
      ],
      [
        23.9188784,
        43.155845
      ],
      [
        23.9190023,
        43.1557572
      ],
      [
        23.9204417,
        43.1547367
      ],
      [
        23.9207928,
        43.154381
      ],
      [
        23.921575,
        43.1535884
      ],
      [
        23.9227484,
        43.15223
      ],
      [
        23.9234577,
        43.151173
      ]
    ]
  }
},
{
  "type": "Feature",
  "id": "way/208412550",
  "properties": {
    "bridge": "yes",
    "fixme": "need better",
    "highway": "tertiary",
    "lanes": "2",
    "layer": "1",
    "ref": "103",
    "smoothness": "intermediate",
    "id": "way/208412550"
  },
  "geometry": {
    "type": "LineString",
    "coordinates": [
      [
        23.9289723,
        43.1406265
      ],
      [
        23.9277969,
        43.1409208
      ]
    ]
  }
},
{
  "type": "Feature",
  "id": "way/208441881",
  "properties": {
    "fixme": "need better",
    "highway": "tertiary",
    "name": "103",
    "ref": "103",
    "smoothness": "intermediate",
    "id": "way/208441881"
  },
  "geometry": {
    "type": "LineString",
    "coordinates": [
      [
        23.9302455,
        43.1394702
      ],
      [
        23.9302208,
        43.1396866
      ],
      [
        23.9301468,
        43.1398921
      ],
      [
        23.9300502,
        43.1400346
      ],
      [
        23.9299531,
        43.1401552
      ],
      [
        23.9298357,
        43.1402612
      ],
      [
        23.9297069,
        43.1403466
      ],
      [
        23.9295245,
        43.1404315
      ],
      [
        23.9293577,
        43.1405098
      ],
      [
        23.9289723,
        43.1406265
      ]
    ]
  }
},
{
  "type": "Feature",
  "id": "way/259766529",
  "properties": {
    "fixme": "need better",
    "highway": "tertiary",
    "name": "103",
    "oneway": "no",
    "ref": "103",
    "smoothness": "intermediate",
    "id": "way/259766529"
  },
  "geometry": {
    "type": "LineString",
    "coordinates": [
      [
        23.9277969,
        43.1409208
      ],
      [
        23.9267599,
        43.1411899
      ]
    ]
  }
},
{
  "type": "Feature",
  "id": "way/281057668",
  "properties": {
    "fixme": "need better",
    "highway": "tertiary",
    "lanes": "2",
    "maxspeed": "40",
    "name": "Булевард \"Христо Ботев\"",
    "oneway": "no",
    "ref": "103",
    "smoothness": "intermediate",
    "surface": "paved",
    "id": "way/281057668"
  },
  "geometry": {
    "type": "LineString",
    "coordinates": [
      [
        23.9234577,
        43.151173
      ],
      [
        23.9240159,
        43.1504181
      ],
      [
        23.9243778,
        43.1496575
      ],
      [
        23.9247949,
        43.1488568
      ],
      [
        23.9250031,
        43.1483885
      ],
      [
        23.9250496,
        43.1482677
      ],
      [
        23.9252556,
        43.1471482
      ],
      [
        23.925415,
        43.1462817
      ],
      [
        23.9254233,
        43.1462175
      ],
      [
        23.9254769,
        43.1458024
      ],
      [
        23.925356,
        43.1452164
      ],
      [
        23.9252649,
        43.144841
      ],
      [
        23.9252428,
        43.1447255
      ],
      [
        23.925336,
        43.1441071
      ],
      [
        23.9255423,
        43.1430498
      ],
      [
        23.9255473,
        43.1430265
      ],
      [
        23.9255667,
        43.1429367
      ],
      [
        23.9257016,
        43.14209
      ],
      [
        23.9257368,
        43.1418907
      ]
    ]
  }
},
{
  "type": "Feature",
  "id": "way/102353896",
  "properties": {
    "bridge": "yes",
    "highway": "tertiary",
    "layer": "1",
    "name": "103",
    "ref": "103",
    "smoothness": "bad",
    "id": "way/102353896"
  },
  "geometry": {
    "type": "LineString",
    "coordinates": [
      [
        23.9200228,
        43.1572887
      ],
      [
        23.9184108,
        43.1554072
      ]
    ]
  }
},
{
  "type": "Feature",
  "id": "way/102353931",
  "properties": {
    "fixme": "need better",
    "highway": "tertiary",
    "lanes": "2",
    "maxspeed": "40",
    "oneway": "no",
    "ref": "103",
    "smoothness": "intermediate",
    "surface": "paved",
    "id": "way/102353931"
  },
  "geometry": {
    "type": "LineString",
    "coordinates": [
      [
        23.9184108,
        43.1554072
      ],
      [
        23.9181697,
        43.1552126
      ],
      [
        23.9180339,
        43.1551853
      ],
      [
        23.9179039,
        43.1552027
      ],
      [
        23.9177908,
        43.1552608
      ],
      [
        23.9169217,
        43.15571
      ],
      [
        23.9160514,
        43.1561446
      ],
      [
        23.9159952,
        43.1562122
      ]
    ]
  }
},
{
  "type": "Feature",
  "id": "way/280005068",
  "properties": {
    "fixme": "need better",
    "highway": "tertiary",
    "lanes": "2",
    "maxspeed": "40",
    "oneway": "no",
    "ref": "103",
    "smoothness": "intermediate",
    "surface": "paved",
    "id": "way/280005068"
  },
  "geometry": {
    "type": "LineString",
    "coordinates": [
      [
        23.9159952,
        43.1562122
      ],
      [
        23.9160329,
        43.1562887
      ],
      [
        23.9162754,
        43.1565309
      ],
      [
        23.9167985,
        43.1570531
      ]
    ]
  }
},
{
  "type": "Feature",
  "id": "way/102353921",
  "properties": {
    "highway": "tertiary",
    "name": "103",
    "ref": "103",
    "smoothness": "bad",
    "id": "way/102353921"
  },
  "geometry": {
    "type": "LineString",
    "coordinates": [
      [
        23.9209538,
        43.1583693
      ],
      [
        23.9209218,
        43.1583322
      ],
      [
        23.9205115,
        43.157856
      ],
      [
        23.9200997,
        43.157378
      ],
      [
        23.9200228,
        43.1572887
      ]
    ]
  }
},
{
  "type": "Feature",
  "id": "way/156490616",
  "properties": {
    "highway": "tertiary",
    "name": "103",
    "ref": "103",
    "smoothness": "bad",
    "id": "way/156490616"
  },
  "geometry": {
    "type": "LineString",
    "coordinates": [
      [
        23.9222214,
        43.1591285
      ],
      [
        23.9223786,
        43.159314
      ],
      [
        23.9224451,
        43.1594658
      ],
      [
        23.9224836,
        43.1596233
      ],
      [
        23.9224945,
        43.1596677
      ],
      [
        23.922488,
        43.1598567
      ],
      [
        23.9224617,
        43.1603317
      ],
      [
        23.9224433,
        43.1605241
      ],
      [
        23.9224321,
        43.1606414
      ],
      [
        23.9222917,
        43.1621117
      ],
      [
        23.9219284,
        43.16476
      ],
      [
        23.9216778,
        43.1653389
      ],
      [
        23.9213217,
        43.1658834
      ],
      [
        23.9177967,
        43.171115
      ]
    ]
  }
},
{
  "type": "Feature",
  "id": "way/102353936",
  "properties": {
    "bridge": "yes",
    "highway": "tertiary",
    "layer": "1",
    "name": "103",
    "ref": "103",
    "smoothness": "bad",
    "id": "way/102353936"
  },
  "geometry": {
    "type": "LineString",
    "coordinates": [
      [
        23.9209538,
        43.1583693
      ],
      [
        23.9222214,
        43.1591285
      ]
    ]
  }
},
{
  "type": "Feature",
  "id": "way/105920186",
  "properties": {
    "highway": "tertiary",
    "name": "103",
    "oneway": "yes",
    "ref": "103",
    "id": "way/105920186"
  },
  "geometry": {
    "type": "LineString",
    "coordinates": [
      [
        24.216303,
        43.060898
      ],
      [
        24.2163548,
        43.0602091
      ],
      [
        24.216332,
        43.0600766
      ]
    ]
  }
},
{
  "type": "Feature",
  "id": "way/105920187",
  "properties": {
    "highway": "tertiary",
    "name": "103",
    "oneway": "yes",
    "ref": "103",
    "id": "way/105920187"
  },
  "geometry": {
    "type": "LineString",
    "coordinates": [
      [
        24.216332,
        43.0600766
      ],
      [
        24.2164675,
        43.0601347
      ],
      [
        24.216555,
        43.060169
      ],
      [
        24.216618,
        43.060204
      ],
      [
        24.216679,
        43.060249
      ],
      [
        24.216703,
        43.060299
      ],
      [
        24.216732,
        43.060379
      ],
      [
        24.216736,
        43.060474
      ]
    ]
  }
},
{
  "type": "Feature",
  "id": "way/105920198",
  "properties": {
    "highway": "tertiary",
    "name": "103",
    "oneway": "yes",
    "ref": "103",
    "id": "way/105920198"
  },
  "geometry": {
    "type": "LineString",
    "coordinates": [
      [
        24.216248,
        43.061172
      ],
      [
        24.216303,
        43.060898
      ],
      [
        24.216276,
        43.060799
      ],
      [
        24.216249,
        43.060726
      ],
      [
        24.216202,
        43.060642
      ],
      [
        24.216135,
        43.060566
      ],
      [
        24.216061,
        43.060501
      ],
      [
        24.21596,
        43.060448
      ],
      [
        24.215824,
        43.060394
      ],
      [
        24.215658,
        43.06036
      ],
      [
        24.215492,
        43.060349
      ],
      [
        24.215338,
        43.060345
      ],
      [
        24.214879,
        43.0603126
      ]
    ]
  }
},
{
  "type": "Feature",
  "id": "way/105920200",
  "properties": {
    "highway": "tertiary",
    "name": "103",
    "oneway": "yes",
    "ref": "103",
    "id": "way/105920200"
  },
  "geometry": {
    "type": "LineString",
    "coordinates": [
      [
        24.217948,
        43.0594886
      ],
      [
        24.217616,
        43.0597406
      ],
      [
        24.217451,
        43.059875
      ],
      [
        24.2173,
        43.059978
      ],
      [
        24.217165,
        43.060089
      ],
      [
        24.216942,
        43.060276
      ],
      [
        24.216736,
        43.060474
      ],
      [
        24.216572,
        43.060688
      ],
      [
        24.216419,
        43.060902
      ],
      [
        24.216248,
        43.061172
      ]
    ]
  }
},
{
  "type": "Feature",
  "id": "way/105921863",
  "properties": {
    "highway": "tertiary",
    "name": "103",
    "ref": "103",
    "smoothness": "intermediate",
    "id": "way/105921863"
  },
  "geometry": {
    "type": "LineString",
    "coordinates": [
      [
        24.16129,
        43.0896489
      ],
      [
        24.1626831,
        43.0891953
      ],
      [
        24.162905,
        43.089123
      ],
      [
        24.174353,
        43.085457
      ]
    ]
  }
},
{
  "type": "Feature",
  "id": "way/105921867",
  "properties": {
    "bridge": "yes",
    "highway": "tertiary",
    "layer": "1",
    "name": "103",
    "ref": "103",
    "id": "way/105921867"
  },
  "geometry": {
    "type": "LineString",
    "coordinates": [
      [
        24.1608549,
        43.0897851
      ],
      [
        24.16129,
        43.0896489
      ]
    ]
  }
},
{
  "type": "Feature",
  "id": "way/105921785",
  "properties": {
    "highway": "tertiary",
    "name": "103",
    "ref": "103",
    "smoothness": "intermediate",
    "id": "way/105921785"
  },
  "geometry": {
    "type": "LineString",
    "coordinates": [
      [
        24.174353,
        43.085457
      ],
      [
        24.182592,
        43.08276
      ],
      [
        24.183409,
        43.082424
      ],
      [
        24.189459,
        43.079697
      ],
      [
        24.200048,
        43.074909
      ],
      [
        24.205692,
        43.072346
      ],
      [
        24.206278,
        43.072044
      ],
      [
        24.20693,
        43.071644
      ],
      [
        24.20756,
        43.07122
      ],
      [
        24.207993,
        43.070885
      ],
      [
        24.208427,
        43.070518
      ],
      [
        24.2085111,
        43.070449
      ],
      [
        24.211937,
        43.067638
      ],
      [
        24.213198,
        43.066593
      ],
      [
        24.213589,
        43.066257
      ],
      [
        24.2139,
        43.065964
      ],
      [
        24.214172,
        43.065651
      ],
      [
        24.214447,
        43.065277
      ],
      [
        24.214687,
        43.06488
      ],
      [
        24.214876,
        43.064484
      ],
      [
        24.215637,
        43.062637
      ],
      [
        24.215803,
        43.06226
      ],
      [
        24.216248,
        43.061172
      ]
    ]
  }
}
]
}
