{
"type": "FeatureCollection",
"features": [
{
  "type": "Feature",
  "id": "way/227891332",
  "properties": {
    "highway": "tertiary",
    "name": "822",
    "ref": "822",
    "smoothness": "good",
    "id": "way/227891332"
  },
  "geometry": {
    "type": "LineString",
    "coordinates": [
      [
        23.8118811,
        42.4406791
      ],
      [
        23.8096772,
        42.4414665
      ],
      [
        23.8089961,
        42.4417017
      ],
      [
        23.8078751,
        42.4420888
      ],
      [
        23.8055445,
        42.4428516
      ],
      [
        23.803063,
        42.443669
      ],
      [
        23.8019729,
        42.4439223
      ],
      [
        23.7994839,
        42.4442327
      ],
      [
        23.7900854,
        42.4453728
      ],
      [
        23.7842661,
        42.4460251
      ],
      [
        23.7782637,
        42.4467803
      ],
      [
        23.7763538,
        42.4469772
      ],
      [
        23.7762951,
        42.4469837
      ],
      [
        23.774459,
        42.4472177
      ],
      [
        23.7736595,
        42.4472747
      ],
      [
        23.7700462,
        42.4473683
      ],
      [
        23.7645231,
        42.4474191
      ],
      [
        23.762875,
        42.4474716
      ],
      [
        23.7621039,
        42.4474962
      ],
      [
        23.7597883,
        42.4476063
      ],
      [
        23.7580764,
        42.4476876
      ],
      [
        23.7564219,
        42.4477757
      ],
      [
        23.7553712,
        42.4478317
      ],
      [
        23.7548204,
        42.4477802
      ],
      [
        23.7544928,
        42.4476567
      ],
      [
        23.7542766,
        42.4474973
      ],
      [
        23.7539362,
        42.447177
      ],
      [
        23.7534191,
        42.4467204
      ],
      [
        23.7531885,
        42.446618
      ],
      [
        23.7526717,
        42.4464034
      ],
      [
        23.751439,
        42.4459333
      ],
      [
        23.7509859,
        42.4457378
      ],
      [
        23.7504978,
        42.4453777
      ],
      [
        23.7489982,
        42.4441757
      ],
      [
        23.7471701,
        42.4431623
      ],
      [
        23.7432819,
        42.4415281
      ],
      [
        23.7352739,
        42.4383167
      ],
      [
        23.730476,
        42.436334
      ],
      [
        23.7292314,
        42.4357766
      ],
      [
        23.728519,
        42.4351304
      ],
      [
        23.7266451,
        42.4328846
      ],
      [
        23.7261687,
        42.4324208
      ],
      [
        23.7258104,
        42.4321963
      ],
      [
        23.7252426,
        42.4320566
      ],
      [
        23.7247694,
        42.4320666
      ],
      [
        23.7242015,
        42.4321813
      ],
      [
        23.72288,
        42.4325332
      ],
      [
        23.72185,
        42.4327232
      ],
      [
        23.7206055,
        42.4327739
      ],
      [
        23.718906,
        42.4328816
      ],
      [
        23.7171722,
        42.43304
      ],
      [
        23.7158161,
        42.4329956
      ],
      [
        23.7145115,
        42.4330083
      ],
      [
        23.7138077,
        42.4331983
      ],
      [
        23.711722,
        42.4338825
      ],
      [
        23.7105203,
        42.4341802
      ],
      [
        23.7084003,
        42.4343259
      ],
      [
        23.7050272,
        42.4346047
      ],
      [
        23.6999889,
        42.4351494
      ],
      [
        23.6980986,
        42.4353571
      ],
      [
        23.6966046,
        42.4356016
      ],
      [
        23.6948741,
        42.4360656
      ],
      [
        23.6927417,
        42.4365407
      ],
      [
        23.6918118,
        42.4367192
      ],
      [
        23.6908651,
        42.4368408
      ],
      [
        23.6898375,
        42.4369162
      ],
      [
        23.6883436,
        42.4369462
      ],
      [
        23.6866468,
        42.4368464
      ],
      [
        23.6852002,
        42.4367466
      ],
      [
        23.683598,
        42.4365121
      ],
      [
        23.6821041,
        42.4361579
      ],
      [
        23.6801369,
        42.4355742
      ],
      [
        23.6790756,
        42.4353247
      ],
      [
        23.6773653,
        42.4351551
      ],
      [
        23.6761147,
        42.4351002
      ],
      [
        23.6752968,
        42.4351751
      ],
      [
        23.6747627,
        42.4353148
      ],
      [
        23.674276,
        42.4355642
      ],
      [
        23.6738772,
        42.435639
      ],
      [
        23.6731538,
        42.435644
      ],
      [
        23.6718897,
        42.4356191
      ],
      [
        23.6711934,
        42.4357089
      ],
      [
        23.669519,
        42.4360173
      ],
      [
        23.6673475,
        42.4362517
      ],
      [
        23.6661459,
        42.4364607
      ],
      [
        23.6649185,
        42.4367141
      ],
      [
        23.6633993,
        42.4370308
      ],
      [
        23.6620861,
        42.4374425
      ],
      [
        23.6611248,
        42.4376326
      ],
      [
        23.6590219,
        42.4376516
      ],
      [
        23.6578461,
        42.4375376
      ],
      [
        23.6568762,
        42.4371448
      ],
      [
        23.6560179,
        42.4368281
      ],
      [
        23.6551939,
        42.4367648
      ],
      [
        23.6524216,
        42.4372335
      ],
      [
        23.6508165,
        42.4375882
      ],
      [
        23.649984,
        42.4380126
      ],
      [
        23.6492973,
        42.4383737
      ],
      [
        23.6484991,
        42.4386461
      ],
      [
        23.648027,
        42.4390071
      ],
      [
        23.6472717,
        42.4395139
      ],
      [
        23.6460787,
        42.4398496
      ],
      [
        23.6433063,
        42.440407
      ],
      [
        23.6425596,
        42.440407
      ],
      [
        23.6415726,
        42.4400079
      ],
      [
        23.6406113,
        42.4397736
      ],
      [
        23.6397272,
        42.4398369
      ],
      [
        23.6385256,
        42.4400903
      ],
      [
        23.637899,
        42.4400523
      ],
      [
        23.6374527,
        42.4397229
      ],
      [
        23.6370064,
        42.4391211
      ],
      [
        23.6365515,
        42.4385701
      ],
      [
        23.6360966,
        42.438342
      ],
      [
        23.6354099,
        42.438342
      ],
      [
        23.6338907,
        42.4384687
      ],
      [
        23.6323028,
        42.4387094
      ],
      [
        23.6306034,
        42.4390071
      ],
      [
        23.6297108,
        42.4391528
      ],
      [
        23.6285091,
        42.4391085
      ],
      [
        23.625711,
        42.4389185
      ],
      [
        23.6248184,
        42.4388994
      ],
      [
        23.6238743,
        42.4391085
      ],
      [
        23.6232477,
        42.4391211
      ],
      [
        23.6221577,
        42.4389121
      ],
      [
        23.6209904,
        42.4389945
      ],
      [
        23.6194454,
        42.4392162
      ],
      [
        23.6188961,
        42.4391845
      ],
      [
        23.6182953,
        42.4388678
      ],
      [
        23.617952,
        42.4387728
      ],
      [
        23.6176945,
        42.4388488
      ],
      [
        23.6173683,
        42.4391402
      ],
      [
        23.6170936,
        42.4392922
      ],
      [
        23.6166645,
        42.4393555
      ],
      [
        23.615583,
        42.4392668
      ],
      [
        23.6151195,
        42.4391021
      ],
      [
        23.6148964,
        42.4388044
      ],
      [
        23.6147247,
        42.4381077
      ],
      [
        23.6144071,
        42.4378226
      ],
      [
        23.6135746,
        42.4375566
      ],
      [
        23.6133171,
        42.4369231
      ],
      [
        23.612948,
        42.4364164
      ],
      [
        23.612433,
        42.4357956
      ],
      [
        23.6126047,
        42.4352255
      ],
      [
        23.6129909,
        42.4346427
      ],
      [
        23.6131626,
        42.4340092
      ],
      [
        23.6133514,
        42.4328309
      ],
      [
        23.6136947,
        42.431868
      ],
      [
        23.6144329,
        42.4301449
      ],
      [
        23.6158834,
        42.4271166
      ],
      [
        23.6163984,
        42.4259952
      ],
      [
        23.6163383,
        42.4252476
      ],
      [
        23.6156946,
        42.4240755
      ],
      [
        23.6150938,
        42.4231251
      ],
      [
        23.6147934,
        42.4223204
      ],
      [
        23.6148964,
        42.4217629
      ],
      [
        23.615583,
        42.4205717
      ],
      [
        23.6162096,
        42.4198114
      ],
      [
        23.616922,
        42.4189433
      ],
      [
        23.6179262,
        42.4179928
      ],
      [
        23.6193424,
        42.4168713
      ],
      [
        23.6202865,
        42.4159018
      ],
      [
        23.6210762,
        42.4148689
      ],
      [
        23.621471,
        42.4140008
      ],
      [
        23.6222435,
        42.4120807
      ],
      [
        23.6225868,
        42.4109907
      ],
      [
        23.6229473,
        42.4104077
      ],
      [
        23.6235309,
        42.4100085
      ],
      [
        23.6244579,
        42.4099134
      ],
      [
        23.6255222,
        42.4099451
      ],
      [
        23.6260887,
        42.4099134
      ],
      [
        23.6270672,
        42.4095332
      ],
      [
        23.6289984,
        42.4088487
      ],
      [
        23.6295563,
        42.4084685
      ],
      [
        23.6303974,
        42.4074545
      ],
      [
        23.6319252,
        42.4053631
      ],
      [
        23.6329294,
        42.4043491
      ],
      [
        23.6335302,
        42.4036393
      ],
      [
        23.6340881,
        42.4026379
      ],
      [
        23.6350312,
        42.3996045
      ],
      [
        23.6353306,
        42.3987095
      ],
      [
        23.6353379,
        42.3982727
      ],
      [
        23.635255,
        42.3979214
      ],
      [
        23.6350652,
        42.3976626
      ],
      [
        23.6342134,
        42.3969246
      ],
      [
        23.6336293,
        42.3964447
      ],
      [
        23.6334957,
        42.3962063
      ],
      [
        23.6335045,
        42.3959066
      ],
      [
        23.6335302,
        42.3951903
      ],
      [
        23.6334081,
        42.3947504
      ],
      [
        23.6331156,
        42.3941252
      ],
      [
        23.6330941,
        42.3937905
      ],
      [
        23.633189,
        42.3932405
      ],
      [
        23.6332912,
        42.3929762
      ],
      [
        23.6335687,
        42.3927659
      ],
      [
        23.6341674,
        42.3924963
      ],
      [
        23.6344595,
        42.3923723
      ],
      [
        23.6346494,
        42.392135
      ],
      [
        23.6346275,
        42.3919301
      ],
      [
        23.6343971,
        42.3916152
      ],
      [
        23.6341894,
        42.3910295
      ],
      [
        23.6340287,
        42.3902961
      ],
      [
        23.6340725,
        42.3900102
      ],
      [
        23.6342478,
        42.3897028
      ],
      [
        23.6346348,
        42.3892067
      ],
      [
        23.6348246,
        42.3888238
      ],
      [
        23.6348392,
        42.3884733
      ],
      [
        23.6347078,
        42.3881065
      ],
      [
        23.6345106,
        42.3878477
      ],
      [
        23.634036,
        42.3874594
      ],
      [
        23.6338535,
        42.3872275
      ],
      [
        23.6338024,
        42.3870441
      ],
      [
        23.633817,
        42.3866234
      ],
      [
        23.6338535,
        42.3862621
      ],
      [
        23.6336636,
        42.3859008
      ],
      [
        23.633247,
        42.3854977
      ],
      [
        23.6326719,
        42.3850539
      ],
      [
        23.6325346,
        42.3846989
      ],
      [
        23.6325174,
        42.3839889
      ],
      [
        23.6323458,
        42.3834817
      ],
      [
        23.6319595,
        42.3831964
      ],
      [
        23.6312729,
        42.3828477
      ],
      [
        23.6308952,
        42.3824673
      ],
      [
        23.6306721,
        42.3816114
      ],
      [
        23.6304403,
        42.3808189
      ],
      [
        23.6300197,
        42.3803243
      ],
      [
        23.6293331,
        42.3796142
      ],
      [
        23.6292129,
        42.3792211
      ],
      [
        23.6292988,
        42.3785681
      ],
      [
        23.6293159,
        42.377934
      ],
      [
        23.6290756,
        42.3774712
      ],
      [
        23.6284147,
        42.376761
      ],
      [
        23.6278139,
        42.3762221
      ],
      [
        23.6276422,
        42.3758734
      ],
      [
        23.6275564,
        42.3749096
      ],
      [
        23.6273418,
        42.374415
      ],
      [
        23.6269985,
        42.3741296
      ],
      [
        23.6267582,
        42.3738443
      ],
      [
        23.6268268,
        42.3735273
      ],
      [
        23.6270843,
        42.3728615
      ],
      [
        23.6271873,
        42.3723098
      ],
      [
        23.6269556,
        42.371923
      ],
      [
        23.6266809,
        42.3715933
      ],
      [
        23.6267839,
        42.3711494
      ],
      [
        23.6275564,
        42.3702109
      ],
      [
        23.6276937,
        42.3698938
      ],
      [
        23.6274534,
        42.3695641
      ],
      [
        23.6262947,
        42.3685051
      ],
      [
        23.6260544,
        42.3680612
      ],
      [
        23.626063,
        42.3675475
      ],
      [
        23.6265779,
        42.3664251
      ],
      [
        23.6268955,
        42.3657085
      ],
      [
        23.6269213,
        42.3653026
      ],
      [
        23.6270929,
        42.3643767
      ],
      [
        23.6270071,
        42.3637615
      ],
      [
        23.6264063,
        42.362861
      ],
      [
        23.6260372,
        42.3622902
      ],
      [
        23.626063,
        42.3618907
      ],
      [
        23.6263462,
        42.3614467
      ],
      [
        23.6266208,
        42.3610472
      ],
      [
        23.6267496,
        42.3604954
      ],
      [
        23.6266512,
        42.3600386
      ],
      [
        23.6265752,
        42.359789
      ],
      [
        23.626426,
        42.3595932
      ],
      [
        23.626262,
        42.3595163
      ],
      [
        23.6256691,
        42.3593162
      ],
      [
        23.6249692,
        42.3590671
      ],
      [
        23.6247857,
        42.3589492
      ],
      [
        23.6247097,
        42.3588323
      ],
      [
        23.6245705,
        42.3584536
      ],
      [
        23.6242777,
        42.358117
      ],
      [
        23.6237455,
        42.3578316
      ],
      [
        23.6233507,
        42.3574955
      ],
      [
        23.6232649,
        42.3572164
      ],
      [
        23.6234916,
        42.3565668
      ],
      [
        23.6234821,
        42.3563073
      ],
      [
        23.6232259,
        42.3559122
      ],
      [
        23.6220521,
        42.3542615
      ],
      [
        23.6217705,
        42.354002
      ],
      [
        23.621356,
        42.3537495
      ],
      [
        23.6209321,
        42.3535344
      ],
      [
        23.6200033,
        42.3532014
      ],
      [
        23.6195431,
        42.353006
      ],
      [
        23.6189546,
        42.3528797
      ],
      [
        23.6184136,
        42.3529054
      ],
      [
        23.6178599,
        42.3530036
      ],
      [
        23.6174026,
        42.353138
      ],
      [
        23.6162697,
        42.3537533
      ],
      [
        23.614908,
        42.3548344
      ],
      [
        23.6145505,
        42.3551757
      ],
      [
        23.6143127,
        42.3555673
      ],
      [
        23.6140209,
        42.3561381
      ],
      [
        23.6135729,
        42.3567702
      ],
      [
        23.6134029,
        42.3571974
      ],
      [
        23.6131969,
        42.3575589
      ],
      [
        23.6130413,
        42.3577008
      ],
      [
        23.6128262,
        42.3577078
      ],
      [
        23.6126522,
        42.357633
      ],
      [
        23.6125161,
        42.3574483
      ],
      [
        23.6125003,
        42.3572051
      ],
      [
        23.61263,
        42.356803
      ],
      [
        23.6126332,
        42.3566089
      ],
      [
        23.6124877,
        42.3564616
      ],
      [
        23.6121776,
        42.3563611
      ],
      [
        23.6115606,
        42.3563167
      ],
      [
        23.6110829,
        42.3563611
      ],
      [
        23.6107633,
        42.3564429
      ],
      [
        23.6103903,
        42.3566265
      ],
      [
        23.6094704,
        42.3572691
      ],
      [
        23.6093004,
        42.3573534
      ],
      [
        23.6091595,
        42.3573749
      ],
      [
        23.6089939,
        42.3573187
      ],
      [
        23.6088574,
        42.3571567
      ],
      [
        23.608634,
        42.356786
      ],
      [
        23.6084595,
        42.3566769
      ],
      [
        23.6082447,
        42.3566405
      ],
      [
        23.6077033,
        42.3567397
      ],
      [
        23.6067234,
        42.3569447
      ],
      [
        23.6064013,
        42.3570803
      ],
      [
        23.6061954,
        42.3572985
      ],
      [
        23.6061507,
        42.3575762
      ],
      [
        23.6061552,
        42.3578143
      ],
      [
        23.6060523,
        42.3579928
      ],
      [
        23.6057301,
        42.3581515
      ],
      [
        23.6037927,
        42.3587103
      ],
      [
        23.6023475,
        42.359117
      ],
      [
        23.6019716,
        42.3591501
      ],
      [
        23.6014839,
        42.3590806
      ],
      [
        23.6008351,
        42.3588426
      ],
      [
        23.5993089,
        42.3582539
      ],
      [
        23.5970408,
        42.3574638
      ],
      [
        23.5962981,
        42.3572522
      ],
      [
        23.5958059,
        42.3571332
      ],
      [
        23.5924286,
        42.3565025
      ],
      [
        23.5918008,
        42.3563641
      ],
      [
        23.5911314,
        42.3561488
      ],
      [
        23.5901845,
        42.3557541
      ],
      [
        23.5896678,
        42.3555721
      ],
      [
        23.58887,
        42.355426
      ],
      [
        23.5872961,
        42.3551817
      ],
      [
        23.5867996,
        42.3551206
      ],
      [
        23.5862547,
        42.3550726
      ],
      [
        23.5846239,
        42.3549774
      ],
      [
        23.5841058,
        42.3549323
      ],
      [
        23.5835642,
        42.3547975
      ],
      [
        23.5830474,
        42.3545309
      ],
      [
        23.5826034,
        42.3542156
      ],
      [
        23.5819999,
        42.3535441
      ],
      [
        23.5790692,
        42.3504785
      ],
      [
        23.5780045,
        42.3493013
      ],
      [
        23.5776023,
        42.3488971
      ],
      [
        23.5769867,
        42.3484513
      ],
      [
        23.5761234,
        42.3479655
      ],
      [
        23.5753068,
        42.3476646
      ],
      [
        23.5741933,
        42.3472731
      ],
      [
        23.5734821,
        42.3470429
      ],
      [
        23.5728273,
        42.3469396
      ],
      [
        23.5723982,
        42.3469145
      ],
      [
        23.5721226,
        42.3469226
      ],
      [
        23.5719028,
        42.346929
      ]
    ]
  }
},
{
  "type": "Feature",
  "id": "way/24600564",
  "properties": {
    "highway": "tertiary",
    "name": "ОП Самоков, 822",
    "ref": "822",
    "smoothness": "good",
    "id": "way/24600564"
  },
  "geometry": {
    "type": "LineString",
    "coordinates": [
      [
        23.5719028,
        42.346929
      ],
      [
        23.571562,
        42.3469714
      ],
      [
        23.5710567,
        42.347074
      ],
      [
        23.5703436,
        42.3473525
      ],
      [
        23.5697644,
        42.3476652
      ],
      [
        23.5691799,
        42.348196
      ],
      [
        23.5662476,
        42.3512264
      ],
      [
        23.5657031,
        42.3517262
      ],
      [
        23.5651065,
        42.3521389
      ],
      [
        23.5614856,
        42.3544073
      ],
      [
        23.5600705,
        42.3552634
      ],
      [
        23.5599714,
        42.3553097
      ],
      [
        23.5593629,
        42.355594
      ],
      [
        23.5585374,
        42.3558016
      ],
      [
        23.5579617,
        42.3558708
      ],
      [
        23.5573228,
        42.3558539
      ],
      [
        23.5550577,
        42.355577
      ]
    ]
  }
},
{
  "type": "Feature",
  "id": "way/206514362",
  "properties": {
    "highway": "tertiary",
    "name": "ОП Самоков 822",
    "ref": "822",
    "smoothness": "good",
    "id": "way/206514362"
  },
  "geometry": {
    "type": "LineString",
    "coordinates": [
      [
        23.5539812,
        42.355422
      ],
      [
        23.5494328,
        42.354793
      ]
    ]
  }
},
{
  "type": "Feature",
  "id": "way/113122382",
  "properties": {
    "bridge": "yes",
    "highway": "tertiary",
    "layer": "1",
    "name": "ОП Самоков, 822",
    "ref": "822",
    "smoothness": "good",
    "id": "way/113122382"
  },
  "geometry": {
    "type": "LineString",
    "coordinates": [
      [
        23.5550577,
        42.355577
      ],
      [
        23.5539812,
        42.355422
      ]
    ]
  }
},
{
  "type": "Feature",
  "id": "way/227891331",
  "properties": {
    "highway": "tertiary",
    "name": "822",
    "ref": "822",
    "smoothness": "good",
    "id": "way/227891331"
  },
  "geometry": {
    "type": "LineString",
    "coordinates": [
      [
        23.8106842,
        42.4497306
      ],
      [
        23.8112446,
        42.4483231
      ],
      [
        23.8113376,
        42.4480896
      ],
      [
        23.8115255,
        42.4476175
      ],
      [
        23.8116584,
        42.4472838
      ],
      [
        23.811989,
        42.4464649
      ],
      [
        23.8123974,
        42.4454533
      ],
      [
        23.812623,
        42.4448944
      ],
      [
        23.8130713,
        42.4438659
      ],
      [
        23.8129672,
        42.4433355
      ],
      [
        23.8125766,
        42.4424287
      ],
      [
        23.8124615,
        42.4421615
      ],
      [
        23.8121584,
        42.4413873
      ],
      [
        23.8118811,
        42.4406791
      ]
    ]
  }
},
{
  "type": "Feature",
  "id": "way/97785266",
  "properties": {
    "highway": "tertiary_link",
    "name": "822",
    "oneway": "yes",
    "ref": "822",
    "smoothness": "good",
    "id": "way/97785266"
  },
  "geometry": {
    "type": "LineString",
    "coordinates": [
      [
        23.8105412,
        42.4504741
      ],
      [
        23.8106152,
        42.4502211
      ],
      [
        23.8106182,
        42.4500256
      ],
      [
        23.8106842,
        42.4497306
      ]
    ]
  }
}
]
}
