{
"type": "FeatureCollection",
"features": [
{
  "type": "Feature",
  "id": "way/183668047",
  "properties": {
    "highway": "tertiary",
    "name": "811",
    "ref": "811",
    "smoothness": "bad",
    "id": "way/183668047"
  },
  "geometry": {
    "type": "LineString",
    "coordinates": [
      [
        22.932537,
        42.785891
      ],
      [
        22.93298,
        42.786179
      ],
      [
        22.933145,
        42.786303
      ],
      [
        22.933217,
        42.786426
      ],
      [
        22.933238,
        42.78657
      ],
      [
        22.933207,
        42.786725
      ],
      [
        22.933114,
        42.786869
      ],
      [
        22.932939,
        42.787013
      ],
      [
        22.932774,
        42.787106
      ],
      [
        22.932249,
        42.787312
      ],
      [
        22.932136,
        42.787364
      ],
      [
        22.932064,
        42.787446
      ],
      [
        22.932012,
        42.787559
      ],
      [
        22.932022,
        42.787662
      ],
      [
        22.932136,
        42.787755
      ],
      [
        22.932342,
        42.787807
      ],
      [
        22.932754,
        42.787879
      ],
      [
        22.933238,
        42.788013
      ],
      [
        22.933928,
        42.78793
      ],
      [
        22.934505,
        42.787796
      ],
      [
        22.934773,
        42.787714
      ],
      [
        22.935422,
        42.787395
      ],
      [
        22.935968,
        42.787158
      ],
      [
        22.93639,
        42.786983
      ],
      [
        22.936596,
        42.786931
      ],
      [
        22.936854,
        42.78689
      ],
      [
        22.937194,
        42.786921
      ],
      [
        22.937554,
        42.786993
      ],
      [
        22.93775,
        42.787003
      ],
      [
        22.938296,
        42.786972
      ],
      [
        22.938584,
        42.787013
      ],
      [
        22.938801,
        42.787086
      ],
      [
        22.938976,
        42.78723
      ],
      [
        22.939244,
        42.787683
      ],
      [
        22.939367,
        42.787848
      ],
      [
        22.940161,
        42.788569
      ],
      [
        22.940346,
        42.788651
      ],
      [
        22.941098,
        42.788713
      ],
      [
        22.941283,
        42.788693
      ],
      [
        22.941489,
        42.78861
      ],
      [
        22.94218,
        42.788136
      ],
      [
        22.942448,
        42.78792
      ],
      [
        22.942705,
        42.78759
      ],
      [
        22.942818,
        42.787559
      ],
      [
        22.943756,
        42.787765
      ],
      [
        22.943921,
        42.787838
      ],
      [
        22.944261,
        42.788105
      ],
      [
        22.944405,
        42.788188
      ],
      [
        22.94457,
        42.788219
      ],
      [
        22.944734,
        42.788177
      ],
      [
        22.944899,
        42.788074
      ],
      [
        22.945373,
        42.787693
      ],
      [
        22.945909,
        42.787322
      ],
      [
        22.94699,
        42.786818
      ],
      [
        22.947238,
        42.786735
      ],
      [
        22.947866,
        42.786622
      ],
      [
        22.948113,
        42.78656
      ],
      [
        22.948319,
        42.786498
      ],
      [
        22.948515,
        42.786416
      ],
      [
        22.948649,
        42.786292
      ],
      [
        22.948773,
        42.786138
      ],
      [
        22.948896,
        42.786024
      ],
      [
        22.94901,
        42.785952
      ],
      [
        22.949154,
        42.785932
      ],
      [
        22.949329,
        42.785963
      ],
      [
        22.949494,
        42.786004
      ],
      [
        22.949628,
        42.786107
      ],
      [
        22.949803,
        42.786272
      ],
      [
        22.949957,
        42.786395
      ],
      [
        22.950132,
        42.786488
      ],
      [
        22.950308,
        42.786498
      ],
      [
        22.950472,
        42.786478
      ],
      [
        22.951132,
        42.78622
      ],
      [
        22.951307,
        42.786179
      ],
      [
        22.951472,
        42.786179
      ],
      [
        22.952842,
        42.786241
      ],
      [
        22.952986,
        42.786282
      ],
      [
        22.953089,
        42.786344
      ],
      [
        22.953182,
        42.786416
      ],
      [
        22.953254,
        42.786519
      ],
      [
        22.953254,
        42.786632
      ],
      [
        22.953192,
        42.786746
      ],
      [
        22.953017,
        42.786869
      ],
      [
        22.952801,
        42.786931
      ],
      [
        22.952522,
        42.786983
      ],
      [
        22.95244,
        42.787013
      ],
      [
        22.952358,
        42.787055
      ],
      [
        22.952316,
        42.787147
      ],
      [
        22.952368,
        42.78724
      ],
      [
        22.952481,
        42.787271
      ],
      [
        22.952625,
        42.787261
      ],
      [
        22.952904,
        42.787158
      ],
      [
        22.953171,
        42.787086
      ],
      [
        22.953542,
        42.787024
      ],
      [
        22.954552,
        42.786952
      ],
      [
        22.954933,
        42.7869
      ],
      [
        22.955201,
        42.786859
      ],
      [
        22.955809,
        42.786622
      ],
      [
        22.956004,
        42.78654
      ],
      [
        22.956148,
        42.786426
      ],
      [
        22.956324,
        42.786251
      ],
      [
        22.95654,
        42.786066
      ],
      [
        22.956767,
        42.785901
      ],
      [
        22.956993,
        42.785788
      ],
      [
        22.958847,
        42.785231
      ],
      [
        22.959136,
        42.785221
      ],
      [
        22.959435,
        42.785231
      ],
      [
        22.95962,
        42.785314
      ],
      [
        22.959764,
        42.785437
      ],
      [
        22.959878,
        42.785571
      ],
      [
        22.959981,
        42.785757
      ],
      [
        22.960022,
        42.785911
      ],
      [
        22.960032,
        42.786107
      ],
      [
        22.959373,
        42.787848
      ],
      [
        22.959321,
        42.788023
      ],
      [
        22.959301,
        42.788208
      ],
      [
        22.959321,
        42.788384
      ],
      [
        22.959445,
        42.788528
      ],
      [
        22.960135,
        42.788909
      ],
      [
        22.960372,
        42.78895
      ],
      [
        22.960609,
        42.78894
      ],
      [
        22.961371,
        42.788723
      ],
      [
        22.961588,
        42.788693
      ],
      [
        22.961979,
        42.788672
      ],
      [
        22.962257,
        42.788641
      ],
      [
        22.963246,
        42.788456
      ],
      [
        22.964122,
        42.78826
      ],
      [
        22.964348,
        42.78825
      ],
      [
        22.964812,
        42.788239
      ],
      [
        22.965337,
        42.788198
      ],
      [
        22.965801,
        42.788136
      ],
      [
        22.966223,
        42.788095
      ],
      [
        22.966635,
        42.788095
      ],
      [
        22.96715,
        42.788157
      ],
      [
        22.967346,
        42.788208
      ],
      [
        22.96747,
        42.788281
      ],
      [
        22.967542,
        42.788373
      ],
      [
        22.967563,
        42.788497
      ],
      [
        22.967511,
        42.788631
      ],
      [
        22.967202,
        42.788919
      ],
      [
        22.96713,
        42.789002
      ],
      [
        22.96714,
        42.789094
      ],
      [
        22.967223,
        42.789166
      ],
      [
        22.967367,
        42.789187
      ],
      [
        22.967501,
        42.789146
      ],
      [
        22.967666,
        42.789043
      ],
      [
        22.967923,
        42.78893
      ],
      [
        22.968459,
        42.788837
      ],
      [
        22.968685,
        42.788857
      ],
      [
        22.968861,
        42.78893
      ],
      [
        22.9692,
        42.789125
      ],
      [
        22.96951,
        42.78928
      ],
      [
        22.970251,
        42.789527
      ],
      [
        22.970756,
        42.789682
      ],
      [
        22.971044,
        42.789712
      ],
      [
        22.972095,
        42.789712
      ],
      [
        22.972322,
        42.789743
      ],
      [
        22.973259,
        42.789939
      ],
      [
        22.974176,
        42.790073
      ],
      [
        22.97432,
        42.790114
      ],
      [
        22.974423,
        42.790197
      ],
      [
        22.975144,
        42.791083
      ],
      [
        22.975453,
        42.791515
      ],
      [
        22.975598,
        42.79167
      ],
      [
        22.975876,
        42.791845
      ],
      [
        22.976236,
        42.791989
      ],
      [
        22.976576,
        42.792061
      ],
      [
        22.976937,
        42.792061
      ],
      [
        22.977267,
        42.791989
      ],
      [
        22.977534,
        42.791907
      ],
      [
        22.977823,
        42.791927
      ],
      [
        22.978091,
        42.79203
      ],
      [
        22.978338,
        42.792164
      ],
      [
        22.978451,
        42.792277
      ],
      [
        22.978472,
        42.792442
      ],
      [
        22.978389,
        42.79339
      ],
      [
        22.9784,
        42.793658
      ],
      [
        22.978513,
        42.794214
      ],
      [
        22.978575,
        42.794441
      ],
      [
        22.978688,
        42.794616
      ],
      [
        22.9791,
        42.795018
      ],
      [
        22.979317,
        42.795286
      ],
      [
        22.979471,
        42.795522
      ],
      [
        22.979564,
        42.795821
      ],
      [
        22.979883,
        42.796656
      ],
      [
        22.980007,
        42.7968
      ],
      [
        22.980161,
        42.796903
      ],
      [
        22.981367,
        42.797129
      ],
      [
        22.981521,
        42.797119
      ],
      [
        22.981871,
        42.796996
      ],
      [
        22.982077,
        42.796954
      ],
      [
        22.982798,
        42.797016
      ],
      [
        22.983056,
        42.797047
      ],
      [
        22.983798,
        42.797284
      ],
      [
        22.984045,
        42.797325
      ],
      [
        22.984292,
        42.797325
      ],
      [
        22.984519,
        42.797284
      ],
      [
        22.985054,
        42.797171
      ],
      [
        22.985219,
        42.79716
      ],
      [
        22.985394,
        42.797202
      ],
      [
        22.985549,
        42.797294
      ],
      [
        22.987959,
        42.799313
      ],
      [
        22.988093,
        42.799489
      ],
      [
        22.988176,
        42.799674
      ],
      [
        22.988289,
        42.79989
      ],
      [
        22.988464,
        42.800055
      ],
      [
        22.989299,
        42.800735
      ],
      [
        22.989464,
        42.8009
      ],
      [
        22.989577,
        42.801126
      ],
      [
        22.989639,
        42.801374
      ],
      [
        22.989711,
        42.801878
      ],
      [
        22.989803,
        42.802167
      ],
      [
        22.989958,
        42.802466
      ],
      [
        22.990154,
        42.802888
      ],
      [
        22.990411,
        42.803238
      ],
      [
        22.991575,
        42.804227
      ],
      [
        22.991709,
        42.804361
      ],
      [
        22.991802,
        42.804495
      ],
      [
        22.992029,
        42.804959
      ],
      [
        22.992111,
        42.805123
      ],
      [
        22.992193,
        42.805257
      ],
      [
        22.992554,
        42.805494
      ],
      [
        22.992987,
        42.805845
      ],
      [
        22.993182,
        42.805917
      ],
      [
        22.993811,
        42.806195
      ],
      [
        22.994285,
        42.806473
      ],
      [
        22.9952501,
        42.8071295
      ],
      [
        22.9961376,
        42.8077312
      ],
      [
        22.9973312,
        42.8083884
      ],
      [
        22.998364,
        42.808688
      ],
      [
        22.9985594,
        42.8087836
      ],
      [
        22.9989317,
        42.8088814
      ],
      [
        22.9993651,
        42.8089365
      ],
      [
        23.0007336,
        42.8090836
      ],
      [
        23.001619,
        42.809151
      ],
      [
        23.002079,
        42.8092546
      ],
      [
        23.00237,
        42.8093202
      ],
      [
        23.0033453,
        42.8095464
      ],
      [
        23.0050551,
        42.8099431
      ],
      [
        23.006214,
        42.810212
      ],
      [
        23.0077197,
        42.8105895
      ],
      [
        23.00848,
        42.811624
      ],
      [
        23.009067,
        42.812283
      ],
      [
        23.009912,
        42.81321
      ],
      [
        23.010448,
        42.813777
      ],
      [
        23.010643,
        42.814003
      ],
      [
        23.01087,
        42.814178
      ],
      [
        23.018864,
        42.819721
      ],
      [
        23.019111,
        42.819906
      ],
      [
        23.022325,
        42.822914
      ],
      [
        23.022521,
        42.823079
      ],
      [
        23.022748,
        42.823213
      ],
      [
        23.022964,
        42.823316
      ],
      [
        23.023664,
        42.823553
      ],
      [
        23.023963,
        42.823666
      ],
      [
        23.024169,
        42.823779
      ],
      [
        23.024375,
        42.823934
      ],
      [
        23.02556,
        42.825871
      ],
      [
        23.025632,
        42.826118
      ],
      [
        23.025642,
        42.826334
      ],
      [
        23.025611,
        42.827962
      ],
      [
        23.025663,
        42.828178
      ],
      [
        23.025756,
        42.828395
      ],
      [
        23.025962,
        42.82858
      ],
      [
        23.026456,
        42.828848
      ],
      [
        23.0282944,
        42.8297434
      ],
      [
        23.0286377,
        42.8298504
      ],
      [
        23.0297278,
        42.8300204
      ],
      [
        23.0300024,
        42.8301274
      ],
      [
        23.0301827,
        42.8303729
      ],
      [
        23.0304831,
        42.8328655
      ],
      [
        23.0306118,
        42.8331865
      ],
      [
        23.0325945,
        42.8357419
      ],
      [
        23.0336932,
        42.8387881
      ],
      [
        23.0343197,
        42.8402231
      ],
      [
        23.0345257,
        42.8404056
      ],
      [
        23.0347918,
        42.8404874
      ],
      [
        23.0352038,
        42.8404371
      ],
      [
        23.035384,
        42.8405063
      ],
      [
        23.0354699,
        42.8406762
      ],
      [
        23.0354699,
        42.8408197
      ],
      [
        23.0354699,
        42.8410475
      ],
      [
        23.0355986,
        42.8412867
      ],
      [
        23.0358303,
        42.8414692
      ],
      [
        23.0360535,
        42.841507
      ],
      [
        23.0366286,
        42.8414944
      ],
      [
        23.0368432,
        42.8415762
      ],
      [
        23.0369547,
        42.8417272
      ],
      [
        23.0370186,
        42.8422345
      ],
      [
        23.0370435,
        42.8424899
      ],
      [
        23.0370412,
        42.842597
      ],
      [
        23.0370037,
        42.8427246
      ],
      [
        23.0367203,
        42.8432333
      ],
      [
        23.036662,
        42.8433526
      ],
      [
        23.0364278,
        42.8439311
      ],
      [
        23.0363799,
        42.8440701
      ],
      [
        23.0363551,
        42.8442139
      ],
      [
        23.0363519,
        42.8443808
      ],
      [
        23.0363609,
        42.8447071
      ],
      [
        23.0362918,
        42.8450839
      ],
      [
        23.0362387,
        42.8452882
      ],
      [
        23.0361577,
        42.8455003
      ],
      [
        23.036129,
        42.845638
      ],
      [
        23.0361286,
        42.8457986
      ],
      [
        23.0361469,
        42.8459843
      ],
      [
        23.0362024,
        42.8461084
      ],
      [
        23.0363233,
        42.8462562
      ],
      [
        23.0369981,
        42.8467628
      ],
      [
        23.0374474,
        42.8469462
      ],
      [
        23.0384528,
        42.8474157
      ],
      [
        23.0387136,
        42.8477958
      ],
      [
        23.0387782,
        42.8478486
      ],
      [
        23.0388825,
        42.8479044
      ],
      [
        23.0389905,
        42.8479393
      ],
      [
        23.0391575,
        42.8479589
      ],
      [
        23.039348,
        42.8479716
      ],
      [
        23.0397144,
        42.847953
      ],
      [
        23.0403421,
        42.8478855
      ],
      [
        23.0405312,
        42.8478826
      ],
      [
        23.040748,
        42.847901
      ],
      [
        23.0409466,
        42.8479329
      ],
      [
        23.0411493,
        42.8479844
      ],
      [
        23.041358,
        42.8480528
      ],
      [
        23.041478,
        42.8481132
      ],
      [
        23.042033,
        42.8486172
      ],
      [
        23.0423333,
        42.8489092
      ],
      [
        23.042487,
        42.8490333
      ],
      [
        23.0425989,
        42.8491167
      ],
      [
        23.0426872,
        42.8492112
      ],
      [
        23.0427285,
        42.8492743
      ],
      [
        23.0427412,
        42.8493659
      ],
      [
        23.0426437,
        42.8497525
      ],
      [
        23.0426103,
        42.8504449
      ],
      [
        23.0427098,
        42.850622
      ]
    ]
  }
},
{
  "type": "Feature",
  "id": "way/108330934",
  "properties": {
    "highway": "tertiary",
    "lanes": "2",
    "layer": "0",
    "maxspeed": "90",
    "name": "811",
    "ref": "811",
    "smoothness": "intermediate",
    "id": "way/108330934"
  },
  "geometry": {
    "type": "LineString",
    "coordinates": [
      [
        22.928562,
        42.661594
      ],
      [
        22.925671,
        42.663559
      ],
      [
        22.9235145,
        42.6650063
      ],
      [
        22.9179939,
        42.6688157
      ],
      [
        22.910171,
        42.6749606
      ],
      [
        22.9058848,
        42.6792251
      ],
      [
        22.9002699,
        42.6844935
      ],
      [
        22.8985558,
        42.6886115
      ],
      [
        22.8980569,
        42.6906842
      ],
      [
        22.895658,
        42.7006508
      ],
      [
        22.8954621,
        42.7140911
      ],
      [
        22.894025,
        42.7246974
      ],
      [
        22.8948742,
        42.7282963
      ],
      [
        22.8950603,
        42.733195
      ],
      [
        22.8952344,
        42.7335524
      ]
    ]
  }
},
{
  "type": "Feature",
  "id": "way/230103038",
  "properties": {
    "highway": "tertiary",
    "name": "811",
    "ref": "811",
    "smoothness": "intermediate",
    "id": "way/230103038"
  },
  "geometry": {
    "type": "LineString",
    "coordinates": [
      [
        22.9065735,
        42.7407065
      ],
      [
        22.9068043,
        42.7407123
      ],
      [
        22.9071236,
        42.7407284
      ],
      [
        22.9074452,
        42.7408409
      ],
      [
        22.9080789,
        42.7412211
      ],
      [
        22.9082179,
        42.741294
      ],
      [
        22.9089576,
        42.7415875
      ],
      [
        22.9097169,
        42.741921
      ],
      [
        22.9096674,
        42.7431151
      ],
      [
        22.9091287,
        42.7441635
      ],
      [
        22.9093787,
        42.7446467
      ],
      [
        22.909889,
        42.746021
      ],
      [
        22.910275,
        42.747162
      ],
      [
        22.910585,
        42.747974
      ],
      [
        22.911283,
        42.749649
      ],
      [
        22.912201,
        42.751842
      ],
      [
        22.912491,
        42.752506
      ],
      [
        22.912645,
        42.752754
      ],
      [
        22.912823,
        42.752953
      ],
      [
        22.91305,
        42.753162
      ],
      [
        22.915667,
        42.755718
      ],
      [
        22.91625,
        42.756329
      ],
      [
        22.916531,
        42.756649
      ],
      [
        22.917564,
        42.758095
      ],
      [
        22.918798,
        42.759827
      ],
      [
        22.91888,
        42.76001
      ],
      [
        22.918949,
        42.76022
      ],
      [
        22.919346,
        42.761654
      ],
      [
        22.919357,
        42.761799
      ],
      [
        22.919224,
        42.762398
      ],
      [
        22.919035,
        42.763199
      ],
      [
        22.919331,
        42.763542
      ],
      [
        22.919846,
        42.764683
      ],
      [
        22.91997,
        42.765018
      ],
      [
        22.920284,
        42.766479
      ],
      [
        22.920334,
        42.76667
      ],
      [
        22.920731,
        42.767982
      ],
      [
        22.920843,
        42.768269
      ],
      [
        22.920961,
        42.768463
      ],
      [
        22.921089,
        42.768612
      ],
      [
        22.921219,
        42.768726
      ],
      [
        22.921396,
        42.768829
      ],
      [
        22.921574,
        42.768917
      ],
      [
        22.921787,
        42.768993
      ],
      [
        22.923258,
        42.769394
      ],
      [
        22.923466,
        42.769436
      ],
      [
        22.923702,
        42.76947
      ],
      [
        22.924433,
        42.769585
      ],
      [
        22.924614,
        42.76963
      ],
      [
        22.924812,
        42.769688
      ],
      [
        22.925117,
        42.769783
      ],
      [
        22.925484,
        42.769863
      ],
      [
        22.925795,
        42.769913
      ],
      [
        22.926064,
        42.769955
      ],
      [
        22.926289,
        42.769966
      ],
      [
        22.926872,
        42.769958
      ],
      [
        22.926973,
        42.769962
      ],
      [
        22.927097,
        42.769974
      ],
      [
        22.927198,
        42.769993
      ],
      [
        22.927296,
        42.770039
      ],
      [
        22.927359,
        42.770081
      ],
      [
        22.92742,
        42.770142
      ],
      [
        22.927448,
        42.770199
      ],
      [
        22.927452,
        42.770256
      ],
      [
        22.927441,
        42.770306
      ],
      [
        22.927408,
        42.770355
      ],
      [
        22.927359,
        42.770401
      ],
      [
        22.927286,
        42.770428
      ],
      [
        22.927185,
        42.770458
      ],
      [
        22.927082,
        42.770473
      ],
      [
        22.926008,
        42.770607
      ],
      [
        22.925924,
        42.770626
      ],
      [
        22.925859,
        42.770657
      ],
      [
        22.925819,
        42.770687
      ],
      [
        22.925783,
        42.770737
      ],
      [
        22.925766,
        42.770782
      ],
      [
        22.925774,
        42.770828
      ],
      [
        22.92581,
        42.770878
      ],
      [
        22.925875,
        42.770908
      ],
      [
        22.925938,
        42.770939
      ],
      [
        22.926014,
        42.770958
      ],
      [
        22.92609,
        42.770969
      ],
      [
        22.926182,
        42.770981
      ],
      [
        22.926348,
        42.770988
      ],
      [
        22.927271,
        42.770916
      ],
      [
        22.927347,
        42.770912
      ],
      [
        22.927431,
        42.770912
      ],
      [
        22.927507,
        42.770931
      ],
      [
        22.927582,
        42.770962
      ],
      [
        22.927635,
        42.771
      ],
      [
        22.927685,
        42.771049
      ],
      [
        22.92771,
        42.771111
      ],
      [
        22.927715,
        42.771172
      ],
      [
        22.927708,
        42.771225
      ],
      [
        22.927683,
        42.771271
      ],
      [
        22.927635,
        42.771313
      ],
      [
        22.927574,
        42.771343
      ],
      [
        22.927492,
        42.77137
      ],
      [
        22.927408,
        42.771385
      ],
      [
        22.926449,
        42.771618
      ],
      [
        22.926229,
        42.771698
      ],
      [
        22.926052,
        42.771797
      ],
      [
        22.92588,
        42.771919
      ],
      [
        22.925671,
        42.772125
      ],
      [
        22.925274,
        42.772709
      ],
      [
        22.925182,
        42.772884
      ],
      [
        22.925129,
        42.773075
      ],
      [
        22.9251232,
        42.7734321
      ],
      [
        22.925058,
        42.773853
      ],
      [
        22.925081,
        42.773987
      ],
      [
        22.925188,
        42.774136
      ],
      [
        22.925348,
        42.774269
      ],
      [
        22.925982,
        42.774605
      ],
      [
        22.926233,
        42.774744
      ],
      [
        22.926408,
        42.774889
      ],
      [
        22.926583,
        42.775064
      ],
      [
        22.926779,
        42.775404
      ],
      [
        22.927036,
        42.775857
      ],
      [
        22.928242,
        42.777773
      ],
      [
        22.928304,
        42.777897
      ],
      [
        22.928798,
        42.778381
      ],
      [
        22.928891,
        42.778494
      ],
      [
        22.928973,
        42.778628
      ],
      [
        22.928994,
        42.778762
      ],
      [
        22.928973,
        42.778896
      ],
      [
        22.92888,
        42.779019
      ],
      [
        22.927624,
        42.779905
      ],
      [
        22.9275,
        42.780019
      ],
      [
        22.927428,
        42.780173
      ],
      [
        22.927407,
        42.780482
      ],
      [
        22.927325,
        42.78074
      ],
      [
        22.927016,
        42.781337
      ],
      [
        22.926954,
        42.781482
      ],
      [
        22.926923,
        42.78176
      ],
      [
        22.926851,
        42.781924
      ],
      [
        22.926563,
        42.782295
      ],
      [
        22.926099,
        42.782604
      ],
      [
        22.925945,
        42.782676
      ],
      [
        22.925759,
        42.782707
      ],
      [
        22.925378,
        42.782707
      ],
      [
        22.925223,
        42.782728
      ],
      [
        22.925089,
        42.78279
      ],
      [
        22.924997,
        42.782883
      ],
      [
        22.924935,
        42.782996
      ],
      [
        22.924935,
        42.783119
      ],
      [
        22.925213,
        42.783552
      ],
      [
        22.925471,
        42.783727
      ],
      [
        22.925594,
        42.78381
      ],
      [
        22.925666,
        42.783954
      ],
      [
        22.925687,
        42.784108
      ],
      [
        22.925697,
        42.784273
      ],
      [
        22.925635,
        42.784428
      ],
      [
        22.924997,
        42.785139
      ],
      [
        22.924719,
        42.785314
      ],
      [
        22.924616,
        42.785396
      ],
      [
        22.924585,
        42.78552
      ],
      [
        22.924626,
        42.785633
      ],
      [
        22.92477,
        42.785705
      ],
      [
        22.925151,
        42.785757
      ],
      [
        22.925543,
        42.785818
      ],
      [
        22.925687,
        42.78588
      ],
      [
        22.925852,
        42.785963
      ],
      [
        22.926068,
        42.785983
      ],
      [
        22.926336,
        42.785942
      ],
      [
        22.926594,
        42.785973
      ],
      [
        22.926882,
        42.785921
      ],
      [
        22.928705,
        42.785396
      ],
      [
        22.929488,
        42.785283
      ],
      [
        22.929818,
        42.785283
      ],
      [
        22.930642,
        42.785221
      ],
      [
        22.930869,
        42.785231
      ],
      [
        22.931064,
        42.785272
      ],
      [
        22.931652,
        42.78553
      ],
      [
        22.932537,
        42.785891
      ]
    ]
  }
},
{
  "type": "Feature",
  "id": "way/108333583",
  "properties": {
    "highway": "tertiary",
    "name": "811",
    "ref": "811",
    "id": "way/108333583"
  },
  "geometry": {
    "type": "LineString",
    "coordinates": [
      [
        22.8952344,
        42.7335524
      ],
      [
        22.8955675,
        42.7340748
      ],
      [
        22.8957775,
        42.7343394
      ],
      [
        22.8958785,
        42.7345773
      ],
      [
        22.8959537,
        42.7348153
      ],
      [
        22.8959926,
        42.7351009
      ],
      [
        22.8960703,
        42.7355082
      ],
      [
        22.8961947,
        42.7358052
      ],
      [
        22.8962842,
        42.7359584
      ],
      [
        22.8963658,
        42.7360965
      ],
      [
        22.8964617,
        42.736224
      ],
      [
        22.8965861,
        42.7363306
      ],
      [
        22.8966879,
        42.7363987
      ],
      [
        22.8968375,
        42.7364971
      ],
      [
        22.8971685,
        42.7366431
      ],
      [
        22.8988747,
        42.7374196
      ],
      [
        22.9024267,
        42.7389449
      ]
    ]
  }
},
{
  "type": "Feature",
  "id": "way/183668037",
  "properties": {
    "highway": "tertiary",
    "name": "811",
    "ref": "811",
    "smoothness": "intermediate",
    "id": "way/183668037"
  },
  "geometry": {
    "type": "LineString",
    "coordinates": [
      [
        22.9024267,
        42.7389449
      ],
      [
        22.9043753,
        42.7402003
      ],
      [
        22.9045191,
        42.740264
      ],
      [
        22.9049268,
        42.7404145
      ],
      [
        22.9054651,
        42.7405689
      ],
      [
        22.9057963,
        42.7406384
      ],
      [
        22.9060646,
        42.74068
      ],
      [
        22.9063288,
        42.7407003
      ]
    ]
  }
},
{
  "type": "Feature",
  "id": "way/230103014",
  "properties": {
    "bridge": "yes",
    "highway": "tertiary",
    "name": "811",
    "ref": "811",
    "smoothness": "intermediate",
    "id": "way/230103014"
  },
  "geometry": {
    "type": "LineString",
    "coordinates": [
      [
        22.9063288,
        42.7407003
      ],
      [
        22.9065735,
        42.7407065
      ]
    ]
  }
},
{
  "type": "Feature",
  "id": "way/106100015",
  "properties": {
    "highway": "tertiary",
    "name": "811",
    "ref": "811",
    "id": "way/106100015"
  },
  "geometry": {
    "type": "LineString",
    "coordinates": [
      [
        23.049692,
        42.8484637
      ],
      [
        23.0501005,
        42.8490689
      ],
      [
        23.0505521,
        42.8498925
      ],
      [
        23.0508421,
        42.8504682
      ],
      [
        23.0509167,
        42.8506259
      ],
      [
        23.0511218,
        42.8510723
      ],
      [
        23.0511999,
        42.8512488
      ],
      [
        23.051345,
        42.8513893
      ],
      [
        23.0515596,
        42.8514207
      ],
      [
        23.0539414,
        42.8506892
      ],
      [
        23.0540809,
        42.8506656
      ],
      [
        23.0612145,
        42.8497999
      ],
      [
        23.0669984,
        42.8490925
      ],
      [
        23.0725881,
        42.8494465
      ],
      [
        23.0735969,
        42.8495124
      ],
      [
        23.0744482,
        42.8494523
      ],
      [
        23.0745847,
        42.8494417
      ],
      [
        23.0748707,
        42.8493587
      ],
      [
        23.0750922,
        42.8492264
      ],
      [
        23.0756196,
        42.8488119
      ],
      [
        23.0759669,
        42.8485599
      ],
      [
        23.0762604,
        42.8484392
      ],
      [
        23.076448,
        42.8484117
      ],
      [
        23.0766816,
        42.8484166
      ],
      [
        23.0768765,
        42.8484427
      ],
      [
        23.0773532,
        42.8486013
      ]
    ]
  }
},
{
  "type": "Feature",
  "id": "way/106100773",
  "properties": {
    "highway": "tertiary",
    "name": "811",
    "ref": "811",
    "id": "way/106100773"
  },
  "geometry": {
    "type": "LineString",
    "coordinates": [
      [
        23.0427098,
        42.850622
      ],
      [
        23.0442767,
        42.8499793
      ],
      [
        23.0451522,
        42.8495136
      ],
      [
        23.0457959,
        42.8493752
      ],
      [
        23.0469153,
        42.8493163
      ],
      [
        23.0475898,
        42.8492808
      ],
      [
        23.049692,
        42.8484637
      ]
    ]
  }
},
{
  "type": "Feature",
  "id": "way/24844664",
  "properties": {
    "highway": "tertiary",
    "name": "811",
    "ref": "811",
    "smoothness": "bad",
    "id": "way/24844664"
  },
  "geometry": {
    "type": "LineString",
    "coordinates": [
      [
        23.0777249,
        42.8487835
      ],
      [
        23.0782611,
        42.8490587
      ],
      [
        23.0785247,
        42.8491438
      ],
      [
        23.0789834,
        42.8492288
      ],
      [
        23.0794392,
        42.8492179
      ],
      [
        23.0830783,
        42.8490293
      ],
      [
        23.0835108,
        42.8490539
      ],
      [
        23.0838053,
        42.8491058
      ],
      [
        23.0846442,
        42.8492288
      ],
      [
        23.0864339,
        42.8494776
      ],
      [
        23.0880521,
        42.8497263
      ],
      [
        23.0890886,
        42.8498958
      ],
      [
        23.0895249,
        42.8500134
      ],
      [
        23.0899164,
        42.8501938
      ],
      [
        23.092566,
        42.85164
      ],
      [
        23.0929984,
        42.8518874
      ],
      [
        23.0932225,
        42.852071
      ],
      [
        23.0934691,
        42.852377
      ],
      [
        23.0937338,
        42.8527324
      ],
      [
        23.094006,
        42.8528854
      ],
      [
        23.0945466,
        42.8529866
      ],
      [
        23.095229,
        42.8530768
      ],
      [
        23.0959001,
        42.8531615
      ],
      [
        23.0961164,
        42.8532545
      ],
      [
        23.0962394,
        42.8533611
      ],
      [
        23.0964445,
        42.8538339
      ],
      [
        23.0973097,
        42.8562783
      ],
      [
        23.097485,
        42.8566746
      ],
      [
        23.0977348,
        42.8570572
      ],
      [
        23.0986462,
        42.8582234
      ],
      [
        23.0991946,
        42.8587413
      ],
      [
        23.1002545,
        42.8595608
      ],
      [
        23.1019629,
        42.8608053
      ],
      [
        23.1032337,
        42.861501
      ],
      [
        23.1046468,
        42.8621774
      ],
      [
        23.1062287,
        42.8630277
      ],
      [
        23.1067929,
        42.8632519
      ],
      [
        23.1078422,
        42.863592
      ]
    ]
  }
},
{
  "type": "Feature",
  "id": "way/24844663",
  "properties": {
    "bridge": "yes",
    "highway": "tertiary",
    "layer": "1",
    "name": "811",
    "ref": "811",
    "smoothness": "bad",
    "id": "way/24844663"
  },
  "geometry": {
    "type": "LineString",
    "coordinates": [
      [
        23.0773532,
        42.8486013
      ],
      [
        23.0777249,
        42.8487835
      ]
    ]
  }
},
{
  "type": "Feature",
  "id": "way/328868381",
  "properties": {
    "highway": "tertiary",
    "name": "811",
    "ref": "811",
    "id": "way/328868381"
  },
  "geometry": {
    "type": "LineString",
    "coordinates": [
      [
        23.1078422,
        42.863592
      ],
      [
        23.1081692,
        42.8637992
      ],
      [
        23.108343,
        42.8639356
      ],
      [
        23.1086527,
        42.8644149
      ],
      [
        23.1088998,
        42.8646876
      ],
      [
        23.1091157,
        42.8648399
      ],
      [
        23.1094471,
        42.8649922
      ],
      [
        23.1096649,
        42.8650297
      ],
      [
        23.1101229,
        42.8650663
      ],
      [
        23.110608,
        42.8650566
      ],
      [
        23.1115436,
        42.8650692
      ],
      [
        23.1120757,
        42.8651573
      ],
      [
        23.1168565,
        42.8666482
      ],
      [
        23.1207618,
        42.8682398
      ],
      [
        23.1233281,
        42.8690953
      ],
      [
        23.1241521,
        42.8694916
      ],
      [
        23.1245641,
        42.8698061
      ],
      [
        23.1302112,
        42.8765607
      ],
      [
        23.1304435,
        42.8768386
      ],
      [
        23.1310336,
        42.8774805
      ],
      [
        23.1317224,
        42.8781091
      ],
      [
        23.1341202,
        42.8781404
      ],
      [
        23.1343176,
        42.878045
      ],
      [
        23.134632,
        42.8777757
      ],
      [
        23.1353663,
        42.8777572
      ],
      [
        23.1360619,
        42.8777396
      ],
      [
        23.1361255,
        42.877738
      ],
      [
        23.1373872,
        42.877543
      ],
      [
        23.1384601,
        42.8774801
      ],
      [
        23.1385849,
        42.8774666
      ],
      [
        23.1387519,
        42.8774485
      ],
      [
        23.140091,
        42.8773035
      ],
      [
        23.1404342,
        42.8772663
      ],
      [
        23.1411466,
        42.8773103
      ],
      [
        23.1418504,
        42.8774487
      ],
      [
        23.1438473,
        42.8780774
      ],
      [
        23.1499013,
        42.8799834
      ],
      [
        23.1505794,
        42.8801595
      ],
      [
        23.1511974,
        42.8802727
      ],
      [
        23.1517467,
        42.8803167
      ],
      [
        23.1553945,
        42.8802098
      ],
      [
        23.1559095,
        42.8802979
      ],
      [
        23.1605186,
        42.8823922
      ],
      [
        23.1608447,
        42.8825746
      ],
      [
        23.161806,
        42.8833167
      ],
      [
        23.1620635,
        42.8834677
      ],
      [
        23.1639218,
        42.884167
      ],
      [
        23.1643359,
        42.8843064
      ]
    ]
  }
}
]
}
