{
"type": "FeatureCollection",
"features": [
{
  "type": "Feature",
  "id": "way/157330325",
  "properties": {
    "highway": "tertiary",
    "ref": "5504",
    "smoothness": "bad",
    "id": "way/157330325"
  },
  "geometry": {
    "type": "LineString",
    "coordinates": [
      [
        25.9856194,
        42.1335831
      ],
      [
        25.9878911,
        42.132888
      ],
      [
        25.9897309,
        42.1323524
      ],
      [
        25.9953736,
        42.1303593
      ],
      [
        25.997333,
        42.1297796
      ],
      [
        25.9984787,
        42.1294699
      ],
      [
        25.9990997,
        42.1289379
      ],
      [
        25.999967,
        42.1278421
      ],
      [
        26.0017444,
        42.1263333
      ],
      [
        26.0028151,
        42.1249038
      ],
      [
        26.0031898,
        42.1246576
      ],
      [
        26.0036717,
        42.12461
      ],
      [
        26.0063699,
        42.1247212
      ],
      [
        26.0066911,
        42.1248562
      ],
      [
        26.0073121,
        42.1254597
      ],
      [
        26.0076976,
        42.1256662
      ],
      [
        26.0108133,
        42.1264127
      ],
      [
        26.0128691,
        42.1275879
      ],
      [
        26.0134899,
        42.1279788
      ],
      [
        26.0145116,
        42.1287472
      ],
      [
        26.0149733,
        42.1290878
      ],
      [
        26.0153561,
        42.1293201
      ],
      [
        26.0159013,
        42.1295128
      ],
      [
        26.0177875,
        42.1301632
      ],
      [
        26.0191086,
        42.1306522
      ],
      [
        26.0204089,
        42.1311933
      ],
      [
        26.0220933,
        42.1319194
      ],
      [
        26.0229935,
        42.1323031
      ],
      [
        26.0235317,
        42.1324304
      ],
      [
        26.0243461,
        42.1325354
      ],
      [
        26.0280305,
        42.1329955
      ],
      [
        26.0285551,
        42.1329876
      ],
      [
        26.0300113,
        42.1326779
      ],
      [
        26.0309535,
        42.1325429
      ],
      [
        26.0332877,
        42.1325271
      ],
      [
        26.0342835,
        42.1325747
      ],
      [
        26.0399764,
        42.133652
      ],
      [
        26.040485,
        42.1338505
      ],
      [
        26.040833,
        42.1342277
      ],
      [
        26.0413683,
        42.1344163
      ],
      [
        26.0420777,
        42.134456
      ],
      [
        26.0445861,
        42.1342576
      ],
      [
        26.0447143,
        42.1342475
      ],
      [
        26.0455441,
        42.1342475
      ],
      [
        26.0460393,
        42.1343071
      ],
      [
        26.0473242,
        42.1346346
      ],
      [
        26.0484886,
        42.1346842
      ],
      [
        26.0491043,
        42.1346148
      ],
      [
        26.0505631,
        42.1341185
      ],
      [
        26.0511119,
        42.1340192
      ],
      [
        26.0517543,
        42.1339795
      ],
      [
        26.0554081,
        42.1339299
      ],
      [
        26.0599051,
        42.1341781
      ],
      [
        26.061886,
        42.1343468
      ],
      [
        26.0662846,
        42.1349055
      ],
      [
        26.0667814,
        42.1349646
      ],
      [
        26.0671194,
        42.135011
      ],
      [
        26.0676569,
        42.1350816
      ],
      [
        26.0682361,
        42.1351368
      ],
      [
        26.0686693,
        42.1351589
      ],
      [
        26.069247,
        42.1351931
      ],
      [
        26.069719,
        42.1352174
      ],
      [
        26.0704427,
        42.1352495
      ],
      [
        26.0709206,
        42.1352726
      ],
      [
        26.0715951,
        42.1353025
      ],
      [
        26.0719643,
        42.1353201
      ],
      [
        26.0723649,
        42.1352936
      ],
      [
        26.0727579,
        42.1352472
      ],
      [
        26.0730006,
        42.1351987
      ],
      [
        26.0734384,
        42.1350772
      ],
      [
        26.0738642,
        42.1349204
      ],
      [
        26.0740712,
        42.1348398
      ],
      [
        26.0745476,
        42.1346698
      ],
      [
        26.0751953,
        42.1344556
      ],
      [
        26.0755467,
        42.1343672
      ],
      [
        26.076231,
        42.134213
      ]
    ]
  }
},
{
  "type": "Feature",
  "id": "way/253324858",
  "properties": {
    "highway": "tertiary",
    "name": "ул.Млада гвардия",
    "ref": "5504",
    "smoothness": "bad",
    "id": "way/253324858"
  },
  "geometry": {
    "type": "LineString",
    "coordinates": [
      [
        25.9244934,
        42.1436555
      ],
      [
        25.9248051,
        42.1435925
      ],
      [
        25.9248828,
        42.1435838
      ],
      [
        25.9257344,
        42.143489
      ],
      [
        25.9261606,
        42.1434415
      ],
      [
        25.9262291,
        42.1434488
      ],
      [
        25.9291421,
        42.1437363
      ],
      [
        25.9305628,
        42.1442414
      ],
      [
        25.9311294,
        42.1444428
      ],
      [
        25.9312993,
        42.144486
      ],
      [
        25.9321801,
        42.1444696
      ],
      [
        25.9328775,
        42.1444681
      ],
      [
        25.93328,
        42.1444539
      ],
      [
        25.9336968,
        42.1444391
      ],
      [
        25.9351611,
        42.1442198
      ],
      [
        25.9364308,
        42.1440509
      ],
      [
        25.9383877,
        42.1437921
      ],
      [
        25.938432,
        42.1437862
      ],
      [
        25.9394561,
        42.1436434
      ],
      [
        25.9396321,
        42.1436188
      ],
      [
        25.9402855,
        42.143443
      ],
      [
        25.9407349,
        42.1432536
      ],
      [
        25.9425872,
        42.1424597
      ],
      [
        25.943031,
        42.1422613
      ],
      [
        25.9437302,
        42.1419442
      ],
      [
        25.9445999,
        42.1415994
      ],
      [
        25.9447929,
        42.1415229
      ],
      [
        25.9466539,
        42.141054
      ],
      [
        25.9482951,
        42.1405654
      ]
    ]
  }
},
{
  "type": "Feature",
  "id": "way/253355293",
  "properties": {
    "highway": "tertiary",
    "ref": "5504",
    "smoothness": "bad",
    "id": "way/253355293"
  },
  "geometry": {
    "type": "LineString",
    "coordinates": [
      [
        25.9482951,
        42.1405654
      ],
      [
        25.9488376,
        42.1404961
      ],
      [
        25.9493863,
        42.140459
      ],
      [
        25.9502753,
        42.1403662
      ],
      [
        25.9508874,
        42.1402259
      ],
      [
        25.9514956,
        42.1400065
      ],
      [
        25.952213,
        42.1395857
      ],
      [
        25.9526069,
        42.1392422
      ],
      [
        25.9529197,
        42.1388024
      ]
    ]
  }
},
{
  "type": "Feature",
  "id": "way/157330326",
  "properties": {
    "highway": "tertiary",
    "ref": "5504",
    "smoothness": "bad",
    "id": "way/157330326"
  },
  "geometry": {
    "type": "LineString",
    "coordinates": [
      [
        25.9085287,
        42.1519818
      ],
      [
        25.9092755,
        42.1515345
      ],
      [
        25.9124864,
        42.1475898
      ],
      [
        25.9128252,
        42.1471901
      ],
      [
        25.9132004,
        42.1467153
      ],
      [
        25.9135446,
        42.1464546
      ],
      [
        25.9139022,
        42.1462029
      ],
      [
        25.9141166,
        42.1461015
      ],
      [
        25.9143212,
        42.1460029
      ],
      [
        25.9146401,
        42.145886
      ]
    ]
  }
},
{
  "type": "Feature",
  "id": "way/157330323",
  "properties": {
    "bridge": "yes",
    "highway": "tertiary",
    "layer": "1",
    "ref": "5504",
    "smoothness": "bad",
    "id": "way/157330323"
  },
  "geometry": {
    "type": "LineString",
    "coordinates": [
      [
        25.9146401,
        42.145886
      ],
      [
        25.9150198,
        42.1456955
      ],
      [
        25.9152358,
        42.1455869
      ]
    ]
  }
},
{
  "type": "Feature",
  "id": "way/157330324",
  "properties": {
    "highway": "tertiary",
    "name": "ул.Славянска",
    "ref": "5504",
    "smoothness": "bad",
    "id": "way/157330324"
  },
  "geometry": {
    "type": "LineString",
    "coordinates": [
      [
        25.9152358,
        42.1455869
      ],
      [
        25.9158556,
        42.1453214
      ],
      [
        25.9160732,
        42.1452481
      ],
      [
        25.9163982,
        42.1451615
      ],
      [
        25.91668,
        42.1451037
      ],
      [
        25.9169472,
        42.1450813
      ],
      [
        25.9178099,
        42.1449927
      ],
      [
        25.9192588,
        42.1448203
      ],
      [
        25.919973,
        42.1447359
      ],
      [
        25.9209443,
        42.1446212
      ],
      [
        25.9236704,
        42.1443113
      ],
      [
        25.9238624,
        42.1442201
      ],
      [
        25.9239512,
        42.1441349
      ],
      [
        25.9240474,
        42.1439689
      ],
      [
        25.9242209,
        42.1437936
      ],
      [
        25.9243179,
        42.1437261
      ],
      [
        25.9244934,
        42.1436555
      ]
    ]
  }
},
{
  "type": "Feature",
  "id": "way/253324862",
  "properties": {
    "highway": "tertiary",
    "ref": "5504",
    "smoothness": "bad",
    "id": "way/253324862"
  },
  "geometry": {
    "type": "LineString",
    "coordinates": [
      [
        25.9529197,
        42.1388024
      ],
      [
        25.9538298,
        42.1366956
      ],
      [
        25.9542581,
        42.1361716
      ],
      [
        25.9548255,
        42.1356952
      ],
      [
        25.9555964,
        42.13533
      ],
      [
        25.959977,
        42.1338475
      ],
      [
        25.9616085,
        42.1333767
      ],
      [
        25.962963,
        42.1330273
      ],
      [
        25.9647963,
        42.1325874
      ],
      [
        25.9666034,
        42.1322174
      ],
      [
        25.9685631,
        42.1318512
      ],
      [
        25.9717107,
        42.131336
      ],
      [
        25.9722803,
        42.131254
      ],
      [
        25.9729314,
        42.1312328
      ],
      [
        25.9741338,
        42.1312554
      ],
      [
        25.9747621,
        42.1313481
      ],
      [
        25.975382,
        42.1314657
      ],
      [
        25.9759368,
        42.1316426
      ],
      [
        25.9765949,
        42.1318718
      ],
      [
        25.978915,
        42.1329514
      ],
      [
        25.9812677,
        42.1341028
      ],
      [
        25.9817307,
        42.1342597
      ],
      [
        25.9823013,
        42.134342
      ],
      [
        25.9829052,
        42.1343362
      ],
      [
        25.9836428,
        42.1341495
      ],
      [
        25.9849341,
        42.1337816
      ]
    ]
  }
},
{
  "type": "Feature",
  "id": "way/157330322",
  "properties": {
    "bridge": "yes",
    "highway": "tertiary",
    "layer": "1",
    "ref": "5504",
    "smoothness": "bad",
    "id": "way/157330322"
  },
  "geometry": {
    "type": "LineString",
    "coordinates": [
      [
        25.9849341,
        42.1337816
      ],
      [
        25.9856194,
        42.1335831
      ]
    ]
  }
}
]
}
