{
"type": "FeatureCollection",
"features": [
{
  "type": "Feature",
  "id": "way/236876951",
  "properties": {
    "highway": "tertiary",
    "name": "България; 806",
    "ref": "806",
    "smoothness": "good",
    "id": "way/236876951"
  },
  "geometry": {
    "type": "LineString",
    "coordinates": [
      [
        25.4976701,
        41.9281792
      ],
      [
        25.497428,
        41.9282001
      ],
      [
        25.4969801,
        41.928248
      ],
      [
        25.4955576,
        41.9284733
      ],
      [
        25.48965,
        41.9296
      ],
      [
        25.48912,
        41.92966
      ],
      [
        25.48796,
        41.92979
      ],
      [
        25.48665,
        41.93009
      ],
      [
        25.48551,
        41.93031
      ],
      [
        25.48498,
        41.93039
      ],
      [
        25.47944,
        41.93091
      ],
      [
        25.47897,
        41.931
      ],
      [
        25.47118,
        41.93355
      ],
      [
        25.47041,
        41.93378
      ],
      [
        25.46959,
        41.93396
      ],
      [
        25.4689,
        41.93404
      ],
      [
        25.46779,
        41.93408
      ],
      [
        25.46607,
        41.93413
      ],
      [
        25.46573,
        41.93415
      ],
      [
        25.46543,
        41.93421
      ],
      [
        25.46152,
        41.93576
      ],
      [
        25.46112,
        41.93587
      ],
      [
        25.45805,
        41.93645
      ],
      [
        25.45706,
        41.93664
      ],
      [
        25.4565,
        41.93672
      ],
      [
        25.45603,
        41.93675
      ],
      [
        25.45558,
        41.93672
      ],
      [
        25.45517,
        41.93666
      ],
      [
        25.45485,
        41.9366
      ],
      [
        25.45105,
        41.93522
      ],
      [
        25.44768,
        41.93396
      ],
      [
        25.44738,
        41.93387
      ],
      [
        25.44706,
        41.93383
      ],
      [
        25.4464,
        41.93383
      ],
      [
        25.44397,
        41.93396
      ],
      [
        25.43852,
        41.9343
      ],
      [
        25.43809,
        41.9343
      ],
      [
        25.43777,
        41.93426
      ],
      [
        25.43738,
        41.93417
      ],
      [
        25.43129,
        41.93202
      ],
      [
        25.43092,
        41.93192
      ],
      [
        25.43058,
        41.93185
      ],
      [
        25.42659,
        41.93155
      ],
      [
        25.42618,
        41.93149
      ],
      [
        25.42584,
        41.9314
      ],
      [
        25.42236,
        41.93009
      ],
      [
        25.42202,
        41.93003
      ],
      [
        25.42172,
        41.93001
      ],
      [
        25.4212,
        41.92997
      ],
      [
        25.41936,
        41.93001
      ],
      [
        25.41003,
        41.93016
      ],
      [
        25.40406,
        41.93022
      ],
      [
        25.40335,
        41.93024
      ],
      [
        25.40005,
        41.93052
      ],
      [
        25.39159,
        41.93125
      ],
      [
        25.39116,
        41.93125
      ],
      [
        25.39069,
        41.93119
      ],
      [
        25.38181,
        41.92977
      ],
      [
        25.3814,
        41.92973
      ],
      [
        25.37282,
        41.92947
      ],
      [
        25.37164,
        41.92947
      ],
      [
        25.37104,
        41.92956
      ],
      [
        25.37048,
        41.92966
      ],
      [
        25.3699,
        41.92984
      ],
      [
        25.3693,
        41.93005
      ],
      [
        25.36604,
        41.93149
      ],
      [
        25.36546,
        41.93177
      ],
      [
        25.36436,
        41.93237
      ],
      [
        25.3636718,
        41.9327534
      ],
      [
        25.36147,
        41.93398
      ],
      [
        25.35984,
        41.93492
      ],
      [
        25.35943,
        41.93511
      ],
      [
        25.35911,
        41.93522
      ],
      [
        25.3587,
        41.93535
      ],
      [
        25.3542038,
        41.9363919
      ],
      [
        25.353066,
        41.9366879
      ]
    ]
  }
},
{
  "type": "Feature",
  "id": "way/236876952",
  "properties": {
    "highway": "tertiary",
    "name": "Болярска",
    "ref": "806",
    "smoothness": "good",
    "id": "way/236876952"
  },
  "geometry": {
    "type": "LineString",
    "coordinates": [
      [
        25.5118297,
        41.9289474
      ],
      [
        25.5110052,
        41.9289467
      ],
      [
        25.5104849,
        41.9289487
      ],
      [
        25.5100343,
        41.9289327
      ],
      [
        25.5098912,
        41.9289286
      ],
      [
        25.509745,
        41.9289206
      ],
      [
        25.5094479,
        41.9289032
      ],
      [
        25.5089211,
        41.9288729
      ],
      [
        25.5088058,
        41.9288669
      ],
      [
        25.5079394,
        41.928815
      ],
      [
        25.5078491,
        41.9288091
      ],
      [
        25.5066813,
        41.9287414
      ],
      [
        25.5061145,
        41.9287089
      ],
      [
        25.5047173,
        41.9286136
      ],
      [
        25.5036902,
        41.9285512
      ],
      [
        25.5034519,
        41.9285362
      ],
      [
        25.5015558,
        41.9284195
      ],
      [
        25.5011226,
        41.9283926
      ],
      [
        25.4999973,
        41.928324
      ],
      [
        25.4988788,
        41.9282541
      ],
      [
        25.4976701,
        41.9281792
      ]
    ]
  }
},
{
  "type": "Feature",
  "id": "way/340061357",
  "properties": {
    "highway": "tertiary",
    "name": "Никола Радев",
    "ref": "806",
    "smoothness": "good",
    "id": "way/340061357"
  },
  "geometry": {
    "type": "LineString",
    "coordinates": [
      [
        25.5130638,
        41.9289819
      ],
      [
        25.5132502,
        41.9290046
      ],
      [
        25.5135868,
        41.9290564
      ],
      [
        25.5137893,
        41.9290944
      ],
      [
        25.5139912,
        41.9291383
      ],
      [
        25.5142198,
        41.9291901
      ],
      [
        25.5145256,
        41.929272
      ],
      [
        25.5149353,
        41.9294017
      ],
      [
        25.5153081,
        41.9295423
      ],
      [
        25.5155603,
        41.9296441
      ],
      [
        25.5167485,
        41.9302068
      ],
      [
        25.517065,
        41.9303585
      ],
      [
        25.5172876,
        41.9304623
      ],
      [
        25.5195686,
        41.9315498
      ],
      [
        25.5204082,
        41.9319468
      ],
      [
        25.5212511,
        41.9323479
      ],
      [
        25.5232872,
        41.9333137
      ],
      [
        25.5259158,
        41.9345648
      ],
      [
        25.5264179,
        41.9348036
      ],
      [
        25.5266373,
        41.934908
      ],
      [
        25.5277967,
        41.9354584
      ],
      [
        25.5280421,
        41.9355552
      ],
      [
        25.528287,
        41.935633
      ],
      [
        25.5285767,
        41.9357008
      ],
      [
        25.5288203,
        41.9357389
      ],
      [
        25.5289259,
        41.9357555
      ],
      [
        25.5293684,
        41.9358093
      ],
      [
        25.5299914,
        41.935889
      ],
      [
        25.5319086,
        41.9361247
      ]
    ]
  }
},
{
  "type": "Feature",
  "id": "way/100288024",
  "properties": {
    "highway": "tertiary",
    "name": "Болярска",
    "ref": "806",
    "smoothness": "good",
    "id": "way/100288024"
  },
  "geometry": {
    "type": "LineString",
    "coordinates": [
      [
        25.5118297,
        41.9289474
      ],
      [
        25.5121901,
        41.9289417
      ],
      [
        25.5125123,
        41.9289432
      ],
      [
        25.5126393,
        41.9289507
      ],
      [
        25.5130638,
        41.9289819
      ]
    ]
  }
},
{
  "type": "Feature",
  "id": "way/339883939",
  "properties": {
    "highway": "tertiary",
    "name": "Банска",
    "ref": "806",
    "smoothness": "good",
    "id": "way/339883939"
  },
  "geometry": {
    "type": "LineString",
    "coordinates": [
      [
        25.5319086,
        41.9361247
      ],
      [
        25.5320793,
        41.9361465
      ],
      [
        25.5326734,
        41.9362224
      ],
      [
        25.5335675,
        41.9363383
      ],
      [
        25.5344584,
        41.9364538
      ],
      [
        25.535011,
        41.9365137
      ],
      [
        25.5352589,
        41.9365418
      ],
      [
        25.5353959,
        41.9365606
      ],
      [
        25.5355367,
        41.9365705
      ],
      [
        25.5356802,
        41.9365705
      ],
      [
        25.5358297,
        41.9365601
      ],
      [
        25.5361122,
        41.9364981
      ],
      [
        25.536218,
        41.936462
      ],
      [
        25.5365172,
        41.9363206
      ],
      [
        25.5369918,
        41.936067
      ],
      [
        25.5372409,
        41.9359396
      ],
      [
        25.5381007,
        41.9354948
      ],
      [
        25.5384333,
        41.9353451
      ],
      [
        25.5385311,
        41.9353057
      ],
      [
        25.5386442,
        41.935244
      ],
      [
        25.5387265,
        41.9351972
      ]
    ]
  }
},
{
  "type": "Feature",
  "id": "way/180690007",
  "properties": {
    "highway": "residential",
    "name": "Банска",
    "ref": "806",
    "id": "way/180690007"
  },
  "geometry": {
    "type": "LineString",
    "coordinates": [
      [
        25.5387265,
        41.9351972
      ],
      [
        25.5390623,
        41.935187
      ],
      [
        25.5399823,
        41.9350992
      ],
      [
        25.5409342,
        41.9350125
      ],
      [
        25.5413596,
        41.9349801
      ],
      [
        25.5416499,
        41.9349501
      ],
      [
        25.5421096,
        41.9349203
      ],
      [
        25.5421147,
        41.9349187
      ],
      [
        25.5423829,
        41.9349073
      ],
      [
        25.5426432,
        41.934885
      ],
      [
        25.5428712,
        41.9348691
      ],
      [
        25.5429919,
        41.9348591
      ],
      [
        25.5432896,
        41.9348411
      ],
      [
        25.5434639,
        41.9348272
      ],
      [
        25.543539,
        41.9347214
      ],
      [
        25.5436751,
        41.9345351
      ],
      [
        25.5438917,
        41.9342422
      ],
      [
        25.5441967,
        41.9338298
      ],
      [
        25.5446356,
        41.9332364
      ],
      [
        25.5447015,
        41.9331472
      ]
    ]
  }
},
{
  "type": "Feature",
  "id": "way/237508109",
  "properties": {
    "highway": "secondary",
    "name": "България",
    "oneway": "no",
    "ref": "806",
    "smoothness": "good",
    "source": "bgtopomaps",
    "id": "way/237508109"
  },
  "geometry": {
    "type": "LineString",
    "coordinates": [
      [
        25.5464096,
        41.9341617
      ],
      [
        25.5461007,
        41.9339797
      ],
      [
        25.5459586,
        41.9338699
      ],
      [
        25.5458405,
        41.9337502
      ],
      [
        25.5456608,
        41.9335846
      ],
      [
        25.545567,
        41.9334928
      ],
      [
        25.5454436,
        41.933407
      ],
      [
        25.5452666,
        41.9333112
      ],
      [
        25.545162,
        41.9332633
      ],
      [
        25.5450466,
        41.9332214
      ],
      [
        25.5448803,
        41.9331715
      ],
      [
        25.5447015,
        41.9331472
      ],
      [
        25.5440609,
        41.9330817
      ],
      [
        25.5431534,
        41.9329983
      ],
      [
        25.5423029,
        41.9329234
      ],
      [
        25.5417719,
        41.9328835
      ],
      [
        25.5416836,
        41.9328769
      ],
      [
        25.5415249,
        41.9328762
      ],
      [
        25.541365,
        41.9328918
      ],
      [
        25.5411381,
        41.9329248
      ],
      [
        25.5408867,
        41.9329951
      ],
      [
        25.540778,
        41.9330399
      ],
      [
        25.540653,
        41.9330915
      ],
      [
        25.5403861,
        41.9332341
      ]
    ]
  }
},
{
  "type": "Feature",
  "id": "way/195445038",
  "properties": {
    "highway": "secondary",
    "name": "България",
    "oneway": "yes",
    "ref": "806",
    "smoothness": "good",
    "source": "bgtopomaps",
    "id": "way/195445038"
  },
  "geometry": {
    "type": "LineString",
    "coordinates": [
      [
        25.5704311,
        41.9303732
      ],
      [
        25.5691401,
        41.9301605
      ],
      [
        25.5677012,
        41.9301181
      ],
      [
        25.5667391,
        41.929978
      ],
      [
        25.5666491,
        41.9299616
      ],
      [
        25.5651813,
        41.9297377
      ],
      [
        25.5647969,
        41.9296747
      ],
      [
        25.5644348,
        41.9296171
      ],
      [
        25.5632838,
        41.9294439
      ],
      [
        25.5629886,
        41.9294072
      ],
      [
        25.5621145,
        41.9292446
      ],
      [
        25.5618489,
        41.9292193
      ],
      [
        25.5615135,
        41.9292658
      ],
      [
        25.561254,
        41.9293412
      ],
      [
        25.5609009,
        41.9294738
      ],
      [
        25.5607135,
        41.9295235
      ],
      [
        25.5594623,
        41.9299764
      ],
      [
        25.5587031,
        41.9302526
      ],
      [
        25.5577543,
        41.9306056
      ],
      [
        25.5574995,
        41.9307003
      ]
    ]
  }
},
{
  "type": "Feature",
  "id": "way/302536568",
  "properties": {
    "highway": "primary",
    "name": "България",
    "oneway": "yes",
    "ref": "806",
    "smoothness": "good",
    "source": "bgtopomaps",
    "id": "way/302536568"
  },
  "geometry": {
    "type": "LineString",
    "coordinates": [
      [
        25.5574995,
        41.9307003
      ],
      [
        25.5573372,
        41.9307567
      ],
      [
        25.5567795,
        41.9309161
      ],
      [
        25.5564884,
        41.9309931
      ],
      [
        25.5563631,
        41.9310155
      ],
      [
        25.5562819,
        41.9310213
      ],
      [
        25.5562747,
        41.9310218
      ],
      [
        25.5561855,
        41.9310213
      ],
      [
        25.5561667,
        41.9310195
      ],
      [
        25.5561194,
        41.9310129
      ],
      [
        25.5560842,
        41.931008
      ],
      [
        25.5557735,
        41.930946
      ],
      [
        25.5557248,
        41.9309335
      ],
      [
        25.5545667,
        41.930683
      ],
      [
        25.5543636,
        41.930642
      ],
      [
        25.5541001,
        41.93062
      ],
      [
        25.5538084,
        41.9306779
      ],
      [
        25.5536904,
        41.9307058
      ],
      [
        25.5535938,
        41.9307577
      ],
      [
        25.5535053,
        41.9308056
      ],
      [
        25.553449,
        41.9308535
      ],
      [
        25.5533202,
        41.9309712
      ],
      [
        25.5532049,
        41.9311009
      ],
      [
        25.5531056,
        41.9313025
      ],
      [
        25.5530627,
        41.9314062
      ],
      [
        25.5530493,
        41.931508
      ],
      [
        25.5530574,
        41.9316138
      ],
      [
        25.5530949,
        41.9317016
      ],
      [
        25.5532454,
        41.9320262
      ],
      [
        25.5534574,
        41.9325051
      ],
      [
        25.5534722,
        41.9325649
      ],
      [
        25.5534829,
        41.9326198
      ],
      [
        25.5534867,
        41.9327068
      ],
      [
        25.553482,
        41.932783
      ],
      [
        25.5534653,
        41.9328798
      ],
      [
        25.5534369,
        41.9329803
      ],
      [
        25.5534128,
        41.9330665
      ],
      [
        25.5533581,
        41.9331422
      ],
      [
        25.5532156,
        41.9333039
      ],
      [
        25.5531043,
        41.9334421
      ]
    ]
  }
},
{
  "type": "Feature",
  "id": "way/48715028",
  "properties": {
    "highway": "primary",
    "name": "Освобождение",
    "oneway": "yes",
    "ref": "806",
    "smoothness": "good",
    "source": "bgtopomaps",
    "id": "way/48715028"
  },
  "geometry": {
    "type": "LineString",
    "coordinates": [
      [
        25.5571722,
        41.9304797
      ],
      [
        25.5571025,
        41.9303513
      ],
      [
        25.5570596,
        41.9302256
      ],
      [
        25.5570354,
        41.9301219
      ],
      [
        25.557022,
        41.9300181
      ],
      [
        25.5570328,
        41.9299403
      ],
      [
        25.5570515,
        41.9298475
      ],
      [
        25.55706,
        41.9298114
      ],
      [
        25.5571444,
        41.9297893
      ]
    ]
  }
},
{
  "type": "Feature",
  "id": "way/195445039",
  "properties": {
    "highway": "secondary",
    "name": "България",
    "oneway": "yes",
    "ref": "806",
    "smoothness": "good",
    "source": "bgtopomaps",
    "id": "way/195445039"
  },
  "geometry": {
    "type": "LineString",
    "coordinates": [
      [
        25.5705143,
        41.9304011
      ],
      [
        25.5704311,
        41.9303732
      ]
    ]
  }
},
{
  "type": "Feature",
  "id": "way/104073256",
  "properties": {
    "highway": "tertiary",
    "name": "Руен",
    "oneway": "no",
    "ref": "806",
    "source": "bgtopomaps",
    "id": "way/104073256"
  },
  "geometry": {
    "type": "LineString",
    "coordinates": [
      [
        25.5403861,
        41.9332341
      ],
      [
        25.5402212,
        41.9333937
      ],
      [
        25.5401286,
        41.9334935
      ],
      [
        25.5400598,
        41.9335818
      ],
      [
        25.5397822,
        41.933928
      ],
      [
        25.5394488,
        41.9343335
      ],
      [
        25.5389651,
        41.9349649
      ],
      [
        25.538853,
        41.9350841
      ],
      [
        25.5387265,
        41.9351972
      ]
    ]
  }
},
{
  "type": "Feature",
  "id": "way/302536567",
  "properties": {
    "highway": "secondary",
    "name": "България",
    "oneway": "yes",
    "ref": "806",
    "smoothness": "good",
    "source": "bgtopomaps",
    "id": "way/302536567"
  },
  "geometry": {
    "type": "LineString",
    "coordinates": [
      [
        25.5531043,
        41.9334421
      ],
      [
        25.5530151,
        41.9334773
      ],
      [
        25.5529414,
        41.9335132
      ],
      [
        25.5527791,
        41.9335885
      ],
      [
        25.5527187,
        41.9336109
      ],
      [
        25.5526276,
        41.9336409
      ],
      [
        25.5520173,
        41.9338237
      ],
      [
        25.5515371,
        41.933965
      ],
      [
        25.5514462,
        41.933992
      ],
      [
        25.5514041,
        41.9340094
      ],
      [
        25.5513941,
        41.9340135
      ],
      [
        25.5512891,
        41.9340424
      ],
      [
        25.5511657,
        41.9340804
      ],
      [
        25.5508971,
        41.934164
      ],
      [
        25.5508358,
        41.9341831
      ],
      [
        25.5506354,
        41.9342393
      ],
      [
        25.550522,
        41.9342729
      ],
      [
        25.5502913,
        41.9343397
      ],
      [
        25.5500647,
        41.9343956
      ],
      [
        25.5499279,
        41.9344196
      ],
      [
        25.5497951,
        41.9344335
      ],
      [
        25.5496329,
        41.9344405
      ],
      [
        25.5494773,
        41.9344405
      ],
      [
        25.5493251,
        41.934441
      ],
      [
        25.5491481,
        41.9344231
      ],
      [
        25.5481959,
        41.9343552
      ],
      [
        25.5474315,
        41.9343033
      ],
      [
        25.5469138,
        41.9342694
      ],
      [
        25.5466537,
        41.9342235
      ],
      [
        25.5464096,
        41.9341617
      ]
    ]
  }
}
]
}
