{
"type": "FeatureCollection",
"features": [
{
  "type": "Feature",
  "id": "way/279990683",
  "properties": {
    "highway": "tertiary",
    "name": "ул. Ефрем Каранов",
    "ref": "6005",
    "id": "way/279990683"
  },
  "geometry": {
    "type": "LineString",
    "coordinates": [
      [
        22.6934616,
        42.2883846
      ],
      [
        22.6937306,
        42.2875009
      ],
      [
        22.6938902,
        42.2869766
      ]
    ]
  }
},
{
  "type": "Feature",
  "id": "way/142047110",
  "properties": {
    "highway": "tertiary_link",
    "oneway": "yes",
    "ref": "6005",
    "id": "way/142047110"
  },
  "geometry": {
    "type": "LineString",
    "coordinates": [
      [
        22.6938902,
        42.2869766
      ],
      [
        22.6939121,
        42.2868609
      ],
      [
        22.693899,
        42.2867154
      ]
    ]
  }
},
{
  "type": "Feature",
  "id": "way/142047111",
  "properties": {
    "highway": "tertiary_link",
    "oneway": "yes",
    "ref": "6005",
    "id": "way/142047111"
  },
  "geometry": {
    "type": "LineString",
    "coordinates": [
      [
        22.6941811,
        42.2867731
      ],
      [
        22.6940824,
        42.286819
      ],
      [
        22.6939642,
        42.2868974
      ],
      [
        22.6938902,
        42.2869766
      ]
    ]
  }
},
{
  "type": "Feature",
  "id": "way/279990679",
  "properties": {
    "highway": "tertiary",
    "name": "ул. Бузлуджа",
    "ref": "6005",
    "id": "way/279990679"
  },
  "geometry": {
    "type": "LineString",
    "coordinates": [
      [
        22.7056912,
        42.2959123
      ],
      [
        22.7054876,
        42.2956255
      ],
      [
        22.7051803,
        42.2951925
      ],
      [
        22.7047413,
        42.2945742
      ],
      [
        22.7046707,
        42.2944747
      ],
      [
        22.704166,
        42.2940263
      ],
      [
        22.7040319,
        42.2939051
      ],
      [
        22.7037746,
        42.2937389
      ],
      [
        22.7034164,
        42.2935757
      ],
      [
        22.7031199,
        42.2934248
      ],
      [
        22.7006507,
        42.2921938
      ],
      [
        22.6997713,
        42.2917237
      ],
      [
        22.698768,
        42.2912348
      ],
      [
        22.6984654,
        42.2910874
      ],
      [
        22.6981368,
        42.2909273
      ],
      [
        22.6980546,
        42.2908872
      ],
      [
        22.6970348,
        42.2903356
      ],
      [
        22.6958872,
        42.2897084
      ],
      [
        22.6946088,
        42.2890097
      ],
      [
        22.6940833,
        42.2887234
      ],
      [
        22.6934616,
        42.2883846
      ]
    ]
  }
},
{
  "type": "Feature",
  "id": "way/279990681",
  "properties": {
    "highway": "tertiary",
    "name": "ул. Прогон",
    "ref": "6005",
    "id": "way/279990681"
  },
  "geometry": {
    "type": "LineString",
    "coordinates": [
      [
        22.7107402,
        42.3005738
      ],
      [
        22.7092721,
        42.2991054
      ],
      [
        22.7081574,
        42.2980626
      ],
      [
        22.7067841,
        42.2968649
      ],
      [
        22.7058397,
        42.2960417
      ],
      [
        22.7056912,
        42.2959123
      ]
    ]
  }
},
{
  "type": "Feature",
  "id": "way/107741331",
  "properties": {
    "highway": "tertiary",
    "name": "6005",
    "ref": "6005",
    "id": "way/107741331"
  },
  "geometry": {
    "type": "LineString",
    "coordinates": [
      [
        22.7199755,
        42.3167659
      ],
      [
        22.7197011,
        42.3163488
      ],
      [
        22.7195949,
        42.3161077
      ],
      [
        22.7195353,
        42.3158556
      ],
      [
        22.7194259,
        42.3148688
      ],
      [
        22.7193055,
        42.3138504
      ],
      [
        22.7192612,
        42.3135044
      ],
      [
        22.7192213,
        42.3131933
      ],
      [
        22.719078,
        42.3128515
      ],
      [
        22.7180928,
        42.3109113
      ],
      [
        22.7179459,
        42.3106927
      ],
      [
        22.7178571,
        42.3105864
      ],
      [
        22.7146907,
        42.3067984
      ],
      [
        22.7134478,
        42.305243
      ],
      [
        22.7131506,
        42.304847
      ],
      [
        22.7128435,
        42.3043924
      ],
      [
        22.7126413,
        42.3039869
      ],
      [
        22.7117022,
        42.3016536
      ],
      [
        22.7114453,
        42.3012936
      ],
      [
        22.7113474,
        42.3011793
      ],
      [
        22.711258,
        42.3010801
      ],
      [
        22.7111534,
        42.300959
      ],
      [
        22.7107402,
        42.3005738
      ]
    ]
  }
},
{
  "type": "Feature",
  "id": "way/107741333",
  "properties": {
    "bridge": "yes",
    "highway": "tertiary",
    "ref": "6005",
    "id": "way/107741333"
  },
  "geometry": {
    "type": "LineString",
    "coordinates": [
      [
        22.7205066,
        42.3174492
      ],
      [
        22.7199755,
        42.3167659
      ]
    ]
  }
},
{
  "type": "Feature",
  "id": "way/107742889",
  "properties": {
    "highway": "tertiary",
    "ref": "6005",
    "id": "way/107742889"
  },
  "geometry": {
    "type": "LineString",
    "coordinates": [
      [
        22.7214644,
        42.3201807
      ],
      [
        22.7210047,
        42.3182865
      ],
      [
        22.7208365,
        42.3179204
      ],
      [
        22.7205066,
        42.3174492
      ]
    ]
  }
},
{
  "type": "Feature",
  "id": "way/107743117",
  "properties": {
    "highway": "tertiary",
    "ref": "6005",
    "id": "way/107743117"
  },
  "geometry": {
    "type": "LineString",
    "coordinates": [
      [
        22.7356318,
        42.3295963
      ],
      [
        22.7358303,
        42.3293266
      ],
      [
        22.736002,
        42.3290292
      ],
      [
        22.7360932,
        42.3287317
      ],
      [
        22.7361522,
        42.3284144
      ],
      [
        22.7361414,
        42.3281527
      ],
      [
        22.7360717,
        42.3278037
      ],
      [
        22.7357927,
        42.3266456
      ],
      [
        22.7357123,
        42.3264196
      ],
      [
        22.7355513,
        42.3262014
      ],
      [
        22.7353153,
        42.3259357
      ],
      [
        22.7352492,
        42.3258758
      ],
      [
        22.735149,
        42.325785
      ],
      [
        22.734854,
        42.3256581
      ],
      [
        22.7329925,
        42.3248926
      ],
      [
        22.7327672,
        42.3247855
      ],
      [
        22.7326277,
        42.3246785
      ],
      [
        22.7315549,
        42.3236988
      ],
      [
        22.7313242,
        42.3235005
      ],
      [
        22.731115,
        42.3233458
      ],
      [
        22.7307931,
        42.3231396
      ],
      [
        22.7287814,
        42.322037
      ],
      [
        22.7285561,
        42.3219259
      ],
      [
        22.7282933,
        42.3218307
      ],
      [
        22.7265659,
        42.3213904
      ],
      [
        22.7262763,
        42.3213468
      ],
      [
        22.7253536,
        42.3212516
      ],
      [
        22.725021,
        42.321208
      ],
      [
        22.7247474,
        42.3211287
      ],
      [
        22.723755,
        42.3208114
      ],
      [
        22.7234546,
        42.3207439
      ],
      [
        22.722999,
        42.3207253
      ],
      [
        22.7226177,
        42.3207387
      ]
    ]
  }
},
{
  "type": "Feature",
  "id": "way/36235283",
  "properties": {
    "highway": "tertiary",
    "oneway": "yes",
    "ref": "6005",
    "id": "way/36235283"
  },
  "geometry": {
    "type": "LineString",
    "coordinates": [
      [
        22.7214644,
        42.3201807
      ],
      [
        22.7215513,
        42.320318
      ],
      [
        22.7216739,
        42.3204332
      ],
      [
        22.7218222,
        42.32055
      ]
    ]
  }
},
{
  "type": "Feature",
  "id": "way/107741327",
  "properties": {
    "highway": "tertiary",
    "oneway": "yes",
    "ref": "6005",
    "id": "way/107741327"
  },
  "geometry": {
    "type": "LineString",
    "coordinates": [
      [
        22.7219752,
        42.3206294
      ],
      [
        22.7220078,
        42.3207104
      ],
      [
        22.722001,
        42.3207954
      ],
      [
        22.7219471,
        42.3208618
      ],
      [
        22.7216764,
        42.3209521
      ],
      [
        22.7215718,
        42.3209322
      ],
      [
        22.7215047,
        42.3208866
      ],
      [
        22.7214833,
        42.3208192
      ],
      [
        22.7215202,
        42.3206292
      ],
      [
        22.7215986,
        42.3205832
      ],
      [
        22.721714,
        42.3205455
      ],
      [
        22.7218222,
        42.32055
      ],
      [
        22.7219752,
        42.3206294
      ]
    ]
  }
},
{
  "type": "Feature",
  "id": "way/107741329",
  "properties": {
    "highway": "tertiary",
    "oneway": "yes",
    "ref": "6005",
    "id": "way/107741329"
  },
  "geometry": {
    "type": "LineString",
    "coordinates": [
      [
        22.7226177,
        42.3207387
      ],
      [
        22.722304,
        42.3207815
      ],
      [
        22.7219471,
        42.3208618
      ]
    ]
  }
},
{
  "type": "Feature",
  "id": "way/107742899",
  "properties": {
    "highway": "tertiary",
    "oneway": "yes",
    "ref": "6005",
    "id": "way/107742899"
  },
  "geometry": {
    "type": "LineString",
    "coordinates": [
      [
        22.7215202,
        42.3206292
      ],
      [
        22.7214644,
        42.3201807
      ]
    ]
  }
},
{
  "type": "Feature",
  "id": "way/107742954",
  "properties": {
    "highway": "tertiary",
    "oneway": "yes",
    "ref": "6005",
    "id": "way/107742954"
  },
  "geometry": {
    "type": "LineString",
    "coordinates": [
      [
        22.7219752,
        42.3206294
      ],
      [
        22.7221333,
        42.3206877
      ],
      [
        22.7223073,
        42.3207226
      ],
      [
        22.7226177,
        42.3207387
      ]
    ]
  }
},
{
  "type": "Feature",
  "id": "way/107741326",
  "properties": {
    "highway": "tertiary",
    "ref": "6005",
    "smoothness": "good",
    "id": "way/107741326"
  },
  "geometry": {
    "type": "LineString",
    "coordinates": [
      [
        22.6517769,
        42.3724485
      ],
      [
        22.6519595,
        42.3722982
      ],
      [
        22.6529178,
        42.371509
      ],
      [
        22.6536367,
        42.3709224
      ],
      [
        22.654354,
        42.3703835
      ],
      [
        22.6548759,
        42.3700109
      ],
      [
        22.6552604,
        42.3698125
      ],
      [
        22.6560483,
        42.3694058
      ],
      [
        22.656335,
        42.3692579
      ],
      [
        22.6566086,
        42.3690914
      ],
      [
        22.6576534,
        42.368377
      ],
      [
        22.658985,
        42.3675021
      ],
      [
        22.6598916,
        42.3668957
      ],
      [
        22.6600847,
        42.3667926
      ],
      [
        22.6603047,
        42.3667094
      ],
      [
        22.6643333,
        42.3653816
      ],
      [
        22.6681635,
        42.3641212
      ],
      [
        22.6718757,
        42.3629004
      ],
      [
        22.6757756,
        42.3617311
      ],
      [
        22.6796541,
        42.3605697
      ],
      [
        22.6821539,
        42.3598165
      ],
      [
        22.6845196,
        42.3590198
      ],
      [
        22.6852385,
        42.3588057
      ],
      [
        22.685732,
        42.3587066
      ],
      [
        22.686247,
        42.3586273
      ],
      [
        22.6900074,
        42.3581318
      ],
      [
        22.6938537,
        42.3576244
      ],
      [
        22.6978073,
        42.3570814
      ],
      [
        22.7012942,
        42.3566929
      ],
      [
        22.7040568,
        42.3563678
      ],
      [
        22.704486,
        42.3563084
      ],
      [
        22.7049044,
        42.3562093
      ],
      [
        22.7090833,
        42.3550834
      ],
      [
        22.7095929,
        42.3549011
      ],
      [
        22.712361,
        42.3537197
      ],
      [
        22.7126721,
        42.3535691
      ],
      [
        22.7130262,
        42.3532916
      ],
      [
        22.7142518,
        42.3523614
      ]
    ]
  }
}
]
}
