{
"type": "FeatureCollection",
"features": [
{
  "type": "Feature",
  "id": "way/72013873",
  "properties": {
    "highway": "tertiary",
    "ref": "815",
    "smoothness": "good",
    "id": "way/72013873"
  },
  "geometry": {
    "type": "LineString",
    "coordinates": [
      [
        23.0687246,
        43.404807
      ],
      [
        23.0686817,
        43.4045108
      ],
      [
        23.0692825,
        43.4034897
      ],
      [
        23.0709884,
        43.4004496
      ],
      [
        23.0725548,
        43.3977056
      ],
      [
        23.0737457,
        43.3956476
      ],
      [
        23.0747113,
        43.3938935
      ],
      [
        23.075288,
        43.3927708
      ],
      [
        23.0756339,
        43.3921375
      ],
      [
        23.075988,
        43.391245
      ],
      [
        23.0761761,
        43.3907346
      ],
      [
        23.0769,
        43.3878902
      ],
      [
        23.0769644,
        43.3872509
      ],
      [
        23.0764816,
        43.3858786
      ],
      [
        23.0764172,
        43.3852236
      ],
      [
        23.0766103,
        43.384592
      ],
      [
        23.077372,
        43.3837109
      ],
      [
        23.077954,
        43.383107
      ],
      [
        23.078238,
        43.382678
      ],
      [
        23.078379,
        43.382344
      ],
      [
        23.078437,
        43.382115
      ],
      [
        23.078441,
        43.381647
      ],
      [
        23.078344,
        43.381274
      ],
      [
        23.078144,
        43.380875
      ],
      [
        23.0765,
        43.378494
      ],
      [
        23.076193,
        43.37764
      ],
      [
        23.076115,
        43.376915
      ],
      [
        23.076265,
        43.376135
      ],
      [
        23.076492,
        43.375683
      ],
      [
        23.076841,
        43.375209
      ],
      [
        23.077651,
        43.3743455
      ],
      [
        23.0803117,
        43.3717252
      ],
      [
        23.0817172,
        43.3703525
      ],
      [
        23.0832729,
        43.3687459
      ],
      [
        23.0859015,
        43.3658991
      ],
      [
        23.0890128,
        43.3625529
      ],
      [
        23.0916092,
        43.3597526
      ],
      [
        23.0949888,
        43.3561565
      ],
      [
        23.0956754,
        43.3553842
      ],
      [
        23.0957624,
        43.355251
      ],
      [
        23.0960831,
        43.3547601
      ],
      [
        23.0968234,
        43.3531842
      ],
      [
        23.0974028,
        43.3521857
      ],
      [
        23.0980465,
        43.3516084
      ],
      [
        23.101748,
        43.3490962
      ],
      [
        23.1039688,
        43.347606
      ],
      [
        23.1047628,
        43.3472706
      ],
      [
        23.1050842,
        43.3471671
      ],
      [
        23.1055138,
        43.3470287
      ],
      [
        23.1081745,
        43.3465372
      ],
      [
        23.109065,
        43.3463889
      ],
      [
        23.1097624,
        43.3461627
      ],
      [
        23.1102774,
        43.3458428
      ],
      [
        23.110846,
        43.3452888
      ],
      [
        23.1115434,
        43.3445398
      ],
      [
        23.1121549,
        43.3440326
      ],
      [
        23.1128309,
        43.3436503
      ],
      [
        23.1136141,
        43.3434708
      ],
      [
        23.1154594,
        43.3432211
      ],
      [
        23.116307,
        43.3430495
      ],
      [
        23.1169185,
        43.342753
      ],
      [
        23.1174979,
        43.342316
      ],
      [
        23.1186352,
        43.3409427
      ],
      [
        23.1202016,
        43.3389218
      ],
      [
        23.1206746,
        43.3383651
      ],
      [
        23.1207916,
        43.3382273
      ],
      [
        23.124536,
        43.3346689
      ],
      [
        23.1251797,
        43.3340758
      ],
      [
        23.1258986,
        43.333233
      ],
      [
        23.1269607,
        43.3316488
      ],
      [
        23.1275937,
        43.3306967
      ],
      [
        23.1282053,
        43.3299787
      ],
      [
        23.1290529,
        43.3291904
      ],
      [
        23.1308768,
        43.3275515
      ],
      [
        23.1323466,
        43.3262247
      ],
      [
        23.1334839,
        43.325171
      ],
      [
        23.1348464,
        43.3240081
      ],
      [
        23.1353721,
        43.3235164
      ],
      [
        23.1361983,
        43.32297
      ],
      [
        23.1381831,
        43.3219163
      ],
      [
        23.1389127,
        43.3215182
      ],
      [
        23.1394276,
        43.3210109
      ],
      [
        23.1403932,
        43.3195512
      ],
      [
        23.1408868,
        43.3190595
      ],
      [
        23.142657,
        43.3177793
      ],
      [
        23.1433329,
        43.3173266
      ],
      [
        23.1439016,
        43.31703
      ],
      [
        23.1461224,
        43.3162806
      ],
      [
        23.1469593,
        43.3159762
      ],
      [
        23.1475064,
        43.3156717
      ],
      [
        23.148987,
        43.3143915
      ],
      [
        23.1496093,
        43.3139856
      ],
      [
        23.1505427,
        43.313767
      ],
      [
        23.153579,
        43.3133376
      ],
      [
        23.1547806,
        43.313244
      ],
      [
        23.1557355,
        43.3132361
      ],
      [
        23.157849,
        43.3133845
      ],
      [
        23.1612608,
        43.3136733
      ],
      [
        23.1635997,
        43.3138607
      ],
      [
        23.1646833,
        43.3140168
      ],
      [
        23.1670544,
        43.314571
      ],
      [
        23.1678161,
        43.3149301
      ],
      [
        23.1685886,
        43.3154766
      ],
      [
        23.1693161,
        43.3160499
      ],
      [
        23.1697072,
        43.3164795
      ],
      [
        23.1701264,
        43.3168932
      ],
      [
        23.1703335,
        43.3170228
      ],
      [
        23.1703987,
        43.3170534
      ],
      [
        23.17067,
        43.3170534
      ],
      [
        23.1729231,
        43.3167099
      ],
      [
        23.1733844,
        43.3165694
      ],
      [
        23.1752527,
        43.3159658
      ],
      [
        23.1758773,
        43.3157849
      ],
      [
        23.1764556,
        43.3156011
      ],
      [
        23.1768239,
        43.3155379
      ],
      [
        23.1774539,
        43.3156177
      ],
      [
        23.1787358,
        43.3158312
      ],
      [
        23.1791486,
        43.315863
      ]
    ]
  }
},
{
  "type": "Feature",
  "id": "way/165725459",
  "properties": {
    "highway": "tertiary",
    "ref": "815",
    "id": "way/165725459"
  },
  "geometry": {
    "type": "LineString",
    "coordinates": [
      [
        23.1791486,
        43.315863
      ],
      [
        23.1790681,
        43.3153546
      ],
      [
        23.1789094,
        43.3143804
      ]
    ]
  }
}
]
}
