{
"type": "FeatureCollection",
"features": [
{
  "type": "Feature",
  "id": "way/109979901",
  "properties": {
    "highway": "tertiary",
    "name": "2903",
    "ref": "2903",
    "surface": "asphalt",
    "id": "way/109979901"
  },
  "geometry": {
    "type": "LineString",
    "coordinates": [
      [
        28.0198957,
        43.7196786
      ],
      [
        28.0175074,
        43.7220941
      ],
      [
        28.0150484,
        43.7245081
      ],
      [
        28.0126564,
        43.7268661
      ],
      [
        28.0104094,
        43.7290861
      ],
      [
        28.0078504,
        43.7314011
      ],
      [
        28.0050174,
        43.7339421
      ],
      [
        28.0023684,
        43.7362691
      ],
      [
        27.9997074,
        43.7387031
      ],
      [
        27.9970084,
        43.7410911
      ],
      [
        27.9942368,
        43.7435275
      ],
      [
        27.9915654,
        43.7459281
      ],
      [
        27.9888664,
        43.7483041
      ],
      [
        27.9862174,
        43.7507841
      ],
      [
        27.9836934,
        43.7531261
      ],
      [
        27.9811354,
        43.7555221
      ],
      [
        27.9785614,
        43.7579361
      ],
      [
        27.9760034,
        43.7603321
      ],
      [
        27.9733734,
        43.7627811
      ],
      [
        27.9713954,
        43.7646121
      ],
      [
        27.9712234,
        43.7647801
      ],
      [
        27.9686634,
        43.7671341
      ],
      [
        27.9672964,
        43.7684311
      ],
      [
        27.9669474,
        43.7688201
      ],
      [
        27.9666034,
        43.7692361
      ],
      [
        27.9663134,
        43.7696591
      ],
      [
        27.9649904,
        43.7719781
      ],
      [
        27.9636414,
        43.7743511
      ],
      [
        27.9623774,
        43.7765901
      ],
      [
        27.9611044,
        43.7788682
      ],
      [
        27.9597584,
        43.7812862
      ],
      [
        27.9583484,
        43.7837962
      ],
      [
        27.9571094,
        43.7860582
      ],
      [
        27.9568514,
        43.7866952
      ],
      [
        27.9559874,
        43.7890452
      ],
      [
        27.9555734,
        43.7901822
      ],
      [
        27.9553694,
        43.7906932
      ],
      [
        27.9552624,
        43.7908922
      ],
      [
        27.9551084,
        43.7910902
      ],
      [
        27.9549254,
        43.7912622
      ],
      [
        27.9546844,
        43.7914562
      ],
      [
        27.9529124,
        43.7928032
      ],
      [
        27.9526874,
        43.7930132
      ],
      [
        27.9525064,
        43.7932682
      ],
      [
        27.9512614,
        43.7951412
      ],
      [
        27.9510684,
        43.7955002
      ],
      [
        27.9504674,
        43.7967132
      ],
      [
        27.9502754,
        43.7970982
      ],
      [
        27.9501184,
        43.7972772
      ],
      [
        27.9499204,
        43.7974072
      ],
      [
        27.9496624,
        43.7975332
      ],
      [
        27.9493994,
        43.7976402
      ],
      [
        27.9477444,
        43.7982733
      ],
      [
        27.9475644,
        43.7983422
      ],
      [
        27.9473604,
        43.7984602
      ],
      [
        27.9471734,
        43.7986432
      ],
      [
        27.9470554,
        43.7988572
      ],
      [
        27.9469634,
        43.7990742
      ],
      [
        27.9469374,
        43.7993072
      ],
      [
        27.9468304,
        43.8008522
      ],
      [
        27.9467714,
        43.8010882
      ],
      [
        27.9466434,
        43.8013102
      ],
      [
        27.9464664,
        43.8015192
      ],
      [
        27.9450184,
        43.8029802
      ],
      [
        27.9448024,
        43.8032402
      ],
      [
        27.9446484,
        43.8035142
      ],
      [
        27.9445664,
        43.8037932
      ],
      [
        27.9442994,
        43.8054942
      ],
      [
        27.9442344,
        43.8057002
      ],
      [
        27.9441164,
        43.8059222
      ],
      [
        27.9439504,
        43.8061082
      ],
      [
        27.9437165,
        43.8062545
      ],
      [
        27.9433384,
        43.8064372
      ],
      [
        27.9427389,
        43.8067825
      ],
      [
        27.942282,
        43.8070781
      ],
      [
        27.9420164,
        43.8073683
      ],
      [
        27.9414874,
        43.8082114
      ],
      [
        27.9412215,
        43.8085749
      ],
      [
        27.9409559,
        43.8088511
      ],
      [
        27.9405327,
        43.8092117
      ],
      [
        27.9378383,
        43.8114794
      ],
      [
        27.9377299,
        43.8115535
      ],
      [
        27.9374627,
        43.8117459
      ],
      [
        27.9372024,
        43.8118952
      ],
      [
        27.9362289,
        43.8124219
      ],
      [
        27.9360804,
        43.8125022
      ],
      [
        27.9358874,
        43.8126582
      ],
      [
        27.9357254,
        43.8128872
      ],
      [
        27.9356394,
        43.8131502
      ],
      [
        27.9356304,
        43.8134362
      ],
      [
        27.9357424,
        43.8145356
      ],
      [
        27.9357485,
        43.8146685
      ],
      [
        27.9357754,
        43.8151192
      ],
      [
        27.9357424,
        43.8153172
      ],
      [
        27.9356574,
        43.8155462
      ],
      [
        27.9352054,
        43.8163242
      ],
      [
        27.9350654,
        43.8164502
      ],
      [
        27.9348734,
        43.8165532
      ],
      [
        27.9346154,
        43.8166182
      ],
      [
        27.9343164,
        43.8166562
      ],
      [
        27.9319814,
        43.8167512
      ],
      [
        27.9316264,
        43.8168162
      ],
      [
        27.9313544,
        43.8169192
      ],
      [
        27.9311384,
        43.8170602
      ],
      [
        27.9309724,
        43.8172402
      ],
      [
        27.9308504,
        43.8174502
      ],
      [
        27.9305406,
        43.8180604
      ],
      [
        27.9302502,
        43.8186109
      ],
      [
        27.9297234,
        43.8196702
      ],
      [
        27.9295422,
        43.8200389
      ],
      [
        27.9293414,
        43.8204522
      ],
      [
        27.9285334,
        43.8220502
      ],
      [
        27.9284034,
        43.8221872
      ],
      [
        27.9281844,
        43.8222982
      ],
      [
        27.9262424,
        43.8230882
      ],
      [
        27.9260264,
        43.8232292
      ],
      [
        27.9258344,
        43.8233932
      ],
      [
        27.9256894,
        43.8235722
      ],
      [
        27.9255444,
        43.8237782
      ],
      [
        27.9254484,
        43.8240262
      ],
      [
        27.9254104,
        43.8242442
      ],
      [
        27.9251034,
        43.8264942
      ],
      [
        27.9251034,
        43.8267572
      ],
      [
        27.9251364,
        43.8270172
      ],
      [
        27.9252184,
        43.8272652
      ],
      [
        27.9257694,
        43.8286342
      ],
      [
        27.9258454,
        43.8288752
      ],
      [
        27.9258554,
        43.8291032
      ],
      [
        27.9258134,
        43.8293092
      ],
      [
        27.9257214,
        43.8295502
      ],
      [
        27.9248104,
        43.8315452
      ],
      [
        27.9247454,
        43.8317242
      ],
      [
        27.9247124,
        43.8319342
      ],
      [
        27.9247307,
        43.8319995
      ],
      [
        27.9247624,
        43.8321132
      ],
      [
        27.9249074,
        43.8323152
      ],
      [
        27.9269396,
        43.8340702
      ],
      [
        27.9274548,
        43.834515
      ],
      [
        27.927519,
        43.8346485
      ],
      [
        27.9275302,
        43.8349077
      ],
      [
        27.9274969,
        43.8351219
      ],
      [
        27.9268894,
        43.8366595
      ],
      [
        27.9265836,
        43.8371036
      ],
      [
        27.9262633,
        43.8374064
      ],
      [
        27.9257166,
        43.8378248
      ],
      [
        27.9250866,
        43.8382555
      ],
      [
        27.9248311,
        43.8384284
      ],
      [
        27.9246201,
        43.8385586
      ],
      [
        27.924372,
        43.8388243
      ],
      [
        27.9241837,
        43.8391703
      ],
      [
        27.9241264,
        43.8395413
      ],
      [
        27.9241997,
        43.8399054
      ],
      [
        27.9244721,
        43.8412949
      ],
      [
        27.9246004,
        43.8414857
      ],
      [
        27.9247707,
        43.8416611
      ],
      [
        27.9250795,
        43.8418226
      ],
      [
        27.9251804,
        43.8418642
      ],
      [
        27.9254584,
        43.8419592
      ],
      [
        27.9261323,
        43.8420507
      ],
      [
        27.9262794,
        43.8420776
      ],
      [
        27.9278024,
        43.8423372
      ],
      [
        27.9280334,
        43.8423862
      ],
      [
        27.9282604,
        43.8424632
      ],
      [
        27.9285154,
        43.8425542
      ],
      [
        27.9301108,
        43.8432659
      ],
      [
        27.9321054,
        43.8443702
      ],
      [
        27.9324164,
        43.8445832
      ],
      [
        27.9325122,
        43.8447521
      ],
      [
        27.9325238,
        43.8450275
      ],
      [
        27.9325182,
        43.8452556
      ],
      [
        27.9323057,
        43.8457728
      ],
      [
        27.93212,
        43.8460513
      ],
      [
        27.9316572,
        43.8465584
      ],
      [
        27.9294259,
        43.8487187
      ],
      [
        27.9281715,
        43.8499609
      ],
      [
        27.9251337,
        43.8529482
      ],
      [
        27.924822,
        43.853348
      ],
      [
        27.9245396,
        43.8538115
      ],
      [
        27.9236354,
        43.8559062
      ],
      [
        27.9225344,
        43.8582132
      ],
      [
        27.9214034,
        43.8605792
      ],
      [
        27.9203084,
        43.8630622
      ],
      [
        27.9194024,
        43.8651142
      ],
      [
        27.9184054,
        43.8673802
      ],
      [
        27.9173804,
        43.8697222
      ],
      [
        27.9164994,
        43.8716832
      ],
      [
        27.9154434,
        43.8741022
      ],
      [
        27.9143974,
        43.8764782
      ],
      [
        27.9133204,
        43.8789202
      ],
      [
        27.9125954,
        43.8805792
      ],
      [
        27.9115154,
        43.8830392
      ],
      [
        27.9104224,
        43.8855382
      ],
      [
        27.9093224,
        43.8880442
      ],
      [
        27.9086264,
        43.8898112
      ],
      [
        27.9082564,
        43.8910772
      ],
      [
        27.9074814,
        43.8939722
      ],
      [
        27.9068444,
        43.8962572
      ],
      [
        27.9066024,
        43.8971772
      ],
      [
        27.9065104,
        43.8977072
      ],
      [
        27.9064844,
        43.8982912
      ],
      [
        27.9065074,
        43.8989092
      ],
      [
        27.9065924,
        43.8994202
      ],
      [
        27.9070694,
        43.9018082
      ],
      [
        27.9073064,
        43.9030282
      ]
    ]
  }
},
{
  "type": "Feature",
  "id": "way/109988662",
  "properties": {
    "highway": "tertiary",
    "name": "Опълченска",
    "ref": "2903",
    "id": "way/109988662"
  },
  "geometry": {
    "type": "LineString",
    "coordinates": [
      [
        28.0291337,
        43.7105854
      ],
      [
        28.0288509,
        43.7108693
      ],
      [
        28.0278785,
        43.7118456
      ],
      [
        28.0265871,
        43.7131695
      ],
      [
        28.025742,
        43.714005
      ],
      [
        28.0248257,
        43.7148849
      ],
      [
        28.0227409,
        43.7169383
      ]
    ]
  }
},
{
  "type": "Feature",
  "id": "way/104422191",
  "properties": {
    "highway": "tertiary",
    "name": "Опълченска",
    "ref": "2903",
    "id": "way/104422191"
  },
  "geometry": {
    "type": "LineString",
    "coordinates": [
      [
        28.0393892,
        43.7017479
      ],
      [
        28.0376538,
        43.7032299
      ],
      [
        28.0374616,
        43.7033956
      ],
      [
        28.0374004,
        43.7034442
      ],
      [
        28.0372768,
        43.7035476
      ],
      [
        28.0371687,
        43.7036366
      ],
      [
        28.036688,
        43.7040425
      ],
      [
        28.0359472,
        43.7046631
      ],
      [
        28.0353788,
        43.7051574
      ],
      [
        28.0347837,
        43.7056763
      ],
      [
        28.0336348,
        43.7066949
      ],
      [
        28.031674,
        43.7083471
      ]
    ]
  }
},
{
  "type": "Feature",
  "id": "way/109988653",
  "properties": {
    "highway": "tertiary",
    "name": "Опълченска",
    "oneway": "yes",
    "ref": "2903",
    "id": "way/109988653"
  },
  "geometry": {
    "type": "LineString",
    "coordinates": [
      [
        28.031674,
        43.7083471
      ],
      [
        28.031498,
        43.7086562
      ],
      [
        28.0293615,
        43.7105562
      ],
      [
        28.0291337,
        43.7105854
      ]
    ]
  }
},
{
  "type": "Feature",
  "id": "way/109988658",
  "properties": {
    "highway": "tertiary",
    "name": "Опълченска",
    "oneway": "yes",
    "ref": "2903",
    "id": "way/109988658"
  },
  "geometry": {
    "type": "LineString",
    "coordinates": [
      [
        28.0291337,
        43.7105854
      ],
      [
        28.0292388,
        43.7104799
      ],
      [
        28.031674,
        43.7083471
      ]
    ]
  }
},
{
  "type": "Feature",
  "id": "way/109990266",
  "properties": {
    "highway": "tertiary",
    "name": "2903",
    "ref": "2903",
    "id": "way/109990266"
  },
  "geometry": {
    "type": "LineString",
    "coordinates": [
      [
        28.0227409,
        43.7169383
      ],
      [
        28.0216851,
        43.717991
      ],
      [
        28.020728,
        43.7189454
      ],
      [
        28.0198957,
        43.7196786
      ]
    ]
  }
},
{
  "type": "Feature",
  "id": "way/255753776",
  "properties": {
    "highway": "tertiary",
    "maxspeed": "90",
    "name": "2903",
    "ref": "2903",
    "smoothness": "intermediate",
    "id": "way/255753776"
  },
  "geometry": {
    "type": "LineString",
    "coordinates": [
      [
        27.8934236,
        43.9508094
      ],
      [
        27.893267,
        43.95438
      ],
      [
        27.8931596,
        43.9551915
      ],
      [
        27.8928497,
        43.9566135
      ],
      [
        27.891796,
        43.961269
      ],
      [
        27.8912664,
        43.9637289
      ],
      [
        27.891088,
        43.964184
      ],
      [
        27.890875,
        43.9646
      ],
      [
        27.890585,
        43.964939
      ],
      [
        27.886581,
        43.969471
      ],
      [
        27.8855501,
        43.9706811
      ],
      [
        27.8852621,
        43.9712001
      ],
      [
        27.8851641,
        43.9714791
      ],
      [
        27.8850991,
        43.9717761
      ],
      [
        27.8851531,
        43.9721961
      ],
      [
        27.8870403,
        43.9769666
      ],
      [
        27.8871419,
        43.9773956
      ],
      [
        27.8871742,
        43.97784
      ],
      [
        27.887139,
        43.9782445
      ],
      [
        27.8868913,
        43.9798297
      ],
      [
        27.8865783,
        43.9819241
      ],
      [
        27.8865727,
        43.9821036
      ],
      [
        27.8865802,
        43.9822913
      ],
      [
        27.8866196,
        43.9825965
      ],
      [
        27.8872375,
        43.9870924
      ],
      [
        27.8872602,
        43.987507
      ],
      [
        27.8872224,
        43.9877508
      ],
      [
        27.8871613,
        43.987991
      ],
      [
        27.8870827,
        43.988168
      ]
    ]
  }
},
{
  "type": "Feature",
  "id": "way/255753777",
  "properties": {
    "access": "no",
    "highway": "tertiary",
    "maxspeed": "90",
    "name": "2903",
    "ref": "2903",
    "smoothness": "intermediate",
    "id": "way/255753777"
  },
  "geometry": {
    "type": "LineString",
    "coordinates": [
      [
        27.8870827,
        43.988168
      ],
      [
        27.8869845,
        43.988352
      ],
      [
        27.886753,
        43.988705
      ],
      [
        27.8856353,
        43.9903708
      ]
    ]
  }
},
{
  "type": "Feature",
  "id": "way/255753778",
  "properties": {
    "highway": "tertiary",
    "maxspeed": "50",
    "name": "2903",
    "ref": "2903",
    "smoothness": "bad",
    "id": "way/255753778"
  },
  "geometry": {
    "type": "LineString",
    "coordinates": [
      [
        27.906237,
        43.925201
      ],
      [
        27.906301,
        43.925533
      ],
      [
        27.906248,
        43.925892
      ],
      [
        27.906097,
        43.926189
      ],
      [
        27.9050712,
        43.9277771
      ],
      [
        27.903694,
        43.929909
      ],
      [
        27.903395,
        43.930511
      ],
      [
        27.903158,
        43.931038
      ],
      [
        27.903093,
        43.931507
      ],
      [
        27.903084,
        43.931908
      ],
      [
        27.903019,
        43.932209
      ],
      [
        27.902836,
        43.932495
      ],
      [
        27.9020735,
        43.9338753
      ],
      [
        27.901605,
        43.9349948
      ],
      [
        27.9014771,
        43.9352954
      ],
      [
        27.9009488,
        43.9365373
      ],
      [
        27.900711,
        43.937099
      ],
      [
        27.900648,
        43.937424
      ],
      [
        27.900658,
        43.937775
      ],
      [
        27.9006763,
        43.9380322
      ],
      [
        27.9007445,
        43.9384768
      ],
      [
        27.900787,
        43.939224
      ],
      [
        27.900789,
        43.93935
      ],
      [
        27.900772,
        43.939453
      ],
      [
        27.900724,
        43.939548
      ],
      [
        27.900637,
        43.939636
      ],
      [
        27.899649,
        43.9406461
      ],
      [
        27.8988487,
        43.9414704
      ],
      [
        27.898268,
        43.942066
      ],
      [
        27.8974397,
        43.9428474
      ],
      [
        27.896679,
        43.943565
      ],
      [
        27.8959845,
        43.9442264
      ],
      [
        27.895777,
        43.944424
      ],
      [
        27.8954275,
        43.9449251
      ],
      [
        27.89539,
        43.944996
      ],
      [
        27.894671,
        43.9462585
      ],
      [
        27.8943084,
        43.9468763
      ],
      [
        27.893557,
        43.948296
      ],
      [
        27.8935187,
        43.9487097
      ],
      [
        27.893513,
        43.9487714
      ],
      [
        27.8934236,
        43.9508094
      ]
    ]
  }
},
{
  "type": "Feature",
  "id": "way/104422235",
  "properties": {
    "highway": "tertiary",
    "name": "2903",
    "ref": "2903",
    "id": "way/104422235"
  },
  "geometry": {
    "type": "LineString",
    "coordinates": [
      [
        27.9073064,
        43.9030282
      ],
      [
        27.908051,
        43.907192
      ],
      [
        27.908501,
        43.909458
      ],
      [
        27.908791,
        43.910812
      ],
      [
        27.909199,
        43.912182
      ],
      [
        27.909897,
        43.914391
      ],
      [
        27.910057,
        43.915016
      ],
      [
        27.910143,
        43.915558
      ],
      [
        27.910185,
        43.916115
      ],
      [
        27.910131,
        43.916786
      ],
      [
        27.909746,
        43.920448
      ],
      [
        27.909681,
        43.92075
      ],
      [
        27.909531,
        43.920998
      ],
      [
        27.909273,
        43.921261
      ],
      [
        27.908255,
        43.92215
      ],
      [
        27.907932,
        43.922359
      ],
      [
        27.907545,
        43.922543
      ],
      [
        27.906313,
        43.923145
      ],
      [
        27.906055,
        43.923332
      ],
      [
        27.905884,
        43.923565
      ],
      [
        27.9058214,
        43.9236882
      ],
      [
        27.9057805,
        43.9238356
      ]
    ]
  }
},
{
  "type": "Feature",
  "id": "way/255753779",
  "properties": {
    "highway": "tertiary",
    "maxspeed": "50",
    "name": "2903",
    "ref": "2903",
    "id": "way/255753779"
  },
  "geometry": {
    "type": "LineString",
    "coordinates": [
      [
        27.9057805,
        43.9238356
      ],
      [
        27.9057756,
        43.9239692
      ],
      [
        27.9057949,
        43.9241521
      ],
      [
        27.905863,
        43.924393
      ],
      [
        27.906237,
        43.925201
      ]
    ]
  }
}
]
}
