{
"type": "FeatureCollection",
"features": [
{
  "type": "Feature",
  "id": "way/331643411",
  "properties": {
    "highway": "tertiary",
    "lanes": "2",
    "maxspeed:forward": "50",
    "name": "108",
    "note": "classification in osm prefers the importance of a road over its official status for routing purposes. This road is an important transit route, so classifying it tertiary is inadequate and would result probably in wrong routing!",
    "ref": "108",
    "smoothness": "intermediate",
    "surface": "asphalt",
    "id": "way/331643411"
  },
  "geometry": {
    "type": "LineString",
    "coordinates": [
      [
        23.230738,
        41.4546452
      ],
      [
        23.2292584,
        41.453736
      ],
      [
        23.2278938,
        41.4529155
      ],
      [
        23.2273567,
        41.4525925
      ],
      [
        23.2194805,
        41.4478564
      ],
      [
        23.2188384,
        41.4474113
      ],
      [
        23.2184242,
        41.4469507
      ],
      [
        23.2180192,
        41.4463103
      ],
      [
        23.2167741,
        41.4430021
      ],
      [
        23.2157593,
        41.4402695
      ],
      [
        23.2156695,
        41.4398347
      ],
      [
        23.21578,
        41.4393534
      ],
      [
        23.2167337,
        41.4373744
      ],
      [
        23.218525,
        41.433817
      ],
      [
        23.218653,
        41.433312
      ],
      [
        23.218682,
        41.432817
      ],
      [
        23.218567,
        41.432365
      ],
      [
        23.218153,
        41.431687
      ],
      [
        23.2160423,
        41.4296381
      ],
      [
        23.2159111,
        41.4293948
      ],
      [
        23.213563,
        41.421614
      ],
      [
        23.2124799,
        41.4175968
      ],
      [
        23.2100033,
        41.4085825
      ],
      [
        23.2099903,
        41.4085337
      ]
    ]
  }
},
{
  "type": "Feature",
  "id": "way/38842670",
  "properties": {
    "highway": "tertiary",
    "lanes": "2",
    "maxspeed": "50",
    "name": "ул. Кап. Никола Парапунов",
    "note": "classification in osm prefers the importance of a road over its official status for routing purposes. This road is an important transit route, so classifying it tertiary is inadequate and would result probably in wrong routing!",
    "oneway": "yes",
    "ref": "108",
    "smoothness": "intermediate",
    "source": "bgtopomaps",
    "surface": "asphalt",
    "id": "way/38842670"
  },
  "geometry": {
    "type": "LineString",
    "coordinates": [
      [
        23.2069084,
        41.3981754
      ],
      [
        23.2069603,
        41.3982273
      ],
      [
        23.2077071,
        41.4006343
      ],
      [
        23.2077733,
        41.4008501
      ],
      [
        23.2079266,
        41.4013497
      ],
      [
        23.2082984,
        41.4026098
      ],
      [
        23.20893,
        41.4047505
      ],
      [
        23.2091066,
        41.4053405
      ],
      [
        23.2094716,
        41.4065604
      ],
      [
        23.2095124,
        41.4067289
      ],
      [
        23.2095556,
        41.4069074
      ],
      [
        23.209658,
        41.4073312
      ],
      [
        23.2098375,
        41.4079423
      ],
      [
        23.2098844,
        41.4081355
      ]
    ]
  }
},
{
  "type": "Feature",
  "id": "way/256942013",
  "properties": {
    "highway": "tertiary",
    "lanes": "2",
    "maxspeed": "50",
    "name": "ул. Кап. Никола Парапунов",
    "note": "classification in osm prefers the importance of a road over its official status for routing purposes. This road is an important transit route, so classifying it tertiary is inadequate and would result probably in wrong routing!",
    "oneway": "yes",
    "ref": "108",
    "smoothness": "intermediate",
    "source": "bgtopomaps",
    "surface": "asphalt",
    "id": "way/256942013"
  },
  "geometry": {
    "type": "LineString",
    "coordinates": [
      [
        23.2098844,
        41.4081355
      ],
      [
        23.2098241,
        41.4079538
      ],
      [
        23.209421,
        41.40674
      ],
      [
        23.2093746,
        41.4065819
      ],
      [
        23.209016,
        41.4053577
      ],
      [
        23.2088958,
        41.4049475
      ],
      [
        23.2088414,
        41.4047618
      ],
      [
        23.2082162,
        41.4026275
      ],
      [
        23.207844,
        41.401357
      ],
      [
        23.2076264,
        41.4006477
      ],
      [
        23.2071085,
        41.3989591
      ],
      [
        23.2068879,
        41.3982394
      ],
      [
        23.2069084,
        41.3981754
      ]
    ]
  }
},
{
  "type": "Feature",
  "id": "way/216660414",
  "properties": {
    "bridge": "yes",
    "highway": "tertiary",
    "lanes": "4",
    "layer": "1",
    "note": "classification in osm prefers the importance of a road over its official status for routing purposes. This road is an important transit route, so classifying it tertiary is inadequate and would result probably in wrong routing!",
    "ref": "108",
    "smoothness": "intermediate",
    "surface": "asphalt",
    "id": "way/216660414"
  },
  "geometry": {
    "type": "LineString",
    "coordinates": [
      [
        23.2098844,
        41.4081355
      ],
      [
        23.2099903,
        41.4085337
      ]
    ]
  }
},
{
  "type": "Feature",
  "id": "way/331643412",
  "properties": {
    "highway": "tertiary",
    "lanes": "2",
    "maxspeed:backward": "50",
    "maxspeed:forward": "40",
    "name": "108",
    "note": "classification in osm prefers the importance of a road over its official status for routing purposes. This road is an important transit route, so classifying it tertiary is inadequate and would result probably in wrong routing!",
    "ref": "108",
    "smoothness": "intermediate",
    "surface": "asphalt",
    "id": "way/331643412"
  },
  "geometry": {
    "type": "LineString",
    "coordinates": [
      [
        23.2591845,
        41.4865091
      ],
      [
        23.2586193,
        41.485358
      ],
      [
        23.2576389,
        41.4833754
      ],
      [
        23.2574791,
        41.4824942
      ],
      [
        23.2573766,
        41.4819287
      ],
      [
        23.2571621,
        41.4812633
      ],
      [
        23.2565004,
        41.479888
      ],
      [
        23.256411,
        41.4796558
      ],
      [
        23.2563455,
        41.4793923
      ],
      [
        23.2550796,
        41.4736815
      ],
      [
        23.2549019,
        41.4729042
      ],
      [
        23.2547814,
        41.4725715
      ],
      [
        23.254653,
        41.4723218
      ],
      [
        23.2545166,
        41.4720894
      ],
      [
        23.2543229,
        41.4718674
      ],
      [
        23.2537729,
        41.4713825
      ],
      [
        23.2497319,
        41.4682321
      ],
      [
        23.2469194,
        41.4660305
      ],
      [
        23.2466038,
        41.4657834
      ],
      [
        23.2453864,
        41.4648497
      ],
      [
        23.238159,
        41.459258
      ],
      [
        23.237623,
        41.458879
      ],
      [
        23.23654,
        41.45821
      ],
      [
        23.230738,
        41.4546452
      ]
    ]
  }
},
{
  "type": "Feature",
  "id": "way/331643414",
  "properties": {
    "highway": "tertiary",
    "lanes": "2",
    "maxspeed": "50",
    "name": "108",
    "note": "classification in osm prefers the importance of a road over its official status for routing purposes. This road is an important transit route, so classifying it tertiary is inadequate and would result probably in wrong routing!",
    "ref": "108",
    "smoothness": "intermediate",
    "surface": "asphalt",
    "id": "way/331643414"
  },
  "geometry": {
    "type": "LineString",
    "coordinates": [
      [
        23.2599754,
        41.48762
      ],
      [
        23.2596182,
        41.4872626
      ],
      [
        23.2594867,
        41.4870763
      ],
      [
        23.2593424,
        41.4868306
      ],
      [
        23.2591845,
        41.4865091
      ]
    ]
  }
},
{
  "type": "Feature",
  "id": "way/183753534",
  "properties": {
    "bridge": "yes",
    "highway": "tertiary",
    "lanes": "2",
    "maxspeed": "60",
    "name": "108",
    "note": "classification in osm prefers the importance of a road over its official status for routing purposes. This road is an important transit route, so classifying it tertiary is inadequate and would result probably in wrong routing!",
    "ref": "108",
    "smoothness": "intermediate",
    "surface": "asphalt",
    "id": "way/183753534"
  },
  "geometry": {
    "type": "LineString",
    "coordinates": [
      [
        23.2651221,
        41.4895842
      ],
      [
        23.2608091,
        41.4880813
      ]
    ]
  }
},
{
  "type": "Feature",
  "id": "way/183753537",
  "properties": {
    "highway": "tertiary",
    "lanes": "2",
    "maxspeed": "60",
    "name": "108",
    "note": "classification in osm prefers the importance of a road over its official status for routing purposes. This road is an important transit route, so classifying it tertiary is inadequate and would result probably in wrong routing!",
    "ref": "108",
    "smoothness": "intermediate",
    "surface": "asphalt",
    "id": "way/183753537"
  },
  "geometry": {
    "type": "LineString",
    "coordinates": [
      [
        23.2608091,
        41.4880813
      ],
      [
        23.2602866,
        41.4878499
      ],
      [
        23.2599754,
        41.48762
      ]
    ]
  }
},
{
  "type": "Feature",
  "id": "way/331643415",
  "properties": {
    "highway": "tertiary",
    "maxspeed": "60",
    "name": "108",
    "note": "classification in osm prefers the importance of a road over its official status for routing purposes. This road is an important transit route, so classifying it tertiary is inadequate and would result probably in wrong routing!",
    "ref": "108",
    "smoothness": "intermediate",
    "id": "way/331643415"
  },
  "geometry": {
    "type": "LineString",
    "coordinates": [
      [
        23.2682232,
        41.4924441
      ],
      [
        23.2673588,
        41.491066
      ],
      [
        23.2669531,
        41.4905262
      ],
      [
        23.2665021,
        41.4901846
      ],
      [
        23.2660049,
        41.4899199
      ],
      [
        23.2651221,
        41.4895842
      ]
    ]
  }
},
{
  "type": "Feature",
  "id": "way/62001445",
  "properties": {
    "highway": "primary_link",
    "name": "108",
    "oneway": "no",
    "ref": "108",
    "id": "way/62001445"
  },
  "geometry": {
    "type": "LineString",
    "coordinates": [
      [
        23.278165,
        41.4984907
      ],
      [
        23.2788158,
        41.4985329
      ],
      [
        23.2793875,
        41.498504
      ],
      [
        23.2798993,
        41.4984215
      ],
      [
        23.2804131,
        41.4983019
      ],
      [
        23.2805865,
        41.4982631
      ]
    ]
  }
},
{
  "type": "Feature",
  "id": "way/331643410",
  "properties": {
    "highway": "tertiary",
    "maxspeed:backward": "60",
    "maxspeed:forward": "70",
    "name": "108",
    "note": "classification in osm prefers the importance of a road over its official status for routing purposes. This road is an important transit route, so classifying it tertiary is inadequate and would result probably in wrong routing!",
    "ref": "108",
    "smoothness": "intermediate",
    "id": "way/331643410"
  },
  "geometry": {
    "type": "LineString",
    "coordinates": [
      [
        23.2772912,
        41.4982925
      ],
      [
        23.2752366,
        41.4978266
      ],
      [
        23.2745066,
        41.497605
      ],
      [
        23.2737733,
        41.4972799
      ],
      [
        23.2729833,
        41.4967966
      ],
      [
        23.2711483,
        41.4953083
      ],
      [
        23.2701898,
        41.4948742
      ],
      [
        23.2697038,
        41.4946382
      ],
      [
        23.2694258,
        41.4943616
      ],
      [
        23.2682232,
        41.4924441
      ]
    ]
  }
},
{
  "type": "Feature",
  "id": "way/331643413",
  "properties": {
    "highway": "tertiary",
    "maxspeed": "70",
    "name": "108",
    "note": "classification in osm prefers the importance of a road over its official status for routing purposes. This road is an important transit route, so classifying it tertiary is inadequate and would result probably in wrong routing!",
    "ref": "108",
    "smoothness": "intermediate",
    "id": "way/331643413"
  },
  "geometry": {
    "type": "LineString",
    "coordinates": [
      [
        23.2805686,
        41.4989931
      ],
      [
        23.2794596,
        41.4987701
      ],
      [
        23.278165,
        41.4984907
      ],
      [
        23.2772912,
        41.4982925
      ]
    ]
  }
},
{
  "type": "Feature",
  "id": "way/24619146",
  "properties": {
    "highway": "primary_link",
    "name": "108",
    "oneway": "no",
    "ref": "108",
    "id": "way/24619146"
  },
  "geometry": {
    "type": "LineString",
    "coordinates": [
      [
        23.2855796,
        41.4984134
      ],
      [
        23.2848109,
        41.4979088
      ],
      [
        23.2843103,
        41.4976017
      ]
    ]
  }
},
{
  "type": "Feature",
  "id": "way/28078100",
  "properties": {
    "highway": "tertiary",
    "maxspeed:backward": "60",
    "name": "108",
    "note": "classification in osm prefers the importance of a road over its official status for routing purposes. This road is an important transit route, so classifying it tertiary is inadequate and would result probably in wrong routing!",
    "ref": "108",
    "smoothness": "intermediate",
    "id": "way/28078100"
  },
  "geometry": {
    "type": "LineString",
    "coordinates": [
      [
        23.2853381,
        41.4991477
      ],
      [
        23.2846295,
        41.4992753
      ],
      [
        23.284043,
        41.499346
      ],
      [
        23.283457,
        41.4993646
      ],
      [
        23.283016,
        41.4993665
      ],
      [
        23.2824342,
        41.4993337
      ],
      [
        23.2816229,
        41.4992192
      ],
      [
        23.2805686,
        41.4989931
      ]
    ]
  }
},
{
  "type": "Feature",
  "id": "way/24533100",
  "properties": {
    "highway": "primary_link",
    "name": "108",
    "oneway": "yes",
    "ref": "108",
    "id": "way/24533100"
  },
  "geometry": {
    "type": "LineString",
    "coordinates": [
      [
        23.2810786,
        41.4989715
      ],
      [
        23.2811568,
        41.4987922
      ],
      [
        23.2811955,
        41.4986902
      ],
      [
        23.2811916,
        41.4985665
      ],
      [
        23.2811356,
        41.4984486
      ],
      [
        23.2810303,
        41.498351
      ],
      [
        23.2808932,
        41.4982916
      ],
      [
        23.2807609,
        41.4982598
      ],
      [
        23.2805865,
        41.4982631
      ]
    ]
  }
},
{
  "type": "Feature",
  "id": "way/105928010",
  "properties": {
    "highway": "primary_link",
    "name": "108",
    "oneway": "yes",
    "ref": "108",
    "id": "way/105928010"
  },
  "geometry": {
    "type": "LineString",
    "coordinates": [
      [
        23.2843103,
        41.4976017
      ],
      [
        23.2839694,
        41.4974592
      ],
      [
        23.2837887,
        41.4974028
      ],
      [
        23.2835765,
        41.4973905
      ],
      [
        23.2833903,
        41.4973946
      ],
      [
        23.2832452,
        41.4974151
      ],
      [
        23.2830973,
        41.497449
      ],
      [
        23.2829111,
        41.4975219
      ],
      [
        23.2827441,
        41.4976133
      ],
      [
        23.2823396,
        41.4978791
      ]
    ]
  }
},
{
  "type": "Feature",
  "id": "way/105928447",
  "properties": {
    "highway": "primary_link",
    "name": "108",
    "oneway": "yes",
    "ref": "108",
    "id": "way/105928447"
  },
  "geometry": {
    "type": "LineString",
    "coordinates": [
      [
        23.2805865,
        41.4982631
      ],
      [
        23.2814715,
        41.4980247
      ],
      [
        23.282011,
        41.4978335
      ],
      [
        23.2823893,
        41.4976575
      ],
      [
        23.2830257,
        41.4972402
      ],
      [
        23.2840839,
        41.4965393
      ]
    ]
  }
},
{
  "type": "Feature",
  "id": "way/62001446",
  "properties": {
    "highway": "primary_link",
    "maxspeed": "40",
    "name": "108",
    "oneway": "no",
    "ref": "108",
    "id": "way/62001446"
  },
  "geometry": {
    "type": "LineString",
    "coordinates": [
      [
        23.2853381,
        41.4991477
      ],
      [
        23.2855573,
        41.4990468
      ],
      [
        23.2856518,
        41.4989587
      ],
      [
        23.2857216,
        41.4988213
      ],
      [
        23.2857435,
        41.4987177
      ],
      [
        23.2857271,
        41.4986213
      ],
      [
        23.2856874,
        41.4985372
      ],
      [
        23.2855796,
        41.4984134
      ]
    ]
  }
}
]
}
