{
"type": "FeatureCollection",
"features": [
{
  "type": "Feature",
  "id": "way/111831665",
  "properties": {
    "highway": "tertiary",
    "name": "555",
    "ref": "555",
    "id": "way/111831665"
  },
  "geometry": {
    "type": "LineString",
    "coordinates": [
      [
        26.0664549,
        42.4658635
      ],
      [
        26.0622517,
        42.4671562
      ],
      [
        26.0542232,
        42.4706647
      ],
      [
        26.048485,
        42.471735
      ],
      [
        26.0428755,
        42.4730023
      ],
      [
        26.0416743,
        42.4730445
      ],
      [
        26.0333465,
        42.472397
      ]
    ]
  }
},
{
  "type": "Feature",
  "id": "way/68566196",
  "properties": {
    "highway": "tertiary",
    "name": "555",
    "ref": "555",
    "id": "way/68566196"
  },
  "geometry": {
    "type": "LineString",
    "coordinates": [
      [
        26.1456982,
        42.4582741
      ],
      [
        26.1454459,
        42.4581824
      ],
      [
        26.1445257,
        42.4578478
      ],
      [
        26.1442212,
        42.4578934
      ],
      [
        26.1435972,
        42.4581227
      ],
      [
        26.1424497,
        42.4585444
      ],
      [
        26.1422462,
        42.4586122
      ],
      [
        26.1420342,
        42.4587055
      ],
      [
        26.1407368,
        42.4592567
      ],
      [
        26.1402435,
        42.4588324
      ],
      [
        26.1395242,
        42.4582137
      ],
      [
        26.1390991,
        42.4580335
      ],
      [
        26.1383033,
        42.4576961
      ],
      [
        26.138148,
        42.4576326
      ],
      [
        26.1373312,
        42.4572841
      ],
      [
        26.1371462,
        42.4572057
      ],
      [
        26.1357689,
        42.4575372
      ],
      [
        26.1327839,
        42.4569222
      ],
      [
        26.129874,
        42.4561872
      ],
      [
        26.1235549,
        42.4548698
      ],
      [
        26.1160015,
        42.4562104
      ],
      [
        26.1096029,
        42.4565823
      ],
      [
        26.1049272,
        42.4584078
      ],
      [
        26.1039763,
        42.458743
      ],
      [
        26.1027376,
        42.458981
      ],
      [
        26.1007708,
        42.4592766
      ],
      [
        26.0991622,
        42.4594378
      ],
      [
        26.0964022,
        42.4592139
      ],
      [
        26.0938491,
        42.4588685
      ],
      [
        26.0932924,
        42.4589013
      ],
      [
        26.0902263,
        42.4604845
      ],
      [
        26.088048,
        42.4610137
      ],
      [
        26.0862116,
        42.4614393
      ],
      [
        26.0852396,
        42.4613276
      ],
      [
        26.0844257,
        42.4613984
      ],
      [
        26.0830448,
        42.4616664
      ],
      [
        26.0817539,
        42.4614092
      ],
      [
        26.0807717,
        42.4610765
      ],
      [
        26.080045,
        42.4609886
      ],
      [
        26.0777016,
        42.4618936
      ],
      [
        26.0747461,
        42.4627799
      ]
    ]
  }
},
{
  "type": "Feature",
  "id": "way/111831721",
  "properties": {
    "highway": "tertiary",
    "name": "555",
    "ref": "555",
    "source": "Data available from the U.S. Geological Survey.",
    "id": "way/111831721"
  },
  "geometry": {
    "type": "LineString",
    "coordinates": [
      [
        26.0664549,
        42.4658635
      ],
      [
        26.0672316,
        42.4657612
      ],
      [
        26.0677982,
        42.4657834
      ],
      [
        26.0685736,
        42.4658946
      ],
      [
        26.0689855,
        42.465926
      ],
      [
        26.0696642,
        42.4659196
      ],
      [
        26.0702114,
        42.4657573
      ],
      [
        26.0704315,
        42.4655985
      ],
      [
        26.0705598,
        42.4654932
      ],
      [
        26.0708139,
        42.4652644
      ]
    ]
  }
},
{
  "type": "Feature",
  "id": "way/111831699",
  "properties": {
    "highway": "tertiary",
    "name": "555",
    "ref": "555",
    "source": "Data available from the U.S. Geological Survey.",
    "id": "way/111831699"
  },
  "geometry": {
    "type": "LineString",
    "coordinates": [
      [
        26.0713898,
        42.4647189
      ],
      [
        26.0718496,
        42.4642976
      ],
      [
        26.0723121,
        42.4638942
      ],
      [
        26.0731571,
        42.4633669
      ],
      [
        26.0736805,
        42.4631469
      ],
      [
        26.0742063,
        42.4629433
      ],
      [
        26.0747461,
        42.4627799
      ]
    ]
  }
},
{
  "type": "Feature",
  "id": "way/111831793",
  "properties": {
    "bridge": "yes",
    "highway": "tertiary",
    "layer": "1",
    "name": "555",
    "ref": "555",
    "source": "Data available from the U.S. Geological Survey.",
    "id": "way/111831793"
  },
  "geometry": {
    "type": "LineString",
    "coordinates": [
      [
        26.0708139,
        42.4652644
      ],
      [
        26.0713898,
        42.4647189
      ]
    ]
  }
},
{
  "type": "Feature",
  "id": "way/101012003",
  "properties": {
    "highway": "tertiary",
    "name": "555",
    "ref": "555",
    "id": "way/101012003"
  },
  "geometry": {
    "type": "LineString",
    "coordinates": [
      [
        26.1456982,
        42.4582741
      ],
      [
        26.1462844,
        42.4584873
      ],
      [
        26.1464976,
        42.4585786
      ],
      [
        26.1466221,
        42.4587739
      ],
      [
        26.1467676,
        42.4590023
      ],
      [
        26.1469426,
        42.4592769
      ],
      [
        26.1469925,
        42.4593552
      ],
      [
        26.1479289,
        42.4603678
      ],
      [
        26.1479999,
        42.4605722
      ],
      [
        26.1484018,
        42.4617291
      ],
      [
        26.180815,
        42.4746141
      ],
      [
        26.187727,
        42.4753195
      ],
      [
        26.1892587,
        42.4763149
      ],
      [
        26.1902819,
        42.4762865
      ],
      [
        26.1906937,
        42.4762955
      ]
    ]
  }
},
{
  "type": "Feature",
  "id": "way/101011930",
  "properties": {
    "highway": "tertiary",
    "name": "555",
    "ref": "555",
    "id": "way/101011930"
  },
  "geometry": {
    "type": "LineString",
    "coordinates": [
      [
        26.1906937,
        42.4762955
      ],
      [
        26.1908515,
        42.4763809
      ],
      [
        26.1909198,
        42.476492
      ],
      [
        26.1909093,
        42.4766381
      ],
      [
        26.1903526,
        42.478216
      ],
      [
        26.1899638,
        42.4794578
      ],
      [
        26.1898552,
        42.4798637
      ],
      [
        26.1898587,
        42.4800963
      ],
      [
        26.1900269,
        42.480528
      ],
      [
        26.1909148,
        42.4830844
      ],
      [
        26.1912545,
        42.4839741
      ],
      [
        26.1913437,
        42.4841148
      ],
      [
        26.1914974,
        42.4842556
      ],
      [
        26.1919484,
        42.484484
      ],
      [
        26.193987,
        42.4855241
      ],
      [
        26.1944894,
        42.4857758
      ],
      [
        26.1949346,
        42.4860106
      ],
      [
        26.1951626,
        42.486155
      ],
      [
        26.1953863,
        42.4863436
      ],
      [
        26.1955732,
        42.4865699
      ],
      [
        26.1957258,
        42.4867976
      ],
      [
        26.1958191,
        42.4870643
      ]
    ]
  }
},
{
  "type": "Feature",
  "id": "way/137254005",
  "properties": {
    "highway": "tertiary",
    "name": "555",
    "ref": "555",
    "id": "way/137254005"
  },
  "geometry": {
    "type": "LineString",
    "coordinates": [
      [
        26.196106,
        42.4876888
      ],
      [
        26.1962234,
        42.4879254
      ],
      [
        26.1963914,
        42.4881037
      ],
      [
        26.1966521,
        42.4883199
      ],
      [
        26.1969779,
        42.4884514
      ],
      [
        26.1973192,
        42.4885222
      ],
      [
        26.1976861,
        42.4885324
      ],
      [
        26.1982898,
        42.4884514
      ],
      [
        26.1991688,
        42.4882954
      ],
      [
        26.1996558,
        42.4882524
      ],
      [
        26.2000424,
        42.4882372
      ],
      [
        26.2005921,
        42.4882726
      ],
      [
        26.2011786,
        42.4883308
      ],
      [
        26.2040103,
        42.4889202
      ],
      [
        26.2079026,
        42.4896895
      ],
      [
        26.2087282,
        42.4898584
      ],
      [
        26.209278,
        42.489986
      ],
      [
        26.2149702,
        42.4916631
      ],
      [
        26.2157503,
        42.4919096
      ],
      [
        26.2164544,
        42.4921991
      ],
      [
        26.2201459,
        42.4937774
      ],
      [
        26.2210307,
        42.4941736
      ],
      [
        26.221568,
        42.494377
      ],
      [
        26.222424,
        42.4946529
      ],
      [
        26.2251445,
        42.4954655
      ],
      [
        26.2280167,
        42.4963022
      ],
      [
        26.2342257,
        42.4981355
      ],
      [
        26.2379993,
        42.4992424
      ],
      [
        26.2390326,
        42.4995394
      ],
      [
        26.2399065,
        42.4997541
      ],
      [
        26.2412818,
        42.5000417
      ],
      [
        26.2434358,
        42.5004683
      ],
      [
        26.2445104,
        42.5006611
      ],
      [
        26.2449581,
        42.500706
      ],
      [
        26.2455133,
        42.5007034
      ],
      [
        26.246184,
        42.5006291
      ],
      [
        26.246279,
        42.5006114
      ],
      [
        26.2468045,
        42.5005133
      ],
      [
        26.247306,
        42.5003621
      ],
      [
        26.249161,
        42.4996067
      ],
      [
        26.2496757,
        42.4994161
      ],
      [
        26.2514615,
        42.4987022
      ],
      [
        26.2517903,
        42.4985991
      ],
      [
        26.252484,
        42.4984273
      ],
      [
        26.2529815,
        42.4983195
      ],
      [
        26.2541936,
        42.4980567
      ],
      [
        26.2544129,
        42.4980092
      ],
      [
        26.2560076,
        42.4976635
      ],
      [
        26.257467,
        42.4973533
      ],
      [
        26.2587598,
        42.4970786
      ],
      [
        26.258795,
        42.4970711
      ],
      [
        26.2600044,
        42.4968033
      ],
      [
        26.2618989,
        42.4964114
      ],
      [
        26.2620746,
        42.4963682
      ],
      [
        26.26219,
        42.4963143
      ],
      [
        26.2622522,
        42.4961901
      ],
      [
        26.2626406,
        42.4944756
      ],
      [
        26.2627701,
        42.4942656
      ],
      [
        26.2629383,
        42.4941015
      ],
      [
        26.263311,
        42.4939107
      ],
      [
        26.2635013,
        42.4938599
      ],
      [
        26.2637179,
        42.4937993
      ]
    ]
  }
},
{
  "type": "Feature",
  "id": "way/137254003",
  "properties": {
    "bridge": "yes",
    "highway": "tertiary",
    "layer": "1",
    "name": "555",
    "ref": "555",
    "id": "way/137254003"
  },
  "geometry": {
    "type": "LineString",
    "coordinates": [
      [
        26.1958191,
        42.4870643
      ],
      [
        26.196106,
        42.4876888
      ]
    ]
  }
},
{
  "type": "Feature",
  "id": "way/195159526",
  "properties": {
    "highway": "tertiary",
    "ref": "555",
    "smoothness": "excellent",
    "id": "way/195159526"
  },
  "geometry": {
    "type": "LineString",
    "coordinates": [
      [
        26.2671192,
        42.5013685
      ],
      [
        26.2674721,
        42.5014191
      ],
      [
        26.2678767,
        42.5013888
      ],
      [
        26.268108,
        42.5012556
      ],
      [
        26.2706188,
        42.4993458
      ],
      [
        26.271444,
        42.4987182
      ],
      [
        26.27208,
        42.4982325
      ],
      [
        26.272579,
        42.4977804
      ],
      [
        26.2746046,
        42.4960682
      ],
      [
        26.2749709,
        42.4957442
      ],
      [
        26.2753737,
        42.4955243
      ],
      [
        26.2757839,
        42.4953632
      ],
      [
        26.276094,
        42.4952652
      ],
      [
        26.2768815,
        42.4950086
      ],
      [
        26.2772685,
        42.4949015
      ],
      [
        26.2776765,
        42.4948055
      ],
      [
        26.2782416,
        42.494739
      ],
      [
        26.2787837,
        42.4947677
      ],
      [
        26.2793325,
        42.4948404
      ],
      [
        26.281729,
        42.4956096
      ],
      [
        26.2823371,
        42.4957771
      ],
      [
        26.2830092,
        42.4956564
      ],
      [
        26.2914609,
        42.493144
      ],
      [
        26.3032884,
        42.4898721
      ],
      [
        26.3104611,
        42.488087
      ],
      [
        26.3112658,
        42.4878892
      ],
      [
        26.3133257,
        42.4876677
      ],
      [
        26.3134652,
        42.4876361
      ],
      [
        26.3135832,
        42.4875411
      ],
      [
        26.3136261,
        42.4874462
      ],
      [
        26.3135725,
        42.4854129
      ],
      [
        26.3135832,
        42.4853219
      ],
      [
        26.3136261,
        42.4852467
      ],
      [
        26.3137173,
        42.4851557
      ],
      [
        26.3138353,
        42.4851003
      ],
      [
        26.3142377,
        42.4849658
      ],
      [
        26.315748,
        42.4845518
      ],
      [
        26.3165849,
        42.4842947
      ],
      [
        26.3168477,
        42.4841997
      ],
      [
        26.3170462,
        42.4840969
      ],
      [
        26.317352,
        42.4839189
      ],
      [
        26.3211017,
        42.4812801
      ],
      [
        26.3215333,
        42.4809622
      ],
      [
        26.3216674,
        42.4808752
      ],
      [
        26.3218766,
        42.4807683
      ],
      [
        26.3221073,
        42.4806813
      ],
      [
        26.3223433,
        42.480622
      ],
      [
        26.3226866,
        42.4805587
      ],
      [
        26.3276219,
        42.4797793
      ],
      [
        26.3277399,
        42.4797595
      ],
      [
        26.3279652,
        42.4796922
      ],
      [
        26.3281315,
        42.479621
      ],
      [
        26.3293331,
        42.4791383
      ]
    ]
  }
},
{
  "type": "Feature",
  "id": "way/194713978",
  "properties": {
    "highway": "track",
    "ref": "555",
    "smoothness": "bad",
    "id": "way/194713978"
  },
  "geometry": {
    "type": "LineString",
    "coordinates": [
      [
        26.3293331,
        42.4791383
      ],
      [
        26.3314199,
        42.4783352
      ],
      [
        26.3316828,
        42.4781967
      ],
      [
        26.3323158,
        42.4778762
      ],
      [
        26.3324552,
        42.477809
      ],
      [
        26.3327449,
        42.477718
      ],
      [
        26.3331448,
        42.4776007
      ],
      [
        26.3333487,
        42.4775057
      ],
      [
        26.3346039,
        42.4771615
      ],
      [
        26.3352209,
        42.4770349
      ],
      [
        26.3357251,
        42.4769795
      ],
      [
        26.3363527,
        42.4769676
      ],
      [
        26.3370233,
        42.4769953
      ],
      [
        26.3379782,
        42.4770349
      ],
      [
        26.3403063,
        42.4772288
      ],
      [
        26.3404297,
        42.4772644
      ],
      [
        26.3405692,
        42.4773554
      ],
      [
        26.3406711,
        42.4774028
      ],
      [
        26.340832,
        42.4774266
      ],
      [
        26.3425111,
        42.4774503
      ],
      [
        26.3426935,
        42.4774464
      ],
      [
        26.3428169,
        42.4774266
      ],
      [
        26.3430395,
        42.4773562
      ],
      [
        26.3438745,
        42.4773453
      ],
      [
        26.3441151,
        42.4773672
      ],
      [
        26.344276,
        42.4773949
      ],
      [
        26.3445496,
        42.4773831
      ],
      [
        26.3448661,
        42.4774424
      ],
      [
        26.3453435,
        42.4774582
      ],
      [
        26.345998,
        42.4774187
      ],
      [
        26.3461911,
        42.4774503
      ],
      [
        26.3463491,
        42.4774727
      ],
      [
        26.3466632,
        42.4774622
      ],
      [
        26.3468134,
        42.4774741
      ],
      [
        26.3473093,
        42.4776032
      ],
      [
        26.3501929,
        42.4778578
      ],
      [
        26.3506167,
        42.4778855
      ],
      [
        26.3515823,
        42.4778737
      ],
      [
        26.3519417,
        42.4778539
      ],
      [
        26.3527679,
        42.4778855
      ],
      [
        26.3531702,
        42.4778697
      ],
      [
        26.3534116,
        42.4778381
      ],
      [
        26.3538139,
        42.4779291
      ],
      [
        26.3545649,
        42.4779211
      ],
      [
        26.357054,
        42.477751
      ],
      [
        26.3579445,
        42.4777075
      ],
      [
        26.3582342,
        42.4776996
      ],
      [
        26.3582825,
        42.4776521
      ],
      [
        26.3582718,
        42.4775492
      ],
      [
        26.3582986,
        42.4775097
      ],
      [
        26.3583737,
        42.4774662
      ]
    ]
  }
},
{
  "type": "Feature",
  "id": "way/194713979",
  "properties": {
    "highway": "tertiary",
    "ref": "555",
    "id": "way/194713979"
  },
  "geometry": {
    "type": "LineString",
    "coordinates": [
      [
        26.3583737,
        42.4774662
      ],
      [
        26.3584059,
        42.4775215
      ],
      [
        26.3585048,
        42.4775479
      ],
      [
        26.3599479,
        42.4775439
      ],
      [
        26.3602298,
        42.4775611
      ],
      [
        26.3604604,
        42.477569
      ],
      [
        26.3612622,
        42.477714
      ],
      [
        26.3615387,
        42.4777471
      ],
      [
        26.3617264,
        42.4777668
      ],
      [
        26.3618659,
        42.4777431
      ],
      [
        26.3619839,
        42.4777035
      ],
      [
        26.3622039,
        42.4775136
      ],
      [
        26.3623004,
        42.4774385
      ],
      [
        26.3623994,
        42.4774331
      ],
      [
        26.362555,
        42.4774964
      ],
      [
        26.3626491,
        42.4774938
      ],
      [
        26.3627081,
        42.4774503
      ],
      [
        26.3630431,
        42.4771403
      ],
      [
        26.3631587,
        42.4770665
      ],
      [
        26.3633275,
        42.4770375
      ],
      [
        26.3659667,
        42.477168
      ],
      [
        26.3664227,
        42.477168
      ],
      [
        26.3667231,
        42.4771364
      ],
      [
        26.3671391,
        42.4771338
      ],
      [
        26.3696736,
        42.4770652
      ],
      [
        26.3700627,
        42.4770626
      ],
      [
        26.370803,
        42.4770191
      ],
      [
        26.3719749,
        42.4770177
      ],
      [
        26.372168,
        42.4770177
      ],
      [
        26.372447,
        42.4770533
      ],
      [
        26.3728576,
        42.4770942
      ],
      [
        26.3731969,
        42.4770893
      ],
      [
        26.388417,
        42.4767525
      ],
      [
        26.3934096,
        42.4765829
      ],
      [
        26.393484,
        42.4765684
      ],
      [
        26.401856,
        42.4749342
      ]
    ]
  }
},
{
  "type": "Feature",
  "id": "way/42561111",
  "properties": {
    "highway": "service",
    "ref": "555",
    "id": "way/42561111"
  },
  "geometry": {
    "type": "LineString",
    "coordinates": [
      [
        26.358776,
        42.4651721
      ],
      [
        26.3583683,
        42.4774187
      ],
      [
        26.3583737,
        42.4774662
      ]
    ]
  }
},
{
  "type": "Feature",
  "id": "way/245198516",
  "properties": {
    "highway": "tertiary",
    "ref": "555",
    "smoothness": "good",
    "id": "way/245198516"
  },
  "geometry": {
    "type": "LineString",
    "coordinates": [
      [
        26.401856,
        42.4749342
      ],
      [
        26.4045831,
        42.4748859
      ],
      [
        26.4089901,
        42.4737756
      ],
      [
        26.4115535,
        42.4738158
      ],
      [
        26.4183712,
        42.4738078
      ],
      [
        26.42441,
        42.4737901
      ],
      [
        26.4289217,
        42.4737837
      ],
      [
        26.4306464,
        42.4740169
      ],
      [
        26.4381513,
        42.4749904
      ],
      [
        26.4447028,
        42.475906
      ],
      [
        26.4483244,
        42.4764338
      ],
      [
        26.4513961,
        42.4768844
      ],
      [
        26.4534993,
        42.4771161
      ],
      [
        26.4584996,
        42.4776181
      ],
      [
        26.462479,
        42.477985
      ],
      [
        26.4648352,
        42.4780429
      ],
      [
        26.4660918,
        42.4783261
      ],
      [
        26.4692858,
        42.4787251
      ],
      [
        26.4699054,
        42.4788024
      ],
      [
        26.4704288,
        42.4788317
      ],
      [
        26.4734727,
        42.4786618
      ],
      [
        26.4736806,
        42.4787721
      ],
      [
        26.4758548,
        42.4796664
      ],
      [
        26.4761681,
        42.47988
      ]
    ]
  }
},
{
  "type": "Feature",
  "id": "way/157664190",
  "properties": {
    "highway": "tertiary",
    "name": "Обходен път Запад",
    "ref": "555",
    "smoothness": "good",
    "id": "way/157664190"
  },
  "geometry": {
    "type": "LineString",
    "coordinates": [
      [
        26.4761681,
        42.47988
      ],
      [
        26.4735539,
        42.4860448
      ],
      [
        26.4734758,
        42.4862386
      ],
      [
        26.4733129,
        42.4871651
      ],
      [
        26.4733816,
        42.4876892
      ],
      [
        26.473569,
        42.4891161
      ],
      [
        26.4737506,
        42.4900845
      ],
      [
        26.4741044,
        42.4909925
      ],
      [
        26.4750926,
        42.4931268
      ],
      [
        26.4753768,
        42.4938315
      ],
      [
        26.4766576,
        42.4964856
      ],
      [
        26.477661,
        42.4983544
      ]
    ]
  }
}
]
}
