{
"type": "FeatureCollection",
"features": [
{
  "type": "Feature",
  "id": "way/156441765",
  "properties": {
    "highway": "tertiary",
    "name": "3505",
    "ref": "3505",
    "smoothness": "intermediate",
    "id": "way/156441765"
  },
  "geometry": {
    "type": "LineString",
    "coordinates": [
      [
        24.7460603,
        43.0849435
      ],
      [
        24.7462508,
        43.0848263
      ],
      [
        24.7464255,
        43.0847302
      ],
      [
        24.7465752,
        43.0846217
      ],
      [
        24.7467334,
        43.0844862
      ],
      [
        24.7468785,
        43.0843439
      ],
      [
        24.7470694,
        43.0840144
      ],
      [
        24.7473874,
        43.0824334
      ],
      [
        24.7475668,
        43.0820678
      ],
      [
        24.7479564,
        43.0817541
      ],
      [
        24.7486508,
        43.0811949
      ],
      [
        24.7491049,
        43.0805429
      ],
      [
        24.7492868,
        43.0801839
      ],
      [
        24.7496838,
        43.0800573
      ]
    ]
  }
},
{
  "type": "Feature",
  "id": "way/156441762",
  "properties": {
    "bridge": "yes",
    "highway": "tertiary",
    "layer": "1",
    "name": "3505",
    "ref": "3505",
    "id": "way/156441762"
  },
  "geometry": {
    "type": "LineString",
    "coordinates": [
      [
        24.7454052,
        43.0853783
      ],
      [
        24.7460603,
        43.0849435
      ]
    ]
  }
},
{
  "type": "Feature",
  "id": "way/156684036",
  "properties": {
    "highway": "tertiary",
    "name": "3505",
    "ref": "3505",
    "id": "way/156684036"
  },
  "geometry": {
    "type": "LineString",
    "coordinates": [
      [
        24.7422512,
        43.086021
      ],
      [
        24.7440157,
        43.0859859
      ],
      [
        24.7445524,
        43.0858881
      ],
      [
        24.7454052,
        43.0853783
      ]
    ]
  }
},
{
  "type": "Feature",
  "id": "way/39464638",
  "properties": {
    "highway": "tertiary",
    "name": "3505",
    "ref": "3505",
    "smoothness": "good",
    "id": "way/39464638"
  },
  "geometry": {
    "type": "LineString",
    "coordinates": [
      [
        24.8232899,
        42.9270438
      ],
      [
        24.8238907,
        42.9267689
      ],
      [
        24.8253913,
        42.9260436
      ],
      [
        24.8264985,
        42.9254877
      ],
      [
        24.8283491,
        42.9238893
      ],
      [
        24.8286338,
        42.9234608
      ],
      [
        24.829314,
        42.922511
      ],
      [
        24.829836,
        42.9218508
      ],
      [
        24.8303421,
        42.9209242
      ],
      [
        24.8305985,
        42.9202542
      ],
      [
        24.8318471,
        42.9181608
      ],
      [
        24.8322312,
        42.9174224
      ],
      [
        24.8322504,
        42.9163535
      ],
      [
        24.8320441,
        42.9154214
      ],
      [
        24.8325783,
        42.914662
      ],
      [
        24.8345742,
        42.9123097
      ],
      [
        24.8353712,
        42.9107766
      ],
      [
        24.8360914,
        42.9089479
      ],
      [
        24.8364755,
        42.9079984
      ],
      [
        24.836898,
        42.9069504
      ],
      [
        24.8370517,
        42.9064159
      ],
      [
        24.8367723,
        42.9057464
      ],
      [
        24.8366201,
        42.905329
      ],
      [
        24.8364947,
        42.9047982
      ],
      [
        24.836344,
        42.9042091
      ],
      [
        24.8362697,
        42.9036284
      ],
      [
        24.8361954,
        42.9030477
      ],
      [
        24.8360001,
        42.9014968
      ],
      [
        24.8357361,
        42.8997407
      ],
      [
        24.8358246,
        42.8961976
      ],
      [
        24.8357604,
        42.8951768
      ],
      [
        24.8357312,
        42.8947153
      ],
      [
        24.8357288,
        42.8946765
      ],
      [
        24.8356375,
        42.8940645
      ],
      [
        24.8353328,
        42.8932054
      ],
      [
        24.8350379,
        42.8924288
      ],
      [
        24.8348722,
        42.8919873
      ],
      [
        24.834937,
        42.8918853
      ],
      [
        24.8350187,
        42.8917657
      ],
      [
        24.8351459,
        42.8916461
      ],
      [
        24.8352755,
        42.8915107
      ],
      [
        24.8353115,
        42.8914439
      ],
      [
        24.8353119,
        42.8913645
      ],
      [
        24.8352339,
        42.8912572
      ]
    ]
  }
},
{
  "type": "Feature",
  "id": "way/322228063",
  "properties": {
    "highway": "tertiary",
    "name": "3505",
    "ref": "3505",
    "smoothness": "good",
    "id": "way/322228063"
  },
  "geometry": {
    "type": "LineString",
    "coordinates": [
      [
        24.8350574,
        42.8910479
      ],
      [
        24.8346903,
        42.8906126
      ]
    ]
  }
},
{
  "type": "Feature",
  "id": "way/322228064",
  "properties": {
    "bridge": "yes",
    "highway": "tertiary",
    "name": "3505",
    "ref": "3505",
    "smoothness": "good",
    "id": "way/322228064"
  },
  "geometry": {
    "type": "LineString",
    "coordinates": [
      [
        24.8352339,
        42.8912572
      ],
      [
        24.8350574,
        42.8910479
      ]
    ]
  }
},
{
  "type": "Feature",
  "id": "way/41260496",
  "properties": {
    "highway": "tertiary",
    "name": "3505",
    "ref": "3505",
    "smoothness": "intermediate",
    "id": "way/41260496"
  },
  "geometry": {
    "type": "LineString",
    "coordinates": [
      [
        24.8453675,
        42.9579648
      ],
      [
        24.8451752,
        42.9577458
      ],
      [
        24.8450249,
        42.9576474
      ],
      [
        24.8447402,
        42.9575779
      ],
      [
        24.8443843,
        42.9575606
      ],
      [
        24.8438228,
        42.9574737
      ],
      [
        24.843372,
        42.9574737
      ],
      [
        24.8430179,
        42.9574806
      ],
      [
        24.842937,
        42.9574911
      ],
      [
        24.8423725,
        42.9574849
      ],
      [
        24.8417873,
        42.957427
      ],
      [
        24.8413602,
        42.9573749
      ],
      [
        24.8411783,
        42.9572939
      ],
      [
        24.8409885,
        42.9572302
      ],
      [
        24.8407354,
        42.9570855
      ],
      [
        24.8399999,
        42.9565241
      ],
      [
        24.8394147,
        42.9561131
      ],
      [
        24.8392803,
        42.9560315
      ],
      [
        24.8386713,
        42.9556616
      ],
      [
        24.8381414,
        42.9554301
      ],
      [
        24.8374019,
        42.955257
      ],
      [
        24.8367811,
        42.9551117
      ],
      [
        24.8356927,
        42.9548442
      ],
      [
        24.8351154,
        42.9545855
      ],
      [
        24.8345855,
        42.9541745
      ],
      [
        24.8289467,
        42.9516971
      ],
      [
        24.8187707,
        42.9474664
      ],
      [
        24.817726,
        42.9470405
      ],
      [
        24.8154872,
        42.9461195
      ],
      [
        24.8151195,
        42.9459193
      ],
      [
        24.8147846,
        42.9456754
      ],
      [
        24.814315,
        42.9452131
      ],
      [
        24.8138963,
        42.9447508
      ],
      [
        24.8137289,
        42.944445
      ],
      [
        24.8136743,
        42.9442193
      ],
      [
        24.8136816,
        42.9439644
      ],
      [
        24.8137544,
        42.9437315
      ],
      [
        24.8138563,
        42.9435713
      ],
      [
        24.8140237,
        42.9433965
      ],
      [
        24.8142058,
        42.9432619
      ],
      [
        24.8143769,
        42.9431563
      ],
      [
        24.8145589,
        42.9430762
      ],
      [
        24.8148246,
        42.9429998
      ],
      [
        24.8150321,
        42.9429524
      ],
      [
        24.8155782,
        42.942916
      ],
      [
        24.8164737,
        42.9428723
      ],
      [
        24.8173328,
        42.9428032
      ],
      [
        24.8177332,
        42.9427012
      ],
      [
        24.8179589,
        42.9425593
      ],
      [
        24.818141,
        42.9423955
      ],
      [
        24.8182538,
        42.9422353
      ],
      [
        24.8184795,
        42.941762
      ],
      [
        24.81892,
        42.9405607
      ],
      [
        24.8190001,
        42.940244
      ],
      [
        24.8190256,
        42.9400474
      ],
      [
        24.8191044,
        42.9396641
      ],
      [
        24.8192761,
        42.938533
      ],
      [
        24.8193405,
        42.9380618
      ],
      [
        24.8186324,
        42.9363495
      ],
      [
        24.8183749,
        42.9354697
      ],
      [
        24.8179457,
        42.9347471
      ],
      [
        24.8172162,
        42.9337888
      ],
      [
        24.8169469,
        42.933473
      ],
      [
        24.8168814,
        42.9332692
      ],
      [
        24.8168559,
        42.9331345
      ],
      [
        24.8168596,
        42.9330107
      ],
      [
        24.8168923,
        42.9328396
      ],
      [
        24.8169433,
        42.9326867
      ],
      [
        24.8171107,
        42.9324028
      ],
      [
        24.8172673,
        42.932188
      ],
      [
        24.8192076,
        42.9300802
      ],
      [
        24.8193787,
        42.9299419
      ],
      [
        24.8196772,
        42.929749
      ],
      [
        24.8206018,
        42.9292502
      ],
      [
        24.8212826,
        42.9287879
      ],
      [
        24.8228607,
        42.9274406
      ],
      [
        24.8232899,
        42.9270438
      ]
    ]
  }
},
{
  "type": "Feature",
  "id": "way/39464531",
  "properties": {
    "highway": "tertiary",
    "ref": "3505",
    "smoothness": "good",
    "id": "way/39464531"
  },
  "geometry": {
    "type": "LineString",
    "coordinates": [
      [
        24.8134933,
        43.0499501
      ],
      [
        24.8145454,
        43.0468499
      ],
      [
        24.8146902,
        43.046501
      ],
      [
        24.8148672,
        43.0463402
      ],
      [
        24.8151814,
        43.0462015
      ],
      [
        24.8191723,
        43.044598
      ],
      [
        24.8206065,
        43.0434944
      ],
      [
        24.8221046,
        43.042326
      ],
      [
        24.8222361,
        43.0422193
      ],
      [
        24.8222876,
        43.0416473
      ],
      [
        24.8220555,
        43.0412494
      ],
      [
        24.8219082,
        43.0405317
      ],
      [
        24.8224988,
        43.0390349
      ],
      [
        24.8235647,
        43.0371387
      ],
      [
        24.8250932,
        43.0350071
      ],
      [
        24.8274075,
        43.0306801
      ],
      [
        24.8282054,
        43.0302763
      ],
      [
        24.8308446,
        43.0297828
      ],
      [
        24.8323792,
        43.0301709
      ],
      [
        24.8329928,
        43.0302763
      ],
      [
        24.8334378,
        43.030226
      ],
      [
        24.8346255,
        43.0292266
      ],
      [
        24.8361875,
        43.02815
      ],
      [
        24.8389946,
        43.0258378
      ],
      [
        24.8395548,
        43.0252512
      ],
      [
        24.8408488,
        43.0231326
      ],
      [
        24.8423833,
        43.0212577
      ],
      [
        24.8422606,
        43.0194628
      ],
      [
        24.8425674,
        43.0177127
      ],
      [
        24.8436722,
        43.016501
      ],
      [
        24.8435495,
        43.0151548
      ],
      [
        24.8452066,
        43.012507
      ],
      [
        24.8462807,
        43.0093542
      ],
      [
        24.8487255,
        43.0059106
      ],
      [
        24.8500521,
        43.0037184
      ],
      [
        24.8503796,
        43.0032159
      ],
      [
        24.851294,
        43.0015777
      ],
      [
        24.8516573,
        43.0011242
      ],
      [
        24.8521094,
        43.000721
      ],
      [
        24.8525156,
        43.0003392
      ],
      [
        24.8527214,
        42.9999508
      ],
      [
        24.853876,
        42.9965618
      ],
      [
        24.8576353,
        42.9887617
      ],
      [
        24.8576353,
        42.9879199
      ],
      [
        24.8567146,
        42.9864607
      ],
      [
        24.8521759,
        42.9767306
      ],
      [
        24.8517193,
        42.9735291
      ],
      [
        24.8503742,
        42.9706528
      ],
      [
        24.8499853,
        42.9697745
      ],
      [
        24.8497453,
        42.969353
      ],
      [
        24.8494524,
        42.9689981
      ],
      [
        24.8485209,
        42.9679442
      ],
      [
        24.8478536,
        42.9669323
      ],
      [
        24.8477287,
        42.9664932
      ],
      [
        24.8476855,
        42.9660399
      ],
      [
        24.8477767,
        42.9654743
      ],
      [
        24.8478007,
        42.9653366
      ],
      [
        24.8479256,
        42.964617
      ],
      [
        24.847916,
        42.96422
      ],
      [
        24.8476999,
        42.9636051
      ],
      [
        24.8473542,
        42.9630429
      ],
      [
        24.8471074,
        42.9626352
      ],
      [
        24.8469399,
        42.9623585
      ],
      [
        24.846455,
        42.9620283
      ],
      [
        24.8455716,
        42.9617542
      ],
      [
        24.8445045,
        42.9611278
      ],
      [
        24.8442034,
        42.9609053
      ],
      [
        24.8442034,
        42.9607345
      ],
      [
        24.8442544,
        42.9605912
      ],
      [
        24.8443536,
        42.9603459
      ],
      [
        24.8445629,
        42.9599808
      ],
      [
        24.8448928,
        42.9594645
      ],
      [
        24.8449518,
        42.9593821
      ],
      [
        24.8450671,
        42.9591976
      ],
      [
        24.8451315,
        42.9590896
      ]
    ]
  }
},
{
  "type": "Feature",
  "id": "way/322230175",
  "properties": {
    "highway": "tertiary",
    "ref": "3505",
    "smoothness": "good",
    "id": "way/322230175"
  },
  "geometry": {
    "type": "LineString",
    "coordinates": [
      [
        24.8453353,
        42.9587323
      ],
      [
        24.8453541,
        42.958697
      ],
      [
        24.8454185,
        42.95854
      ],
      [
        24.8454453,
        42.9583476
      ],
      [
        24.8453675,
        42.9579648
      ]
    ]
  }
},
{
  "type": "Feature",
  "id": "way/322230176",
  "properties": {
    "bridge": "yes",
    "highway": "tertiary",
    "ref": "3505",
    "smoothness": "good",
    "id": "way/322230176"
  },
  "geometry": {
    "type": "LineString",
    "coordinates": [
      [
        24.8451315,
        42.9590896
      ],
      [
        24.8453353,
        42.9587323
      ]
    ]
  }
},
{
  "type": "Feature",
  "id": "way/30772118",
  "properties": {
    "highway": "tertiary",
    "name": "3505",
    "ref": "3505",
    "smoothness": "intermediate",
    "id": "way/30772118"
  },
  "geometry": {
    "type": "LineString",
    "coordinates": [
      [
        24.7934301,
        43.0488879
      ],
      [
        24.7934825,
        43.0488455
      ],
      [
        24.7935602,
        43.0488187
      ],
      [
        24.7937702,
        43.0488077
      ],
      [
        24.797179,
        43.0486196
      ],
      [
        24.7989347,
        43.048677
      ],
      [
        24.7997131,
        43.0487234
      ],
      [
        24.8015585,
        43.0489594
      ],
      [
        24.8026855,
        43.0491606
      ],
      [
        24.8031564,
        43.04927
      ],
      [
        24.8059916,
        43.0499422
      ],
      [
        24.8071897,
        43.0502094
      ],
      [
        24.8080411,
        43.0503619
      ],
      [
        24.8091104,
        43.050535
      ],
      [
        24.8100176,
        43.0505642
      ],
      [
        24.8107777,
        43.0505577
      ],
      [
        24.8119374,
        43.0505519
      ],
      [
        24.8123909,
        43.0505031
      ],
      [
        24.8126898,
        43.0504195
      ],
      [
        24.812945,
        43.0503668
      ],
      [
        24.8132231,
        43.0502426
      ],
      [
        24.8134933,
        43.0499501
      ]
    ]
  }
},
{
  "type": "Feature",
  "id": "way/228377264",
  "properties": {
    "highway": "tertiary",
    "name": "3505",
    "ref": "3505",
    "smoothness": "good",
    "id": "way/228377264"
  },
  "geometry": {
    "type": "LineString",
    "coordinates": [
      [
        24.7496838,
        43.0800573
      ],
      [
        24.750003,
        43.0801416
      ],
      [
        24.7504786,
        43.0798995
      ],
      [
        24.7505511,
        43.0793312
      ],
      [
        24.7509547,
        43.0788718
      ],
      [
        24.7512176,
        43.0784079
      ],
      [
        24.7513548,
        43.0778306
      ],
      [
        24.7513825,
        43.0774984
      ],
      [
        24.7513111,
        43.077232
      ],
      [
        24.750875,
        43.0761018
      ],
      [
        24.7508686,
        43.075406
      ],
      [
        24.751182,
        43.0739472
      ],
      [
        24.7514619,
        43.0730939
      ],
      [
        24.7520475,
        43.0725118
      ],
      [
        24.7525061,
        43.072165
      ],
      [
        24.7530437,
        43.0718449
      ],
      [
        24.7532474,
        43.0717517
      ],
      [
        24.7541734,
        43.0715124
      ],
      [
        24.7567159,
        43.0713248
      ],
      [
        24.7591245,
        43.0714025
      ],
      [
        24.7612693,
        43.0715636
      ],
      [
        24.7619406,
        43.0713289
      ],
      [
        24.7623446,
        43.0709842
      ],
      [
        24.7630057,
        43.0705545
      ],
      [
        24.7633796,
        43.0703508
      ],
      [
        24.7641825,
        43.070029
      ],
      [
        24.764524,
        43.0698303
      ],
      [
        24.764784,
        43.069563
      ],
      [
        24.7658992,
        43.0681181
      ],
      [
        24.7662211,
        43.0674665
      ],
      [
        24.7663152,
        43.0670539
      ],
      [
        24.7664224,
        43.0668151
      ],
      [
        24.7667175,
        43.0664829
      ],
      [
        24.7673414,
        43.0659851
      ],
      [
        24.7687496,
        43.0649958
      ],
      [
        24.7700847,
        43.0641773
      ],
      [
        24.7708892,
        43.0635822
      ],
      [
        24.7712587,
        43.0630261
      ],
      [
        24.7716646,
        43.0622503
      ],
      [
        24.7718701,
        43.0619923
      ],
      [
        24.7725609,
        43.0614163
      ],
      [
        24.7729685,
        43.0611567
      ],
      [
        24.7733516,
        43.0607432
      ],
      [
        24.773777,
        43.0601032
      ],
      [
        24.7741117,
        43.0598763
      ],
      [
        24.7745664,
        43.0597507
      ],
      [
        24.7752874,
        43.0596697
      ],
      [
        24.7755666,
        43.0596102
      ],
      [
        24.7761501,
        43.0594249
      ],
      [
        24.7783812,
        43.0584056
      ],
      [
        24.778851,
        43.0583065
      ],
      [
        24.7793765,
        43.0582969
      ],
      [
        24.7803674,
        43.0583332
      ],
      [
        24.781021,
        43.0582893
      ],
      [
        24.7827843,
        43.0580954
      ],
      [
        24.7835589,
        43.0580711
      ],
      [
        24.7846293,
        43.0580968
      ],
      [
        24.7849584,
        43.0580751
      ],
      [
        24.7853485,
        43.0579225
      ],
      [
        24.7858179,
        43.0576853
      ],
      [
        24.7868372,
        43.057126
      ],
      [
        24.7877593,
        43.0567042
      ],
      [
        24.7885244,
        43.056118
      ],
      [
        24.7891176,
        43.0556224
      ],
      [
        24.7893877,
        43.0553641
      ],
      [
        24.7895111,
        43.0552055
      ],
      [
        24.7895496,
        43.0550807
      ],
      [
        24.7895716,
        43.0549177
      ],
      [
        24.7893839,
        43.0540631
      ],
      [
        24.7893443,
        43.0537574
      ],
      [
        24.7893666,
        43.0534447
      ],
      [
        24.7894171,
        43.0528781
      ],
      [
        24.7894962,
        43.0523272
      ],
      [
        24.789714,
        43.051306
      ],
      [
        24.7899684,
        43.0502462
      ],
      [
        24.7900804,
        43.0500362
      ],
      [
        24.7901465,
        43.049959
      ],
      [
        24.7902271,
        43.049896
      ],
      [
        24.7904772,
        43.0498136
      ],
      [
        24.7907628,
        43.0497505
      ],
      [
        24.7910195,
        43.049706
      ],
      [
        24.7915306,
        43.0495906
      ],
      [
        24.7922498,
        43.0494177
      ],
      [
        24.7929379,
        43.0492586
      ],
      [
        24.7930188,
        43.0492339
      ],
      [
        24.7931461,
        43.0491843
      ],
      [
        24.7932604,
        43.0491053
      ]
    ]
  }
},
{
  "type": "Feature",
  "id": "way/156441763",
  "properties": {
    "highway": "tertiary",
    "layer": "-1",
    "name": "3505",
    "ref": "3505",
    "smoothness": "intermediate",
    "id": "way/156441763"
  },
  "geometry": {
    "type": "LineString",
    "coordinates": [
      [
        24.7932604,
        43.0491053
      ],
      [
        24.7934301,
        43.0488879
      ]
    ]
  }
}
]
}
