{
"type": "FeatureCollection",
"features": [
{
  "type": "Feature",
  "id": "way/276490537",
  "properties": {
    "bicycle": "yes",
    "highway": "tertiary",
    "name": "508",
    "ref": "508",
    "smoothness": "good",
    "id": "way/276490537"
  },
  "geometry": {
    "type": "LineString",
    "coordinates": [
      [
        25.3409048,
        41.3724133
      ],
      [
        25.341058,
        41.3726459
      ],
      [
        25.3419774,
        41.3740589
      ],
      [
        25.3422958,
        41.3745536
      ],
      [
        25.3425025,
        41.3748638
      ],
      [
        25.3436635,
        41.3766103
      ],
      [
        25.3436909,
        41.3766528
      ],
      [
        25.3440635,
        41.3772303
      ],
      [
        25.3442635,
        41.3774903
      ],
      [
        25.3446235,
        41.3778503
      ],
      [
        25.3449435,
        41.3781503
      ],
      [
        25.3452235,
        41.3783503
      ],
      [
        25.3473935,
        41.3794603
      ],
      [
        25.3476035,
        41.3796303
      ],
      [
        25.3478035,
        41.3798503
      ],
      [
        25.3481435,
        41.3803403
      ],
      [
        25.3497335,
        41.3822502
      ],
      [
        25.3516235,
        41.3844602
      ],
      [
        25.3530335,
        41.3861802
      ],
      [
        25.3532135,
        41.3863702
      ],
      [
        25.3532335,
        41.3865002
      ],
      [
        25.3531635,
        41.3865902
      ],
      [
        25.3529735,
        41.3866902
      ],
      [
        25.3512335,
        41.3872702
      ],
      [
        25.3509735,
        41.3873102
      ],
      [
        25.3507635,
        41.3873102
      ],
      [
        25.3505735,
        41.3872502
      ],
      [
        25.3503735,
        41.3871602
      ],
      [
        25.3502735,
        41.3870102
      ],
      [
        25.3497335,
        41.3860502
      ],
      [
        25.3496035,
        41.3859202
      ],
      [
        25.3494735,
        41.3858102
      ],
      [
        25.3492435,
        41.3857502
      ],
      [
        25.3490035,
        41.3857302
      ],
      [
        25.3487235,
        41.3857702
      ],
      [
        25.3479535,
        41.3860702
      ],
      [
        25.3469435,
        41.3865902
      ],
      [
        25.3455035,
        41.3876202
      ],
      [
        25.3451235,
        41.3877902
      ],
      [
        25.3445835,
        41.3880202
      ],
      [
        25.3438135,
        41.3882602
      ],
      [
        25.3435735,
        41.3883002
      ],
      [
        25.3430335,
        41.3883002
      ],
      [
        25.3426935,
        41.3883402
      ],
      [
        25.3424835,
        41.3884302
      ],
      [
        25.3423535,
        41.3885402
      ],
      [
        25.3423335,
        41.3886702
      ],
      [
        25.3423535,
        41.3887502
      ],
      [
        25.3424135,
        41.3888602
      ],
      [
        25.3428035,
        41.3891602
      ],
      [
        25.3431035,
        41.3894802
      ],
      [
        25.3432535,
        41.3897202
      ],
      [
        25.3435335,
        41.3905302
      ],
      [
        25.3435735,
        41.3906602
      ],
      [
        25.3434235,
        41.3914102
      ],
      [
        25.3433835,
        41.3915402
      ],
      [
        25.3432535,
        41.3916902
      ],
      [
        25.3423535,
        41.3921602
      ],
      [
        25.3413435,
        41.3927202
      ],
      [
        25.3411735,
        41.3928102
      ],
      [
        25.340723,
        41.3929479
      ],
      [
        25.3402851,
        41.3930539
      ],
      [
        25.3399235,
        41.3931302
      ],
      [
        25.3397335,
        41.3932202
      ],
      [
        25.3396235,
        41.3933202
      ],
      [
        25.3394935,
        41.3935402
      ],
      [
        25.3394535,
        41.3937302
      ],
      [
        25.3394735,
        41.3938802
      ],
      [
        25.3395435,
        41.3940502
      ],
      [
        25.3400135,
        41.3948702
      ],
      [
        25.3400335,
        41.3950202
      ],
      [
        25.3400135,
        41.3952102
      ],
      [
        25.3399235,
        41.3954002
      ],
      [
        25.3384935,
        41.3974902
      ],
      [
        25.3372435,
        41.3992202
      ],
      [
        25.3372035,
        41.3993502
      ],
      [
        25.3372035,
        41.3994602
      ],
      [
        25.3372635,
        41.3996102
      ],
      [
        25.3375957,
        41.400041
      ],
      [
        25.3382935,
        41.4008802
      ],
      [
        25.3383635,
        41.4010502
      ],
      [
        25.3383635,
        41.4012002
      ],
      [
        25.3382935,
        41.4013702
      ],
      [
        25.338163,
        41.4015201
      ],
      [
        25.3379588,
        41.4016832
      ],
      [
        25.3371922,
        41.4022524
      ],
      [
        25.3369435,
        41.4024902
      ],
      [
        25.3368135,
        41.4026402
      ],
      [
        25.3367535,
        41.4027902
      ],
      [
        25.3367335,
        41.4029602
      ],
      [
        25.3366635,
        41.4054902
      ],
      [
        25.3366595,
        41.4055726
      ],
      [
        25.3366435,
        41.4059002
      ],
      [
        25.3365835,
        41.4060902
      ],
      [
        25.3363435,
        41.4067302
      ],
      [
        25.3363035,
        41.4069102
      ],
      [
        25.3362535,
        41.4071802
      ],
      [
        25.3363235,
        41.4081502
      ],
      [
        25.3364935,
        41.4103002
      ],
      [
        25.3365835,
        41.4112402
      ],
      [
        25.3366435,
        41.4114302
      ],
      [
        25.3367035,
        41.4116002
      ],
      [
        25.3369035,
        41.4119102
      ],
      [
        25.3375235,
        41.4127002
      ],
      [
        25.3381235,
        41.4136002
      ],
      [
        25.3383135,
        41.4140102
      ],
      [
        25.3384035,
        41.4142902
      ],
      [
        25.3387235,
        41.4159602
      ],
      [
        25.3393935,
        41.4184102
      ],
      [
        25.3394335,
        41.4186202
      ],
      [
        25.3394335,
        41.4188402
      ],
      [
        25.3393435,
        41.4190702
      ],
      [
        25.3387235,
        41.4202702
      ],
      [
        25.3380835,
        41.4214302
      ],
      [
        25.3356535,
        41.4259002
      ],
      [
        25.3350569,
        41.4270001
      ],
      [
        25.3350135,
        41.4270802
      ],
      [
        25.3349435,
        41.4272702
      ],
      [
        25.3348835,
        41.4292902
      ],
      [
        25.3348235,
        41.4294602
      ],
      [
        25.3347135,
        41.4296302
      ],
      [
        25.3345435,
        41.4297802
      ],
      [
        25.3343735,
        41.4299302
      ],
      [
        25.3320735,
        41.4309402
      ],
      [
        25.3299235,
        41.4318602
      ],
      [
        25.3294535,
        41.4320302
      ],
      [
        25.3289635,
        41.4322302
      ],
      [
        25.3285535,
        41.4323302
      ],
      [
        25.3281435,
        41.4324002
      ],
      [
        25.3276535,
        41.4324402
      ],
      [
        25.3267935,
        41.4324802
      ],
      [
        25.326274,
        41.4325157
      ],
      [
        25.3258935,
        41.4325902
      ]
    ]
  }
},
{
  "type": "Feature",
  "id": "way/180580374",
  "properties": {
    "bicycle": "yes",
    "highway": "tertiary",
    "name": "508",
    "ref": "508",
    "smoothness": "intermediate",
    "id": "way/180580374"
  },
  "geometry": {
    "type": "LineString",
    "coordinates": [
      [
        25.3374463,
        41.3684442
      ],
      [
        25.3374142,
        41.3690974
      ],
      [
        25.337441,
        41.3697606
      ],
      [
        25.3374356,
        41.3699136
      ],
      [
        25.3373873,
        41.3700304
      ],
      [
        25.3372548,
        41.3701454
      ],
      [
        25.3371459,
        41.3702357
      ],
      [
        25.3369895,
        41.3703361
      ],
      [
        25.3368526,
        41.3705122
      ],
      [
        25.33677,
        41.37074
      ],
      [
        25.33668,
        41.37089
      ],
      [
        25.3359002,
        41.3715204
      ],
      [
        25.335794,
        41.3716567
      ],
      [
        25.3357605,
        41.3717929
      ],
      [
        25.3358136,
        41.3719753
      ],
      [
        25.3359756,
        41.3720549
      ],
      [
        25.336146,
        41.3720905
      ],
      [
        25.3364169,
        41.3721073
      ],
      [
        25.3372353,
        41.3720381
      ],
      [
        25.3378805,
        41.3719627
      ],
      [
        25.3382436,
        41.3719187
      ],
      [
        25.3384782,
        41.3719794
      ],
      [
        25.3386933,
        41.3721073
      ],
      [
        25.3389251,
        41.372166
      ],
      [
        25.3393441,
        41.3721723
      ],
      [
        25.3399868,
        41.3721115
      ],
      [
        25.340285,
        41.3721174
      ],
      [
        25.3405141,
        41.3721411
      ],
      [
        25.3407729,
        41.3722226
      ],
      [
        25.3409048,
        41.3724133
      ]
    ]
  }
},
{
  "type": "Feature",
  "id": "way/180582045",
  "properties": {
    "bicycle": "yes",
    "highway": "tertiary",
    "name": "508",
    "ref": "508",
    "smoothness": "intermediate",
    "id": "way/180582045"
  },
  "geometry": {
    "type": "LineString",
    "coordinates": [
      [
        25.3258935,
        41.4325902
      ],
      [
        25.32561,
        41.43258
      ],
      [
        25.32546,
        41.43268
      ],
      [
        25.32537,
        41.43279
      ],
      [
        25.32533,
        41.43294
      ],
      [
        25.32535,
        41.43311
      ],
      [
        25.32546,
        41.43331
      ],
      [
        25.3261,
        41.43395
      ],
      [
        25.32621,
        41.4341
      ],
      [
        25.32628,
        41.43434
      ],
      [
        25.32655,
        41.43554
      ],
      [
        25.32658,
        41.43582
      ],
      [
        25.3266,
        41.43603
      ],
      [
        25.32655,
        41.43622
      ],
      [
        25.32649,
        41.43642
      ],
      [
        25.32636,
        41.43663
      ],
      [
        25.32617,
        41.43685
      ],
      [
        25.32574,
        41.43725
      ],
      [
        25.32546,
        41.43747
      ],
      [
        25.3252,
        41.4376
      ],
      [
        25.32495,
        41.4377
      ],
      [
        25.32467,
        41.43777
      ],
      [
        25.32443,
        41.43779
      ],
      [
        25.32413,
        41.43777
      ],
      [
        25.32353,
        41.43764
      ],
      [
        25.32254,
        41.43743
      ],
      [
        25.32233,
        41.43743
      ],
      [
        25.32209,
        41.43745
      ],
      [
        25.32183,
        41.43753
      ],
      [
        25.32068,
        41.43813
      ],
      [
        25.32042,
        41.43824
      ],
      [
        25.32018,
        41.43826
      ],
      [
        25.31999,
        41.43826
      ],
      [
        25.31977,
        41.43822
      ],
      [
        25.31954,
        41.43816
      ],
      [
        25.31859,
        41.43751
      ],
      [
        25.31825,
        41.43734
      ],
      [
        25.31797,
        41.43723
      ],
      [
        25.31759,
        41.4371
      ],
      [
        25.31546,
        41.43659
      ],
      [
        25.31512,
        41.43652
      ],
      [
        25.31437,
        41.43646
      ],
      [
        25.31404,
        41.43642
      ],
      [
        25.31263,
        41.43601
      ],
      [
        25.31209,
        41.4359
      ],
      [
        25.31134,
        41.43582
      ],
      [
        25.3102,
        41.43571
      ],
      [
        25.3099,
        41.43571
      ],
      [
        25.30956,
        41.43573
      ],
      [
        25.30862,
        41.43592
      ],
      [
        25.30771,
        41.43622
      ],
      [
        25.30737,
        41.43631
      ],
      [
        25.30714,
        41.43631
      ],
      [
        25.30694,
        41.43629
      ],
      [
        25.30675,
        41.4362
      ],
      [
        25.30602,
        41.43579
      ],
      [
        25.30583,
        41.43573
      ],
      [
        25.30561,
        41.43573
      ],
      [
        25.30538,
        41.43579
      ],
      [
        25.3052,
        41.43588
      ],
      [
        25.3051699,
        41.4359364
      ],
      [
        25.30512,
        41.43603
      ],
      [
        25.30508,
        41.43627
      ],
      [
        25.30516,
        41.43674
      ],
      [
        25.30514,
        41.43691
      ],
      [
        25.30505,
        41.43708
      ],
      [
        25.30454,
        41.43773
      ],
      [
        25.30441,
        41.43792
      ],
      [
        25.30437,
        41.43813
      ],
      [
        25.30432,
        41.43837
      ],
      [
        25.30437,
        41.43882
      ],
      [
        25.30435,
        41.43901
      ],
      [
        25.30426,
        41.43931
      ],
      [
        25.30366,
        41.4403
      ],
      [
        25.3036,
        41.44047
      ],
      [
        25.3036,
        41.4406
      ],
      [
        25.30366,
        41.44075
      ],
      [
        25.30377,
        41.44088
      ],
      [
        25.30394,
        41.44097
      ],
      [
        25.30417,
        41.44103
      ],
      [
        25.30482,
        41.44107
      ],
      [
        25.30503,
        41.44112
      ],
      [
        25.3052,
        41.4412
      ],
      [
        25.30538,
        41.44135
      ],
      [
        25.30548,
        41.44152
      ],
      [
        25.30583,
        41.44245
      ],
      [
        25.30587,
        41.4427
      ],
      [
        25.30587,
        41.44296
      ],
      [
        25.30574,
        41.44358
      ],
      [
        25.30566,
        41.4441
      ],
      [
        25.3055,
        41.44588
      ],
      [
        25.30544,
        41.44607
      ],
      [
        25.30533,
        41.44624
      ],
      [
        25.30518,
        41.44635
      ],
      [
        25.30497,
        41.44639
      ],
      [
        25.30473,
        41.44639
      ],
      [
        25.30454,
        41.44635
      ],
      [
        25.3043,
        41.44622
      ],
      [
        25.30289,
        41.44547
      ],
      [
        25.30254,
        41.4453
      ],
      [
        25.30102,
        41.44476
      ],
      [
        25.30076,
        41.44474
      ],
      [
        25.30048,
        41.44474
      ],
      [
        25.30023,
        41.44481
      ],
      [
        25.30003,
        41.44487
      ],
      [
        25.2999,
        41.445
      ],
      [
        25.2998,
        41.44519
      ],
      [
        25.29975,
        41.44541
      ],
      [
        25.29982,
        41.44564
      ],
      [
        25.30096,
        41.44809
      ],
      [
        25.30117,
        41.44845
      ],
      [
        25.30134,
        41.44867
      ],
      [
        25.30151,
        41.44884
      ],
      [
        25.30171,
        41.44899
      ],
      [
        25.30261,
        41.44957
      ],
      [
        25.30274,
        41.4497
      ],
      [
        25.30282,
        41.44989
      ],
      [
        25.30297,
        41.45058
      ],
      [
        25.30308,
        41.45088
      ],
      [
        25.30321,
        41.45114
      ],
      [
        25.30411,
        41.4523
      ],
      [
        25.3043,
        41.45249
      ],
      [
        25.30454,
        41.45266
      ],
      [
        25.30482,
        41.45279
      ],
      [
        25.306,
        41.45326
      ],
      [
        25.30621,
        41.45343
      ],
      [
        25.30634,
        41.4536
      ],
      [
        25.3063718,
        41.4536817
      ],
      [
        25.30641,
        41.45378
      ],
      [
        25.30636,
        41.45397
      ],
      [
        25.3061052,
        41.4544272
      ]
    ]
  }
},
{
  "type": "Feature",
  "id": "way/180582065",
  "properties": {
    "bicycle": "yes",
    "highway": "tertiary",
    "name": "508",
    "ref": "508",
    "smoothness": "good",
    "id": "way/180582065"
  },
  "geometry": {
    "type": "LineString",
    "coordinates": [
      [
        25.30465,
        41.45764
      ],
      [
        25.30402,
        41.45927
      ],
      [
        25.3039,
        41.45955
      ],
      [
        25.30372,
        41.45972
      ],
      [
        25.30353,
        41.45981
      ],
      [
        25.30329,
        41.45989
      ],
      [
        25.30306,
        41.45991
      ],
      [
        25.30278,
        41.45991
      ],
      [
        25.30177,
        41.45974
      ],
      [
        25.30134,
        41.4597
      ],
      [
        25.29883,
        41.45961
      ],
      [
        25.29849,
        41.45961
      ],
      [
        25.29823,
        41.45966
      ],
      [
        25.29793,
        41.45974
      ],
      [
        25.29765,
        41.45987
      ],
      [
        25.29742,
        41.46002
      ],
      [
        25.29729,
        41.46019
      ],
      [
        25.29716,
        41.46045
      ],
      [
        25.29673,
        41.46208
      ],
      [
        25.29662,
        41.46223
      ],
      [
        25.29645,
        41.46236
      ],
      [
        25.29626,
        41.46247
      ],
      [
        25.29484,
        41.46275
      ],
      [
        25.29454,
        41.46285
      ],
      [
        25.2943,
        41.46298
      ],
      [
        25.29411,
        41.46315
      ],
      [
        25.29323,
        41.46431
      ],
      [
        25.29306,
        41.46446
      ],
      [
        25.29282,
        41.46457
      ],
      [
        25.29239,
        41.46487
      ],
      [
        25.29177,
        41.46541
      ],
      [
        25.29156,
        41.46549
      ],
      [
        25.29134,
        41.46554
      ],
      [
        25.29109,
        41.46554
      ],
      [
        25.29048,
        41.46536
      ],
      [
        25.29027,
        41.46534
      ],
      [
        25.2901,
        41.46538
      ],
      [
        25.28991,
        41.46549
      ],
      [
        25.28982,
        41.46564
      ],
      [
        25.28965,
        41.46639
      ],
      [
        25.28954,
        41.46659
      ],
      [
        25.28941,
        41.46676
      ],
      [
        25.2892202,
        41.466858
      ],
      [
        25.28879,
        41.46708
      ],
      [
        25.28806,
        41.46757
      ],
      [
        25.28787,
        41.46768
      ],
      [
        25.28757,
        41.46779
      ],
      [
        25.28443,
        41.46873
      ],
      [
        25.28409,
        41.46886
      ],
      [
        25.2839,
        41.46899
      ],
      [
        25.2836861,
        41.469172
      ],
      [
        25.2835174,
        41.4693681
      ],
      [
        25.283334,
        41.4697876
      ],
      [
        25.2832516,
        41.4700635
      ],
      [
        25.28323,
        41.47023
      ],
      [
        25.28351,
        41.47184
      ],
      [
        25.2836,
        41.47206
      ],
      [
        25.28373,
        41.47223
      ],
      [
        25.2839,
        41.47242
      ],
      [
        25.28557,
        41.47373
      ],
      [
        25.28574,
        41.47395
      ],
      [
        25.28589,
        41.47423
      ],
      [
        25.28609,
        41.47506
      ],
      [
        25.28621,
        41.47532
      ],
      [
        25.28641,
        41.4756
      ],
      [
        25.28714,
        41.47629
      ],
      [
        25.28772,
        41.47669
      ],
      [
        25.28918,
        41.47792
      ],
      [
        25.28984,
        41.47845
      ],
      [
        25.28997,
        41.47865
      ],
      [
        25.29001,
        41.47875
      ],
      [
        25.28997,
        41.47886
      ],
      [
        25.28986,
        41.47895
      ],
      [
        25.28971,
        41.47899
      ],
      [
        25.28954,
        41.47899
      ],
      [
        25.28935,
        41.47892
      ],
      [
        25.28847,
        41.47852
      ],
      [
        25.28821,
        41.47843
      ],
      [
        25.28804,
        41.47843
      ],
      [
        25.28791,
        41.47847
      ],
      [
        25.2878,
        41.47856
      ],
      [
        25.28778,
        41.47869
      ],
      [
        25.28782,
        41.47884
      ],
      [
        25.28827,
        41.47938
      ],
      [
        25.28838,
        41.47955
      ],
      [
        25.28845,
        41.47995
      ],
      [
        25.28845,
        41.48032
      ],
      [
        25.28847,
        41.48053
      ],
      [
        25.28868,
        41.48094
      ],
      [
        25.2887,
        41.48111
      ],
      [
        25.2887,
        41.48135
      ],
      [
        25.28875,
        41.4815
      ],
      [
        25.28885,
        41.48171
      ],
      [
        25.28954,
        41.48253
      ],
      [
        25.28969,
        41.48268
      ],
      [
        25.28986,
        41.48274
      ],
      [
        25.29038,
        41.48296
      ],
      [
        25.29055,
        41.48304
      ],
      [
        25.29074,
        41.48324
      ],
      [
        25.29149,
        41.48427
      ],
      [
        25.29229,
        41.48528
      ],
      [
        25.29293,
        41.48609
      ],
      [
        25.29349,
        41.4868
      ],
      [
        25.2936,
        41.48697
      ],
      [
        25.2937,
        41.48721
      ],
      [
        25.29402,
        41.48828
      ],
      [
        25.29411,
        41.48843
      ],
      [
        25.29424,
        41.48858
      ],
      [
        25.29463,
        41.48886
      ],
      [
        25.29493,
        41.48907
      ],
      [
        25.29634,
        41.48974
      ],
      [
        25.29806,
        41.49068
      ],
      [
        25.2984,
        41.49088
      ],
      [
        25.29872,
        41.49109
      ],
      [
        25.29892,
        41.49131
      ],
      [
        25.29911,
        41.49152
      ],
      [
        25.2992711,
        41.4920749
      ]
    ]
  }
},
{
  "type": "Feature",
  "id": "way/283859460",
  "properties": {
    "bicycle": "yes",
    "bridge": "yes",
    "highway": "tertiary",
    "name": "508",
    "ref": "508",
    "smoothness": "intermediate",
    "id": "way/283859460"
  },
  "geometry": {
    "type": "LineString",
    "coordinates": [
      [
        25.3061052,
        41.4544272
      ],
      [
        25.3058135,
        41.4549505
      ]
    ]
  }
},
{
  "type": "Feature",
  "id": "way/283859463",
  "properties": {
    "bicycle": "yes",
    "highway": "tertiary",
    "name": "508",
    "ref": "508",
    "smoothness": "intermediate",
    "id": "way/283859463"
  },
  "geometry": {
    "type": "LineString",
    "coordinates": [
      [
        25.3058135,
        41.4549505
      ],
      [
        25.30568,
        41.45519
      ],
      [
        25.30527,
        41.45586
      ],
      [
        25.30508,
        41.45627
      ],
      [
        25.30465,
        41.45764
      ]
    ]
  }
},
{
  "type": "Feature",
  "id": "way/283859446",
  "properties": {
    "bicycle": "yes",
    "highway": "tertiary",
    "name": "508",
    "ref": "508",
    "smoothness": "intermediate",
    "id": "way/283859446"
  },
  "geometry": {
    "type": "LineString",
    "coordinates": [
      [
        25.2994431,
        41.492705
      ],
      [
        25.29971,
        41.49373
      ],
      [
        25.29984,
        41.49407
      ],
      [
        25.30001,
        41.49431
      ],
      [
        25.3002,
        41.49446
      ],
      [
        25.30042,
        41.49459
      ],
      [
        25.30083,
        41.49472
      ],
      [
        25.3026331,
        41.4951867
      ],
      [
        25.30338,
        41.49538
      ],
      [
        25.3036,
        41.49549
      ],
      [
        25.30377,
        41.49566
      ],
      [
        25.3038395,
        41.495823
      ],
      [
        25.3041677,
        41.4965877
      ],
      [
        25.30437,
        41.49704
      ],
      [
        25.304651,
        41.4975909
      ],
      [
        25.30493,
        41.498
      ],
      [
        25.30544,
        41.49901
      ],
      [
        25.30585,
        41.50008
      ],
      [
        25.30628,
        41.50146
      ],
      [
        25.30645,
        41.50186
      ],
      [
        25.30671,
        41.50227
      ],
      [
        25.3067511,
        41.5023552
      ],
      [
        25.30699,
        41.50285
      ],
      [
        25.30716,
        41.50345
      ],
      [
        25.30729,
        41.50386
      ],
      [
        25.30793,
        41.50527
      ],
      [
        25.30874,
        41.50676
      ],
      [
        25.30945,
        41.50809
      ],
      [
        25.30969,
        41.50862
      ],
      [
        25.30973,
        41.50886
      ],
      [
        25.30977,
        41.50909
      ],
      [
        25.30967,
        41.5097
      ],
      [
        25.30967,
        41.50989
      ],
      [
        25.30973,
        41.51006
      ],
      [
        25.30986,
        41.51025
      ],
      [
        25.31029,
        41.51062
      ],
      [
        25.31083,
        41.51094
      ],
      [
        25.3109399,
        41.5110059
      ],
      [
        25.31183,
        41.51154
      ],
      [
        25.31254,
        41.51188
      ],
      [
        25.31353,
        41.51242
      ],
      [
        25.31387,
        41.51266
      ],
      [
        25.31411,
        41.51287
      ],
      [
        25.31435,
        41.51317
      ],
      [
        25.3145,
        41.51345
      ],
      [
        25.3149,
        41.51424
      ],
      [
        25.31553,
        41.51534
      ],
      [
        25.31718,
        41.51828
      ],
      [
        25.31774,
        41.51922
      ],
      [
        25.31971,
        41.52272
      ],
      [
        25.31984,
        41.52302
      ],
      [
        25.3199,
        41.5233
      ],
      [
        25.31997,
        41.52366
      ],
      [
        25.31986,
        41.52697
      ],
      [
        25.31988,
        41.52714
      ],
      [
        25.31997,
        41.52733
      ],
      [
        25.32014,
        41.52753
      ],
      [
        25.32156,
        41.52886
      ],
      [
        25.32186,
        41.52907
      ],
      [
        25.32213,
        41.52924
      ],
      [
        25.32246,
        41.52939
      ],
      [
        25.32282,
        41.52952
      ],
      [
        25.32331,
        41.52967
      ],
      [
        25.326,
        41.53012
      ],
      [
        25.32649,
        41.53023
      ],
      [
        25.32681,
        41.53034
      ],
      [
        25.32722,
        41.53047
      ],
      [
        25.32763,
        41.53068
      ],
      [
        25.3280009,
        41.5309167
      ],
      [
        25.3281,
        41.53098
      ],
      [
        25.32846,
        41.53122
      ],
      [
        25.32949,
        41.53188
      ],
      [
        25.32964,
        41.53205
      ],
      [
        25.32973,
        41.53225
      ],
      [
        25.3300546,
        41.5329517
      ],
      [
        25.33072,
        41.53439
      ],
      [
        25.33082,
        41.53459
      ],
      [
        25.33106,
        41.53484
      ],
      [
        25.33132,
        41.53508
      ],
      [
        25.3316,
        41.53523
      ],
      [
        25.33576,
        41.5372
      ],
      [
        25.33625,
        41.53742
      ],
      [
        25.33666,
        41.53753
      ],
      [
        25.33705,
        41.53761
      ],
      [
        25.33767,
        41.53774
      ],
      [
        25.33821,
        41.53778
      ],
      [
        25.3387753,
        41.537801
      ],
      [
        25.3394047,
        41.5378244
      ],
      [
        25.34117,
        41.53789
      ],
      [
        25.34138,
        41.53791
      ],
      [
        25.3416,
        41.538
      ],
      [
        25.34185,
        41.53811
      ],
      [
        25.34318,
        41.53911
      ],
      [
        25.34336,
        41.53929
      ],
      [
        25.34342,
        41.53948
      ],
      [
        25.34348,
        41.53971
      ],
      [
        25.34355,
        41.5398
      ],
      [
        25.34366,
        41.53989
      ],
      [
        25.34379,
        41.53995
      ],
      [
        25.3439615,
        41.5400072
      ]
    ]
  }
},
{
  "type": "Feature",
  "id": "way/283859458",
  "properties": {
    "bicycle": "yes",
    "bridge": "yes",
    "highway": "tertiary",
    "name": "508",
    "ref": "508",
    "smoothness": "intermediate",
    "id": "way/283859458"
  },
  "geometry": {
    "type": "LineString",
    "coordinates": [
      [
        25.2992711,
        41.4920749
      ],
      [
        25.2994431,
        41.492705
      ]
    ]
  }
},
{
  "type": "Feature",
  "id": "way/284293582",
  "properties": {
    "bicycle": "yes",
    "highway": "tertiary",
    "name": "508",
    "ref": "508",
    "smoothness": "intermediate",
    "id": "way/284293582"
  },
  "geometry": {
    "type": "LineString",
    "coordinates": [
      [
        25.3440941,
        41.5400514
      ],
      [
        25.34475,
        41.54027
      ],
      [
        25.34516,
        41.54038
      ],
      [
        25.34539,
        41.54042
      ],
      [
        25.34572,
        41.54044
      ],
      [
        25.34587,
        41.54049
      ],
      [
        25.34602,
        41.54059
      ],
      [
        25.34625,
        41.54085
      ],
      [
        25.34677,
        41.54158
      ],
      [
        25.34696,
        41.54182
      ],
      [
        25.34715,
        41.54197
      ],
      [
        25.34737,
        41.54212
      ],
      [
        25.34773,
        41.54233
      ],
      [
        25.34795,
        41.54244
      ],
      [
        25.34814,
        41.54248
      ],
      [
        25.34842,
        41.54253
      ],
      [
        25.34874,
        41.54255
      ],
      [
        25.3496,
        41.54253
      ],
      [
        25.34984,
        41.54257
      ],
      [
        25.35014,
        41.54263
      ],
      [
        25.35359,
        41.54377
      ],
      [
        25.35381,
        41.54388
      ],
      [
        25.35424,
        41.54409
      ],
      [
        25.35436,
        41.5442
      ],
      [
        25.35445,
        41.54428
      ],
      [
        25.35458,
        41.54441
      ],
      [
        25.35481,
        41.54484
      ],
      [
        25.35494,
        41.54501
      ],
      [
        25.35574,
        41.54583
      ],
      [
        25.35589,
        41.54596
      ],
      [
        25.35608,
        41.54604
      ],
      [
        25.35711,
        41.54641
      ],
      [
        25.35739,
        41.54654
      ],
      [
        25.35829,
        41.54714
      ],
      [
        25.35848,
        41.54722
      ],
      [
        25.35872,
        41.54727
      ],
      [
        25.36001,
        41.54746
      ],
      [
        25.3602,
        41.54752
      ],
      [
        25.36037,
        41.54761
      ],
      [
        25.36087,
        41.54795
      ],
      [
        25.36104,
        41.54804
      ],
      [
        25.36155,
        41.54823
      ],
      [
        25.36183,
        41.5483
      ],
      [
        25.36207,
        41.54832
      ],
      [
        25.36258,
        41.54832
      ],
      [
        25.36275,
        41.54834
      ],
      [
        25.36325,
        41.54853
      ],
      [
        25.36357,
        41.54862
      ],
      [
        25.36408,
        41.54871
      ],
      [
        25.36632,
        41.54907
      ],
      [
        25.36677,
        41.54918
      ],
      [
        25.36717,
        41.54928
      ],
      [
        25.3700423,
        41.5504462
      ],
      [
        25.370392,
        41.5505882
      ],
      [
        25.3706373,
        41.5506933
      ],
      [
        25.3709843,
        41.5508834
      ],
      [
        25.3711988,
        41.5510434
      ],
      [
        25.37189,
        41.55158
      ],
      [
        25.37211,
        41.55175
      ],
      [
        25.37245,
        41.55195
      ],
      [
        25.37672,
        41.55422
      ],
      [
        25.37696,
        41.55431
      ],
      [
        25.3775,
        41.55448
      ],
      [
        25.37777,
        41.55458
      ],
      [
        25.37803,
        41.55473
      ],
      [
        25.37825,
        41.55493
      ],
      [
        25.37876,
        41.55559
      ],
      [
        25.379,
        41.55585
      ],
      [
        25.37968,
        41.55645
      ],
      [
        25.37986,
        41.55667
      ],
      [
        25.37994,
        41.55682
      ],
      [
        25.38005,
        41.5572
      ],
      [
        25.3801736,
        41.5575709
      ],
      [
        25.3802,
        41.55765
      ],
      [
        25.3813531,
        41.5601771
      ],
      [
        25.3815547,
        41.5604347
      ],
      [
        25.3818029,
        41.5605926
      ],
      [
        25.3820768,
        41.5607691
      ],
      [
        25.3821939,
        41.5609518
      ],
      [
        25.3822736,
        41.5612183
      ],
      [
        25.3823607,
        41.5614829
      ],
      [
        25.3823879,
        41.5620408
      ]
    ]
  }
},
{
  "type": "Feature",
  "id": "way/284293581",
  "properties": {
    "bicycle": "yes",
    "bridge": "yes",
    "highway": "tertiary",
    "name": "508",
    "ref": "508",
    "smoothness": "intermediate",
    "id": "way/284293581"
  },
  "geometry": {
    "type": "LineString",
    "coordinates": [
      [
        25.3439615,
        41.5400072
      ],
      [
        25.3440941,
        41.5400514
      ]
    ]
  }
}
]
}
