{
"type": "FeatureCollection",
"features": [
{
  "type": "Feature",
  "id": "way/45885240",
  "properties": {
    "highway": "tertiary",
    "ref": "5603",
    "smoothness": "good",
    "id": "way/45885240"
  },
  "geometry": {
    "type": "LineString",
    "coordinates": [
      [
        25.2231816,
        42.485051
      ],
      [
        25.2234662,
        42.4850008
      ],
      [
        25.223569,
        42.4849618
      ],
      [
        25.2236543,
        42.484862
      ],
      [
        25.2237008,
        42.4847341
      ],
      [
        25.223678,
        42.4846234
      ],
      [
        25.2235656,
        42.4845304
      ],
      [
        25.2222795,
        42.4845163
      ],
      [
        25.2220873,
        42.4844653
      ],
      [
        25.2219841,
        42.484387
      ],
      [
        25.2219609,
        42.4843244
      ],
      [
        25.2219262,
        42.4834185
      ],
      [
        25.221877,
        42.4826426
      ],
      [
        25.2217683,
        42.4820014
      ],
      [
        25.2218266,
        42.4818749
      ],
      [
        25.2219214,
        42.4817665
      ],
      [
        25.2220866,
        42.4817447
      ],
      [
        25.222163,
        42.4817728
      ],
      [
        25.2221988,
        42.4818191
      ],
      [
        25.2222119,
        42.4819578
      ],
      [
        25.2222794,
        42.4822088
      ],
      [
        25.2224734,
        42.4824473
      ],
      [
        25.2227027,
        42.4829113
      ],
      [
        25.2228239,
        42.4829748
      ],
      [
        25.2228954,
        42.4829162
      ],
      [
        25.2228405,
        42.4827018
      ],
      [
        25.2227417,
        42.482556
      ],
      [
        25.2226377,
        42.4820863
      ],
      [
        25.2227751,
        42.4816827
      ],
      [
        25.2230088,
        42.4811866
      ],
      [
        25.2233203,
        42.4802304
      ],
      [
        25.2234615,
        42.4797894
      ],
      [
        25.2235143,
        42.4794417
      ],
      [
        25.2234708,
        42.4790647
      ],
      [
        25.2235825,
        42.4783699
      ],
      [
        25.2236377,
        42.4780767
      ],
      [
        25.2236377,
        42.477793
      ],
      [
        25.2237408,
        42.4772275
      ],
      [
        25.2237582,
        42.4770273
      ],
      [
        25.2237085,
        42.4768566
      ],
      [
        25.2234384,
        42.4765452
      ],
      [
        25.2233209,
        42.4763714
      ],
      [
        25.2231886,
        42.4761759
      ],
      [
        25.2230907,
        42.4759606
      ],
      [
        25.2229471,
        42.4757487
      ],
      [
        25.2227484,
        42.4755726
      ],
      [
        25.2223445,
        42.475253
      ],
      [
        25.2219332,
        42.4748691
      ],
      [
        25.221773,
        42.4747052
      ],
      [
        25.2217234,
        42.4746137
      ],
      [
        25.2217294,
        42.4744561
      ],
      [
        25.2219644,
        42.4736804
      ],
      [
        25.2221051,
        42.4731027
      ],
      [
        25.222173,
        42.4728394
      ],
      [
        25.222361,
        42.472501
      ],
      [
        25.2225809,
        42.4722684
      ],
      [
        25.2229067,
        42.4720244
      ],
      [
        25.2229656,
        42.47193
      ],
      [
        25.2229521,
        42.4715858
      ],
      [
        25.22291,
        42.4711334
      ],
      [
        25.2228914,
        42.4709282
      ],
      [
        25.2229426,
        42.470801
      ],
      [
        25.2232047,
        42.4705051
      ],
      [
        25.2233549,
        42.4702103
      ],
      [
        25.2236035,
        42.4696027
      ],
      [
        25.2237628,
        42.4694718
      ],
      [
        25.2239007,
        42.4693276
      ],
      [
        25.2238463,
        42.4692085
      ],
      [
        25.2237335,
        42.4691046
      ],
      [
        25.2236052,
        42.4690136
      ],
      [
        25.2235172,
        42.4689521
      ],
      [
        25.2235482,
        42.4687908
      ],
      [
        25.2236516,
        42.4686751
      ],
      [
        25.2236887,
        42.4684905
      ],
      [
        25.223596,
        42.4683059
      ],
      [
        25.2235867,
        42.4681554
      ],
      [
        25.2237344,
        42.4679233
      ],
      [
        25.2238509,
        42.4678306
      ],
      [
        25.2243084,
        42.4677655
      ],
      [
        25.2247547,
        42.467605
      ],
      [
        25.2252321,
        42.4675332
      ],
      [
        25.2255516,
        42.4674529
      ],
      [
        25.2257188,
        42.4673759
      ],
      [
        25.2257969,
        42.4672717
      ],
      [
        25.2258532,
        42.4667263
      ],
      [
        25.2259,
        42.4662734
      ],
      [
        25.2258625,
        42.4659706
      ],
      [
        25.2259042,
        42.4658202
      ],
      [
        25.2260333,
        42.4657322
      ],
      [
        25.2262518,
        42.4656663
      ],
      [
        25.2265252,
        42.4657267
      ],
      [
        25.2267571,
        42.4658715
      ],
      [
        25.2273176,
        42.4660391
      ],
      [
        25.2275238,
        42.4660928
      ],
      [
        25.2277212,
        42.4660561
      ],
      [
        25.2279181,
        42.4660048
      ],
      [
        25.2281754,
        42.4658646
      ],
      [
        25.2283191,
        42.4657655
      ],
      [
        25.2284425,
        42.4655934
      ],
      [
        25.22924,
        42.4644548
      ],
      [
        25.229362,
        42.4642371
      ],
      [
        25.2294056,
        42.4640472
      ],
      [
        25.2294288,
        42.4638205
      ],
      [
        25.2293342,
        42.4635635
      ],
      [
        25.2292143,
        42.4633489
      ],
      [
        25.2291348,
        42.4632284
      ],
      [
        25.229107,
        42.4631463
      ],
      [
        25.2290978,
        42.463013
      ],
      [
        25.2290872,
        42.4625217
      ],
      [
        25.2290421,
        42.4621205
      ],
      [
        25.2290421,
        42.4617375
      ],
      [
        25.2290097,
        42.4615153
      ],
      [
        25.2289309,
        42.461293
      ],
      [
        25.2289592,
        42.4611792
      ],
      [
        25.2290653,
        42.461122
      ],
      [
        25.2292309,
        42.4611593
      ],
      [
        25.2296957,
        42.461741
      ],
      [
        25.2298904,
        42.461929
      ],
      [
        25.2300942,
        42.4620253
      ],
      [
        25.2305989,
        42.4622233
      ],
      [
        25.2307942,
        42.4623462
      ],
      [
        25.2309379,
        42.4625308
      ],
      [
        25.2310865,
        42.4626103
      ],
      [
        25.2317073,
        42.4628796
      ],
      [
        25.2321105,
        42.4631668
      ],
      [
        25.2323176,
        42.46315
      ],
      [
        25.2323632,
        42.4629851
      ],
      [
        25.2322609,
        42.4625548
      ],
      [
        25.2319249,
        42.4614522
      ],
      [
        25.2318463,
        42.4611802
      ],
      [
        25.2317996,
        42.460692
      ],
      [
        25.2318695,
        42.4600141
      ],
      [
        25.2319935,
        42.4594429
      ],
      [
        25.2321072,
        42.4593249
      ],
      [
        25.232241,
        42.4593301
      ],
      [
        25.2324383,
        42.459423
      ],
      [
        25.2324971,
        42.459705
      ],
      [
        25.2325923,
        42.4600294
      ],
      [
        25.2326592,
        42.4601907
      ],
      [
        25.2328882,
        42.460248
      ],
      [
        25.2330966,
        42.4602291
      ],
      [
        25.2331932,
        42.4601197
      ],
      [
        25.2331766,
        42.4597884
      ],
      [
        25.2331859,
        42.4595388
      ],
      [
        25.2332522,
        42.4592379
      ],
      [
        25.2332878,
        42.4589336
      ],
      [
        25.23326,
        42.4587763
      ],
      [
        25.2331936,
        42.4586134
      ],
      [
        25.2327921,
        42.4579927
      ],
      [
        25.2327224,
        42.4577675
      ],
      [
        25.2327224,
        42.4575315
      ],
      [
        25.2327993,
        42.4572814
      ],
      [
        25.2333262,
        42.4564882
      ],
      [
        25.2333852,
        42.4562662
      ],
      [
        25.2333389,
        42.4560182
      ],
      [
        25.2332625,
        42.4555997
      ],
      [
        25.2332137,
        42.4553019
      ],
      [
        25.2332091,
        42.4551651
      ],
      [
        25.2332468,
        42.4550572
      ],
      [
        25.2333898,
        42.4549086
      ],
      [
        25.2335918,
        42.4548246
      ],
      [
        25.233749,
        42.4547385
      ],
      [
        25.2342657,
        42.4545112
      ],
      [
        25.2345182,
        42.4542352
      ],
      [
        25.2345663,
        42.4541379
      ],
      [
        25.2345584,
        42.454026
      ],
      [
        25.2344663,
        42.4539106
      ],
      [
        25.2343219,
        42.4538257
      ],
      [
        25.2339596,
        42.4537282
      ],
      [
        25.2336814,
        42.4536519
      ],
      [
        25.2333908,
        42.4535206
      ],
      [
        25.2330089,
        42.4532239
      ],
      [
        25.2319926,
        42.4524375
      ],
      [
        25.231437,
        42.451858
      ],
      [
        25.2300044,
        42.4500625
      ],
      [
        25.2291425,
        42.4494253
      ],
      [
        25.2285717,
        42.4488461
      ],
      [
        25.2283867,
        42.4485045
      ],
      [
        25.2283037,
        42.4481251
      ],
      [
        25.2283498,
        42.4477794
      ],
      [
        25.228248,
        42.4474656
      ],
      [
        25.227903,
        42.4468351
      ],
      [
        25.2272432,
        42.4460702
      ],
      [
        25.2268214,
        42.4452874
      ],
      [
        25.226755,
        42.4450969
      ],
      [
        25.226808,
        42.4433763
      ],
      [
        25.2266995,
        42.443033
      ],
      [
        25.2264746,
        42.4426343
      ],
      [
        25.2263246,
        42.4424119
      ],
      [
        25.2262539,
        42.4421023
      ],
      [
        25.2262919,
        42.4415267
      ],
      [
        25.2262602,
        42.4407854
      ],
      [
        25.2263543,
        42.4400887
      ],
      [
        25.2267872,
        42.4383642
      ],
      [
        25.2268228,
        42.4381695
      ],
      [
        25.2268318,
        42.4380037
      ],
      [
        25.2267442,
        42.4377099
      ],
      [
        25.2266655,
        42.4374583
      ],
      [
        25.2266425,
        42.4371602
      ],
      [
        25.2266343,
        42.436285
      ],
      [
        25.226874,
        42.4351424
      ],
      [
        25.2269366,
        42.4349136
      ],
      [
        25.227319,
        42.4343012
      ],
      [
        25.2280158,
        42.4333717
      ],
      [
        25.2292074,
        42.4320358
      ],
      [
        25.2295104,
        42.4318029
      ],
      [
        25.2298287,
        42.4316679
      ],
      [
        25.2301704,
        42.4315623
      ],
      [
        25.2304109,
        42.4315108
      ],
      [
        25.2305493,
        42.4314233
      ],
      [
        25.2305309,
        42.4313381
      ],
      [
        25.2304636,
        42.4311845
      ],
      [
        25.23034,
        42.4310049
      ],
      [
        25.2302516,
        42.4307172
      ],
      [
        25.2301562,
        42.4298977
      ],
      [
        25.2302439,
        42.4295993
      ],
      [
        25.2304419,
        42.4292763
      ],
      [
        25.2309773,
        42.4288053
      ],
      [
        25.2320692,
        42.4279355
      ],
      [
        25.2342704,
        42.4259357
      ],
      [
        25.2360525,
        42.4236243
      ],
      [
        25.2370128,
        42.4222771
      ],
      [
        25.2373089,
        42.4218616
      ],
      [
        25.2380281,
        42.4208527
      ],
      [
        25.2385497,
        42.4204496
      ],
      [
        25.2388011,
        42.4202553
      ],
      [
        25.2388825,
        42.4201924
      ],
      [
        25.2390557,
        42.4200154
      ],
      [
        25.2390517,
        42.4198294
      ],
      [
        25.2389684,
        42.4195758
      ],
      [
        25.2388924,
        42.4194507
      ],
      [
        25.2388035,
        42.4192708
      ],
      [
        25.2387209,
        42.4190142
      ],
      [
        25.2386552,
        42.4187718
      ],
      [
        25.2386133,
        42.4185478
      ],
      [
        25.2386009,
        42.4183873
      ],
      [
        25.2385845,
        42.4181637
      ],
      [
        25.2386374,
        42.4178274
      ],
      [
        25.2387742,
        42.4170794
      ],
      [
        25.2388368,
        42.4167105
      ],
      [
        25.2389921,
        42.4162255
      ],
      [
        25.239049,
        42.4160932
      ],
      [
        25.2391551,
        42.416012
      ],
      [
        25.2393285,
        42.4159144
      ],
      [
        25.2395972,
        42.4158463
      ],
      [
        25.2401322,
        42.4157437
      ],
      [
        25.2403827,
        42.4156749
      ],
      [
        25.2405411,
        42.4155854
      ],
      [
        25.2406716,
        42.4154717
      ],
      [
        25.2409712,
        42.414821
      ],
      [
        25.2412121,
        42.4141527
      ],
      [
        25.2413572,
        42.413848
      ],
      [
        25.2415498,
        42.413529
      ],
      [
        25.2420905,
        42.4126769
      ],
      [
        25.2424726,
        42.4120524
      ],
      [
        25.2427016,
        42.4115183
      ],
      [
        25.2463186,
        42.402349
      ],
      [
        25.2467632,
        42.4013939
      ],
      [
        25.2482826,
        42.3991141
      ],
      [
        25.2484284,
        42.3987255
      ],
      [
        25.2483808,
        42.3983219
      ],
      [
        25.2476346,
        42.3970406
      ],
      [
        25.2476701,
        42.3964335
      ],
      [
        25.2488582,
        42.3938911
      ],
      [
        25.2494554,
        42.3934414
      ],
      [
        25.2535512,
        42.391438
      ],
      [
        25.2545095,
        42.3910568
      ],
      [
        25.2584043,
        42.3896739
      ],
      [
        25.2586179,
        42.3892929
      ],
      [
        25.2584421,
        42.38873
      ],
      [
        25.2579038,
        42.3871186
      ],
      [
        25.2572546,
        42.3859975
      ],
      [
        25.2571062,
        42.3855552
      ],
      [
        25.2570452,
        42.3837103
      ],
      [
        25.2571217,
        42.383416
      ],
      [
        25.2573382,
        42.3831386
      ],
      [
        25.2575426,
        42.382822
      ],
      [
        25.2582968,
        42.3817476
      ],
      [
        25.2586767,
        42.3815175
      ],
      [
        25.2588037,
        42.3814406
      ],
      [
        25.2595954,
        42.3810616
      ],
      [
        25.2598455,
        42.3809419
      ],
      [
        25.2605794,
        42.3805905
      ],
      [
        25.2607534,
        42.3805072
      ],
      [
        25.2611435,
        42.380129
      ],
      [
        25.2615178,
        42.3794985
      ],
      [
        25.2618615,
        42.378834
      ],
      [
        25.2621286,
        42.3772256
      ],
      [
        25.26214,
        42.3765808
      ],
      [
        25.2621464,
        42.3762218
      ],
      [
        25.2622417,
        42.3743641
      ],
      [
        25.2622658,
        42.3738939
      ],
      [
        25.2622787,
        42.3736427
      ],
      [
        25.2622978,
        42.3732694
      ],
      [
        25.2622676,
        42.372857
      ],
      [
        25.2622482,
        42.3725918
      ],
      [
        25.2596778,
        42.3616598
      ],
      [
        25.2590867,
        42.3591946
      ],
      [
        25.2590285,
        42.3589982
      ]
    ]
  }
},
{
  "type": "Feature",
  "id": "way/110413515",
  "properties": {
    "highway": "tertiary",
    "ref": "5603",
    "smoothness": "good",
    "id": "way/110413515"
  },
  "geometry": {
    "type": "LineString",
    "coordinates": [
      [
        25.2265677,
        42.3325362
      ],
      [
        25.2265183,
        42.3324516
      ],
      [
        25.2264832,
        42.3323293
      ],
      [
        25.2264749,
        42.3321316
      ],
      [
        25.2265015,
        42.3301107
      ],
      [
        25.2264358,
        42.3298383
      ],
      [
        25.225397,
        42.3282127
      ],
      [
        25.2243739,
        42.3266232
      ],
      [
        25.2234068,
        42.3254036
      ],
      [
        25.2168989,
        42.3189376
      ],
      [
        25.2163156,
        42.318247
      ],
      [
        25.21541,
        42.3168715
      ],
      [
        25.2148199,
        42.3154752
      ],
      [
        25.2143515,
        42.3145557
      ],
      [
        25.2123435,
        42.3112452
      ],
      [
        25.2122649,
        42.3109657
      ],
      [
        25.2122618,
        42.3106792
      ],
      [
        25.2123435,
        42.310269
      ],
      [
        25.2130892,
        42.3077636
      ],
      [
        25.2133003,
        42.3070544
      ],
      [
        25.2133759,
        42.3069514
      ],
      [
        25.2137717,
        42.3064127
      ],
      [
        25.21424,
        42.3058977
      ],
      [
        25.2144058,
        42.3053952
      ],
      [
        25.2144204,
        42.3049617
      ],
      [
        25.2144314,
        42.3046358
      ],
      [
        25.2143809,
        42.3040471
      ],
      [
        25.2141235,
        42.3036722
      ],
      [
        25.2139883,
        42.3033753
      ],
      [
        25.213935,
        42.3030692
      ],
      [
        25.2139181,
        42.3026902
      ],
      [
        25.2138835,
        42.3017593
      ],
      [
        25.2137309,
        42.3006689
      ],
      [
        25.2133161,
        42.2991367
      ],
      [
        25.2130839,
        42.2988448
      ],
      [
        25.2127846,
        42.2985923
      ],
      [
        25.212569,
        42.2984135
      ],
      [
        25.2124722,
        42.2983332
      ],
      [
        25.2120796,
        42.2980298
      ],
      [
        25.2118328,
        42.297839
      ],
      [
        25.2110167,
        42.2975535
      ]
    ]
  }
},
{
  "type": "Feature",
  "id": "way/91967705",
  "properties": {
    "bridge": "yes",
    "highway": "tertiary",
    "layer": "1",
    "ref": "5603",
    "smoothness": "intermediate",
    "id": "way/91967705"
  },
  "geometry": {
    "type": "LineString",
    "coordinates": [
      [
        25.2110167,
        42.2975535
      ],
      [
        25.2103494,
        42.2973583
      ]
    ]
  }
},
{
  "type": "Feature",
  "id": "way/156979953",
  "properties": {
    "highway": "tertiary",
    "ref": "5603",
    "smoothness": "intermediate",
    "id": "way/156979953"
  },
  "geometry": {
    "type": "LineString",
    "coordinates": [
      [
        25.2103494,
        42.2973583
      ],
      [
        25.2100338,
        42.2972671
      ]
    ]
  }
},
{
  "type": "Feature",
  "id": "way/110413496",
  "properties": {
    "bridge": "yes",
    "highway": "tertiary",
    "layer": "1",
    "ref": "5603",
    "smoothness": "good",
    "id": "way/110413496"
  },
  "geometry": {
    "type": "LineString",
    "coordinates": [
      [
        25.2266873,
        42.3326169
      ],
      [
        25.2265677,
        42.3325362
      ]
    ]
  }
},
{
  "type": "Feature",
  "id": "way/92035631",
  "properties": {
    "highway": "tertiary",
    "ref": "5603",
    "smoothness": "good",
    "id": "way/92035631"
  },
  "geometry": {
    "type": "LineString",
    "coordinates": [
      [
        25.2589922,
        42.3587894
      ],
      [
        25.2588298,
        42.3584137
      ],
      [
        25.2543288,
        42.3544637
      ],
      [
        25.2530672,
        42.3533428
      ],
      [
        25.2519911,
        42.3522516
      ],
      [
        25.2512242,
        42.3516088
      ],
      [
        25.2392547,
        42.3433187
      ],
      [
        25.2366228,
        42.3414258
      ],
      [
        25.2353956,
        42.3402669
      ],
      [
        25.2316637,
        42.3364506
      ],
      [
        25.2312208,
        42.3359976
      ],
      [
        25.2308915,
        42.3357171
      ],
      [
        25.2306227,
        42.3355312
      ],
      [
        25.2299966,
        42.3350518
      ],
      [
        25.2297768,
        42.3348835
      ],
      [
        25.2295509,
        42.3346697
      ],
      [
        25.2288472,
        42.3340037
      ],
      [
        25.2285503,
        42.333881
      ],
      [
        25.2281542,
        42.3336236
      ],
      [
        25.2277132,
        42.3333378
      ],
      [
        25.2267714,
        42.3326771
      ],
      [
        25.2266873,
        42.3326169
      ]
    ]
  }
},
{
  "type": "Feature",
  "id": "way/92035628",
  "properties": {
    "bridge": "yes",
    "highway": "tertiary",
    "layer": "1",
    "ref": "5603",
    "smoothness": "good",
    "id": "way/92035628"
  },
  "geometry": {
    "type": "LineString",
    "coordinates": [
      [
        25.2590285,
        42.3589982
      ],
      [
        25.2589922,
        42.3587894
      ]
    ]
  }
},
{
  "type": "Feature",
  "id": "way/30653619",
  "properties": {
    "highway": "tertiary",
    "name": "5603",
    "ref": "5603",
    "smoothness": "good",
    "id": "way/30653619"
  },
  "geometry": {
    "type": "LineString",
    "coordinates": [
      [
        25.198375,
        42.4921755
      ],
      [
        25.198739,
        42.492374
      ],
      [
        25.1989367,
        42.4925122
      ],
      [
        25.1994138,
        42.492828
      ],
      [
        25.199579,
        42.4929995
      ],
      [
        25.1996272,
        42.4931595
      ],
      [
        25.1995747,
        42.4934099
      ],
      [
        25.1994838,
        42.4936509
      ],
      [
        25.1995599,
        42.4937565
      ],
      [
        25.1996936,
        42.4937211
      ],
      [
        25.1998087,
        42.4935368
      ],
      [
        25.2000211,
        42.4934101
      ],
      [
        25.200755,
        42.4929923
      ],
      [
        25.200935,
        42.4927967
      ],
      [
        25.2010366,
        42.4926185
      ],
      [
        25.2011536,
        42.4925253
      ],
      [
        25.2014344,
        42.4925077
      ],
      [
        25.2017016,
        42.4925475
      ],
      [
        25.2018918,
        42.4925035
      ],
      [
        25.2020059,
        42.4924197
      ],
      [
        25.202124,
        42.4923218
      ],
      [
        25.2022859,
        42.4922425
      ],
      [
        25.2024096,
        42.4922447
      ],
      [
        25.2025381,
        42.4922848
      ],
      [
        25.2027184,
        42.4924304
      ],
      [
        25.2028929,
        42.4925544
      ],
      [
        25.2031066,
        42.4926217
      ],
      [
        25.2032721,
        42.4925957
      ],
      [
        25.2034726,
        42.4924511
      ],
      [
        25.2036179,
        42.4923719
      ],
      [
        25.2037532,
        42.4923411
      ],
      [
        25.2038541,
        42.4923621
      ],
      [
        25.2039046,
        42.4924083
      ],
      [
        25.2039657,
        42.4925216
      ],
      [
        25.2040106,
        42.4927144
      ],
      [
        25.2040638,
        42.492828
      ],
      [
        25.2041723,
        42.4929027
      ],
      [
        25.2042724,
        42.4929195
      ],
      [
        25.2044406,
        42.4928959
      ],
      [
        25.2045797,
        42.4928302
      ],
      [
        25.2049139,
        42.4925638
      ],
      [
        25.2052656,
        42.4922725
      ],
      [
        25.2054446,
        42.492145
      ],
      [
        25.2056441,
        42.4920741
      ],
      [
        25.2058474,
        42.4920813
      ],
      [
        25.2060643,
        42.4921748
      ],
      [
        25.2062747,
        42.4923129
      ],
      [
        25.2064717,
        42.492461
      ],
      [
        25.2066768,
        42.4925554
      ],
      [
        25.2069262,
        42.4925501
      ],
      [
        25.2070828,
        42.4924856
      ],
      [
        25.2071553,
        42.4924388
      ],
      [
        25.2073091,
        42.4922897
      ],
      [
        25.2074642,
        42.4921386
      ],
      [
        25.2077129,
        42.4920043
      ],
      [
        25.2080299,
        42.4917735
      ],
      [
        25.2083616,
        42.491541
      ],
      [
        25.2085573,
        42.4914258
      ],
      [
        25.2087579,
        42.4913546
      ],
      [
        25.2089889,
        42.4913177
      ],
      [
        25.2092104,
        42.4912583
      ],
      [
        25.2093697,
        42.4911816
      ],
      [
        25.2096103,
        42.4910504
      ],
      [
        25.2098305,
        42.4909702
      ],
      [
        25.2100907,
        42.4909507
      ],
      [
        25.2103237,
        42.4909443
      ],
      [
        25.2104848,
        42.4909231
      ],
      [
        25.2105944,
        42.4908515
      ],
      [
        25.2106661,
        42.4907258
      ],
      [
        25.2106444,
        42.4905649
      ],
      [
        25.210528,
        42.4903761
      ],
      [
        25.2104445,
        42.4902612
      ],
      [
        25.2102075,
        42.4901716
      ],
      [
        25.2100101,
        42.490117
      ],
      [
        25.2098526,
        42.4900185
      ],
      [
        25.2097421,
        42.4898383
      ],
      [
        25.2095302,
        42.4892602
      ],
      [
        25.2094463,
        42.4890563
      ],
      [
        25.2094207,
        42.4886898
      ],
      [
        25.209452,
        42.4885557
      ],
      [
        25.2096103,
        42.4883478
      ],
      [
        25.2097512,
        42.4883011
      ],
      [
        25.2098647,
        42.488301
      ],
      [
        25.2100677,
        42.488352
      ],
      [
        25.2103014,
        42.4885636
      ],
      [
        25.2104445,
        42.4885981
      ],
      [
        25.2107124,
        42.4884866
      ],
      [
        25.2111062,
        42.488335
      ],
      [
        25.2112673,
        42.4883011
      ],
      [
        25.211582,
        42.4883332
      ],
      [
        25.2118343,
        42.4884025
      ],
      [
        25.212347,
        42.4886111
      ],
      [
        25.2131213,
        42.4891736
      ],
      [
        25.2133894,
        42.4893313
      ],
      [
        25.2136119,
        42.4894081
      ],
      [
        25.2139312,
        42.4894572
      ],
      [
        25.214193,
        42.4893788
      ],
      [
        25.2144328,
        42.4892262
      ],
      [
        25.2146284,
        42.4889831
      ],
      [
        25.2146907,
        42.4887551
      ],
      [
        25.2147187,
        42.4884053
      ],
      [
        25.2147799,
        42.4882311
      ],
      [
        25.2149043,
        42.4881237
      ],
      [
        25.2150517,
        42.4880906
      ],
      [
        25.2155874,
        42.4879517
      ],
      [
        25.2160617,
        42.487822
      ],
      [
        25.2163276,
        42.4877111
      ],
      [
        25.2165751,
        42.487532
      ],
      [
        25.2166174,
        42.4872639
      ],
      [
        25.2166441,
        42.4870707
      ],
      [
        25.2165648,
        42.4869016
      ],
      [
        25.2164259,
        42.4866695
      ],
      [
        25.216332,
        42.4865973
      ],
      [
        25.2160462,
        42.4864305
      ],
      [
        25.2157263,
        42.4861989
      ],
      [
        25.2154387,
        42.4859546
      ],
      [
        25.2153318,
        42.4857268
      ],
      [
        25.2154277,
        42.4854559
      ],
      [
        25.215764,
        42.4851933
      ],
      [
        25.2162378,
        42.4850657
      ],
      [
        25.2170166,
        42.4849971
      ],
      [
        25.2174225,
        42.4849825
      ],
      [
        25.2179482,
        42.4850886
      ],
      [
        25.2180767,
        42.4851493
      ],
      [
        25.2182364,
        42.4852348
      ],
      [
        25.2186667,
        42.4855519
      ],
      [
        25.2188877,
        42.4857276
      ],
      [
        25.2190446,
        42.4858394
      ],
      [
        25.219202,
        42.4859491
      ],
      [
        25.2193627,
        42.4860523
      ],
      [
        25.2196588,
        42.486147
      ],
      [
        25.2200828,
        42.4862216
      ],
      [
        25.2204382,
        42.4862815
      ],
      [
        25.220816,
        42.4862944
      ],
      [
        25.2211731,
        42.4862677
      ],
      [
        25.2215179,
        42.4861586
      ],
      [
        25.2217643,
        42.4859628
      ],
      [
        25.2220127,
        42.4856495
      ],
      [
        25.2221651,
        42.4852541
      ],
      [
        25.2223061,
        42.4851531
      ],
      [
        25.2225091,
        42.4851133
      ],
      [
        25.2228142,
        42.4850734
      ],
      [
        25.2231816,
        42.485051
      ]
    ]
  }
}
]
}
