{
"type": "FeatureCollection",
"features": [
{
  "type": "Feature",
  "id": "way/181236442",
  "properties": {
    "highway": "tertiary",
    "name": "705",
    "ref": "705",
    "smoothness": "good",
    "id": "way/181236442"
  },
  "geometry": {
    "type": "LineString",
    "coordinates": [
      [
        26.7881747,
        42.7659545
      ],
      [
        26.7882402,
        42.7656676
      ],
      [
        26.7905019,
        42.7567203
      ],
      [
        26.7906158,
        42.7564106
      ],
      [
        26.7907499,
        42.7561354
      ],
      [
        26.7908483,
        42.7559532
      ],
      [
        26.7909769,
        42.7557729
      ],
      [
        26.7911411,
        42.7555987
      ],
      [
        26.7913582,
        42.7553998
      ],
      [
        26.7916164,
        42.7551962
      ],
      [
        26.791937,
        42.7550174
      ],
      [
        26.7923285,
        42.7548353
      ],
      [
        26.79774,
        42.75282
      ],
      [
        26.80707,
        42.74926
      ],
      [
        26.8164,
        42.7457
      ],
      [
        26.82574,
        42.74214
      ],
      [
        26.828072,
        42.7412433
      ],
      [
        26.8302446,
        42.7404104
      ],
      [
        26.8306086,
        42.7402942
      ],
      [
        26.8309968,
        42.7401871
      ],
      [
        26.8312785,
        42.7401374
      ],
      [
        26.8316175,
        42.7401044
      ],
      [
        26.8324554,
        42.7400867
      ],
      [
        26.8332968,
        42.7400828
      ],
      [
        26.833693,
        42.7400447
      ],
      [
        26.8342167,
        42.7399818
      ],
      [
        26.8349555,
        42.7398786
      ],
      [
        26.8352413,
        42.7397992
      ],
      [
        26.8362116,
        42.739442
      ],
      [
        26.83786,
        42.73888
      ],
      [
        26.84127,
        42.73765
      ],
      [
        26.84168,
        42.73746
      ],
      [
        26.84518,
        42.7357
      ],
      [
        26.84578,
        42.73544
      ],
      [
        26.84649,
        42.73525
      ],
      [
        26.84915,
        42.73467
      ],
      [
        26.84996,
        42.73441
      ],
      [
        26.85119,
        42.73396
      ],
      [
        26.86052,
        42.73014
      ],
      [
        26.86985,
        42.7263
      ],
      [
        26.87919,
        42.72246
      ],
      [
        26.88221,
        42.72122
      ],
      [
        26.88273,
        42.72096
      ],
      [
        26.88779,
        42.71699
      ],
      [
        26.89541,
        42.71094
      ],
      [
        26.89588,
        42.7107
      ],
      [
        26.89648,
        42.71055
      ],
      [
        26.8990032,
        42.7102316
      ],
      [
        26.8994457,
        42.7101758
      ],
      [
        26.8997105,
        42.7101405
      ],
      [
        26.8999506,
        42.7100779
      ],
      [
        26.9001491,
        42.7100009
      ],
      [
        26.9003311,
        42.7099033
      ]
    ]
  }
},
{
  "type": "Feature",
  "id": "way/76588213",
  "properties": {
    "highway": "tertiary",
    "name": "705",
    "ref": "705",
    "smoothness": "good",
    "id": "way/76588213"
  },
  "geometry": {
    "type": "LineString",
    "coordinates": [
      [
        26.697882,
        42.831078
      ],
      [
        26.6981951,
        42.8309543
      ],
      [
        26.6988126,
        42.8308731
      ],
      [
        26.6991358,
        42.8307595
      ],
      [
        26.700434,
        42.830136
      ],
      [
        26.7010637,
        42.8298335
      ],
      [
        26.7014152,
        42.8296393
      ],
      [
        26.7019842,
        42.8293251
      ],
      [
        26.7027572,
        42.8289106
      ],
      [
        26.7029165,
        42.8288826
      ],
      [
        26.7031536,
        42.8289263
      ],
      [
        26.7041948,
        42.8292709
      ],
      [
        26.7046036,
        42.829341
      ],
      [
        26.7049222,
        42.8293205
      ],
      [
        26.7052441,
        42.8292308
      ],
      [
        26.7059608,
        42.8290521
      ],
      [
        26.7063879,
        42.8289498
      ],
      [
        26.7068921,
        42.8287743
      ],
      [
        26.7100605,
        42.8270152
      ],
      [
        26.7106693,
        42.8267481
      ],
      [
        26.7239389,
        42.8239871
      ],
      [
        26.7243386,
        42.8237894
      ],
      [
        26.7246175,
        42.8235204
      ],
      [
        26.7253913,
        42.8218359
      ],
      [
        26.7254564,
        42.8216952
      ],
      [
        26.7260766,
        42.8202856
      ],
      [
        26.7261195,
        42.8199384
      ],
      [
        26.7261008,
        42.8197958
      ],
      [
        26.7255134,
        42.8185819
      ],
      [
        26.7253913,
        42.8181412
      ],
      [
        26.7254637,
        42.81779
      ],
      [
        26.7270529,
        42.8157644
      ],
      [
        26.7278134,
        42.814701
      ],
      [
        26.728504,
        42.8141255
      ],
      [
        26.7295233,
        42.8136297
      ],
      [
        26.7299725,
        42.8134831
      ],
      [
        26.7358318,
        42.8122779
      ],
      [
        26.7368095,
        42.8119582
      ],
      [
        26.7374814,
        42.8116453
      ],
      [
        26.7381063,
        42.8112626
      ],
      [
        26.7410527,
        42.8090932
      ],
      [
        26.7419379,
        42.8084931
      ],
      [
        26.7430818,
        42.8079264
      ],
      [
        26.7466384,
        42.80642
      ],
      [
        26.7475236,
        42.8059989
      ],
      [
        26.7479192,
        42.8057145
      ],
      [
        26.7480788,
        42.8055325
      ],
      [
        26.7541392,
        42.7983042
      ],
      [
        26.7546784,
        42.7978152
      ],
      [
        26.7592985,
        42.7950489
      ],
      [
        26.7603848,
        42.7944467
      ],
      [
        26.7702084,
        42.7904413
      ],
      [
        26.7707958,
        42.7901549
      ],
      [
        26.7712061,
        42.7898616
      ],
      [
        26.7715119,
        42.7895014
      ],
      [
        26.7717158,
        42.7891008
      ],
      [
        26.7729643,
        42.7859061
      ],
      [
        26.7732781,
        42.7852663
      ],
      [
        26.7737194,
        42.7847565
      ],
      [
        26.7750108,
        42.7835724
      ],
      [
        26.7752201,
        42.7832378
      ],
      [
        26.7753193,
        42.7827909
      ],
      [
        26.7750055,
        42.7807485
      ],
      [
        26.774984,
        42.7799049
      ],
      [
        26.7758437,
        42.7768633
      ],
      [
        26.7762715,
        42.7759783
      ],
      [
        26.7793668,
        42.7713023
      ],
      [
        26.779753,
        42.770878
      ],
      [
        26.7806529,
        42.7704409
      ],
      [
        26.7826536,
        42.7697846
      ],
      [
        26.7861273,
        42.7686452
      ],
      [
        26.7867093,
        42.7684443
      ],
      [
        26.7871157,
        42.7682504
      ],
      [
        26.7875944,
        42.7678428
      ],
      [
        26.7876937,
        42.7676804
      ],
      [
        26.7881039,
        42.7662426
      ],
      [
        26.7881747,
        42.7659545
      ]
    ]
  }
},
{
  "type": "Feature",
  "id": "way/183491573",
  "properties": {
    "highway": "tertiary",
    "name": "705",
    "ref": "705",
    "id": "way/183491573"
  },
  "geometry": {
    "type": "LineString",
    "coordinates": [
      [
        26.9003311,
        42.7099033
      ],
      [
        26.9005376,
        42.7098018
      ],
      [
        26.9008788,
        42.7096239
      ],
      [
        26.9011657,
        42.7095322
      ],
      [
        26.901989,
        42.7093553
      ],
      [
        26.90279,
        42.70924
      ],
      [
        26.90412,
        42.70914
      ],
      [
        26.90462,
        42.70905
      ],
      [
        26.9048463,
        42.708952
      ],
      [
        26.90496,
        42.70879
      ],
      [
        26.9050937,
        42.7084543
      ],
      [
        26.9055172,
        42.7073909
      ],
      [
        26.9058569,
        42.7065762
      ],
      [
        26.9060223,
        42.7063065
      ],
      [
        26.9062149,
        42.7060103
      ],
      [
        26.90638,
        42.70583
      ],
      [
        26.90661,
        42.7057
      ],
      [
        26.907,
        42.70562
      ],
      [
        26.91633,
        42.70427
      ],
      [
        26.92567,
        42.70293
      ],
      [
        26.93369,
        42.70178
      ],
      [
        26.9339467,
        42.7018201
      ],
      [
        26.9342027,
        42.7018839
      ],
      [
        26.9344394,
        42.7020023
      ],
      [
        26.9346334,
        42.7021576
      ],
      [
        26.9350178,
        42.702588
      ],
      [
        26.9352435,
        42.702815
      ]
    ]
  }
}
]
}
