{
"type": "FeatureCollection",
"features": [
{
  "type": "Feature",
  "id": "way/82892568",
  "properties": {
    "highway": "tertiary_link",
    "oneway": "yes",
    "ref": "189",
    "id": "way/82892568"
  },
  "geometry": {
    "type": "LineString",
    "coordinates": [
      [
        23.1472379,
        42.7068996
      ],
      [
        23.1474138,
        42.7067771
      ]
    ]
  }
},
{
  "type": "Feature",
  "id": "way/82892787",
  "properties": {
    "highway": "tertiary",
    "name": "ул. Цар Освободител",
    "oneway": "no",
    "ref": "189",
    "smoothness": "good",
    "id": "way/82892787"
  },
  "geometry": {
    "type": "LineString",
    "coordinates": [
      [
        23.1474138,
        42.7067771
      ],
      [
        23.1480422,
        42.7062408
      ]
    ]
  }
},
{
  "type": "Feature",
  "id": "way/287202288",
  "properties": {
    "highway": "tertiary",
    "name": "ул. Цар Освободител",
    "oneway": "no",
    "ref": "189",
    "smoothness": "good",
    "id": "way/287202288"
  },
  "geometry": {
    "type": "LineString",
    "coordinates": [
      [
        23.1507679,
        42.7057105
      ],
      [
        23.1515181,
        42.705826
      ],
      [
        23.1519856,
        42.7059325
      ],
      [
        23.15338,
        42.7063696
      ],
      [
        23.1539923,
        42.7066026
      ],
      [
        23.1545604,
        42.7068634
      ],
      [
        23.1549727,
        42.707131
      ],
      [
        23.1559601,
        42.7078731
      ],
      [
        23.1562581,
        42.7080971
      ],
      [
        23.1567834,
        42.7084193
      ],
      [
        23.1572729,
        42.7086214
      ],
      [
        23.1577261,
        42.7087683
      ],
      [
        23.158516,
        42.7089906
      ],
      [
        23.1597866,
        42.7093863
      ],
      [
        23.1605507,
        42.7096744
      ],
      [
        23.161038,
        42.7098732
      ],
      [
        23.1614992,
        42.7101293
      ],
      [
        23.1618857,
        42.7103797
      ],
      [
        23.1621996,
        42.7106826
      ],
      [
        23.1627047,
        42.7111844
      ],
      [
        23.1629534,
        42.7113579
      ],
      [
        23.1632726,
        42.7115143
      ],
      [
        23.1636532,
        42.7116431
      ],
      [
        23.1644561,
        42.7118429
      ]
    ]
  }
},
{
  "type": "Feature",
  "id": "way/263413068",
  "properties": {
    "highway": "tertiary",
    "name": "ул. Цар Освободител",
    "oneway": "no",
    "ref": "189",
    "smoothness": "good",
    "id": "way/263413068"
  },
  "geometry": {
    "type": "LineString",
    "coordinates": [
      [
        23.1480422,
        42.7062408
      ],
      [
        23.1481923,
        42.7061232
      ],
      [
        23.1484415,
        42.705998
      ]
    ]
  }
},
{
  "type": "Feature",
  "id": "way/267397548",
  "properties": {
    "highway": "tertiary",
    "name": "ул. Цар Освободител",
    "oneway": "no",
    "ref": "189",
    "smoothness": "good",
    "id": "way/267397548"
  },
  "geometry": {
    "type": "LineString",
    "coordinates": [
      [
        23.1479593,
        42.7058228
      ],
      [
        23.1479684,
        42.7059613
      ],
      [
        23.1484415,
        42.705998
      ]
    ]
  }
},
{
  "type": "Feature",
  "id": "way/287202289",
  "properties": {
    "highway": "tertiary",
    "name": "ул. Цар Освободител",
    "oneway": "no",
    "ref": "189",
    "smoothness": "good",
    "id": "way/287202289"
  },
  "geometry": {
    "type": "LineString",
    "coordinates": [
      [
        23.1498055,
        42.7057696
      ],
      [
        23.1507679,
        42.7057105
      ]
    ]
  }
},
{
  "type": "Feature",
  "id": "way/339028687",
  "properties": {
    "highway": "tertiary",
    "name": "ул. Цар Освободител",
    "oneway": "no",
    "ref": "189",
    "smoothness": "good",
    "id": "way/339028687"
  },
  "geometry": {
    "type": "LineString",
    "coordinates": [
      [
        23.1484415,
        42.705998
      ],
      [
        23.1481923,
        42.7061232
      ],
      [
        23.1480422,
        42.7062408
      ]
    ]
  }
},
{
  "type": "Feature",
  "id": "way/339035936",
  "properties": {
    "highway": "tertiary",
    "name": "ул. Цар Освободител",
    "oneway": "no",
    "ref": "189",
    "smoothness": "good",
    "id": "way/339035936"
  },
  "geometry": {
    "type": "LineString",
    "coordinates": [
      [
        23.1484415,
        42.705998
      ],
      [
        23.1494928,
        42.7058189
      ],
      [
        23.1498055,
        42.7057696
      ]
    ]
  }
},
{
  "type": "Feature",
  "id": "way/339035938",
  "properties": {
    "highway": "tertiary",
    "name": "ул. Цар Освободител",
    "oneway": "no",
    "ref": "189",
    "smoothness": "good",
    "id": "way/339035938"
  },
  "geometry": {
    "type": "LineString",
    "coordinates": [
      [
        23.1479684,
        42.7059613
      ],
      [
        23.1484415,
        42.705998
      ]
    ]
  }
},
{
  "type": "Feature",
  "id": "way/82892747",
  "properties": {
    "highway": "tertiary_link",
    "oneway": "yes",
    "ref": "189",
    "smoothness": "good",
    "id": "way/82892747"
  },
  "geometry": {
    "type": "LineString",
    "coordinates": [
      [
        23.1474138,
        42.7067771
      ],
      [
        23.1474025,
        42.7068591
      ],
      [
        23.1474305,
        42.7069359
      ]
    ]
  }
},
{
  "type": "Feature",
  "id": "way/60775501",
  "properties": {
    "highway": "tertiary",
    "name": "ул. София",
    "ref": "189",
    "smoothness": "good",
    "id": "way/60775501"
  },
  "geometry": {
    "type": "LineString",
    "coordinates": [
      [
        23.1644561,
        42.7118429
      ],
      [
        23.1648298,
        42.7119499
      ],
      [
        23.1654791,
        42.7122804
      ],
      [
        23.1662048,
        42.7127331
      ],
      [
        23.1677424,
        42.7137593
      ],
      [
        23.1681927,
        42.7139207
      ],
      [
        23.1696907,
        42.7143787
      ],
      [
        23.1717486,
        42.7146711
      ],
      [
        23.1728509,
        42.7148516
      ]
    ]
  }
},
{
  "type": "Feature",
  "id": "way/181276233",
  "properties": {
    "highway": "tertiary",
    "oneway": "yes",
    "ref": "189",
    "id": "way/181276233"
  },
  "geometry": {
    "type": "LineString",
    "coordinates": [
      [
        23.1733678,
        42.7149321
      ],
      [
        23.1735734,
        42.7150817
      ]
    ]
  }
},
{
  "type": "Feature",
  "id": "way/181276236",
  "properties": {
    "highway": "tertiary",
    "oneway": "yes",
    "ref": "189",
    "id": "way/181276236"
  },
  "geometry": {
    "type": "LineString",
    "coordinates": [
      [
        23.1735734,
        42.7150817
      ],
      [
        23.1732941,
        42.7150271
      ]
    ]
  }
},
{
  "type": "Feature",
  "id": "way/181276232",
  "properties": {
    "highway": "tertiary",
    "oneway": "yes",
    "ref": "189",
    "id": "way/181276232"
  },
  "geometry": {
    "type": "LineString",
    "coordinates": [
      [
        23.1731461,
        42.7149695
      ],
      [
        23.1728509,
        42.7148516
      ]
    ]
  }
},
{
  "type": "Feature",
  "id": "way/181276234",
  "properties": {
    "highway": "tertiary",
    "oneway": "yes",
    "ref": "189",
    "id": "way/181276234"
  },
  "geometry": {
    "type": "LineString",
    "coordinates": [
      [
        23.1728509,
        42.7148516
      ],
      [
        23.1731803,
        42.714886
      ]
    ]
  }
},
{
  "type": "Feature",
  "id": "way/263080513",
  "properties": {
    "highway": "tertiary",
    "junction": "roundabout",
    "oneway": "yes",
    "ref": "189",
    "id": "way/263080513"
  },
  "geometry": {
    "type": "LineString",
    "coordinates": [
      [
        23.1731803,
        42.714886
      ],
      [
        23.1732139,
        42.7148706
      ],
      [
        23.1732337,
        42.7148663
      ],
      [
        23.1732732,
        42.7148656
      ]
    ]
  }
},
{
  "type": "Feature",
  "id": "way/263080515",
  "properties": {
    "highway": "tertiary",
    "junction": "roundabout",
    "oneway": "yes",
    "ref": "189",
    "id": "way/263080515"
  },
  "geometry": {
    "type": "LineString",
    "coordinates": [
      [
        23.1732163,
        42.7150265
      ],
      [
        23.1731905,
        42.7150165
      ],
      [
        23.1731627,
        42.7149959
      ],
      [
        23.1731461,
        42.7149695
      ]
    ]
  }
},
{
  "type": "Feature",
  "id": "way/264674444",
  "properties": {
    "highway": "tertiary",
    "junction": "roundabout",
    "oneway": "yes",
    "ref": "189",
    "id": "way/264674444"
  },
  "geometry": {
    "type": "LineString",
    "coordinates": [
      [
        23.1732941,
        42.7150271
      ],
      [
        23.1732551,
        42.7150319
      ],
      [
        23.1732163,
        42.7150265
      ]
    ]
  }
},
{
  "type": "Feature",
  "id": "way/264674445",
  "properties": {
    "highway": "tertiary",
    "junction": "roundabout",
    "oneway": "yes",
    "ref": "189",
    "id": "way/264674445"
  },
  "geometry": {
    "type": "LineString",
    "coordinates": [
      [
        23.1732732,
        42.7148656
      ],
      [
        23.1733214,
        42.7148798
      ],
      [
        23.1733494,
        42.7149003
      ],
      [
        23.1733678,
        42.7149321
      ]
    ]
  }
},
{
  "type": "Feature",
  "id": "way/267396056",
  "properties": {
    "highway": "tertiary",
    "junction": "roundabout",
    "oneway": "yes",
    "ref": "189",
    "id": "way/267396056"
  },
  "geometry": {
    "type": "LineString",
    "coordinates": [
      [
        23.1731461,
        42.7149695
      ],
      [
        23.1731436,
        42.7149364
      ],
      [
        23.1731559,
        42.7149088
      ],
      [
        23.1731803,
        42.714886
      ]
    ]
  }
},
{
  "type": "Feature",
  "id": "way/267396057",
  "properties": {
    "highway": "tertiary",
    "junction": "roundabout",
    "oneway": "yes",
    "ref": "189",
    "id": "way/267396057"
  },
  "geometry": {
    "type": "LineString",
    "coordinates": [
      [
        23.1733678,
        42.7149321
      ],
      [
        23.1733686,
        42.7149612
      ],
      [
        23.1733558,
        42.7149886
      ],
      [
        23.1733285,
        42.7150128
      ],
      [
        23.1732941,
        42.7150271
      ]
    ]
  }
},
{
  "type": "Feature",
  "id": "way/339629689",
  "properties": {
    "highway": "tertiary",
    "name": "София",
    "ref": "189",
    "smoothness": "good",
    "id": "way/339629689"
  },
  "geometry": {
    "type": "LineString",
    "coordinates": [
      [
        23.1908458,
        42.7182311
      ],
      [
        23.189101,
        42.7180964
      ],
      [
        23.1863842,
        42.7178948
      ],
      [
        23.1843658,
        42.7175176
      ],
      [
        23.1833492,
        42.7173276
      ],
      [
        23.1831357,
        42.7172867
      ],
      [
        23.1817238,
        42.7170162
      ],
      [
        23.1815245,
        42.7169778
      ],
      [
        23.1808756,
        42.716853
      ],
      [
        23.1806534,
        42.7168102
      ],
      [
        23.1800684,
        42.7167011
      ],
      [
        23.1797971,
        42.7166476
      ],
      [
        23.1787221,
        42.7164355
      ],
      [
        23.1775792,
        42.7162218
      ],
      [
        23.1770803,
        42.7160961
      ],
      [
        23.1765265,
        42.7159228
      ],
      [
        23.1757224,
        42.7156712
      ],
      [
        23.1748651,
        42.7154878
      ],
      [
        23.1743762,
        42.7153773
      ],
      [
        23.1738732,
        42.7152033
      ],
      [
        23.1735734,
        42.7150817
      ]
    ]
  }
},
{
  "type": "Feature",
  "id": "way/286894727",
  "properties": {
    "highway": "tertiary",
    "name": "189",
    "ref": "189",
    "smoothness": "good",
    "id": "way/286894727"
  },
  "geometry": {
    "type": "LineString",
    "coordinates": [
      [
        23.1965121,
        42.7180139
      ],
      [
        23.1947896,
        42.7181769
      ],
      [
        23.1943608,
        42.7182225
      ],
      [
        23.1933822,
        42.7183103
      ],
      [
        23.1924983,
        42.7183361
      ]
    ]
  }
},
{
  "type": "Feature",
  "id": "way/286894728",
  "properties": {
    "highway": "tertiary",
    "name": "189",
    "ref": "189",
    "smoothness": "good",
    "id": "way/286894728"
  },
  "geometry": {
    "type": "LineString",
    "coordinates": [
      [
        23.201056,
        42.7171332
      ],
      [
        23.2002841,
        42.7173872
      ],
      [
        23.1995199,
        42.7176018
      ],
      [
        23.1987839,
        42.7177573
      ],
      [
        23.1976558,
        42.7179006
      ],
      [
        23.1965121,
        42.7180139
      ]
    ]
  }
},
{
  "type": "Feature",
  "id": "way/165334462",
  "properties": {
    "highway": "tertiary",
    "name": "София",
    "ref": "189",
    "smoothness": "good",
    "id": "way/165334462"
  },
  "geometry": {
    "type": "LineString",
    "coordinates": [
      [
        23.1924983,
        42.7183361
      ],
      [
        23.1917146,
        42.7182982
      ],
      [
        23.1910696,
        42.7182484
      ]
    ]
  }
},
{
  "type": "Feature",
  "id": "way/339629688",
  "properties": {
    "highway": "tertiary",
    "name": "София",
    "ref": "189",
    "smoothness": "good",
    "id": "way/339629688"
  },
  "geometry": {
    "type": "LineString",
    "coordinates": [
      [
        23.1908458,
        42.7182311
      ],
      [
        23.1910696,
        42.7182484
      ]
    ]
  }
},
{
  "type": "Feature",
  "id": "way/199486225",
  "properties": {
    "highway": "tertiary",
    "name": "189",
    "ref": "189",
    "smoothness": "good",
    "id": "way/199486225"
  },
  "geometry": {
    "type": "LineString",
    "coordinates": [
      [
        23.2140623,
        42.7148259
      ],
      [
        23.2121031,
        42.7150436
      ]
    ]
  }
},
{
  "type": "Feature",
  "id": "way/264674447",
  "properties": {
    "highway": "tertiary",
    "name": "189",
    "ref": "189",
    "smoothness": "good",
    "id": "way/264674447"
  },
  "geometry": {
    "type": "LineString",
    "coordinates": [
      [
        23.2121031,
        42.7150436
      ],
      [
        23.207632,
        42.7154708
      ],
      [
        23.2055635,
        42.7158303
      ],
      [
        23.2035379,
        42.7163033
      ],
      [
        23.201056,
        42.7171332
      ]
    ]
  }
},
{
  "type": "Feature",
  "id": "way/24432210",
  "properties": {
    "highway": "tertiary",
    "name": "189",
    "ref": "189",
    "smoothness": "good",
    "id": "way/24432210"
  },
  "geometry": {
    "type": "LineString",
    "coordinates": [
      [
        23.2205921,
        42.7141871
      ],
      [
        23.226212,
        42.7136243
      ],
      [
        23.2274136,
        42.7134824
      ],
      [
        23.227987,
        42.7134062
      ]
    ]
  }
},
{
  "type": "Feature",
  "id": "way/24955891",
  "properties": {
    "highway": "tertiary",
    "name": "189",
    "ref": "189",
    "smoothness": "good",
    "id": "way/24955891"
  },
  "geometry": {
    "type": "LineString",
    "coordinates": [
      [
        23.2199408,
        42.7142523
      ],
      [
        23.2198718,
        42.7142618
      ],
      [
        23.2195516,
        42.7143005
      ],
      [
        23.217348,
        42.714512
      ]
    ]
  }
},
{
  "type": "Feature",
  "id": "way/199486229",
  "properties": {
    "bridge": "yes",
    "highway": "tertiary",
    "lanes": "2",
    "name": "189",
    "oneway": "no",
    "ref": "189",
    "smoothness": "good",
    "surface": "asphalt",
    "id": "way/199486229"
  },
  "geometry": {
    "type": "LineString",
    "coordinates": [
      [
        23.2150262,
        42.7147188
      ],
      [
        23.2140623,
        42.7148259
      ]
    ]
  }
},
{
  "type": "Feature",
  "id": "way/339434765",
  "properties": {
    "highway": "tertiary",
    "name": "189",
    "ref": "189",
    "smoothness": "good",
    "id": "way/339434765"
  },
  "geometry": {
    "type": "LineString",
    "coordinates": [
      [
        23.217348,
        42.714512
      ],
      [
        23.2150262,
        42.7147188
      ]
    ]
  }
},
{
  "type": "Feature",
  "id": "way/24955884",
  "properties": {
    "bridge": "yes",
    "highway": "tertiary",
    "layer": "1",
    "ref": "189",
    "smoothness": "good",
    "id": "way/24955884"
  },
  "geometry": {
    "type": "LineString",
    "coordinates": [
      [
        23.2205921,
        42.7141871
      ],
      [
        23.2199408,
        42.7142523
      ]
    ]
  }
}
]
}
