{
"type": "FeatureCollection",
"features": [
{
  "type": "Feature",
  "id": "way/233174296",
  "properties": {
    "highway": "tertiary",
    "ref": "804",
    "smoothness": "bad",
    "id": "way/233174296"
  },
  "geometry": {
    "type": "LineString",
    "coordinates": [
      [
        24.9516295,
        42.0641386
      ],
      [
        24.9522606,
        42.0646346
      ],
      [
        24.9531779,
        42.0654033
      ],
      [
        24.9541039,
        42.0661545
      ],
      [
        24.9549852,
        42.0668694
      ],
      [
        24.9559106,
        42.067623
      ],
      [
        24.9566438,
        42.0682281
      ],
      [
        24.9568455,
        42.0683935
      ],
      [
        24.9574354,
        42.0688661
      ],
      [
        24.958566,
        42.069771
      ],
      [
        24.966292,
        42.0759543
      ],
      [
        24.9664964,
        42.0760946
      ],
      [
        24.9668776,
        42.0763258
      ],
      [
        24.9674534,
        42.0766236
      ],
      [
        24.9692849,
        42.0776224
      ],
      [
        24.9700882,
        42.0780658
      ],
      [
        24.9706356,
        42.078362
      ],
      [
        24.9712871,
        42.078793
      ],
      [
        24.9726084,
        42.0797567
      ],
      [
        24.9739932,
        42.0808164
      ],
      [
        24.9744867,
        42.0811871
      ],
      [
        24.980193,
        42.0838558
      ],
      [
        24.9853928,
        42.0869024
      ],
      [
        24.9900453,
        42.089299
      ],
      [
        24.9988577,
        42.0945386
      ],
      [
        25.0043165,
        42.0988777
      ],
      [
        25.0096585,
        42.1020137
      ],
      [
        25.0120975,
        42.1032665
      ],
      [
        25.0150004,
        42.1047576
      ],
      [
        25.015988,
        42.1055325
      ],
      [
        25.0178111,
        42.106963
      ],
      [
        25.0231084,
        42.110893
      ],
      [
        25.0265648,
        42.1139587
      ],
      [
        25.0296831,
        42.1168292
      ],
      [
        25.0317572,
        42.1185921
      ],
      [
        25.0325597,
        42.1198042
      ],
      [
        25.0348965,
        42.1229117
      ],
      [
        25.0356904,
        42.1233589
      ],
      [
        25.0369586,
        42.1240567
      ],
      [
        25.0374976,
        42.1243533
      ],
      [
        25.0377671,
        42.1246004
      ],
      [
        25.0388981,
        42.1256372
      ],
      [
        25.0391564,
        42.1258767
      ],
      [
        25.040034,
        42.1266618
      ],
      [
        25.041158,
        42.1279274
      ],
      [
        25.0415552,
        42.128505
      ],
      [
        25.0422793,
        42.1293269
      ],
      [
        25.0425695,
        42.1300096
      ],
      [
        25.0436003,
        42.132341
      ],
      [
        25.0438972,
        42.1330023
      ],
      [
        25.0442885,
        42.1335491
      ],
      [
        25.0447864,
        42.134017
      ],
      [
        25.0472122,
        42.1357466
      ],
      [
        25.0493147,
        42.1371628
      ],
      [
        25.0497399,
        42.1372819
      ]
    ]
  }
},
{
  "type": "Feature",
  "id": "way/204897562",
  "properties": {
    "highway": "tertiary",
    "name": "Цар Иван Асен II",
    "ref": "804",
    "smoothness": "good",
    "id": "way/204897562"
  },
  "geometry": {
    "type": "LineString",
    "coordinates": [
      [
        24.8793679,
        42.0110104
      ],
      [
        24.8796734,
        42.0112801
      ],
      [
        24.8797459,
        42.0113413
      ],
      [
        24.8806673,
        42.0121688
      ],
      [
        24.8813387,
        42.0128884
      ],
      [
        24.8824911,
        42.0137381
      ],
      [
        24.8830845,
        42.0141757
      ],
      [
        24.8845358,
        42.0152383
      ],
      [
        24.8855756,
        42.0155312
      ],
      [
        24.8861045,
        42.0156931
      ],
      [
        24.8873298,
        42.0160148
      ],
      [
        24.887616,
        42.0161351
      ],
      [
        24.8878824,
        42.0163193
      ],
      [
        24.8884814,
        42.0166522
      ],
      [
        24.8886413,
        42.0167411
      ],
      [
        24.8895204,
        42.0172424
      ],
      [
        24.8899322,
        42.0174772
      ],
      [
        24.8946417,
        42.0203252
      ]
    ]
  }
},
{
  "type": "Feature",
  "id": "way/204897563",
  "properties": {
    "highway": "tertiary",
    "name": "Цар Иван Асен II",
    "oneway": "yes",
    "ref": "804",
    "id": "way/204897563"
  },
  "geometry": {
    "type": "LineString",
    "coordinates": [
      [
        24.8789283,
        42.0106145
      ],
      [
        24.879235,
        42.0108445
      ],
      [
        24.8793679,
        42.0110104
      ]
    ]
  }
},
{
  "type": "Feature",
  "id": "way/204897564",
  "properties": {
    "highway": "tertiary",
    "name": "Цар Иван Асен II",
    "oneway": "yes",
    "ref": "804",
    "id": "way/204897564"
  },
  "geometry": {
    "type": "LineString",
    "coordinates": [
      [
        24.8793679,
        42.0110104
      ],
      [
        24.8790901,
        42.0108181
      ],
      [
        24.8788775,
        42.0107359
      ]
    ]
  }
},
{
  "type": "Feature",
  "id": "way/97851278",
  "properties": {
    "highway": "tertiary",
    "ref": "804",
    "smoothness": "bad",
    "id": "way/97851278"
  },
  "geometry": {
    "type": "LineString",
    "coordinates": [
      [
        24.8946417,
        42.0203252
      ],
      [
        24.8987495,
        42.0226554
      ],
      [
        24.9020253,
        42.0246325
      ],
      [
        24.9033105,
        42.0252894
      ],
      [
        24.9038689,
        42.0255921
      ],
      [
        24.9054857,
        42.0265325
      ],
      [
        24.9060691,
        42.0268541
      ],
      [
        24.9068393,
        42.0271808
      ],
      [
        24.910442,
        42.0285516
      ],
      [
        24.9107675,
        42.0287024
      ],
      [
        24.9112573,
        42.0289921
      ],
      [
        24.9126909,
        42.0298667
      ],
      [
        24.9154695,
        42.0315618
      ],
      [
        24.9155588,
        42.0316163
      ],
      [
        24.9157873,
        42.0317557
      ],
      [
        24.9171604,
        42.0326171
      ],
      [
        24.917589,
        42.0329259
      ],
      [
        24.9194753,
        42.0344301
      ],
      [
        24.9228149,
        42.0371457
      ],
      [
        24.9232632,
        42.0375736
      ],
      [
        24.9235959,
        42.0380103
      ],
      [
        24.9253802,
        42.0410122
      ],
      [
        24.9271892,
        42.0440035
      ],
      [
        24.9274809,
        42.0444604
      ],
      [
        24.9277202,
        42.0447261
      ],
      [
        24.9280688,
        42.045046
      ],
      [
        24.9298004,
        42.0464125
      ],
      [
        24.9302801,
        42.0467442
      ],
      [
        24.9309086,
        42.0471139
      ],
      [
        24.9336063,
        42.0487954
      ],
      [
        24.9339061,
        42.0490108
      ],
      [
        24.9353627,
        42.0502282
      ],
      [
        24.9361636,
        42.0510061
      ],
      [
        24.9369573,
        42.0518209
      ],
      [
        24.9372223,
        42.0520663
      ],
      [
        24.9374583,
        42.0522485
      ],
      [
        24.9377672,
        42.0524866
      ],
      [
        24.9392446,
        42.0536255
      ],
      [
        24.9395298,
        42.0538886
      ],
      [
        24.9397789,
        42.054181
      ],
      [
        24.9399983,
        42.0544522
      ],
      [
        24.9401587,
        42.0547774
      ],
      [
        24.9402947,
        42.0551622
      ],
      [
        24.9404428,
        42.0554262
      ],
      [
        24.9406023,
        42.0556258
      ],
      [
        24.9407915,
        42.0557612
      ],
      [
        24.9410911,
        42.0559654
      ],
      [
        24.9417718,
        42.0564441
      ],
      [
        24.9421273,
        42.056765
      ],
      [
        24.9425079,
        42.0572185
      ],
      [
        24.9432763,
        42.0581954
      ],
      [
        24.9436584,
        42.0586674
      ],
      [
        24.943925,
        42.0589127
      ],
      [
        24.9443665,
        42.0592672
      ],
      [
        24.9469045,
        42.0613528
      ],
      [
        24.9497063,
        42.063145
      ],
      [
        24.9501811,
        42.063405
      ],
      [
        24.9512153,
        42.0638624
      ],
      [
        24.9513344,
        42.0639278
      ],
      [
        24.9516295,
        42.0641386
      ]
    ]
  }
},
{
  "type": "Feature",
  "id": "way/236880786",
  "properties": {
    "highway": "tertiary",
    "ref": "804",
    "id": "way/236880786"
  },
  "geometry": {
    "type": "LineString",
    "coordinates": [
      [
        25.0465446,
        42.1393023
      ],
      [
        25.0473465,
        42.1387722
      ],
      [
        25.0489821,
        42.13766
      ],
      [
        25.0493842,
        42.1374178
      ]
    ]
  }
},
{
  "type": "Feature",
  "id": "way/100148572",
  "properties": {
    "highway": "tertiary",
    "oneway": "yes",
    "ref": "804",
    "id": "way/100148572"
  },
  "geometry": {
    "type": "LineString",
    "coordinates": [
      [
        25.0451766,
        42.1398393
      ],
      [
        25.0457351,
        42.1396507
      ],
      [
        25.0461717,
        42.1394702
      ],
      [
        25.0465446,
        42.1393023
      ]
    ]
  }
},
{
  "type": "Feature",
  "id": "way/236880787",
  "properties": {
    "highway": "tertiary",
    "oneway": "yes",
    "ref": "804",
    "id": "way/236880787"
  },
  "geometry": {
    "type": "LineString",
    "coordinates": [
      [
        25.0465446,
        42.1393023
      ],
      [
        25.0464491,
        42.1394268
      ],
      [
        25.0464627,
        42.1395097
      ],
      [
        25.0465942,
        42.1395799
      ]
    ]
  }
},
{
  "type": "Feature",
  "id": "way/236880789",
  "properties": {
    "highway": "tertiary",
    "oneway": "yes",
    "ref": "804",
    "id": "way/236880789"
  },
  "geometry": {
    "type": "LineString",
    "coordinates": [
      [
        25.0464491,
        42.1394268
      ],
      [
        25.0463927,
        42.1395092
      ],
      [
        25.0463246,
        42.1395871
      ],
      [
        25.0462466,
        42.1396481
      ],
      [
        25.0461543,
        42.1396014
      ],
      [
        25.0461272,
        42.1395338
      ],
      [
        25.0461717,
        42.1394702
      ]
    ]
  }
},
{
  "type": "Feature",
  "id": "way/181249416",
  "properties": {
    "highway": "tertiary",
    "ref": "804",
    "id": "way/181249416"
  },
  "geometry": {
    "type": "LineString",
    "coordinates": [
      [
        25.0497399,
        42.1372819
      ],
      [
        25.0517997,
        42.1371751
      ],
      [
        25.0521102,
        42.137159
      ],
      [
        25.0524785,
        42.1371399
      ],
      [
        25.0527925,
        42.1371236
      ]
    ]
  }
},
{
  "type": "Feature",
  "id": "way/236880785",
  "properties": {
    "highway": "tertiary",
    "oneway": "-1",
    "ref": "804",
    "id": "way/236880785"
  },
  "geometry": {
    "type": "LineString",
    "coordinates": [
      [
        25.0493842,
        42.1374178
      ],
      [
        25.0497399,
        42.1372819
      ]
    ]
  }
},
{
  "type": "Feature",
  "id": "way/236880788",
  "properties": {
    "highway": "tertiary",
    "oneway": "yes",
    "ref": "804",
    "id": "way/236880788"
  },
  "geometry": {
    "type": "LineString",
    "coordinates": [
      [
        25.0493842,
        42.1374178
      ],
      [
        25.0494279,
        42.1372833
      ],
      [
        25.0493147,
        42.1371628
      ]
    ]
  }
}
]
}
