{
"type": "FeatureCollection",
"features": [
{
  "type": "Feature",
  "id": "way/104356315",
  "properties": {
    "highway": "tertiary",
    "name": "9701",
    "ref": "9701",
    "smoothness": "intermediate",
    "id": "way/104356315"
  },
  "geometry": {
    "type": "LineString",
    "coordinates": [
      [
        27.8635516,
        43.5948194
      ],
      [
        27.8644629,
        43.5949477
      ],
      [
        27.86499,
        43.595009
      ],
      [
        27.8652144,
        43.5950348
      ],
      [
        27.870855,
        43.595684
      ],
      [
        27.871483,
        43.595741
      ],
      [
        27.872078,
        43.595764
      ],
      [
        27.872723,
        43.595753
      ],
      [
        27.873413,
        43.595722
      ],
      [
        27.874128,
        43.595661
      ],
      [
        27.874739,
        43.595589
      ],
      [
        27.875561,
        43.595459
      ],
      [
        27.88064,
        43.594616
      ],
      [
        27.887383,
        43.593502
      ],
      [
        27.890741,
        43.592941
      ],
      [
        27.891272,
        43.592861
      ],
      [
        27.891612,
        43.5928158
      ]
    ]
  }
},
{
  "type": "Feature",
  "id": "way/104356317",
  "properties": {
    "highway": "tertiary",
    "name": "9701",
    "oneway": "yes",
    "ref": "9701",
    "id": "way/104356317"
  },
  "geometry": {
    "type": "LineString",
    "coordinates": [
      [
        27.8609731,
        43.594724
      ],
      [
        27.8602377,
        43.5946812
      ],
      [
        27.8599019,
        43.5946684
      ],
      [
        27.8596794,
        43.5946428
      ],
      [
        27.859446,
        43.5945976
      ],
      [
        27.8593042,
        43.5945584
      ],
      [
        27.8591669,
        43.5945148
      ]
    ]
  }
},
{
  "type": "Feature",
  "id": "way/104357248",
  "properties": {
    "highway": "tertiary",
    "name": "9701",
    "oneway": "yes",
    "ref": "9701",
    "id": "way/104357248"
  },
  "geometry": {
    "type": "LineString",
    "coordinates": [
      [
        27.8592233,
        43.5943793
      ],
      [
        27.8593259,
        43.5944377
      ],
      [
        27.8594459,
        43.5944822
      ],
      [
        27.8595997,
        43.5945287
      ],
      [
        27.8597724,
        43.5945718
      ],
      [
        27.8599756,
        43.5945936
      ],
      [
        27.8602443,
        43.5946062
      ],
      [
        27.8605174,
        43.5946159
      ],
      [
        27.8619436,
        43.5946901
      ],
      [
        27.862737,
        43.5947242
      ]
    ]
  }
},
{
  "type": "Feature",
  "id": "way/104356310",
  "properties": {
    "highway": "tertiary",
    "oneway": "yes",
    "ref": "9701",
    "id": "way/104356310"
  },
  "geometry": {
    "type": "LineString",
    "coordinates": [
      [
        27.8635516,
        43.5948194
      ],
      [
        27.863092,
        43.5948257
      ],
      [
        27.8628626,
        43.5948241
      ],
      [
        27.8626789,
        43.5948219
      ]
    ]
  }
},
{
  "type": "Feature",
  "id": "way/104357407",
  "properties": {
    "highway": "tertiary",
    "name": "9701",
    "oneway": "yes",
    "ref": "9701",
    "id": "way/104357407"
  },
  "geometry": {
    "type": "LineString",
    "coordinates": [
      [
        27.8601162,
        43.5938901
      ],
      [
        27.8603248,
        43.5940334
      ],
      [
        27.86045,
        43.5941383
      ],
      [
        27.860628,
        43.5942655
      ],
      [
        27.860772,
        43.5943451
      ],
      [
        27.8610559,
        43.5944686
      ],
      [
        27.8612561,
        43.5945214
      ],
      [
        27.8615533,
        43.5945653
      ],
      [
        27.8619251,
        43.5946207
      ],
      [
        27.8623192,
        43.5946758
      ],
      [
        27.862737,
        43.5947242
      ]
    ]
  }
},
{
  "type": "Feature",
  "id": "way/104357441",
  "properties": {
    "highway": "tertiary",
    "name": "9701",
    "oneway": "yes",
    "ref": "9701",
    "id": "way/104357441"
  },
  "geometry": {
    "type": "LineString",
    "coordinates": [
      [
        27.8626789,
        43.5948219
      ],
      [
        27.862071,
        43.5947702
      ],
      [
        27.861425,
        43.5947394
      ],
      [
        27.8609731,
        43.594724
      ]
    ]
  }
},
{
  "type": "Feature",
  "id": "way/104359787",
  "properties": {
    "highway": "tertiary",
    "name": "9701",
    "oneway": "yes",
    "ref": "9701",
    "id": "way/104359787"
  },
  "geometry": {
    "type": "LineString",
    "coordinates": [
      [
        27.862737,
        43.5947242
      ],
      [
        27.8631024,
        43.5947514
      ],
      [
        27.8635516,
        43.5948194
      ]
    ]
  }
},
{
  "type": "Feature",
  "id": "way/138741817",
  "properties": {
    "highway": "tertiary",
    "name": "Втора",
    "ref": "9701",
    "smoothness": "intermediate",
    "id": "way/138741817"
  },
  "geometry": {
    "type": "LineString",
    "coordinates": [
      [
        27.891612,
        43.5928158
      ],
      [
        27.8935667,
        43.5927706
      ],
      [
        27.895775,
        43.5928198
      ],
      [
        27.8981246,
        43.5928562
      ],
      [
        27.8998025,
        43.5931056
      ],
      [
        27.900784,
        43.59325
      ],
      [
        27.9009785,
        43.593267
      ],
      [
        27.901065,
        43.5932718
      ]
    ]
  }
},
{
  "type": "Feature",
  "id": "way/172654165",
  "properties": {
    "highway": "tertiary",
    "name": "9701",
    "ref": "9701",
    "smoothness": "bad",
    "surface": "asphalt",
    "id": "way/172654165"
  },
  "geometry": {
    "type": "LineString",
    "coordinates": [
      [
        27.9790431,
        43.6180955
      ],
      [
        27.9802599,
        43.6192346
      ],
      [
        27.9803649,
        43.6193121
      ],
      [
        27.980468,
        43.6193779
      ],
      [
        27.9805811,
        43.6194466
      ],
      [
        27.9807022,
        43.6195065
      ],
      [
        27.9808798,
        43.6195835
      ],
      [
        27.9816155,
        43.6199107
      ],
      [
        27.9824072,
        43.6202435
      ],
      [
        27.982601,
        43.6203212
      ],
      [
        27.9827551,
        43.6203684
      ],
      [
        27.9827941,
        43.6203776
      ],
      [
        27.9829026,
        43.6204035
      ],
      [
        27.9830975,
        43.6204378
      ],
      [
        27.9833603,
        43.620473
      ],
      [
        27.9865,
        43.620831
      ],
      [
        27.9865776,
        43.6208422
      ],
      [
        27.9874307,
        43.6209784
      ],
      [
        27.9879893,
        43.621084
      ],
      [
        27.9885939,
        43.6212215
      ],
      [
        28.0095943,
        43.627999
      ],
      [
        28.009768,
        43.6280487
      ],
      [
        28.0101262,
        43.6281422
      ],
      [
        28.0104861,
        43.6282291
      ],
      [
        28.0108173,
        43.6283053
      ],
      [
        28.0111405,
        43.6283726
      ],
      [
        28.0114624,
        43.6284286
      ],
      [
        28.0118691,
        43.6284856
      ],
      [
        28.0128222,
        43.6285818
      ],
      [
        28.0135592,
        43.6286406
      ],
      [
        28.0143886,
        43.6286978
      ],
      [
        28.0310816,
        43.6297075
      ],
      [
        28.0403829,
        43.6303303
      ],
      [
        28.0406371,
        43.630351
      ],
      [
        28.040857,
        43.6303696
      ],
      [
        28.0433065,
        43.6306272
      ],
      [
        28.0436762,
        43.6306634
      ],
      [
        28.0439988,
        43.6306981
      ],
      [
        28.055084,
        43.6318623
      ],
      [
        28.0552516,
        43.6318798
      ],
      [
        28.0554213,
        43.6319003
      ],
      [
        28.0555384,
        43.6319193
      ],
      [
        28.0569956,
        43.6321737
      ],
      [
        28.0610727,
        43.6328838
      ],
      [
        28.066339,
        43.633801
      ],
      [
        28.067221,
        43.63401
      ],
      [
        28.0737886,
        43.6361551
      ],
      [
        28.0739529,
        43.6362345
      ],
      [
        28.0754982,
        43.6367346
      ],
      [
        28.0769887,
        43.6372171
      ],
      [
        28.0785154,
        43.6377181
      ]
    ]
  }
},
{
  "type": "Feature",
  "id": "way/138741816",
  "properties": {
    "highway": "tertiary",
    "name": "Втора",
    "ref": "9701",
    "smoothness": "intermediate",
    "id": "way/138741816"
  },
  "geometry": {
    "type": "LineString",
    "coordinates": [
      [
        27.9011865,
        43.5932764
      ],
      [
        27.901964,
        43.593304
      ],
      [
        27.903885,
        43.593365
      ],
      [
        27.9054085,
        43.5934083
      ]
    ]
  }
},
{
  "type": "Feature",
  "id": "way/138741899",
  "properties": {
    "highway": "tertiary",
    "name": "9701",
    "ref": "9701",
    "smoothness": "intermediate",
    "surface": "asphalt",
    "id": "way/138741899"
  },
  "geometry": {
    "type": "LineString",
    "coordinates": [
      [
        27.9054085,
        43.5934083
      ],
      [
        27.909565,
        43.593533
      ],
      [
        27.911495,
        43.593609
      ],
      [
        27.911877,
        43.593651
      ],
      [
        27.912294,
        43.593719
      ],
      [
        27.912699,
        43.593819
      ],
      [
        27.913132,
        43.593937
      ],
      [
        27.913555,
        43.594086
      ],
      [
        27.918192,
        43.595955
      ],
      [
        27.923405,
        43.598076
      ],
      [
        27.93112,
        43.6012
      ],
      [
        27.95295,
        43.610031
      ],
      [
        27.9532735,
        43.6101434
      ],
      [
        27.9535414,
        43.610229
      ],
      [
        27.9539603,
        43.6103505
      ],
      [
        27.95439,
        43.610458
      ],
      [
        27.9547952,
        43.610549
      ],
      [
        27.9552588,
        43.6106378
      ],
      [
        27.9650358,
        43.6122094
      ],
      [
        27.9680637,
        43.6126874
      ],
      [
        27.968255,
        43.6127245
      ],
      [
        27.9683874,
        43.6127586
      ],
      [
        27.9684674,
        43.6127793
      ],
      [
        27.9687585,
        43.612881
      ],
      [
        27.9689856,
        43.6129627
      ],
      [
        27.9691684,
        43.6130353
      ],
      [
        27.969299,
        43.613091
      ],
      [
        27.9694269,
        43.6131511
      ],
      [
        27.9708502,
        43.6138925
      ],
      [
        27.9723161,
        43.6146431
      ],
      [
        27.9736322,
        43.6153287
      ],
      [
        27.9749671,
        43.6160107
      ],
      [
        27.9763101,
        43.6166874
      ],
      [
        27.977633,
        43.6173825
      ],
      [
        27.9790431,
        43.6180955
      ]
    ]
  }
},
{
  "type": "Feature",
  "id": "way/138741814",
  "properties": {
    "bridge": "yes",
    "highway": "tertiary",
    "layer": "1",
    "name": "Втора",
    "ref": "9701",
    "smoothness": "intermediate",
    "id": "way/138741814"
  },
  "geometry": {
    "type": "LineString",
    "coordinates": [
      [
        27.901065,
        43.5932718
      ],
      [
        27.9011865,
        43.5932764
      ]
    ]
  }
},
{
  "type": "Feature",
  "id": "way/180384158",
  "properties": {
    "highway": "tertiary",
    "name": "9701",
    "ref": "9701",
    "smoothness": "bad",
    "id": "way/180384158"
  },
  "geometry": {
    "type": "LineString",
    "coordinates": [
      [
        28.151661,
        43.643139
      ],
      [
        28.152781,
        43.642979
      ],
      [
        28.155479,
        43.642208
      ],
      [
        28.1624188,
        43.6400782
      ],
      [
        28.1632473,
        43.6398239
      ],
      [
        28.1641528,
        43.639546
      ],
      [
        28.1665993,
        43.6387952
      ],
      [
        28.1680488,
        43.6383503
      ],
      [
        28.17411,
        43.63649
      ],
      [
        28.1754408,
        43.63628
      ],
      [
        28.1761888,
        43.636248
      ],
      [
        28.19734,
        43.637798
      ],
      [
        28.198075,
        43.6378676
      ],
      [
        28.1981766,
        43.6378772
      ],
      [
        28.198629,
        43.63792
      ],
      [
        28.1989319,
        43.6379637
      ],
      [
        28.203621,
        43.638641
      ],
      [
        28.211161,
        43.639858
      ],
      [
        28.212799,
        43.64024
      ],
      [
        28.21459,
        43.640862
      ],
      [
        28.224331,
        43.644428
      ],
      [
        28.225559,
        43.64476
      ],
      [
        28.2301045,
        43.6453954
      ],
      [
        28.233721,
        43.645901
      ],
      [
        28.2342293,
        43.6460121
      ],
      [
        28.2355,
        43.64629
      ],
      [
        28.25366,
        43.64999
      ],
      [
        28.2643026,
        43.6521147
      ],
      [
        28.2673784,
        43.6527287
      ],
      [
        28.27013,
        43.653278
      ],
      [
        28.2707178,
        43.6534914
      ],
      [
        28.270929,
        43.653568
      ],
      [
        28.271601,
        43.654041
      ],
      [
        28.28492,
        43.6679
      ],
      [
        28.28574,
        43.668362
      ],
      [
        28.2921306,
        43.6691626
      ]
    ]
  }
},
{
  "type": "Feature",
  "id": "way/172654164",
  "properties": {
    "highway": "tertiary",
    "name": "9701",
    "ref": "9701",
    "smoothness": "intermediate",
    "id": "way/172654164"
  },
  "geometry": {
    "type": "LineString",
    "coordinates": [
      [
        28.0785154,
        43.6377181
      ],
      [
        28.0800967,
        43.6382274
      ],
      [
        28.0824262,
        43.6389656
      ],
      [
        28.082634,
        43.6390237
      ],
      [
        28.0828232,
        43.6390641
      ],
      [
        28.0848816,
        43.6393733
      ],
      [
        28.088699,
        43.64011
      ],
      [
        28.09103,
        43.640308
      ],
      [
        28.099831,
        43.6409
      ],
      [
        28.10553,
        43.641331
      ],
      [
        28.1198107,
        43.6426236
      ],
      [
        28.123859,
        43.64299
      ],
      [
        28.1276901,
        43.6432244
      ],
      [
        28.129068,
        43.6433087
      ],
      [
        28.1307162,
        43.6434095
      ],
      [
        28.1317067,
        43.6434701
      ],
      [
        28.13316,
        43.643559
      ]
    ]
  }
},
{
  "type": "Feature",
  "id": "way/155167710",
  "properties": {
    "highway": "tertiary",
    "name": "9701",
    "ref": "9701",
    "id": "way/155167710"
  },
  "geometry": {
    "type": "LineString",
    "coordinates": [
      [
        28.1390694,
        43.6434334
      ],
      [
        28.1394778,
        43.6434255
      ],
      [
        28.1409,
        43.643398
      ],
      [
        28.1432232,
        43.6433362
      ],
      [
        28.1434579,
        43.6433313
      ],
      [
        28.1450244,
        43.6432986
      ],
      [
        28.1450666,
        43.6432977
      ],
      [
        28.1478192,
        43.6432315
      ],
      [
        28.1498784,
        43.6431819
      ],
      [
        28.151661,
        43.643139
      ]
    ]
  }
}
]
}
