{
"type": "FeatureCollection",
"features": [
{
  "type": "Feature",
  "id": "way/179451630",
  "properties": {
    "highway": "tertiary",
    "name": "8673",
    "ref": "8673",
    "id": "way/179451630"
  },
  "geometry": {
    "type": "LineString",
    "coordinates": [
      [
        25.2239082,
        41.4597465
      ],
      [
        25.22281,
        41.45968
      ],
      [
        25.22244,
        41.45959
      ],
      [
        25.22223,
        41.45951
      ],
      [
        25.22214,
        41.45942
      ],
      [
        25.2221,
        41.45927
      ],
      [
        25.22218,
        41.45856
      ],
      [
        25.22218,
        41.45837
      ],
      [
        25.22212,
        41.45818
      ],
      [
        25.22197,
        41.45805
      ],
      [
        25.22173,
        41.45794
      ],
      [
        25.22006,
        41.45768
      ],
      [
        25.21987,
        41.4576
      ],
      [
        25.21976,
        41.45749
      ],
      [
        25.21972,
        41.45736
      ],
      [
        25.21972,
        41.45723
      ],
      [
        25.21995,
        41.45682
      ],
      [
        25.22002,
        41.45659
      ],
      [
        25.22004,
        41.45633
      ],
      [
        25.22,
        41.4562
      ],
      [
        25.21989,
        41.45609
      ],
      [
        25.21974,
        41.45605
      ],
      [
        25.21955,
        41.45605
      ],
      [
        25.21933,
        41.45609
      ],
      [
        25.21862,
        41.45635
      ],
      [
        25.21822,
        41.45648
      ],
      [
        25.21708,
        41.45669
      ],
      [
        25.21673,
        41.45672
      ],
      [
        25.21652,
        41.45669
      ],
      [
        25.21637,
        41.45665
      ],
      [
        25.21622,
        41.45654
      ],
      [
        25.21583,
        41.45577
      ],
      [
        25.21577,
        41.45569
      ],
      [
        25.21558,
        41.45562
      ],
      [
        25.2154,
        41.45562
      ],
      [
        25.2148,
        41.45573
      ],
      [
        25.2145,
        41.45575
      ],
      [
        25.21429,
        41.45571
      ],
      [
        25.21416,
        41.45564
      ],
      [
        25.21416,
        41.45556
      ],
      [
        25.21431,
        41.45509
      ],
      [
        25.21433,
        41.45491
      ],
      [
        25.21429,
        41.45481
      ],
      [
        25.21416,
        41.45468
      ],
      [
        25.21394,
        41.45457
      ],
      [
        25.21289,
        41.45429
      ],
      [
        25.21225,
        41.4541
      ],
      [
        25.21141,
        41.45371
      ],
      [
        25.2101,
        41.453
      ],
      [
        25.20995,
        41.45288
      ],
      [
        25.20987,
        41.45275
      ],
      [
        25.20965,
        41.45195
      ],
      [
        25.20957,
        41.45185
      ],
      [
        25.20933,
        41.45174
      ],
      [
        25.20918,
        41.45159
      ],
      [
        25.20884,
        41.45103
      ],
      [
        25.20856,
        41.45066
      ],
      [
        25.20841,
        41.45056
      ],
      [
        25.20819,
        41.45045
      ],
      [
        25.20699,
        41.45011
      ],
      [
        25.20575,
        41.44966
      ],
      [
        25.2054,
        41.44959
      ],
      [
        25.20519,
        41.44951
      ],
      [
        25.20491,
        41.44938
      ],
      [
        25.20478,
        41.44925
      ],
      [
        25.20461,
        41.44897
      ],
      [
        25.20425,
        41.44854
      ],
      [
        25.20403,
        41.44839
      ],
      [
        25.2033,
        41.44788
      ],
      [
        25.20302,
        41.44773
      ],
      [
        25.20274,
        41.44764
      ],
      [
        25.20216,
        41.44749
      ],
      [
        25.20184,
        41.44738
      ],
      [
        25.20161,
        41.44723
      ],
      [
        25.20019,
        41.44644
      ],
      [
        25.19995,
        41.44635
      ],
      [
        25.19944,
        41.44627
      ],
      [
        25.1992,
        41.44618
      ],
      [
        25.19901,
        41.44607
      ],
      [
        25.19824,
        41.44543
      ],
      [
        25.19744,
        41.44485
      ],
      [
        25.19723,
        41.44466
      ],
      [
        25.19699,
        41.4444
      ],
      [
        25.19676,
        41.44406
      ],
      [
        25.19609,
        41.44296
      ],
      [
        25.19605,
        41.44283
      ],
      [
        25.19603,
        41.44273
      ],
      [
        25.19605,
        41.44258
      ],
      [
        25.19633,
        41.44187
      ],
      [
        25.19635,
        41.44172
      ],
      [
        25.19635,
        41.44161
      ],
      [
        25.19626,
        41.44146
      ],
      [
        25.19626,
        41.44135
      ],
      [
        25.19635,
        41.44116
      ],
      [
        25.19635,
        41.44103
      ],
      [
        25.19631,
        41.44092
      ],
      [
        25.19607,
        41.4406
      ],
      [
        25.19596,
        41.44043
      ],
      [
        25.19581,
        41.44009
      ],
      [
        25.19581,
        41.43996
      ],
      [
        25.19583,
        41.43985
      ],
      [
        25.19592,
        41.43974
      ],
      [
        25.19637,
        41.43946
      ],
      [
        25.1965,
        41.43936
      ],
      [
        25.19659,
        41.43925
      ],
      [
        25.19665,
        41.43914
      ],
      [
        25.19669,
        41.43899
      ],
      [
        25.19665,
        41.4388
      ],
      [
        25.19626,
        41.43766
      ],
      [
        25.19598,
        41.437
      ],
      [
        25.19588,
        41.43689
      ],
      [
        25.19579,
        41.43685
      ],
      [
        25.19564,
        41.43678
      ],
      [
        25.19429,
        41.43652
      ],
      [
        25.19412,
        41.43648
      ],
      [
        25.19401,
        41.4364
      ],
      [
        25.19395,
        41.43631
      ],
      [
        25.19392,
        41.43618
      ],
      [
        25.19399,
        41.43597
      ],
      [
        25.19408,
        41.43562
      ],
      [
        25.19431,
        41.43519
      ],
      [
        25.19433,
        41.43504
      ],
      [
        25.19412,
        41.43313
      ],
      [
        25.19405,
        41.43296
      ],
      [
        25.19388,
        41.43258
      ],
      [
        25.19386,
        41.43247
      ],
      [
        25.19388,
        41.43236
      ],
      [
        25.19392,
        41.43228
      ],
      [
        25.19403,
        41.43215
      ],
      [
        25.19459,
        41.43172
      ],
      [
        25.19526,
        41.43129
      ]
    ]
  }
},
{
  "type": "Feature",
  "id": "way/179451636",
  "properties": {
    "highway": "unclassified",
    "name": "8673",
    "ref": "8673",
    "id": "way/179451636"
  },
  "geometry": {
    "type": "LineString",
    "coordinates": [
      [
        25.19526,
        41.43129
      ],
      [
        25.1953,
        41.43112
      ],
      [
        25.19526,
        41.43101
      ],
      [
        25.19489,
        41.43062
      ],
      [
        25.19485,
        41.43047
      ],
      [
        25.1948,
        41.43009
      ],
      [
        25.1947,
        41.42985
      ],
      [
        25.19465,
        41.42964
      ],
      [
        25.19493,
        41.42884
      ],
      [
        25.19495,
        41.42859
      ],
      [
        25.19521,
        41.42816
      ],
      [
        25.19521,
        41.42803
      ],
      [
        25.19513,
        41.42788
      ],
      [
        25.19491,
        41.42771
      ],
      [
        25.19465,
        41.42756
      ],
      [
        25.1945,
        41.4274
      ],
      [
        25.19433,
        41.42713
      ],
      [
        25.19429,
        41.42693
      ],
      [
        25.19429,
        41.4268
      ],
      [
        25.1944,
        41.42646
      ],
      [
        25.19442,
        41.42629
      ],
      [
        25.19414,
        41.42554
      ],
      [
        25.19416,
        41.42543
      ],
      [
        25.19446,
        41.42522
      ],
      [
        25.19453,
        41.42509
      ],
      [
        25.19453,
        41.42492
      ],
      [
        25.19431,
        41.4241
      ],
      [
        25.19425,
        41.42376
      ],
      [
        25.19418,
        41.42361
      ],
      [
        25.19352,
        41.42307
      ],
      [
        25.19317,
        41.42271
      ],
      [
        25.19313,
        41.42262
      ],
      [
        25.19315,
        41.42228
      ],
      [
        25.19309,
        41.42217
      ],
      [
        25.19296,
        41.42204
      ],
      [
        25.19268,
        41.42185
      ],
      [
        25.19204,
        41.42107
      ],
      [
        25.19167,
        41.42077
      ],
      [
        25.1915,
        41.42056
      ],
      [
        25.19135,
        41.4205
      ],
      [
        25.19109,
        41.42047
      ],
      [
        25.19094,
        41.4205
      ],
      [
        25.19049,
        41.42073
      ],
      [
        25.19038,
        41.42071
      ],
      [
        25.19038,
        41.42062
      ],
      [
        25.19056,
        41.42037
      ],
      [
        25.19068,
        41.42007
      ],
      [
        25.19073,
        41.41968
      ],
      [
        25.19068,
        41.41953
      ],
      [
        25.19043,
        41.41914
      ],
      [
        25.19038,
        41.41901
      ],
      [
        25.19038,
        41.4188
      ],
      [
        25.19032,
        41.41867
      ],
      [
        25.19019,
        41.41854
      ],
      [
        25.18991,
        41.41835
      ],
      [
        25.18976,
        41.4182
      ],
      [
        25.1895,
        41.41762
      ],
      [
        25.18948,
        41.41741
      ],
      [
        25.1895,
        41.41719
      ],
      [
        25.18959,
        41.417
      ],
      [
        25.18991,
        41.4167
      ],
      [
        25.19006,
        41.41663
      ],
      [
        25.19019,
        41.41665
      ],
      [
        25.19023,
        41.41672
      ],
      [
        25.19017,
        41.41693
      ],
      [
        25.19019,
        41.41706
      ],
      [
        25.19028,
        41.41717
      ],
      [
        25.19043,
        41.41723
      ],
      [
        25.19066,
        41.41728
      ],
      [
        25.19092,
        41.41726
      ],
      [
        25.19118,
        41.41717
      ],
      [
        25.19131,
        41.41708
      ],
      [
        25.19135,
        41.41678
      ],
      [
        25.19144,
        41.41665
      ],
      [
        25.19182,
        41.41623
      ],
      [
        25.19189,
        41.41608
      ],
      [
        25.19189,
        41.41582
      ],
      [
        25.19193,
        41.41567
      ],
      [
        25.19285,
        41.41455
      ],
      [
        25.19305,
        41.41442
      ],
      [
        25.19311,
        41.41432
      ],
      [
        25.1932,
        41.41414
      ],
      [
        25.19332,
        41.41296
      ],
      [
        25.19339,
        41.41271
      ],
      [
        25.19352,
        41.41241
      ],
      [
        25.19367,
        41.41232
      ],
      [
        25.19382,
        41.41226
      ],
      [
        25.19399,
        41.41226
      ],
      [
        25.19412,
        41.41232
      ],
      [
        25.19427,
        41.41251
      ],
      [
        25.19435,
        41.41271
      ],
      [
        25.19446,
        41.4132
      ],
      [
        25.19453,
        41.41329
      ],
      [
        25.19463,
        41.41333
      ],
      [
        25.19474,
        41.41331
      ],
      [
        25.19489,
        41.41326
      ],
      [
        25.19508,
        41.41314
      ],
      [
        25.19596,
        41.41223
      ],
      [
        25.19626,
        41.41174
      ],
      [
        25.19637,
        41.41155
      ],
      [
        25.19646,
        41.41131
      ],
      [
        25.19648,
        41.41108
      ],
      [
        25.19652,
        41.41045
      ],
      [
        25.19663,
        41.41011
      ],
      [
        25.19665,
        41.40994
      ],
      [
        25.19663,
        41.40979
      ],
      [
        25.1965,
        41.40953
      ],
      [
        25.19633,
        41.40893
      ],
      [
        25.19609,
        41.40831
      ],
      [
        25.19592,
        41.40745
      ],
      [
        25.19581,
        41.4073
      ],
      [
        25.19556,
        41.40702
      ],
      [
        25.19515,
        41.40676
      ],
      [
        25.19489,
        41.40653
      ],
      [
        25.19476,
        41.40629
      ],
      [
        25.1947,
        41.40605
      ],
      [
        25.19463,
        41.40569
      ],
      [
        25.19453,
        41.40539
      ],
      [
        25.1945,
        41.40524
      ],
      [
        25.19463,
        41.40492
      ],
      [
        25.19465,
        41.40472
      ],
      [
        25.19457,
        41.40393
      ],
      [
        25.19459,
        41.40376
      ],
      [
        25.19468,
        41.40352
      ],
      [
        25.19489,
        41.40329
      ],
      [
        25.19495,
        41.40318
      ],
      [
        25.19489,
        41.40303
      ],
      [
        25.1945,
        41.40236
      ],
      [
        25.19444,
        41.40204
      ],
      [
        25.19444,
        41.40178
      ],
      [
        25.19455,
        41.40144
      ],
      [
        25.19453,
        41.40127
      ],
      [
        25.19423,
        41.40084
      ],
      [
        25.19416,
        41.40067
      ],
      [
        25.1942,
        41.39949
      ],
      [
        25.19414,
        41.3993
      ],
      [
        25.19397,
        41.39902
      ],
      [
        25.19395,
        41.39893
      ],
      [
        25.19403,
        41.39884
      ],
      [
        25.19418,
        41.39884
      ],
      [
        25.19465,
        41.39906
      ],
      [
        25.19493,
        41.39908
      ],
      [
        25.19513,
        41.39906
      ],
      [
        25.19521,
        41.39897
      ],
      [
        25.19528,
        41.39884
      ],
      [
        25.19515,
        41.3976
      ],
      [
        25.19515,
        41.39743
      ],
      [
        25.19521,
        41.39728
      ],
      [
        25.19532,
        41.39715
      ],
      [
        25.19566,
        41.39691
      ],
      [
        25.19607,
        41.39646
      ],
      [
        25.19631,
        41.39629
      ],
      [
        25.19654,
        41.39623
      ],
      [
        25.19684,
        41.39625
      ],
      [
        25.19704,
        41.39616
      ],
      [
        25.19719,
        41.39603
      ],
      [
        25.19736,
        41.39548
      ],
      [
        25.19736,
        41.39522
      ],
      [
        25.19729,
        41.39503
      ],
      [
        25.19695,
        41.39449
      ],
      [
        25.19693,
        41.39436
      ],
      [
        25.19699,
        41.39427
      ],
      [
        25.19717,
        41.39423
      ],
      [
        25.19753,
        41.3943
      ],
      [
        25.19777,
        41.3943
      ],
      [
        25.19796,
        41.39421
      ],
      [
        25.19817,
        41.394
      ],
      [
        25.19835,
        41.39393
      ],
      [
        25.19927,
        41.39365
      ],
      [
        25.19976,
        41.3935
      ],
      [
        25.20015,
        41.39346
      ],
      [
        25.20028,
        41.39337
      ],
      [
        25.2003,
        41.39329
      ],
      [
        25.20021,
        41.39318
      ],
      [
        25.19987,
        41.39292
      ],
      [
        25.19968,
        41.39273
      ],
      [
        25.19961,
        41.3926
      ],
      [
        25.19963,
        41.39245
      ],
      [
        25.19993,
        41.39185
      ],
      [
        25.20017,
        41.39159
      ],
      [
        25.20034,
        41.39118
      ],
      [
        25.20049,
        41.39067
      ],
      [
        25.2006386,
        41.3903892
      ]
    ]
  }
}
]
}
