{
"type": "FeatureCollection",
"features": [
{
  "type": "Feature",
  "id": "way/172462539",
  "properties": {
    "highway": "tertiary",
    "name": "3004",
    "ref": "3004",
    "smoothness": "good",
    "surface": "asphalt",
    "id": "way/172462539"
  },
  "geometry": {
    "type": "LineString",
    "coordinates": [
      [
        24.3823717,
        43.5877512
      ],
      [
        24.3827001,
        43.5875036
      ],
      [
        24.3831095,
        43.5873081
      ],
      [
        24.3838563,
        43.5869887
      ],
      [
        24.3844512,
        43.5868061
      ],
      [
        24.3845356,
        43.5867802
      ],
      [
        24.385026,
        43.5865749
      ],
      [
        24.3854014,
        43.586399
      ],
      [
        24.3857008,
        43.5862588
      ],
      [
        24.3859509,
        43.5861102
      ],
      [
        24.386167,
        43.5859818
      ],
      [
        24.3866456,
        43.5856429
      ],
      [
        24.3877253,
        43.5850433
      ],
      [
        24.3884818,
        43.5846243
      ],
      [
        24.3895023,
        43.5840592
      ],
      [
        24.3903571,
        43.5835703
      ],
      [
        24.3914786,
        43.5828429
      ],
      [
        24.3920448,
        43.5825122
      ],
      [
        24.3922041,
        43.5824019
      ],
      [
        24.3926245,
        43.5821527
      ],
      [
        24.3932543,
        43.5818888
      ],
      [
        24.3956162,
        43.5812533
      ],
      [
        24.3959682,
        43.5811527
      ],
      [
        24.3964209,
        43.5810234
      ],
      [
        24.3975552,
        43.5806993
      ],
      [
        24.3984549,
        43.5803571
      ],
      [
        24.3984767,
        43.5803485
      ],
      [
        24.4007849,
        43.5794431
      ],
      [
        24.4026838,
        43.5786982
      ],
      [
        24.4033136,
        43.5784473
      ],
      [
        24.4069802,
        43.5767297
      ],
      [
        24.4103307,
        43.5751921
      ],
      [
        24.4134708,
        43.5737059
      ],
      [
        24.4154929,
        43.5727652
      ],
      [
        24.4161928,
        43.5724932
      ],
      [
        24.4176752,
        43.5719954
      ],
      [
        24.4227841,
        43.5702898
      ],
      [
        24.4248773,
        43.5695938
      ],
      [
        24.4270405,
        43.5688792
      ],
      [
        24.4279185,
        43.5685335
      ],
      [
        24.4286056,
        43.5681555
      ],
      [
        24.429,
        43.5678605
      ],
      [
        24.429509,
        43.5672105
      ],
      [
        24.4310423,
        43.5649378
      ],
      [
        24.4324675,
        43.5628494
      ],
      [
        24.4327983,
        43.5623884
      ],
      [
        24.4331292,
        43.5620656
      ],
      [
        24.4362467,
        43.5601754
      ],
      [
        24.4380408,
        43.5591058
      ],
      [
        24.4426979,
        43.5563387
      ],
      [
        24.4433143,
        43.5559931
      ],
      [
        24.4437327,
        43.5558235
      ],
      [
        24.444295,
        43.5556442
      ],
      [
        24.446978,
        43.5548381
      ],
      [
        24.4483141,
        43.55446
      ],
      [
        24.4504136,
        43.5539943
      ],
      [
        24.4512471,
        43.5537776
      ],
      [
        24.4523223,
        43.5534134
      ],
      [
        24.456585,
        43.5519056
      ],
      [
        24.4572037,
        43.5516781
      ],
      [
        24.4574996,
        43.5515213
      ],
      [
        24.457824,
        43.55124
      ],
      [
        24.4580531,
        43.5509657
      ],
      [
        24.4604844,
        43.5479212
      ],
      [
        24.4620974,
        43.5459255
      ],
      [
        24.4631765,
        43.5445426
      ],
      [
        24.4640635,
        43.5432487
      ],
      [
        24.4660993,
        43.5402992
      ],
      [
        24.4680588,
        43.5374351
      ],
      [
        24.4686555,
        43.5365147
      ],
      [
        24.4706695,
        43.5317511
      ],
      [
        24.470926,
        43.5312652
      ],
      [
        24.471462,
        43.5303292
      ],
      [
        24.4716723,
        43.5299619
      ],
      [
        24.4717412,
        43.5298416
      ]
    ]
  }
},
{
  "type": "Feature",
  "id": "way/248549044",
  "properties": {
    "highway": "tertiary",
    "name": "3004",
    "ref": "3004",
    "smoothness": "intermediate",
    "surface": "asphalt",
    "id": "way/248549044"
  },
  "geometry": {
    "type": "LineString",
    "coordinates": [
      [
        24.4785409,
        43.512138
      ],
      [
        24.4799768,
        43.5105678
      ],
      [
        24.4806795,
        43.509813
      ],
      [
        24.4813306,
        43.5092253
      ],
      [
        24.482066,
        43.5087284
      ],
      [
        24.483045,
        43.508067
      ],
      [
        24.4831052,
        43.5080263
      ],
      [
        24.4840255,
        43.5075084
      ],
      [
        24.485402,
        43.5067338
      ],
      [
        24.4893145,
        43.504532
      ],
      [
        24.4929117,
        43.5025075
      ],
      [
        24.4932985,
        43.5022097
      ],
      [
        24.4936075,
        43.5019148
      ],
      [
        24.4968886,
        43.4982573
      ],
      [
        24.5011402,
        43.4931411
      ],
      [
        24.5046378,
        43.48911
      ],
      [
        24.5080625,
        43.483823
      ],
      [
        24.5113081,
        43.4790778
      ],
      [
        24.5133681,
        43.4750917
      ],
      [
        24.5138462,
        43.4738773
      ],
      [
        24.5140547,
        43.4733477
      ],
      [
        24.5141433,
        43.4731569
      ],
      [
        24.5144195,
        43.472562
      ],
      [
        24.5145456,
        43.4722905
      ],
      [
        24.5145888,
        43.4721636
      ],
      [
        24.5146915,
        43.4718701
      ],
      [
        24.5147694,
        43.4717207
      ],
      [
        24.5161104,
        43.4693625
      ],
      [
        24.5163172,
        43.4691385
      ],
      [
        24.5169356,
        43.4689243
      ],
      [
        24.5185303,
        43.4683717
      ],
      [
        24.5193729,
        43.4682162
      ],
      [
        24.5196966,
        43.4681578
      ],
      [
        24.5200179,
        43.4680999
      ],
      [
        24.5206336,
        43.4680546
      ],
      [
        24.5209595,
        43.4680307
      ],
      [
        24.5226084,
        43.4679589
      ],
      [
        24.5233815,
        43.4679057
      ],
      [
        24.5238921,
        43.4678157
      ]
    ]
  }
},
{
  "type": "Feature",
  "id": "way/164821818",
  "properties": {
    "highway": "tertiary",
    "name": "3004",
    "ref": "3004",
    "smoothness": "good",
    "surface": "asphalt",
    "id": "way/164821818"
  },
  "geometry": {
    "type": "LineString",
    "coordinates": [
      [
        24.5348584,
        43.4632176
      ],
      [
        24.5350815,
        43.4631658
      ],
      [
        24.5358447,
        43.4629886
      ],
      [
        24.5365325,
        43.462829
      ],
      [
        24.5369711,
        43.4627343
      ],
      [
        24.5380051,
        43.4624824
      ],
      [
        24.5383823,
        43.4623536
      ],
      [
        24.5385763,
        43.4622873
      ],
      [
        24.5388529,
        43.4621562
      ],
      [
        24.5390226,
        43.4620758
      ],
      [
        24.5396907,
        43.461759
      ],
      [
        24.5401176,
        43.4615392
      ],
      [
        24.5403309,
        43.4614293
      ],
      [
        24.5456664,
        43.458682
      ],
      [
        24.5495461,
        43.4567595
      ],
      [
        24.5505205,
        43.4562433
      ],
      [
        24.5513436,
        43.4558449
      ],
      [
        24.5518028,
        43.4556417
      ],
      [
        24.5549174,
        43.4545436
      ],
      [
        24.5553758,
        43.4543819
      ]
    ]
  }
},
{
  "type": "Feature",
  "id": "way/172462589",
  "properties": {
    "highway": "tertiary",
    "name": "3004",
    "ref": "3004",
    "surface": "asphalt",
    "id": "way/172462589"
  },
  "geometry": {
    "type": "LineString",
    "coordinates": [
      [
        24.5238921,
        43.4678157
      ],
      [
        24.524762,
        43.4675964
      ],
      [
        24.5248703,
        43.467551
      ],
      [
        24.5251375,
        43.4674391
      ],
      [
        24.5252288,
        43.4673883
      ],
      [
        24.5258604,
        43.4670367
      ],
      [
        24.5282629,
        43.4652973
      ],
      [
        24.5288327,
        43.4649104
      ],
      [
        24.5290342,
        43.464808
      ],
      [
        24.5295343,
        43.4646511
      ],
      [
        24.5300823,
        43.4644591
      ],
      [
        24.5307159,
        43.4642372
      ],
      [
        24.5317195,
        43.4639609
      ],
      [
        24.5327328,
        43.4637209
      ],
      [
        24.5348584,
        43.4632176
      ]
    ]
  }
},
{
  "type": "Feature",
  "id": "way/336319421",
  "properties": {
    "highway": "tertiary",
    "name": "3004",
    "ref": "3004",
    "smoothness": "good",
    "surface": "asphalt",
    "id": "way/336319421"
  },
  "geometry": {
    "type": "LineString",
    "coordinates": [
      [
        24.4779993,
        43.5127215
      ],
      [
        24.4785409,
        43.512138
      ]
    ]
  }
},
{
  "type": "Feature",
  "id": "way/336319423",
  "properties": {
    "highway": "tertiary",
    "name": "3004",
    "ref": "3004",
    "smoothness": "good",
    "surface": "asphalt",
    "id": "way/336319423"
  },
  "geometry": {
    "type": "LineString",
    "coordinates": [
      [
        24.4717412,
        43.5298416
      ],
      [
        24.4729099,
        43.5278006
      ],
      [
        24.4734288,
        43.5268943
      ],
      [
        24.4737409,
        43.5263492
      ],
      [
        24.4731164,
        43.5249656
      ],
      [
        24.4728936,
        43.5244719
      ],
      [
        24.4723969,
        43.5233577
      ],
      [
        24.472078,
        43.5216188
      ],
      [
        24.4719911,
        43.5211458
      ],
      [
        24.4719756,
        43.5210611
      ],
      [
        24.4719274,
        43.5207989
      ],
      [
        24.47188,
        43.5205078
      ],
      [
        24.4717224,
        43.5195403
      ],
      [
        24.4717383,
        43.5191343
      ],
      [
        24.4718592,
        43.5188413
      ],
      [
        24.4720662,
        43.5185693
      ],
      [
        24.4730145,
        43.5177306
      ],
      [
        24.4731878,
        43.5175774
      ],
      [
        24.4737586,
        43.5170726
      ],
      [
        24.4740066,
        43.5168533
      ],
      [
        24.4750817,
        43.5159024
      ],
      [
        24.4758462,
        43.515104
      ],
      [
        24.4765006,
        43.5143532
      ],
      [
        24.4766026,
        43.5142442
      ],
      [
        24.4779305,
        43.5127956
      ],
      [
        24.4779993,
        43.5127215
      ]
    ]
  }
},
{
  "type": "Feature",
  "id": "way/248549046",
  "properties": {
    "highway": "tertiary",
    "name": "3004",
    "ref": "3004",
    "smoothness": "good",
    "surface": "asphalt",
    "id": "way/248549046"
  },
  "geometry": {
    "type": "LineString",
    "coordinates": [
      [
        24.3592184,
        43.5876533
      ],
      [
        24.3593446,
        43.5876745
      ],
      [
        24.3594053,
        43.5877787
      ],
      [
        24.359538,
        43.5882822
      ],
      [
        24.3597495,
        43.588582
      ],
      [
        24.3600666,
        43.5888019
      ],
      [
        24.3606897,
        43.5890577
      ],
      [
        24.3638767,
        43.5904246
      ],
      [
        24.3669942,
        43.591784
      ],
      [
        24.3677205,
        43.5920556
      ],
      [
        24.3679909,
        43.5921017
      ],
      [
        24.3683822,
        43.5921063
      ],
      [
        24.3709335,
        43.5920372
      ],
      [
        24.3728042,
        43.5919734
      ],
      [
        24.3739545,
        43.5919341
      ],
      [
        24.3743099,
        43.5918983
      ],
      [
        24.3747058,
        43.5917875
      ],
      [
        24.375889,
        43.591377
      ],
      [
        24.3780123,
        43.5906611
      ],
      [
        24.3786017,
        43.5904297
      ],
      [
        24.379141,
        43.5901344
      ],
      [
        24.379173,
        43.5901169
      ],
      [
        24.3802805,
        43.5894456
      ],
      [
        24.3808556,
        43.589097
      ],
      [
        24.381067,
        43.5889113
      ],
      [
        24.3823717,
        43.5877512
      ]
    ]
  }
},
{
  "type": "Feature",
  "id": "way/46483220",
  "properties": {
    "highway": "tertiary",
    "name": "3004",
    "ref": "3004",
    "smoothness": "good",
    "surface": "asphalt",
    "id": "way/46483220"
  },
  "geometry": {
    "type": "LineString",
    "coordinates": [
      [
        24.3491259,
        43.601646
      ],
      [
        24.3520545,
        43.5961998
      ],
      [
        24.355255,
        43.5900646
      ],
      [
        24.3562132,
        43.5881812
      ],
      [
        24.3563887,
        43.5879433
      ],
      [
        24.3566676,
        43.5877804
      ],
      [
        24.3571985,
        43.5877184
      ],
      [
        24.3580487,
        43.5876761
      ]
    ]
  }
},
{
  "type": "Feature",
  "id": "way/248549045",
  "properties": {
    "bridge": "yes",
    "highway": "tertiary",
    "layer": "1",
    "name": "3004",
    "ref": "3004",
    "smoothness": "good",
    "surface": "asphalt",
    "id": "way/248549045"
  },
  "geometry": {
    "type": "LineString",
    "coordinates": [
      [
        24.3580487,
        43.5876761
      ],
      [
        24.3592184,
        43.5876533
      ]
    ]
  }
},
{
  "type": "Feature",
  "id": "way/116748050",
  "properties": {
    "highway": "tertiary",
    "name": "3004",
    "ref": "3004",
    "smoothness": "good",
    "surface": "asphalt",
    "id": "way/116748050"
  },
  "geometry": {
    "type": "LineString",
    "coordinates": [
      [
        24.5572491,
        43.4536618
      ],
      [
        24.5577359,
        43.4533486
      ],
      [
        24.5582166,
        43.4529281
      ],
      [
        24.5594381,
        43.450809
      ],
      [
        24.5597685,
        43.4502927
      ],
      [
        24.5601044,
        43.4499391
      ],
      [
        24.5605356,
        43.449687
      ],
      [
        24.5610773,
        43.4494801
      ],
      [
        24.5619355,
        43.4492886
      ],
      [
        24.5625515,
        43.4491748
      ],
      [
        24.5649818,
        43.4488943
      ],
      [
        24.5687854,
        43.4485559
      ],
      [
        24.5716322,
        43.4484204
      ],
      [
        24.5720312,
        43.4484114
      ],
      [
        24.5725293,
        43.4482069
      ],
      [
        24.5735499,
        43.4477879
      ],
      [
        24.5749654,
        43.4472068
      ],
      [
        24.5769482,
        43.4463928
      ],
      [
        24.5770329,
        43.4463576
      ],
      [
        24.5795201,
        43.4453251
      ],
      [
        24.5812801,
        43.4445944
      ],
      [
        24.5820197,
        43.4442873
      ],
      [
        24.5830573,
        43.4438545
      ],
      [
        24.5862147,
        43.4425374
      ],
      [
        24.5885942,
        43.4416819
      ],
      [
        24.5892097,
        43.4414101
      ],
      [
        24.5911345,
        43.4402421
      ],
      [
        24.5914875,
        43.440067
      ],
      [
        24.5919718,
        43.4399175
      ],
      [
        24.5925181,
        43.4398094
      ],
      [
        24.5931567,
        43.4397488
      ],
      [
        24.5938768,
        43.4397488
      ],
      [
        24.5962847,
        43.4398975
      ],
      [
        24.5966614,
        43.4398768
      ],
      [
        24.5969525,
        43.439797
      ],
      [
        24.5971887,
        43.4396758
      ],
      [
        24.5973679,
        43.4395176
      ],
      [
        24.5974953,
        43.4393201
      ],
      [
        24.5976114,
        43.439118
      ],
      [
        24.5976469,
        43.4390563
      ],
      [
        24.597714,
        43.4388449
      ],
      [
        24.5977772,
        43.4385063
      ],
      [
        24.5978011,
        43.4381596
      ],
      [
        24.5978512,
        43.4376015
      ],
      [
        24.5978803,
        43.4373908
      ],
      [
        24.5979334,
        43.4372577
      ]
    ]
  }
},
{
  "type": "Feature",
  "id": "way/116748053",
  "properties": {
    "bridge": "yes",
    "highway": "tertiary",
    "lanes": "2",
    "name": "3004",
    "ref": "3004",
    "smoothness": "good",
    "surface": "asphalt",
    "id": "way/116748053"
  },
  "geometry": {
    "type": "LineString",
    "coordinates": [
      [
        24.5553758,
        43.4543819
      ],
      [
        24.556294,
        43.4540778
      ],
      [
        24.5567315,
        43.4539123
      ],
      [
        24.5572491,
        43.4536618
      ]
    ]
  }
}
]
}
