{
"type": "FeatureCollection",
"features": [
{
  "type": "Feature",
  "id": "way/205958887",
  "properties": {
    "highway": "tertiary",
    "ref": "8006",
    "smoothness": "intermediate",
    "id": "way/205958887"
  },
  "geometry": {
    "type": "LineString",
    "coordinates": [
      [
        24.9294164,
        42.1286465
      ],
      [
        24.9298313,
        42.1279594
      ],
      [
        24.9300242,
        42.1276746
      ],
      [
        24.9302575,
        42.1272246
      ],
      [
        24.930307,
        42.1269601
      ],
      [
        24.9302905,
        42.1266317
      ],
      [
        24.9299554,
        42.1235948
      ],
      [
        24.9293172,
        42.1198529
      ],
      [
        24.9287474,
        42.1153106
      ],
      [
        24.9284359,
        42.1135466
      ],
      [
        24.928094,
        42.1120756
      ],
      [
        24.9273267,
        42.1096802
      ],
      [
        24.9262858,
        42.106738
      ],
      [
        24.9259211,
        42.1059038
      ],
      [
        24.9255033,
        42.1052724
      ],
      [
        24.9250626,
        42.104737
      ],
      [
        24.92487,
        42.1044154
      ],
      [
        24.9248195,
        42.1043311
      ],
      [
        24.924641,
        42.103605
      ],
      [
        24.9245992,
        42.1034348
      ],
      [
        24.9246082,
        42.1026037
      ],
      [
        24.9246173,
        42.1016578
      ],
      [
        24.9246197,
        42.1014044
      ],
      [
        24.9246675,
        42.1004021
      ],
      [
        24.924646,
        42.1003259
      ],
      [
        24.9233912,
        42.0958866
      ],
      [
        24.9226086,
        42.0935188
      ],
      [
        24.9215198,
        42.0907932
      ],
      [
        24.9201926,
        42.0872775
      ],
      [
        24.9157578,
        42.0765078
      ],
      [
        24.9156949,
        42.0763551
      ],
      [
        24.9149807,
        42.0748664
      ],
      [
        24.9147831,
        42.0746126
      ],
      [
        24.9139875,
        42.073202
      ],
      [
        24.9136874,
        42.0723059
      ],
      [
        24.912665,
        42.0692533
      ],
      [
        24.9121398,
        42.068517
      ],
      [
        24.9113618,
        42.0677445
      ],
      [
        24.9098107,
        42.0663656
      ],
      [
        24.9088285,
        42.0651239
      ],
      [
        24.9077977,
        42.06355
      ],
      [
        24.9071899,
        42.0617631
      ],
      [
        24.9056145,
        42.0593516
      ],
      [
        24.9054054,
        42.0585862
      ],
      [
        24.9054394,
        42.0581638
      ],
      [
        24.9061688,
        42.0552215
      ],
      [
        24.9061347,
        42.0536979
      ],
      [
        24.9058965,
        42.0529216
      ],
      [
        24.9054491,
        42.0522031
      ],
      [
        24.9044134,
        42.0510008
      ],
      [
        24.9039612,
        42.0503256
      ],
      [
        24.9037424,
        42.0496143
      ],
      [
        24.9035868,
        42.0478812
      ],
      [
        24.9034409,
        42.0472638
      ],
      [
        24.902872,
        42.046343
      ],
      [
        24.9006305,
        42.0431293
      ],
      [
        24.9002415,
        42.0424215
      ],
      [
        24.8998768,
        42.0412768
      ],
      [
        24.8992739,
        42.0388284
      ],
      [
        24.8990696,
        42.0382831
      ],
      [
        24.8985056,
        42.0373766
      ],
      [
        24.8951359,
        42.0325806
      ],
      [
        24.8947129,
        42.0318438
      ],
      [
        24.8921699,
        42.0250715
      ]
    ]
  }
},
{
  "type": "Feature",
  "id": "way/78631604",
  "properties": {
    "highway": "tertiary",
    "ref": "8006",
    "smoothness": "bad",
    "id": "way/78631604"
  },
  "geometry": {
    "type": "LineString",
    "coordinates": [
      [
        24.8921699,
        42.0250715
      ],
      [
        24.8918878,
        42.0243383
      ],
      [
        24.8916605,
        42.0236307
      ],
      [
        24.891466,
        42.0228324
      ],
      [
        24.8911111,
        42.0215898
      ],
      [
        24.8899322,
        42.0174772
      ]
    ]
  }
},
{
  "type": "Feature",
  "id": "way/205958886",
  "properties": {
    "highway": "tertiary",
    "ref": "8006",
    "smoothness": "intermediate",
    "id": "way/205958886"
  },
  "geometry": {
    "type": "LineString",
    "coordinates": [
      [
        24.9401311,
        42.1383866
      ],
      [
        24.940015,
        42.1382927
      ],
      [
        24.9399667,
        42.1381636
      ],
      [
        24.9401457,
        42.137262
      ],
      [
        24.9402092,
        42.136856
      ],
      [
        24.9402351,
        42.1364091
      ],
      [
        24.9401936,
        42.1357135
      ],
      [
        24.9400975,
        42.1350255
      ],
      [
        24.9399998,
        42.134226
      ],
      [
        24.9396643,
        42.1334832
      ],
      [
        24.9396512,
        42.1334151
      ],
      [
        24.9395962,
        42.1331298
      ],
      [
        24.9395719,
        42.1317523
      ],
      [
        24.9394892,
        42.1315864
      ],
      [
        24.939003,
        42.1315179
      ],
      [
        24.9387591,
        42.1314375
      ],
      [
        24.9385216,
        42.1313593
      ],
      [
        24.9369224,
        42.1310804
      ],
      [
        24.9363673,
        42.1309312
      ],
      [
        24.9359591,
        42.1308184
      ],
      [
        24.9342941,
        42.1303895
      ],
      [
        24.9334628,
        42.13018
      ],
      [
        24.9324839,
        42.1299577
      ],
      [
        24.9317441,
        42.129768
      ],
      [
        24.9313564,
        42.1297079
      ],
      [
        24.9310873,
        42.129711
      ],
      [
        24.9307434,
        42.1297339
      ],
      [
        24.930489,
        42.1297637
      ],
      [
        24.9301397,
        42.1297535
      ],
      [
        24.9297822,
        42.1296801
      ],
      [
        24.92951,
        42.1295006
      ],
      [
        24.9293359,
        42.1292242
      ]
    ]
  }
},
{
  "type": "Feature",
  "id": "way/216255122",
  "properties": {
    "bridge": "viaduct",
    "highway": "tertiary",
    "ref": "8006",
    "smoothness": "intermediate",
    "id": "way/216255122"
  },
  "geometry": {
    "type": "LineString",
    "coordinates": [
      [
        24.9293359,
        42.1292242
      ],
      [
        24.9293096,
        42.1289809
      ],
      [
        24.9293262,
        42.1288387
      ],
      [
        24.9294164,
        42.1286465
      ]
    ]
  }
},
{
  "type": "Feature",
  "id": "way/236882399",
  "properties": {
    "highway": "tertiary",
    "oneway": "-1",
    "ref": "8006",
    "id": "way/236882399"
  },
  "geometry": {
    "type": "LineString",
    "coordinates": [
      [
        24.9399667,
        42.1381636
      ],
      [
        24.9399023,
        42.1383259
      ],
      [
        24.9398272,
        42.138461
      ],
      [
        24.9397459,
        42.1385889
      ]
    ]
  }
}
]
}
