{
"type": "FeatureCollection",
"features": [
{
  "type": "Feature",
  "id": "way/26168891",
  "properties": {
    "created_by": "Potlatch 0.10b",
    "highway": "tertiary",
    "ref": "5393",
    "id": "way/26168891"
  },
  "geometry": {
    "type": "LineString",
    "coordinates": [
      [
        27.3157535,
        42.5274324
      ],
      [
        27.3045262,
        42.5217067
      ]
    ]
  }
},
{
  "type": "Feature",
  "id": "way/233962630",
  "properties": {
    "highway": "tertiary",
    "ref": "5393",
    "id": "way/233962630"
  },
  "geometry": {
    "type": "LineString",
    "coordinates": [
      [
        27.352347,
        42.5462322
      ],
      [
        27.3505296,
        42.5453426
      ],
      [
        27.3493037,
        42.5447504
      ],
      [
        27.3484361,
        42.5443146
      ],
      [
        27.3482555,
        42.5442222
      ],
      [
        27.347745,
        42.5439608
      ],
      [
        27.3454154,
        42.5427682
      ],
      [
        27.3451069,
        42.5426103
      ],
      [
        27.3426347,
        42.5413339
      ],
      [
        27.3392305,
        42.5395764
      ],
      [
        27.3369433,
        42.5383121
      ],
      [
        27.335432,
        42.5375556
      ],
      [
        27.3350301,
        42.5373405
      ],
      [
        27.3284889,
        42.5340454
      ],
      [
        27.3276071,
        42.5335917
      ],
      [
        27.3270998,
        42.5333307
      ],
      [
        27.3270052,
        42.533282
      ],
      [
        27.3264758,
        42.5330112
      ],
      [
        27.3240787,
        42.5317085
      ],
      [
        27.3232127,
        42.5312545
      ],
      [
        27.3224771,
        42.5308814
      ]
    ]
  }
},
{
  "type": "Feature",
  "id": "way/26168960",
  "properties": {
    "created_by": "Potlatch 0.10b",
    "highway": "tertiary",
    "oneway": "yes",
    "ref": "5393",
    "id": "way/26168960"
  },
  "geometry": {
    "type": "LineString",
    "coordinates": [
      [
        27.3157535,
        42.5274324
      ],
      [
        27.3164916,
        42.5277233
      ],
      [
        27.3190837,
        42.5290516
      ],
      [
        27.3192039,
        42.5292034
      ]
    ]
  }
},
{
  "type": "Feature",
  "id": "way/26168972",
  "properties": {
    "created_by": "Potlatch 0.10b",
    "highway": "tertiary",
    "oneway": "yes",
    "ref": "5393",
    "id": "way/26168972"
  },
  "geometry": {
    "type": "LineString",
    "coordinates": [
      [
        27.3192039,
        42.5292034
      ],
      [
        27.3189464,
        42.5291528
      ],
      [
        27.3163886,
        42.5278246
      ],
      [
        27.3157535,
        42.5274324
      ]
    ]
  }
},
{
  "type": "Feature",
  "id": "way/231629117",
  "properties": {
    "highway": "tertiary",
    "ref": "5393",
    "id": "way/231629117"
  },
  "geometry": {
    "type": "LineString",
    "coordinates": [
      [
        27.3220372,
        42.5306521
      ],
      [
        27.3212664,
        42.5302644
      ],
      [
        27.320084,
        42.5296392
      ],
      [
        27.3198044,
        42.5294566
      ],
      [
        27.3195377,
        42.52935
      ],
      [
        27.3192039,
        42.5292034
      ]
    ]
  }
},
{
  "type": "Feature",
  "id": "way/231629116",
  "properties": {
    "bridge": "yes",
    "highway": "tertiary",
    "layer": "1",
    "ref": "5393",
    "id": "way/231629116"
  },
  "geometry": {
    "type": "LineString",
    "coordinates": [
      [
        27.3224771,
        42.5308814
      ],
      [
        27.3220372,
        42.5306521
      ]
    ]
  }
},
{
  "type": "Feature",
  "id": "way/26168866",
  "properties": {
    "highway": "tertiary",
    "ref": "5393",
    "smoothness": "bad",
    "id": "way/26168866"
  },
  "geometry": {
    "type": "LineString",
    "coordinates": [
      [
        27.3549394,
        42.547587
      ],
      [
        27.352347,
        42.5462322
      ]
    ]
  }
}
]
}
