{
"type": "FeatureCollection",
"features": [
{
  "type": "Feature",
  "id": "way/105785817",
  "properties": {
    "highway": "tertiary",
    "name": "539",
    "ref": "539",
    "smoothness": "intermediate",
    "id": "way/105785817"
  },
  "geometry": {
    "type": "LineString",
    "coordinates": [
      [
        27.1760228,
        42.3522509
      ],
      [
        27.1760553,
        42.3525064
      ],
      [
        27.176054,
        42.354305
      ],
      [
        27.175797,
        42.355598
      ],
      [
        27.175743,
        42.355923
      ],
      [
        27.175367,
        42.35799
      ],
      [
        27.175217,
        42.358879
      ],
      [
        27.174894,
        42.360527
      ],
      [
        27.1745,
        42.362896
      ],
      [
        27.174047,
        42.365299
      ],
      [
        27.173447,
        42.368351
      ],
      [
        27.17292,
        42.371166
      ],
      [
        27.172874,
        42.371429
      ],
      [
        27.172827,
        42.37159
      ],
      [
        27.172768,
        42.371738
      ],
      [
        27.172642,
        42.37204
      ],
      [
        27.170454,
        42.37627
      ],
      [
        27.168125,
        42.380764
      ],
      [
        27.167999,
        42.381004
      ],
      [
        27.167856,
        42.381226
      ],
      [
        27.167677,
        42.381496
      ],
      [
        27.167482,
        42.381741
      ],
      [
        27.167215,
        42.381992
      ],
      [
        27.166945,
        42.382221
      ],
      [
        27.16143,
        42.387184
      ],
      [
        27.160122,
        42.388355
      ],
      [
        27.159866,
        42.388668
      ],
      [
        27.159657,
        42.388927
      ],
      [
        27.159168,
        42.389561
      ],
      [
        27.15686,
        42.392216
      ],
      [
        27.1559685,
        42.3932931
      ]
    ]
  }
},
{
  "type": "Feature",
  "id": "way/169653390",
  "properties": {
    "highway": "tertiary",
    "lanes": "2",
    "name": "539",
    "ref": "539",
    "surface": "asphalt",
    "id": "way/169653390"
  },
  "geometry": {
    "type": "LineString",
    "coordinates": [
      [
        27.157707,
        42.542007
      ],
      [
        27.15053,
        42.544418
      ],
      [
        27.150307,
        42.544514
      ],
      [
        27.150112,
        42.544647
      ],
      [
        27.149899,
        42.544796
      ],
      [
        27.149683,
        42.545006
      ],
      [
        27.149513,
        42.545208
      ],
      [
        27.149361,
        42.545456
      ],
      [
        27.145445,
        42.550972
      ],
      [
        27.145123,
        42.551819
      ],
      [
        27.144983,
        42.553192
      ],
      [
        27.145241,
        42.553516
      ],
      [
        27.14522,
        42.553974
      ],
      [
        27.144962,
        42.554718
      ],
      [
        27.146196,
        42.556946
      ],
      [
        27.148706,
        42.559959
      ],
      [
        27.149057,
        42.560402
      ],
      [
        27.149143,
        42.560516
      ],
      [
        27.149178,
        42.560604
      ],
      [
        27.149191,
        42.560722
      ],
      [
        27.149189,
        42.560829
      ],
      [
        27.149071,
        42.562668
      ],
      [
        27.149094,
        42.563126
      ],
      [
        27.149191,
        42.56356
      ],
      [
        27.14934,
        42.56403
      ],
      [
        27.150553,
        42.567268
      ],
      [
        27.150629,
        42.567493
      ],
      [
        27.150669,
        42.567703
      ],
      [
        27.150694,
        42.567905
      ],
      [
        27.150734,
        42.568146
      ],
      [
        27.151142,
        42.572758
      ],
      [
        27.151176,
        42.573032
      ],
      [
        27.151249,
        42.573311
      ],
      [
        27.151316,
        42.573578
      ],
      [
        27.151409,
        42.573856
      ],
      [
        27.151508,
        42.574123
      ],
      [
        27.151613,
        42.574402
      ],
      [
        27.152365,
        42.576237
      ],
      [
        27.152473,
        42.576477
      ],
      [
        27.152571,
        42.576675
      ],
      [
        27.152721,
        42.576904
      ],
      [
        27.152925,
        42.577183
      ],
      [
        27.154318,
        42.578983
      ],
      [
        27.154554,
        42.57922
      ],
      [
        27.1548,
        42.579433
      ],
      [
        27.154995,
        42.579613
      ],
      [
        27.155251,
        42.579815
      ],
      [
        27.157396,
        42.581276
      ],
      [
        27.157593,
        42.581413
      ],
      [
        27.157728,
        42.581558
      ],
      [
        27.157871,
        42.581745
      ],
      [
        27.15801,
        42.581944
      ],
      [
        27.158117,
        42.582142
      ],
      [
        27.158192,
        42.582359
      ],
      [
        27.159115,
        42.586906
      ],
      [
        27.159168,
        42.587105
      ],
      [
        27.159252,
        42.587273
      ],
      [
        27.159363,
        42.587395
      ],
      [
        27.159533,
        42.587494
      ],
      [
        27.160294,
        42.5877
      ],
      [
        27.160563,
        42.587769
      ],
      [
        27.160776,
        42.587833
      ],
      [
        27.160917,
        42.587902
      ],
      [
        27.161013,
        42.58799
      ],
      [
        27.161077,
        42.588116
      ],
      [
        27.161119,
        42.588284
      ],
      [
        27.161024,
        42.589622
      ],
      [
        27.161068,
        42.589756
      ],
      [
        27.16114,
        42.589893
      ],
      [
        27.161762,
        42.590721
      ],
      [
        27.162922,
        42.593346
      ],
      [
        27.163042,
        42.593548
      ],
      [
        27.163212,
        42.593739
      ],
      [
        27.163546,
        42.594028
      ],
      [
        27.163912,
        42.594292
      ],
      [
        27.164253,
        42.594479
      ],
      [
        27.16464,
        42.594646
      ],
      [
        27.165102,
        42.594788
      ],
      [
        27.165819,
        42.594933
      ],
      [
        27.166515,
        42.595058
      ],
      [
        27.166733,
        42.595119
      ],
      [
        27.166924,
        42.595226
      ],
      [
        27.167097,
        42.595325
      ],
      [
        27.167213,
        42.595455
      ],
      [
        27.167418,
        42.595772
      ],
      [
        27.167643,
        42.596188
      ],
      [
        27.167772,
        42.596409
      ],
      [
        27.167953,
        42.5966
      ],
      [
        27.168139,
        42.596748
      ],
      [
        27.16835,
        42.596901
      ],
      [
        27.174198,
        42.600975
      ],
      [
        27.178726,
        42.604164
      ],
      [
        27.179745,
        42.604813
      ],
      [
        27.1803322,
        42.6051528
      ],
      [
        27.180635,
        42.605328
      ],
      [
        27.186998,
        42.608524
      ],
      [
        27.19322,
        42.611645
      ],
      [
        27.1966371,
        42.6132788
      ],
      [
        27.1969707,
        42.6135272
      ],
      [
        27.1971626,
        42.6136882
      ],
      [
        27.1973095,
        42.6138559
      ],
      [
        27.1974024,
        42.6140633
      ],
      [
        27.1974534,
        42.6142817
      ],
      [
        27.19746,
        42.614452
      ],
      [
        27.1974437,
        42.6147275
      ],
      [
        27.197108,
        42.6158404
      ],
      [
        27.1960207,
        42.6192184
      ],
      [
        27.1945312,
        42.6238771
      ],
      [
        27.1941428,
        42.6251051
      ],
      [
        27.1939841,
        42.6255645
      ],
      [
        27.193829,
        42.6260376
      ],
      [
        27.1934195,
        42.6270028
      ],
      [
        27.1932827,
        42.6273277
      ],
      [
        27.1929098,
        42.6280827
      ],
      [
        27.192255,
        42.629185
      ],
      [
        27.189283,
        42.634293
      ],
      [
        27.1872201,
        42.6379237
      ],
      [
        27.1869459,
        42.6384647
      ],
      [
        27.1868679,
        42.638667
      ],
      [
        27.1868437,
        42.6388787
      ],
      [
        27.1868352,
        42.6390675
      ],
      [
        27.1868834,
        42.6392407
      ],
      [
        27.1869642,
        42.6393873
      ],
      [
        27.1870894,
        42.6395803
      ],
      [
        27.1872501,
        42.639739
      ],
      [
        27.1876366,
        42.6401081
      ],
      [
        27.1905259,
        42.6424843
      ],
      [
        27.1906713,
        42.6425857
      ],
      [
        27.190712,
        42.6426141
      ],
      [
        27.1907648,
        42.6426364
      ],
      [
        27.1909703,
        42.6427234
      ],
      [
        27.1918195,
        42.643073
      ],
      [
        27.1929837,
        42.6435227
      ],
      [
        27.1931791,
        42.6435982
      ],
      [
        27.1936574,
        42.6438177
      ],
      [
        27.193692,
        42.6438336
      ],
      [
        27.1945967,
        42.6444243
      ],
      [
        27.1946412,
        42.6444533
      ],
      [
        27.1952796,
        42.6449306
      ],
      [
        27.1953583,
        42.6450067
      ],
      [
        27.196053,
        42.645679
      ],
      [
        27.196493,
        42.646156
      ],
      [
        27.196869,
        42.646484
      ],
      [
        27.197319,
        42.646763
      ],
      [
        27.199142,
        42.647827
      ],
      [
        27.20529,
        42.651527
      ],
      [
        27.206684,
        42.652382
      ],
      [
        27.207027,
        42.652603
      ],
      [
        27.20718,
        42.65271
      ],
      [
        27.207352,
        42.652885
      ],
      [
        27.207447,
        42.652985
      ],
      [
        27.207521,
        42.65313
      ],
      [
        27.207714,
        42.653507
      ],
      [
        27.207853,
        42.653992
      ],
      [
        27.207939,
        42.654575
      ],
      [
        27.208101,
        42.655403
      ],
      [
        27.208113,
        42.656002
      ],
      [
        27.208134,
        42.656281
      ],
      [
        27.208143,
        42.656628
      ],
      [
        27.208124,
        42.656765
      ],
      [
        27.208057,
        42.656879
      ],
      [
        27.207888,
        42.657169
      ],
      [
        27.207554,
        42.65789
      ],
      [
        27.207481,
        42.658085
      ],
      [
        27.207468,
        42.658268
      ],
      [
        27.207447,
        42.658447
      ],
      [
        27.207468,
        42.658615
      ],
      [
        27.207607,
        42.658932
      ],
      [
        27.210546,
        42.663971
      ],
      [
        27.213444,
        42.668934
      ],
      [
        27.216373,
        42.67392
      ],
      [
        27.2181,
        42.676876
      ],
      [
        27.218241,
        42.6772
      ],
      [
        27.218327,
        42.67762
      ],
      [
        27.2193939,
        42.681896
      ],
      [
        27.2194275,
        42.6819864
      ],
      [
        27.2196555,
        42.6822948
      ],
      [
        27.2250497,
        42.6868263
      ],
      [
        27.2254113,
        42.687038
      ],
      [
        27.2257551,
        42.6872367
      ],
      [
        27.2282844,
        42.6884142
      ],
      [
        27.228565,
        42.6885758
      ],
      [
        27.2288332,
        42.6887738
      ],
      [
        27.2309645,
        42.6906858
      ],
      [
        27.232215,
        42.6918324
      ],
      [
        27.2323866,
        42.6919507
      ],
      [
        27.2325599,
        42.6920536
      ],
      [
        27.233496,
        42.692554
      ],
      [
        27.23385,
        42.692715
      ],
      [
        27.235964,
        42.693741
      ],
      [
        27.236425,
        42.693928
      ],
      [
        27.2373644,
        42.694227
      ],
      [
        27.2391723,
        42.6948025
      ],
      [
        27.2410574,
        42.6954599
      ],
      [
        27.2416075,
        42.6956517
      ],
      [
        27.2424194,
        42.69592
      ],
      [
        27.244227,
        42.6965726
      ],
      [
        27.244673,
        42.6967222
      ],
      [
        27.245088,
        42.6968656
      ],
      [
        27.245429,
        42.6970044
      ],
      [
        27.245585,
        42.6970749
      ],
      [
        27.2461316,
        42.6973219
      ],
      [
        27.246994,
        42.697772
      ],
      [
        27.2476769,
        42.6981285
      ],
      [
        27.2479943,
        42.6982931
      ],
      [
        27.2486353,
        42.6986024
      ]
    ]
  }
},
{
  "type": "Feature",
  "id": "way/169653400",
  "properties": {
    "highway": "tertiary",
    "name": "539",
    "ref": "539",
    "smoothness": "horrible",
    "id": "way/169653400"
  },
  "geometry": {
    "type": "LineString",
    "coordinates": [
      [
        27.1866794,
        42.4657306
      ],
      [
        27.185764,
        42.468109
      ],
      [
        27.18438,
        42.469582
      ],
      [
        27.183575,
        42.470524
      ],
      [
        27.182041,
        42.471901
      ],
      [
        27.181,
        42.472797
      ],
      [
        27.180796,
        42.473049
      ],
      [
        27.180647,
        42.473316
      ],
      [
        27.178833,
        42.476593
      ],
      [
        27.178511,
        42.477146
      ],
      [
        27.178061,
        42.477764
      ],
      [
        27.174639,
        42.482063
      ],
      [
        27.174068,
        42.482765
      ],
      [
        27.17379,
        42.482994
      ],
      [
        27.172449,
        42.483883
      ],
      [
        27.171022,
        42.484798
      ],
      [
        27.170732,
        42.484924
      ],
      [
        27.170368,
        42.485012
      ],
      [
        27.167524,
        42.485584
      ],
      [
        27.167042,
        42.485779
      ],
      [
        27.165058,
        42.486713
      ],
      [
        27.164886,
        42.486839
      ],
      [
        27.164747,
        42.486973
      ],
      [
        27.164585,
        42.487164
      ],
      [
        27.164415,
        42.487385
      ],
      [
        27.164351,
        42.4875273
      ],
      [
        27.164307,
        42.487625
      ],
      [
        27.164286,
        42.487865
      ],
      [
        27.164381,
        42.488106
      ],
      [
        27.164513,
        42.488327
      ],
      [
        27.164703,
        42.488525
      ],
      [
        27.164909,
        42.488674
      ],
      [
        27.165174,
        42.488827
      ],
      [
        27.165445,
        42.488968
      ],
      [
        27.165796,
        42.48912
      ],
      [
        27.165112,
        42.493946
      ],
      [
        27.164488,
        42.498375
      ],
      [
        27.164448,
        42.498688
      ],
      [
        27.164425,
        42.498985
      ],
      [
        27.164448,
        42.499233
      ],
      [
        27.164511,
        42.499508
      ],
      [
        27.165882,
        42.50584
      ],
      [
        27.166121,
        42.506866
      ],
      [
        27.166153,
        42.507107
      ],
      [
        27.166153,
        42.507397
      ],
      [
        27.166119,
        42.507778
      ],
      [
        27.165873,
        42.509853
      ],
      [
        27.165239,
        42.515354
      ],
      [
        27.164875,
        42.518749
      ],
      [
        27.164824,
        42.519299
      ],
      [
        27.164759,
        42.519577
      ],
      [
        27.164703,
        42.519848
      ],
      [
        27.16317,
        42.524998
      ],
      [
        27.16157,
        42.530239
      ],
      [
        27.16011,
        42.535202
      ],
      [
        27.158609,
        42.540192
      ],
      [
        27.158213,
        42.54155
      ],
      [
        27.158138,
        42.541668
      ],
      [
        27.158062,
        42.541763
      ],
      [
        27.157892,
        42.541897
      ],
      [
        27.157707,
        42.542007
      ]
    ]
  }
},
{
  "type": "Feature",
  "id": "way/231002652",
  "properties": {
    "highway": "tertiary",
    "name": "539",
    "ref": "539",
    "id": "way/231002652"
  },
  "geometry": {
    "type": "LineString",
    "coordinates": [
      [
        27.1559685,
        42.3932931
      ],
      [
        27.15465,
        42.394886
      ],
      [
        27.153931,
        42.395782
      ],
      [
        27.153751,
        42.396065
      ],
      [
        27.153599,
        42.396358
      ],
      [
        27.153515,
        42.39666
      ],
      [
        27.153469,
        42.396931
      ],
      [
        27.153461,
        42.397221
      ],
      [
        27.153502,
        42.397507
      ],
      [
        27.15361,
        42.397808
      ],
      [
        27.15377,
        42.398094
      ],
      [
        27.154264,
        42.398689
      ],
      [
        27.155949,
        42.400772
      ],
      [
        27.156336,
        42.401222
      ],
      [
        27.156563,
        42.401428
      ],
      [
        27.156828,
        42.401634
      ],
      [
        27.157087,
        42.401798
      ],
      [
        27.157375,
        42.40197
      ],
      [
        27.159447,
        42.402889
      ],
      [
        27.161732,
        42.403934
      ],
      [
        27.161915,
        42.404018
      ],
      [
        27.162096,
        42.404076
      ],
      [
        27.162249,
        42.404121
      ],
      [
        27.162451,
        42.404148
      ],
      [
        27.165325,
        42.404266
      ],
      [
        27.165594,
        42.404282
      ],
      [
        27.165819,
        42.404324
      ],
      [
        27.166023,
        42.404385
      ],
      [
        27.166227,
        42.404461
      ],
      [
        27.16641,
        42.404549
      ],
      [
        27.166582,
        42.404636
      ],
      [
        27.166754,
        42.404747
      ],
      [
        27.166912,
        42.404884
      ],
      [
        27.167149,
        42.405128
      ],
      [
        27.168995,
        42.407349
      ],
      [
        27.169104,
        42.407478
      ],
      [
        27.169188,
        42.407585
      ],
      [
        27.169266,
        42.407726
      ],
      [
        27.169359,
        42.407894
      ],
      [
        27.169983,
        42.40958
      ],
      [
        27.170582,
        42.411278
      ],
      [
        27.170649,
        42.411472
      ],
      [
        27.170679,
        42.411682
      ],
      [
        27.170883,
        42.41507
      ],
      [
        27.170895,
        42.415276
      ],
      [
        27.17086,
        42.415482
      ],
      [
        27.170832,
        42.41568
      ],
      [
        27.170776,
        42.415894
      ],
      [
        27.169542,
        42.420822
      ],
      [
        27.168844,
        42.423691
      ],
      [
        27.168758,
        42.423981
      ],
      [
        27.168608,
        42.424347
      ],
      [
        27.16687,
        42.427998
      ],
      [
        27.166819,
        42.428146
      ],
      [
        27.166763,
        42.428299
      ],
      [
        27.166742,
        42.428436
      ],
      [
        27.166763,
        42.428593
      ],
      [
        27.167568,
        42.433548
      ],
      [
        27.167603,
        42.433697
      ],
      [
        27.16761,
        42.433849
      ],
      [
        27.1675675,
        42.4348267
      ],
      [
        27.167503,
        42.436676
      ],
      [
        27.167515,
        42.436977
      ],
      [
        27.167589,
        42.437256
      ],
      [
        27.167686,
        42.437546
      ],
      [
        27.168545,
        42.439362
      ],
      [
        27.168716,
        42.439629
      ],
      [
        27.168802,
        42.439754
      ],
      [
        27.16893,
        42.439907
      ],
      [
        27.170422,
        42.441261
      ],
      [
        27.170732,
        42.441551
      ],
      [
        27.170895,
        42.441715
      ],
      [
        27.171022,
        42.441933
      ],
      [
        27.173351,
        42.444901
      ],
      [
        27.177073,
        42.449715
      ],
      [
        27.177246,
        42.449959
      ],
      [
        27.177374,
        42.450207
      ],
      [
        27.17745,
        42.450481
      ],
      [
        27.177492,
        42.450729
      ],
      [
        27.177483,
        42.450974
      ],
      [
        27.177418,
        42.451225
      ],
      [
        27.177299,
        42.451565
      ],
      [
        27.17717,
        42.451836
      ],
      [
        27.176365,
        42.453499
      ],
      [
        27.176304,
        42.453625
      ],
      [
        27.176279,
        42.453762
      ],
      [
        27.17626,
        42.453918
      ],
      [
        27.17627,
        42.454079
      ],
      [
        27.17643,
        42.455692
      ],
      [
        27.176517,
        42.456329
      ],
      [
        27.176615,
        42.456989
      ],
      [
        27.176603,
        42.457203
      ],
      [
        27.176517,
        42.457485
      ],
      [
        27.175989,
        42.459728
      ],
      [
        27.17597,
        42.459892
      ],
      [
        27.175989,
        42.460037
      ],
      [
        27.176023,
        42.460171
      ],
      [
        27.176119,
        42.460316
      ],
      [
        27.176216,
        42.460464
      ],
      [
        27.176399,
        42.460613
      ],
      [
        27.178253,
        42.46209
      ],
      [
        27.17864,
        42.462349
      ],
      [
        27.179155,
        42.46265
      ],
      [
        27.181568,
        42.463821
      ],
      [
        27.181849,
        42.463928
      ],
      [
        27.182095,
        42.464012
      ],
      [
        27.183426,
        42.464447
      ],
      [
        27.1866794,
        42.4657306
      ]
    ]
  }
}
]
}
