{
"type": "FeatureCollection",
"features": [
{
  "type": "Feature",
  "id": "way/26383177",
  "properties": {
    "highway": "tertiary",
    "name": "8004",
    "ref": "8004",
    "smoothness": "intermediate",
    "id": "way/26383177"
  },
  "geometry": {
    "type": "LineString",
    "coordinates": [
      [
        24.4290986,
        42.085317
      ],
      [
        24.4290694,
        42.0856318
      ],
      [
        24.4289242,
        42.0865229
      ],
      [
        24.4288535,
        42.0869566
      ],
      [
        24.4288278,
        42.0872432
      ],
      [
        24.4288396,
        42.0873787
      ],
      [
        24.429262,
        42.0893469
      ],
      [
        24.429818,
        42.0919582
      ],
      [
        24.4302032,
        42.0941327
      ],
      [
        24.4305572,
        42.0960597
      ],
      [
        24.4309858,
        42.098198
      ],
      [
        24.4315588,
        42.1009504
      ],
      [
        24.4318978,
        42.1024454
      ],
      [
        24.4320882,
        42.103672
      ],
      [
        24.4322738,
        42.104503
      ],
      [
        24.4323318,
        42.104798
      ],
      [
        24.4323082,
        42.1050646
      ],
      [
        24.4319525,
        42.1077045
      ],
      [
        24.431666,
        42.110388
      ],
      [
        24.4314692,
        42.1116702
      ],
      [
        24.4310518,
        42.1148732
      ],
      [
        24.4308367,
        42.1170288
      ],
      [
        24.4307273,
        42.1177932
      ],
      [
        24.4305122,
        42.1188954
      ],
      [
        24.4301082,
        42.1211503
      ],
      [
        24.4298669,
        42.1236837
      ],
      [
        24.4292489,
        42.125581
      ],
      [
        24.4288826,
        42.1267689
      ],
      [
        24.4271435,
        42.1335267
      ],
      [
        24.427049,
        42.1337384
      ],
      [
        24.4268433,
        42.1339655
      ],
      [
        24.4265827,
        42.1341105
      ],
      [
        24.4231709,
        42.1351788
      ],
      [
        24.4226692,
        42.1352165
      ],
      [
        24.4224043,
        42.1352959
      ],
      [
        24.4222484,
        42.1354092
      ],
      [
        24.4214587,
        42.1361967
      ],
      [
        24.4204564,
        42.1367495
      ],
      [
        24.4202516,
        42.1368371
      ],
      [
        24.42021,
        42.1369768
      ],
      [
        24.420342,
        42.1372555
      ],
      [
        24.4203435,
        42.1373308
      ],
      [
        24.4202694,
        42.1373796
      ],
      [
        24.4190101,
        42.137601
      ],
      [
        24.4178565,
        42.137824
      ],
      [
        24.4163392,
        42.1383039
      ],
      [
        24.4152178,
        42.1386915
      ],
      [
        24.4133051,
        42.1394503
      ],
      [
        24.4118532,
        42.1398537
      ],
      [
        24.4113275,
        42.1399366
      ],
      [
        24.4088385,
        42.1404824
      ]
    ]
  }
},
{
  "type": "Feature",
  "id": "way/26262024",
  "properties": {
    "highway": "tertiary",
    "ref": "8004",
    "smoothness": "intermediate",
    "id": "way/26262024"
  },
  "geometry": {
    "type": "LineString",
    "coordinates": [
      [
        24.4126528,
        42.1446626
      ],
      [
        24.4127268,
        42.1448176
      ],
      [
        24.4131814,
        42.1457696
      ],
      [
        24.4138837,
        42.1476449
      ],
      [
        24.414457,
        42.1487565
      ],
      [
        24.4148648,
        42.1496664
      ],
      [
        24.4154732,
        42.1509874
      ],
      [
        24.4157605,
        42.1515253
      ],
      [
        24.4161485,
        42.1522156
      ],
      [
        24.4166783,
        42.1532836
      ],
      [
        24.4172359,
        42.1545307
      ],
      [
        24.4231103,
        42.1759199
      ]
    ]
  }
},
{
  "type": "Feature",
  "id": "way/49186639",
  "properties": {
    "highway": "tertiary",
    "name": "8004",
    "ref": "8004",
    "smoothness": "intermediate",
    "id": "way/49186639"
  },
  "geometry": {
    "type": "LineString",
    "coordinates": [
      [
        24.4082003,
        42.1408388
      ],
      [
        24.4083303,
        42.1410899
      ],
      [
        24.4085291,
        42.1412399
      ],
      [
        24.4089456,
        42.1412784
      ],
      [
        24.4096374,
        42.1412922
      ],
      [
        24.4101484,
        42.1413566
      ],
      [
        24.410673,
        42.1415109
      ],
      [
        24.410913,
        42.1416435
      ],
      [
        24.4111164,
        42.141879
      ],
      [
        24.4118213,
        42.1432592
      ]
    ]
  }
},
{
  "type": "Feature",
  "id": "way/49186342",
  "properties": {
    "highway": "tertiary_link",
    "oneway": "yes",
    "ref": "8004",
    "smoothness": "intermediate",
    "id": "way/49186342"
  },
  "geometry": {
    "type": "LineString",
    "coordinates": [
      [
        24.4088385,
        42.1404824
      ],
      [
        24.4085646,
        42.1405729
      ],
      [
        24.4084105,
        42.1406437
      ],
      [
        24.4082003,
        42.1408388
      ]
    ]
  }
},
{
  "type": "Feature",
  "id": "way/167320196",
  "properties": {
    "highway": "tertiary_link",
    "oneway": "yes",
    "ref": "8004",
    "smoothness": "intermediate",
    "id": "way/167320196"
  },
  "geometry": {
    "type": "LineString",
    "coordinates": [
      [
        24.407708,
        42.140394
      ],
      [
        24.4084386,
        42.1405022
      ],
      [
        24.4088385,
        42.1404824
      ]
    ]
  }
},
{
  "type": "Feature",
  "id": "way/182142271",
  "properties": {
    "highway": "tertiary_link",
    "oneway": "yes",
    "ref": "8004",
    "id": "way/182142271"
  },
  "geometry": {
    "type": "LineString",
    "coordinates": [
      [
        24.4082003,
        42.1408388
      ],
      [
        24.4080254,
        42.1406193
      ],
      [
        24.4084386,
        42.1405022
      ]
    ]
  }
},
{
  "type": "Feature",
  "id": "way/26262023",
  "properties": {
    "bridge": "yes",
    "highway": "tertiary",
    "layer": "1",
    "ref": "8004",
    "smoothness": "intermediate",
    "id": "way/26262023"
  },
  "geometry": {
    "type": "LineString",
    "coordinates": [
      [
        24.4118213,
        42.1432592
      ],
      [
        24.4126528,
        42.1446626
      ]
    ]
  }
},
{
  "type": "Feature",
  "id": "way/208590528",
  "properties": {
    "highway": "tertiary",
    "ref": "8004",
    "smoothness": "intermediate",
    "id": "way/208590528"
  },
  "geometry": {
    "type": "LineString",
    "coordinates": [
      [
        24.4231565,
        42.176088
      ],
      [
        24.4252541,
        42.1837239
      ],
      [
        24.4253326,
        42.1841404
      ]
    ]
  }
},
{
  "type": "Feature",
  "id": "way/208590527",
  "properties": {
    "bridge": "yes",
    "highway": "tertiary",
    "ref": "8004",
    "smoothness": "intermediate",
    "id": "way/208590527"
  },
  "geometry": {
    "type": "LineString",
    "coordinates": [
      [
        24.4231103,
        42.1759199
      ],
      [
        24.4231565,
        42.176088
      ]
    ]
  }
},
{
  "type": "Feature",
  "id": "way/182139764",
  "properties": {
    "highway": "tertiary",
    "oneway": "yes",
    "ref": "8004",
    "smoothness": "intermediate",
    "id": "way/182139764"
  },
  "geometry": {
    "type": "LineString",
    "coordinates": [
      [
        24.4254276,
        42.1845992
      ],
      [
        24.4254084,
        42.1845288
      ],
      [
        24.4253651,
        42.1843745
      ],
      [
        24.4253326,
        42.1841404
      ]
    ]
  }
},
{
  "type": "Feature",
  "id": "way/182139767",
  "properties": {
    "highway": "tertiary",
    "oneway": "yes",
    "ref": "8004",
    "id": "way/182139767"
  },
  "geometry": {
    "type": "LineString",
    "coordinates": [
      [
        24.4253326,
        42.1841404
      ],
      [
        24.4254642,
        42.1843891
      ],
      [
        24.4255141,
        42.1845073
      ]
    ]
  }
},
{
  "type": "Feature",
  "id": "way/182139771",
  "properties": {
    "highway": "tertiary",
    "oneway": "yes",
    "ref": "8004",
    "id": "way/182139771"
  },
  "geometry": {
    "type": "LineString",
    "coordinates": [
      [
        24.4251158,
        42.1845824
      ],
      [
        24.4252405,
        42.1845263
      ],
      [
        24.4253133,
        42.184454
      ],
      [
        24.4253651,
        42.1843745
      ]
    ]
  }
}
]
}
