{
"type": "FeatureCollection",
"features": [
{
  "type": "Feature",
  "id": "way/183501433",
  "properties": {
    "highway": "tertiary",
    "ref": "1024",
    "id": "way/183501433"
  },
  "geometry": {
    "type": "LineString",
    "coordinates": [
      [
        22.9537002,
        43.2881865
      ],
      [
        22.9538916,
        43.2878235
      ],
      [
        22.9545539,
        43.2866721
      ],
      [
        22.9551422,
        43.2855999
      ],
      [
        22.9553078,
        43.2853842
      ],
      [
        22.9556912,
        43.2850353
      ],
      [
        22.9569418,
        43.2840139
      ],
      [
        22.9577,
        43.2832716
      ],
      [
        22.9581532,
        43.2827292
      ],
      [
        22.9583667,
        43.28232
      ],
      [
        22.9585454,
        43.2815143
      ],
      [
        22.958955,
        43.2799218
      ],
      [
        22.9591118,
        43.2794618
      ],
      [
        22.9595342,
        43.2786842
      ],
      [
        22.9605879,
        43.2762561
      ],
      [
        22.9611063,
        43.2750522
      ],
      [
        22.961168,
        43.274783
      ],
      [
        22.9611495,
        43.2746259
      ],
      [
        22.9610694,
        43.2743859
      ],
      [
        22.9609215,
        43.2742378
      ],
      [
        22.9604993,
        43.273991
      ],
      [
        22.95988,
        43.2736007
      ],
      [
        22.9597044,
        43.27341
      ],
      [
        22.9595996,
        43.2732126
      ],
      [
        22.9595195,
        43.2728088
      ],
      [
        22.9594516,
        43.2724534
      ],
      [
        22.959316,
        43.2721393
      ],
      [
        22.9590603,
        43.2718858
      ],
      [
        22.9584625,
        43.2713698
      ],
      [
        22.9583085,
        43.2712397
      ],
      [
        22.9582777,
        43.2711387
      ],
      [
        22.9582992,
        43.2706294
      ],
      [
        22.9582068,
        43.2701359
      ],
      [
        22.9581304,
        43.2699692
      ],
      [
        22.9578951,
        43.269763
      ],
      [
        22.957631,
        43.2695387
      ],
      [
        22.9575848,
        43.2694175
      ],
      [
        22.9576002,
        43.2691147
      ],
      [
        22.9575355,
        43.268639
      ],
      [
        22.9571842,
        43.2672166
      ],
      [
        22.9571041,
        43.267073
      ],
      [
        22.9569316,
        43.2669361
      ],
      [
        22.9567036,
        43.2667566
      ],
      [
        22.9565865,
        43.2666332
      ],
      [
        22.9565279,
        43.2664201
      ],
      [
        22.9562629,
        43.2655742
      ],
      [
        22.9561798,
        43.2653858
      ],
      [
        22.9560072,
        43.2652287
      ],
      [
        22.9556714,
        43.2649393
      ],
      [
        22.9555512,
        43.2647598
      ],
      [
        22.9555358,
        43.264587
      ],
      [
        22.9555419,
        43.2643065
      ],
      [
        22.955619,
        43.2636042
      ],
      [
        22.955733,
        43.2633821
      ],
      [
        22.9558624,
        43.2631712
      ],
      [
        22.955924,
        43.2629984
      ],
      [
        22.955961,
        43.2625699
      ],
      [
        22.9559856,
        43.262231
      ],
      [
        22.955961,
        43.2620785
      ],
      [
        22.9558316,
        43.26189
      ],
      [
        22.9556313,
        43.2616207
      ],
      [
        22.9555604,
        43.2614771
      ],
      [
        22.9555882,
        43.2613447
      ],
      [
        22.9556529,
        43.2610037
      ],
      [
        22.9556559,
        43.2606693
      ],
      [
        22.9555604,
        43.2599894
      ],
      [
        22.9554772,
        43.2592916
      ],
      [
        22.9553694,
        43.2588765
      ],
      [
        22.9553078,
        43.2585443
      ],
      [
        22.9553447,
        43.2583491
      ],
      [
        22.9554526,
        43.258127
      ],
      [
        22.9563739,
        43.2569377
      ],
      [
        22.9566974,
        43.2563654
      ],
      [
        22.9568728,
        43.2559899
      ],
      [
        22.957221,
        43.2556803
      ],
      [
        22.9580837,
        43.2549577
      ],
      [
        22.9592854,
        43.2543091
      ],
      [
        22.9598461,
        43.2539164
      ],
      [
        22.9603484,
        43.2534115
      ],
      [
        22.9608044,
        43.2529223
      ],
      [
        22.9611464,
        43.2523298
      ],
      [
        22.9616579,
        43.2517665
      ],
      [
        22.9622824,
        43.2511347
      ],
      [
        22.9625221,
        43.2507412
      ],
      [
        22.9627443,
        43.250427
      ],
      [
        22.9628336,
        43.2502191
      ],
      [
        22.9628249,
        43.2499191
      ],
      [
        22.9628543,
        43.2487337
      ],
      [
        22.9628761,
        43.2482608
      ],
      [
        22.9629807,
        43.2478482
      ],
      [
        22.9630678,
        43.2475879
      ],
      [
        22.9630548,
        43.2473911
      ],
      [
        22.9629066,
        43.247115
      ],
      [
        22.9625362,
        43.2465405
      ],
      [
        22.9622181,
        43.2461469
      ],
      [
        22.9619959,
        43.2459564
      ],
      [
        22.9615427,
        43.2456739
      ],
      [
        22.961181,
        43.2453851
      ],
      [
        22.9610721,
        43.2452074
      ],
      [
        22.9610155,
        43.2449629
      ],
      [
        22.9610242,
        43.2446043
      ],
      [
        22.9610155,
        43.2434013
      ],
      [
        22.9610765,
        43.2432616
      ],
      [
        22.9612203,
        43.2431791
      ],
      [
        22.9614469,
        43.2430521
      ],
      [
        22.9615209,
        43.2428902
      ],
      [
        22.9615471,
        43.2426934
      ],
      [
        22.9615362,
        43.242276
      ],
      [
        22.9614207,
        43.242076
      ],
      [
        22.9612116,
        43.2417126
      ],
      [
        22.961136,
        43.2414348
      ],
      [
        22.9609573,
        43.2411677
      ],
      [
        22.9604828,
        43.2405774
      ],
      [
        22.9603072,
        43.2403395
      ],
      [
        22.9602332,
        43.2400365
      ],
      [
        22.9601994,
        43.2396212
      ],
      [
        22.9601685,
        43.2393137
      ],
      [
        22.9600638,
        43.2390915
      ],
      [
        22.9600545,
        43.2389096
      ],
      [
        22.9601747,
        43.2387458
      ],
      [
        22.960603,
        43.2384809
      ]
    ]
  }
},
{
  "type": "Feature",
  "id": "way/294957569",
  "properties": {
    "highway": "tertiary",
    "ref": "1024",
    "id": "way/294957569"
  },
  "geometry": {
    "type": "LineString",
    "coordinates": [
      [
        22.9960778,
        43.3212196
      ],
      [
        22.99574,
        43.3210268
      ],
      [
        22.9954698,
        43.3208188
      ],
      [
        22.9952723,
        43.3205845
      ],
      [
        22.994324,
        43.3195183
      ],
      [
        22.9936525,
        43.318996
      ],
      [
        22.988677,
        43.3153459
      ],
      [
        22.9843645,
        43.3122299
      ],
      [
        22.9825099,
        43.3108552
      ],
      [
        22.9807996,
        43.3097579
      ],
      [
        22.9801252,
        43.3092884
      ],
      [
        22.9795198,
        43.3088227
      ],
      [
        22.9791002,
        43.3084285
      ],
      [
        22.9787657,
        43.3082199
      ],
      [
        22.9782134,
        43.3080073
      ],
      [
        22.9766946,
        43.3074779
      ],
      [
        22.9759909,
        43.3071978
      ],
      [
        22.9749687,
        43.306705
      ],
      [
        22.9738216,
        43.306137
      ],
      [
        22.9733675,
        43.3059418
      ],
      [
        22.9729985,
        43.3058297
      ],
      [
        22.9724966,
        43.3056906
      ],
      [
        22.9720479,
        43.305536
      ],
      [
        22.9716018,
        43.3052945
      ],
      [
        22.9709061,
        43.3048443
      ],
      [
        22.9681075,
        43.303111
      ],
      [
        22.9678552,
        43.3029506
      ],
      [
        22.9675817,
        43.3028366
      ],
      [
        22.9673295,
        43.3027168
      ],
      [
        22.9671011,
        43.3025043
      ],
      [
        22.9668515,
        43.3021835
      ],
      [
        22.9666604,
        43.3020405
      ],
      [
        22.9663762,
        43.3019072
      ],
      [
        22.9658877,
        43.301685
      ],
      [
        22.9653619,
        43.3013526
      ],
      [
        22.963806,
        43.3004424
      ],
      [
        22.9636493,
        43.3003265
      ],
      [
        22.9635404,
        43.3001912
      ],
      [
        22.9632749,
        43.2997603
      ],
      [
        22.9632032,
        43.2996559
      ],
      [
        22.9630625,
        43.2995806
      ],
      [
        22.9624969,
        43.2994009
      ],
      [
        22.9623376,
        43.2993197
      ],
      [
        22.962165,
        43.2991825
      ],
      [
        22.9615357,
        43.2986298
      ],
      [
        22.9612755,
        43.2983457
      ],
      [
        22.9611003,
        43.2980076
      ],
      [
        22.9608931,
        43.2978085
      ],
      [
        22.9604471,
        43.2973157
      ],
      [
        22.9600833,
        43.2968751
      ],
      [
        22.959685,
        43.2963939
      ],
      [
        22.9593133,
        43.2958818
      ],
      [
        22.9591566,
        43.295588
      ],
      [
        22.9590902,
        43.2952943
      ],
      [
        22.9590398,
        43.2950005
      ],
      [
        22.9588619,
        43.2947686
      ],
      [
        22.9584424,
        43.2943319
      ],
      [
        22.9579511,
        43.2938506
      ],
      [
        22.9576883,
        43.2935144
      ],
      [
        22.9574758,
        43.2931278
      ],
      [
        22.9568083,
        43.2921798
      ],
      [
        22.9565605,
        43.2918355
      ],
      [
        22.9563652,
        43.2916441
      ],
      [
        22.9554753,
        43.2908242
      ],
      [
        22.9551179,
        43.2904202
      ],
      [
        22.954859,
        43.2899627
      ],
      [
        22.9545539,
        43.2894855
      ],
      [
        22.954031,
        43.28894
      ],
      [
        22.9537207,
        43.2886564
      ],
      [
        22.9536247,
        43.2885028
      ],
      [
        22.9536247,
        43.2883859
      ]
    ]
  }
},
{
  "type": "Feature",
  "id": "way/183501434",
  "properties": {
    "bridge": "yes",
    "highway": "tertiary",
    "layer": "1",
    "ref": "1024",
    "id": "way/183501434"
  },
  "geometry": {
    "type": "LineString",
    "coordinates": [
      [
        22.9536247,
        43.2883859
      ],
      [
        22.9537002,
        43.2881865
      ]
    ]
  }
},
{
  "type": "Feature",
  "id": "way/118721746",
  "properties": {
    "highway": "tertiary",
    "ref": "1024",
    "smoothness": "intermediate",
    "id": "way/118721746"
  },
  "geometry": {
    "type": "LineString",
    "coordinates": [
      [
        23.017112,
        43.356961
      ],
      [
        23.0170328,
        43.3567439
      ],
      [
        23.0167236,
        43.3562773
      ],
      [
        23.0158273,
        43.3550436
      ],
      [
        23.015622,
        43.3547055
      ],
      [
        23.0129857,
        43.3491405
      ],
      [
        23.0124623,
        43.3480383
      ],
      [
        23.0121843,
        43.3475451
      ],
      [
        23.0116127,
        43.3466968
      ],
      [
        23.0109917,
        43.3460147
      ],
      [
        23.0104747,
        43.3455007
      ],
      [
        23.0096303,
        43.3448621
      ],
      [
        23.0085912,
        43.3441098
      ],
      [
        23.0079332,
        43.3436996
      ],
      [
        23.0070477,
        43.3432132
      ],
      [
        23.0060708,
        43.3425885
      ],
      [
        23.0056941,
        43.3422785
      ],
      [
        23.0036895,
        43.3402085
      ],
      [
        23.0031363,
        43.339609
      ],
      [
        23.0028993,
        43.3391868
      ],
      [
        23.0024364,
        43.3380229
      ],
      [
        23.0007464,
        43.3330433
      ],
      [
        23.0005724,
        43.3326899
      ],
      [
        23.0002242,
        43.3323024
      ],
      [
        22.9999566,
        43.3319774
      ],
      [
        22.9997615,
        43.3316563
      ],
      [
        22.9994915,
        43.331212
      ],
      [
        22.9992057,
        43.3307074
      ],
      [
        22.9990498,
        43.3303577
      ],
      [
        22.9989537,
        43.3297991
      ],
      [
        22.9988581,
        43.3293461
      ],
      [
        22.9986046,
        43.3287166
      ],
      [
        22.9982175,
        43.3272413
      ],
      [
        22.9971143,
        43.322741
      ],
      [
        22.996973,
        43.322055
      ],
      [
        22.9968105,
        43.3217148
      ],
      [
        22.996561,
        43.3214748
      ],
      [
        22.9960778,
        43.3212196
      ]
    ]
  }
},
{
  "type": "Feature",
  "id": "way/118721751",
  "properties": {
    "highway": "tertiary",
    "ref": "1024",
    "smoothness": "intermediate",
    "id": "way/118721751"
  },
  "geometry": {
    "type": "LineString",
    "coordinates": [
      [
        23.0174129,
        43.3621472
      ],
      [
        23.0173339,
        43.3615692
      ],
      [
        23.0172875,
        43.3610793
      ],
      [
        23.0173212,
        43.3608734
      ],
      [
        23.0174096,
        43.3604578
      ],
      [
        23.01747,
        43.360212
      ],
      [
        23.0175083,
        43.3598873
      ],
      [
        23.01741,
        43.358975
      ],
      [
        23.017368,
        43.3583024
      ],
      [
        23.017112,
        43.356961
      ]
    ]
  }
},
{
  "type": "Feature",
  "id": "way/118721794",
  "properties": {
    "highway": "tertiary",
    "ref": "1024",
    "smoothness": "intermediate",
    "id": "way/118721794"
  },
  "geometry": {
    "type": "LineString",
    "coordinates": [
      [
        23.0273382,
        43.3823877
      ],
      [
        23.025194,
        43.379866
      ],
      [
        23.0237846,
        43.3780377
      ],
      [
        23.0234906,
        43.377768
      ],
      [
        23.0231562,
        43.3775383
      ],
      [
        23.0216791,
        43.3768065
      ],
      [
        23.0212198,
        43.3765314
      ],
      [
        23.0199687,
        43.3754724
      ],
      [
        23.019796,
        43.3753322
      ],
      [
        23.0195204,
        43.3750411
      ],
      [
        23.0193514,
        43.3748128
      ],
      [
        23.019276,
        43.374559
      ],
      [
        23.0183501,
        43.3681806
      ],
      [
        23.0174129,
        43.3621472
      ]
    ]
  }
},
{
  "type": "Feature",
  "id": "way/235891893",
  "properties": {
    "highway": "unclassified",
    "ref": "1024",
    "id": "way/235891893"
  },
  "geometry": {
    "type": "LineString",
    "coordinates": [
      [
        23.0328548,
        43.3865831
      ],
      [
        23.0325447,
        43.3864725
      ],
      [
        23.0310319,
        43.3860107
      ],
      [
        23.0306799,
        43.385904
      ],
      [
        23.0303621,
        43.3857869
      ],
      [
        23.0301858,
        43.3856974
      ],
      [
        23.0300021,
        43.3854958
      ],
      [
        23.0286557,
        43.3839003
      ],
      [
        23.0273382,
        43.3823877
      ]
    ]
  }
},
{
  "type": "Feature",
  "id": "way/118721770",
  "properties": {
    "highway": "tertiary",
    "ref": "1024",
    "smoothness": "intermediate",
    "id": "way/118721770"
  },
  "geometry": {
    "type": "LineString",
    "coordinates": [
      [
        23.0362648,
        43.3880718
      ],
      [
        23.034514,
        43.3871185
      ],
      [
        23.0340675,
        43.3869476
      ],
      [
        23.0335838,
        43.3868029
      ],
      [
        23.0333846,
        43.3867488
      ]
    ]
  }
},
{
  "type": "Feature",
  "id": "way/118721799",
  "properties": {
    "highway": "tertiary",
    "ref": "1024",
    "smoothness": "intermediate",
    "id": "way/118721799"
  },
  "geometry": {
    "type": "LineString",
    "coordinates": [
      [
        23.0509016,
        43.3970098
      ],
      [
        23.0435573,
        43.3919747
      ],
      [
        23.0426711,
        43.3914407
      ],
      [
        23.0362648,
        43.3880718
      ]
    ]
  }
},
{
  "type": "Feature",
  "id": "way/235891891",
  "properties": {
    "highway": "unclassified",
    "ref": "1024",
    "id": "way/235891891"
  },
  "geometry": {
    "type": "LineString",
    "coordinates": [
      [
        23.0333846,
        43.3867488
      ],
      [
        23.0330256,
        43.3866307
      ]
    ]
  }
},
{
  "type": "Feature",
  "id": "way/118721801",
  "properties": {
    "highway": "tertiary",
    "ref": "1024",
    "smoothness": "intermediate",
    "id": "way/118721801"
  },
  "geometry": {
    "type": "LineString",
    "coordinates": [
      [
        23.0560205,
        43.4030762
      ],
      [
        23.0559276,
        43.4014062
      ],
      [
        23.0558865,
        43.4010701
      ],
      [
        23.0558641,
        43.4006012
      ],
      [
        23.0558063,
        43.400406
      ],
      [
        23.0556645,
        43.4002921
      ],
      [
        23.0554426,
        43.4001444
      ],
      [
        23.0509016,
        43.3970098
      ]
    ]
  }
},
{
  "type": "Feature",
  "id": "way/118721744",
  "properties": {
    "highway": "tertiary",
    "ref": "1024",
    "smoothness": "intermediate",
    "id": "way/118721744"
  },
  "geometry": {
    "type": "LineString",
    "coordinates": [
      [
        23.05518,
        43.4065264
      ],
      [
        23.055054,
        43.4061971
      ]
    ]
  }
},
{
  "type": "Feature",
  "id": "way/183501435",
  "properties": {
    "bridge": "yes",
    "highway": "tertiary",
    "layer": "1",
    "ref": "1024",
    "smoothness": "intermediate",
    "id": "way/183501435"
  },
  "geometry": {
    "type": "LineString",
    "coordinates": [
      [
        23.055054,
        43.4061971
      ],
      [
        23.0549066,
        43.4057838
      ]
    ]
  }
},
{
  "type": "Feature",
  "id": "way/183501436",
  "properties": {
    "highway": "tertiary",
    "ref": "1024",
    "smoothness": "intermediate",
    "id": "way/183501436"
  },
  "geometry": {
    "type": "LineString",
    "coordinates": [
      [
        23.0549066,
        43.4057838
      ],
      [
        23.0548413,
        43.4055793
      ],
      [
        23.0548123,
        43.4054107
      ],
      [
        23.054865,
        43.405173
      ],
      [
        23.0558042,
        43.4035171
      ],
      [
        23.0560205,
        43.4030762
      ]
    ]
  }
}
]
}
