{
"type": "FeatureCollection",
"features": [
{
  "type": "Feature",
  "id": "way/180365275",
  "properties": {
    "highway": "tertiary",
    "name": "591",
    "ref": "591",
    "smoothness": "good",
    "id": "way/180365275"
  },
  "geometry": {
    "type": "LineString",
    "coordinates": [
      [
        25.6393429,
        41.486817
      ],
      [
        25.63928,
        41.48691
      ],
      [
        25.63917,
        41.48708
      ],
      [
        25.63915,
        41.48729
      ],
      [
        25.63926,
        41.48789
      ],
      [
        25.63945,
        41.48841
      ],
      [
        25.63964,
        41.48905
      ],
      [
        25.63975,
        41.48927
      ],
      [
        25.63999,
        41.48957
      ],
      [
        25.64003,
        41.48972
      ],
      [
        25.64001,
        41.49013
      ],
      [
        25.64005,
        41.4904
      ],
      [
        25.64018,
        41.49071
      ],
      [
        25.64082,
        41.49161
      ],
      [
        25.64121,
        41.49193
      ],
      [
        25.64177,
        41.49266
      ],
      [
        25.6419,
        41.49276
      ],
      [
        25.64254,
        41.49309
      ],
      [
        25.64297,
        41.4933
      ],
      [
        25.6434,
        41.49362
      ],
      [
        25.64415,
        41.4942
      ],
      [
        25.64462,
        41.49457
      ],
      [
        25.64542,
        41.49504
      ],
      [
        25.64563,
        41.49513
      ],
      [
        25.64651,
        41.49538
      ],
      [
        25.64675,
        41.49538
      ],
      [
        25.64698,
        41.49536
      ],
      [
        25.64735,
        41.49523
      ],
      [
        25.6476,
        41.49519
      ],
      [
        25.64831,
        41.49521
      ],
      [
        25.64889,
        41.49517
      ],
      [
        25.64926,
        41.49519
      ],
      [
        25.64975,
        41.49528
      ],
      [
        25.65054,
        41.49551
      ],
      [
        25.65123,
        41.49588
      ],
      [
        25.65172,
        41.49605
      ],
      [
        25.65202,
        41.49622
      ],
      [
        25.65336,
        41.49729
      ],
      [
        25.65393,
        41.49768
      ],
      [
        25.65413,
        41.49787
      ],
      [
        25.65439,
        41.49852
      ],
      [
        25.65458,
        41.49933
      ],
      [
        25.65464,
        41.49997
      ],
      [
        25.65473,
        41.50021
      ],
      [
        25.65522,
        41.50113
      ],
      [
        25.6558,
        41.50195
      ],
      [
        25.65602,
        41.50212
      ],
      [
        25.65621,
        41.50221
      ],
      [
        25.65647,
        41.50223
      ],
      [
        25.65677,
        41.50221
      ],
      [
        25.65722,
        41.50208
      ],
      [
        25.65784,
        41.50193
      ],
      [
        25.65801,
        41.50195
      ],
      [
        25.65812,
        41.50201
      ],
      [
        25.65823,
        41.50238
      ],
      [
        25.65842,
        41.50264
      ],
      [
        25.65859,
        41.50283
      ],
      [
        25.65883,
        41.50296
      ],
      [
        25.65986,
        41.50345
      ],
      [
        25.66005,
        41.50358
      ],
      [
        25.66037,
        41.50397
      ],
      [
        25.66052,
        41.50405
      ],
      [
        25.66065,
        41.50409
      ],
      [
        25.66112,
        41.50414
      ],
      [
        25.66129,
        41.50418
      ],
      [
        25.66151,
        41.50431
      ],
      [
        25.66211,
        41.50485
      ],
      [
        25.66265,
        41.50534
      ],
      [
        25.66284,
        41.50558
      ],
      [
        25.66297,
        41.50579
      ],
      [
        25.66303,
        41.506
      ],
      [
        25.66333,
        41.50699
      ],
      [
        25.66338,
        41.50723
      ],
      [
        25.66338,
        41.50755
      ],
      [
        25.66331,
        41.50802
      ],
      [
        25.66312,
        41.50903
      ],
      [
        25.66308,
        41.50927
      ],
      [
        25.66308,
        41.50942
      ],
      [
        25.66314,
        41.50959
      ],
      [
        25.66325,
        41.50972
      ],
      [
        25.66359,
        41.50997
      ],
      [
        25.66376,
        41.51017
      ],
      [
        25.66393,
        41.51042
      ],
      [
        25.66411,
        41.51077
      ],
      [
        25.66436,
        41.5115
      ],
      [
        25.66441,
        41.51173
      ],
      [
        25.66447,
        41.51231
      ],
      [
        25.66451,
        41.51251
      ],
      [
        25.66492,
        41.51339
      ],
      [
        25.6652,
        41.51405
      ],
      [
        25.66595,
        41.51669
      ],
      [
        25.66606,
        41.51718
      ],
      [
        25.66606,
        41.51742
      ],
      [
        25.66604,
        41.51763
      ],
      [
        25.66597,
        41.51783
      ],
      [
        25.66578,
        41.51813
      ],
      [
        25.66539,
        41.51858
      ],
      [
        25.66533,
        41.51873
      ],
      [
        25.66529,
        41.5189
      ],
      [
        25.66531,
        41.51905
      ],
      [
        25.66537,
        41.51918
      ],
      [
        25.66576,
        41.51954
      ],
      [
        25.66586,
        41.51972
      ],
      [
        25.66595,
        41.51995
      ],
      [
        25.66599,
        41.52014
      ],
      [
        25.66599,
        41.52057
      ],
      [
        25.66604,
        41.52081
      ],
      [
        25.66619,
        41.5212
      ],
      [
        25.66623,
        41.52135
      ],
      [
        25.66627,
        41.52158
      ],
      [
        25.6664,
        41.52203
      ],
      [
        25.66651,
        41.52216
      ],
      [
        25.66664,
        41.52227
      ],
      [
        25.667,
        41.52242
      ],
      [
        25.66713,
        41.52253
      ],
      [
        25.6672,
        41.52263
      ],
      [
        25.66724,
        41.52287
      ],
      [
        25.66722,
        41.52304
      ],
      [
        25.66717,
        41.52317
      ],
      [
        25.66707,
        41.52319
      ],
      [
        25.66696,
        41.52321
      ],
      [
        25.66687,
        41.52317
      ],
      [
        25.6664,
        41.52296
      ],
      [
        25.66623,
        41.52291
      ],
      [
        25.66608,
        41.52289
      ],
      [
        25.6658,
        41.52296
      ],
      [
        25.66574,
        41.52302
      ],
      [
        25.66569,
        41.52313
      ],
      [
        25.66574,
        41.52332
      ],
      [
        25.66604,
        41.52416
      ],
      [
        25.66638,
        41.52463
      ],
      [
        25.66687,
        41.52555
      ],
      [
        25.66705,
        41.52577
      ],
      [
        25.66724,
        41.52598
      ],
      [
        25.66833,
        41.5268
      ],
      [
        25.66857,
        41.52693
      ],
      [
        25.66902,
        41.52712
      ],
      [
        25.66921,
        41.52725
      ],
      [
        25.66949,
        41.52753
      ],
      [
        25.66975,
        41.52796
      ],
      [
        25.67024,
        41.52894
      ],
      [
        25.67035,
        41.52909
      ],
      [
        25.67052,
        41.52924
      ],
      [
        25.67076,
        41.52937
      ],
      [
        25.67106,
        41.5295
      ],
      [
        25.67123,
        41.52963
      ],
      [
        25.6714,
        41.5298
      ],
      [
        25.6717,
        41.53014
      ],
      [
        25.67198,
        41.53038
      ],
      [
        25.67209,
        41.53053
      ],
      [
        25.67217,
        41.5307
      ],
      [
        25.6723,
        41.5312
      ],
      [
        25.67232,
        41.53141
      ],
      [
        25.67228,
        41.5319
      ],
      [
        25.67215,
        41.53229
      ],
      [
        25.67207,
        41.53343
      ],
      [
        25.67196,
        41.53386
      ],
      [
        25.67196,
        41.53401
      ],
      [
        25.67198,
        41.53414
      ],
      [
        25.67209,
        41.53424
      ],
      [
        25.67217,
        41.53444
      ],
      [
        25.67235,
        41.53456
      ],
      [
        25.67256,
        41.53463
      ],
      [
        25.67292,
        41.53469
      ],
      [
        25.67303,
        41.53478
      ],
      [
        25.67327,
        41.53508
      ],
      [
        25.6734,
        41.53523
      ],
      [
        25.67359,
        41.53536
      ],
      [
        25.67419,
        41.53564
      ],
      [
        25.67477,
        41.53602
      ],
      [
        25.67496,
        41.53609
      ],
      [
        25.6752,
        41.53615
      ],
      [
        25.67537,
        41.53622
      ],
      [
        25.67567,
        41.53662
      ],
      [
        25.67591,
        41.53686
      ],
      [
        25.67612,
        41.53701
      ],
      [
        25.67631,
        41.53708
      ],
      [
        25.67734,
        41.53723
      ],
      [
        25.67747,
        41.53729
      ],
      [
        25.67756,
        41.5374
      ],
      [
        25.67762,
        41.53753
      ],
      [
        25.67758,
        41.53768
      ],
      [
        25.67752,
        41.53785
      ],
      [
        25.67711,
        41.53808
      ],
      [
        25.67709,
        41.53817
      ],
      [
        25.67713,
        41.53826
      ],
      [
        25.67741,
        41.53834
      ],
      [
        25.67754,
        41.53843
      ],
      [
        25.67795,
        41.53886
      ],
      [
        25.67818,
        41.53903
      ],
      [
        25.6785,
        41.5392
      ],
      [
        25.67902,
        41.53941
      ],
      [
        25.67908,
        41.5395
      ],
      [
        25.67908,
        41.53961
      ],
      [
        25.67898,
        41.53969
      ],
      [
        25.67874,
        41.53971
      ],
      [
        25.67818,
        41.53976
      ],
      [
        25.67786,
        41.53982
      ],
      [
        25.67756,
        41.53993
      ],
      [
        25.67719,
        41.5401
      ],
      [
        25.67698,
        41.54025
      ],
      [
        25.67677,
        41.54049
      ],
      [
        25.67659,
        41.54057
      ],
      [
        25.67559,
        41.54079
      ],
      [
        25.67531,
        41.54087
      ],
      [
        25.67505,
        41.541
      ],
      [
        25.67432,
        41.54156
      ],
      [
        25.6741,
        41.54171
      ],
      [
        25.67402,
        41.54171
      ],
      [
        25.67391,
        41.54171
      ],
      [
        25.67376,
        41.5416
      ],
      [
        25.67368,
        41.54158
      ],
      [
        25.67353,
        41.54162
      ],
      [
        25.67325,
        41.54184
      ],
      [
        25.67307,
        41.54201
      ],
      [
        25.67297,
        41.54205
      ],
      [
        25.67265,
        41.54207
      ],
      [
        25.67247,
        41.54212
      ],
      [
        25.67232,
        41.54218
      ],
      [
        25.67222,
        41.54229
      ],
      [
        25.67213,
        41.54244
      ],
      [
        25.67204,
        41.54261
      ],
      [
        25.67194,
        41.54306
      ],
      [
        25.67181,
        41.54396
      ],
      [
        25.67174,
        41.54411
      ],
      [
        25.67164,
        41.54422
      ],
      [
        25.67134,
        41.54437
      ],
      [
        25.6711,
        41.54441
      ],
      [
        25.67065,
        41.54444
      ],
      [
        25.67048,
        41.54448
      ],
      [
        25.67011,
        41.54471
      ],
      [
        25.66996,
        41.54484
      ],
      [
        25.66986,
        41.54504
      ],
      [
        25.66979,
        41.54521
      ],
      [
        25.66975,
        41.54549
      ],
      [
        25.66968,
        41.54656
      ],
      [
        25.66973,
        41.54669
      ],
      [
        25.66986,
        41.5468
      ],
      [
        25.67031,
        41.5469
      ],
      [
        25.67048,
        41.54699
      ],
      [
        25.67063,
        41.5471
      ],
      [
        25.67071,
        41.54725
      ],
      [
        25.67076,
        41.54744
      ],
      [
        25.67069,
        41.54768
      ],
      [
        25.67039,
        41.54832
      ],
      [
        25.67024,
        41.54849
      ],
      [
        25.66988,
        41.54877
      ],
      [
        25.66964,
        41.54905
      ],
      [
        25.6688,
        41.55049
      ],
      [
        25.66872,
        41.5507
      ],
      [
        25.6687,
        41.55098
      ],
      [
        25.6688,
        41.55149
      ],
      [
        25.6688,
        41.55171
      ],
      [
        25.66876,
        41.55188
      ],
      [
        25.66859,
        41.5522
      ],
      [
        25.6685,
        41.55242
      ],
      [
        25.66848,
        41.55274
      ],
      [
        25.66865,
        41.55358
      ],
      [
        25.66874,
        41.55379
      ],
      [
        25.66895,
        41.55416
      ],
      [
        25.66904,
        41.55443
      ],
      [
        25.66908,
        41.55499
      ],
      [
        25.66904,
        41.55516
      ],
      [
        25.66898,
        41.55534
      ],
      [
        25.66876,
        41.55553
      ],
      [
        25.66872,
        41.55568
      ],
      [
        25.66872,
        41.55587
      ],
      [
        25.6688,
        41.55611
      ],
      [
        25.66917,
        41.55662
      ],
      [
        25.66934,
        41.55677
      ],
      [
        25.66971,
        41.55705
      ],
      [
        25.66992,
        41.55727
      ],
      [
        25.67003,
        41.55748
      ],
      [
        25.67007,
        41.55787
      ],
      [
        25.67001,
        41.55819
      ],
      [
        25.6699,
        41.55847
      ],
      [
        25.66971,
        41.5587
      ],
      [
        25.66949,
        41.55883
      ],
      [
        25.66898,
        41.55898
      ],
      [
        25.66876,
        41.559
      ],
      [
        25.66827,
        41.55888
      ],
      [
        25.66808,
        41.55888
      ],
      [
        25.66792,
        41.55896
      ],
      [
        25.66786,
        41.55911
      ],
      [
        25.66775,
        41.56001
      ],
      [
        25.66777,
        41.56018
      ],
      [
        25.66786,
        41.56031
      ],
      [
        25.6687,
        41.56111
      ],
      [
        25.66887,
        41.56137
      ],
      [
        25.66904,
        41.56171
      ],
      [
        25.66913,
        41.56201
      ],
      [
        25.66913,
        41.56267
      ],
      [
        25.66919,
        41.56293
      ],
      [
        25.66941,
        41.56349
      ],
      [
        25.66938,
        41.56366
      ],
      [
        25.66921,
        41.56409
      ],
      [
        25.66906,
        41.56424
      ],
      [
        25.66878,
        41.56437
      ],
      [
        25.6684,
        41.56471
      ],
      [
        25.66805,
        41.56497
      ],
      [
        25.66741,
        41.5657
      ],
      [
        25.66685,
        41.56617
      ],
      [
        25.66664,
        41.56641
      ],
      [
        25.66602,
        41.56707
      ],
      [
        25.66589,
        41.56729
      ],
      [
        25.6658,
        41.56748
      ],
      [
        25.66559,
        41.56825
      ],
      [
        25.66535,
        41.5687
      ],
      [
        25.6649,
        41.56937
      ],
      [
        25.66464,
        41.56984
      ],
      [
        25.66447,
        41.57029
      ],
      [
        25.66441,
        41.57061
      ],
      [
        25.66443,
        41.57083
      ],
      [
        25.66447,
        41.57109
      ],
      [
        25.66464,
        41.57141
      ],
      [
        25.66475,
        41.57197
      ],
      [
        25.66486,
        41.57248
      ],
      [
        25.66486,
        41.57267
      ],
      [
        25.66471,
        41.57304
      ],
      [
        25.66464,
        41.57351
      ],
      [
        25.66443,
        41.57394
      ],
      [
        25.66438,
        41.57415
      ],
      [
        25.66447,
        41.57538
      ],
      [
        25.66451,
        41.57557
      ],
      [
        25.66462,
        41.5757
      ],
      [
        25.66477,
        41.57578
      ],
      [
        25.66501,
        41.57585
      ],
      [
        25.66664,
        41.57617
      ],
      [
        25.66692,
        41.57626
      ],
      [
        25.6672,
        41.57639
      ],
      [
        25.66784,
        41.57684
      ],
      [
        25.66801,
        41.57705
      ],
      [
        25.66814,
        41.57731
      ],
      [
        25.66823,
        41.57759
      ],
      [
        25.6682,
        41.57784
      ],
      [
        25.6681,
        41.57812
      ],
      [
        25.66801,
        41.57907
      ],
      [
        25.66803,
        41.57928
      ],
      [
        25.66844,
        41.57978
      ],
      [
        25.66857,
        41.58008
      ],
      [
        25.66872,
        41.58027
      ],
      [
        25.66973,
        41.58098
      ],
      [
        25.66992,
        41.58119
      ],
      [
        25.672,
        41.58424
      ],
      [
        25.6735,
        41.58638
      ]
    ]
  }
},
{
  "type": "Feature",
  "id": "way/145388070",
  "properties": {
    "highway": "tertiary",
    "name": "591",
    "ref": "591",
    "smoothness": "good",
    "id": "way/145388070"
  },
  "geometry": {
    "type": "LineString",
    "coordinates": [
      [
        25.6433501,
        41.4825243
      ],
      [
        25.6432485,
        41.4807281
      ]
    ]
  }
},
{
  "type": "Feature",
  "id": "way/164769134",
  "properties": {
    "highway": "tertiary",
    "name": "591",
    "ref": "591",
    "smoothness": "good",
    "id": "way/164769134"
  },
  "geometry": {
    "type": "LineString",
    "coordinates": [
      [
        25.6433501,
        41.4825243
      ],
      [
        25.6423513,
        41.4832637
      ],
      [
        25.6417081,
        41.4839148
      ],
      [
        25.6411298,
        41.4845115
      ],
      [
        25.6410816,
        41.4849351
      ],
      [
        25.6410971,
        41.4851606
      ],
      [
        25.6412473,
        41.4858196
      ],
      [
        25.640848,
        41.4862672
      ],
      [
        25.6407591,
        41.4863669
      ],
      [
        25.6393429,
        41.486817
      ]
    ]
  }
},
{
  "type": "Feature",
  "id": "way/258301761",
  "properties": {
    "highway": "tertiary",
    "mtb:scale": "0",
    "name": "591",
    "ref": "591",
    "smoothness": "good",
    "id": "way/258301761"
  },
  "geometry": {
    "type": "LineString",
    "coordinates": [
      [
        25.6735,
        41.58638
      ],
      [
        25.67378,
        41.58688
      ],
      [
        25.67556,
        41.58935
      ],
      [
        25.6758,
        41.58973
      ],
      [
        25.67593,
        41.59001
      ],
      [
        25.67604,
        41.59035
      ],
      [
        25.67612,
        41.59083
      ],
      [
        25.67651,
        41.59411
      ],
      [
        25.67655,
        41.59441
      ],
      [
        25.67668,
        41.5946
      ],
      [
        25.67683,
        41.5948
      ],
      [
        25.677,
        41.59497
      ],
      [
        25.67805,
        41.59563
      ],
      [
        25.67818,
        41.59578
      ],
      [
        25.67827,
        41.59593
      ],
      [
        25.67917,
        41.59817
      ],
      [
        25.67934,
        41.59877
      ],
      [
        25.67934,
        41.59902
      ],
      [
        25.67932,
        41.59924
      ],
      [
        25.67908,
        41.59982
      ],
      [
        25.67895,
        41.59995
      ],
      [
        25.67874,
        41.6001
      ],
      [
        25.67784,
        41.60057
      ],
      [
        25.67773,
        41.60068
      ],
      [
        25.67771,
        41.60078
      ],
      [
        25.67782,
        41.60093
      ],
      [
        25.6781,
        41.60113
      ],
      [
        25.67895,
        41.60164
      ],
      [
        25.6791,
        41.60181
      ],
      [
        25.67949,
        41.60233
      ],
      [
        25.68011,
        41.60312
      ],
      [
        25.68016,
        41.60325
      ],
      [
        25.68016,
        41.60344
      ],
      [
        25.67979,
        41.60445
      ],
      [
        25.67975,
        41.60467
      ],
      [
        25.67975,
        41.60488
      ],
      [
        25.67992,
        41.60619
      ],
      [
        25.67998,
        41.60638
      ],
      [
        25.68011,
        41.6066
      ],
      [
        25.6811,
        41.60754
      ],
      [
        25.68142,
        41.60793
      ],
      [
        25.6818863,
        41.6085862
      ]
    ]
  }
},
{
  "type": "Feature",
  "id": "way/180366127",
  "properties": {
    "highway": "tertiary",
    "name": "591",
    "ref": "591",
    "smoothness": "intermediate",
    "id": "way/180366127"
  },
  "geometry": {
    "type": "LineString",
    "coordinates": [
      [
        25.64284,
        41.62035
      ],
      [
        25.64301,
        41.62033
      ],
      [
        25.64314,
        41.62029
      ],
      [
        25.6443,
        41.61947
      ],
      [
        25.64484,
        41.61904
      ],
      [
        25.64501,
        41.61894
      ],
      [
        25.64533,
        41.61881
      ],
      [
        25.64559,
        41.61866
      ],
      [
        25.64574,
        41.61851
      ],
      [
        25.64638,
        41.61786
      ],
      [
        25.64677,
        41.61756
      ],
      [
        25.64707,
        41.61737
      ],
      [
        25.64773,
        41.61705
      ],
      [
        25.6479,
        41.61692
      ],
      [
        25.64838,
        41.61638
      ],
      [
        25.64868,
        41.61613
      ],
      [
        25.64915,
        41.6158
      ],
      [
        25.64928,
        41.61565
      ],
      [
        25.64932,
        41.61548
      ],
      [
        25.64928,
        41.61531
      ],
      [
        25.64917,
        41.61507
      ],
      [
        25.64836,
        41.61361
      ],
      [
        25.64821,
        41.61327
      ],
      [
        25.64816,
        41.61308
      ],
      [
        25.64821,
        41.61295
      ],
      [
        25.64829,
        41.61284
      ],
      [
        25.64844,
        41.6128
      ],
      [
        25.6487,
        41.61276
      ],
      [
        25.65256,
        41.61323
      ],
      [
        25.65275,
        41.61327
      ],
      [
        25.65288,
        41.61336
      ],
      [
        25.65297,
        41.61349
      ],
      [
        25.65299,
        41.61368
      ],
      [
        25.65299,
        41.61396
      ],
      [
        25.65293,
        41.61426
      ],
      [
        25.65273,
        41.6146
      ],
      [
        25.65269,
        41.61473
      ],
      [
        25.65275,
        41.61484
      ],
      [
        25.65293,
        41.61501
      ],
      [
        25.65428,
        41.61619
      ],
      [
        25.65451,
        41.61634
      ],
      [
        25.65559,
        41.617
      ],
      [
        25.65655,
        41.61754
      ],
      [
        25.65728,
        41.61795
      ],
      [
        25.65771,
        41.61812
      ],
      [
        25.65984,
        41.61885
      ],
      [
        25.66056,
        41.61913
      ],
      [
        25.66132,
        41.61949
      ],
      [
        25.66256,
        41.62016
      ],
      [
        25.66393,
        41.6208
      ],
      [
        25.66438,
        41.6211
      ],
      [
        25.66456,
        41.62138
      ],
      [
        25.66475,
        41.6216
      ],
      [
        25.66559,
        41.62222
      ],
      [
        25.66571,
        41.62237
      ]
    ]
  }
},
{
  "type": "Feature",
  "id": "way/258301762",
  "properties": {
    "highway": "tertiary",
    "name": "591",
    "ref": "591",
    "smoothness": "good",
    "id": "way/258301762"
  },
  "geometry": {
    "type": "LineString",
    "coordinates": [
      [
        25.6818863,
        41.6085862
      ],
      [
        25.68273,
        41.6099
      ],
      [
        25.68288,
        41.61012
      ],
      [
        25.68301,
        41.61027
      ],
      [
        25.68348,
        41.61067
      ],
      [
        25.68361,
        41.61085
      ],
      [
        25.68374,
        41.61108
      ],
      [
        25.68376,
        41.61132
      ],
      [
        25.68382,
        41.61209
      ],
      [
        25.6838,
        41.61224
      ],
      [
        25.68374,
        41.61248
      ],
      [
        25.68361,
        41.61267
      ],
      [
        25.68325,
        41.61297
      ],
      [
        25.68301,
        41.61316
      ],
      [
        25.68249,
        41.61344
      ],
      [
        25.6823,
        41.61359
      ],
      [
        25.68211,
        41.61383
      ],
      [
        25.68166,
        41.61441
      ],
      [
        25.68151,
        41.61469
      ],
      [
        25.68074,
        41.6163
      ],
      [
        25.68005,
        41.61746
      ],
      [
        25.67979,
        41.61776
      ],
      [
        25.67975,
        41.61788
      ],
      [
        25.67975,
        41.61806
      ],
      [
        25.67992,
        41.61945
      ],
      [
        25.67988,
        41.61958
      ],
      [
        25.67979,
        41.61962
      ],
      [
        25.67962,
        41.61964
      ],
      [
        25.67814,
        41.61956
      ],
      [
        25.67653,
        41.61943
      ],
      [
        25.67222,
        41.61909
      ],
      [
        25.66861,
        41.61885
      ],
      [
        25.66833,
        41.61883
      ],
      [
        25.66812,
        41.61876
      ],
      [
        25.66797,
        41.61868
      ],
      [
        25.66782,
        41.61857
      ],
      [
        25.66765,
        41.61838
      ],
      [
        25.66702,
        41.61754
      ],
      [
        25.66653,
        41.61666
      ],
      [
        25.66511,
        41.61447
      ],
      [
        25.6649,
        41.61428
      ],
      [
        25.66475,
        41.61413
      ],
      [
        25.66447,
        41.61396
      ],
      [
        25.66417,
        41.61376
      ],
      [
        25.65902,
        41.61145
      ],
      [
        25.65657,
        41.61044
      ],
      [
        25.65614,
        41.61029
      ],
      [
        25.65582,
        41.61022
      ],
      [
        25.65542,
        41.6102
      ],
      [
        25.65522,
        41.61018
      ],
      [
        25.65501,
        41.61012
      ],
      [
        25.65327,
        41.60913
      ],
      [
        25.6528,
        41.60892
      ],
      [
        25.6526,
        41.60881
      ],
      [
        25.65228,
        41.60855
      ],
      [
        25.65209,
        41.60844
      ],
      [
        25.65166,
        41.60831
      ],
      [
        25.65142,
        41.60823
      ],
      [
        25.65104,
        41.60801
      ],
      [
        25.65082,
        41.60795
      ],
      [
        25.65046,
        41.60793
      ],
      [
        25.65024,
        41.60791
      ],
      [
        25.64975,
        41.60776
      ],
      [
        25.64941,
        41.60771
      ],
      [
        25.64909,
        41.60769
      ],
      [
        25.6487,
        41.60774
      ],
      [
        25.64829,
        41.6078
      ],
      [
        25.6479,
        41.60789
      ],
      [
        25.64769,
        41.60789
      ],
      [
        25.64679,
        41.6078
      ],
      [
        25.64591,
        41.60774
      ],
      [
        25.64563,
        41.60774
      ],
      [
        25.64544,
        41.60776
      ],
      [
        25.64518,
        41.60784
      ],
      [
        25.64325,
        41.60872
      ]
    ]
  }
},
{
  "type": "Feature",
  "id": "way/258507512",
  "properties": {
    "highway": "tertiary",
    "name": "591",
    "ref": "591",
    "smoothness": "intermediate",
    "id": "way/258507512"
  },
  "geometry": {
    "type": "LineString",
    "coordinates": [
      [
        25.67177,
        41.63687
      ],
      [
        25.67198,
        41.63715
      ],
      [
        25.67226,
        41.63743
      ],
      [
        25.67415,
        41.63902
      ],
      [
        25.67436,
        41.63917
      ],
      [
        25.67468,
        41.63928
      ],
      [
        25.67539,
        41.63945
      ],
      [
        25.67569,
        41.63954
      ],
      [
        25.6785,
        41.64119
      ],
      [
        25.68198,
        41.64295
      ],
      [
        25.68228,
        41.64305
      ],
      [
        25.6829,
        41.64318
      ],
      [
        25.68413,
        41.64344
      ],
      [
        25.68451,
        41.64346
      ],
      [
        25.68496,
        41.64344
      ],
      [
        25.6858633,
        41.6433405
      ],
      [
        25.68614,
        41.64331
      ],
      [
        25.68661,
        41.64329
      ],
      [
        25.68691,
        41.64331
      ],
      [
        25.68722,
        41.6434
      ],
      [
        25.68747,
        41.64355
      ],
      [
        25.68771,
        41.64378
      ],
      [
        25.68814,
        41.64458
      ],
      [
        25.68846,
        41.64505
      ],
      [
        25.68865,
        41.64522
      ],
      [
        25.68887,
        41.64531
      ],
      [
        25.68906,
        41.64535
      ],
      [
        25.68988,
        41.64529
      ],
      [
        25.69016,
        41.64533
      ],
      [
        25.69039,
        41.64541
      ],
      [
        25.69052,
        41.64557
      ],
      [
        25.69056,
        41.64574
      ],
      [
        25.69048,
        41.64599
      ],
      [
        25.69052,
        41.64617
      ],
      [
        25.69061,
        41.64625
      ],
      [
        25.69078,
        41.64634
      ],
      [
        25.69129,
        41.64638
      ],
      [
        25.69155,
        41.64644
      ],
      [
        25.69198,
        41.64681
      ],
      [
        25.69215,
        41.64692
      ],
      [
        25.69241,
        41.647
      ],
      [
        25.69288,
        41.64709
      ],
      [
        25.69305,
        41.64709
      ],
      [
        25.6932,
        41.64702
      ],
      [
        25.69363,
        41.64659
      ],
      [
        25.6938,
        41.64649
      ],
      [
        25.694,
        41.64647
      ],
      [
        25.69419,
        41.64651
      ],
      [
        25.69443,
        41.64666
      ],
      [
        25.69485,
        41.6472
      ],
      [
        25.69505,
        41.64735
      ],
      [
        25.69584,
        41.64775
      ],
      [
        25.6964,
        41.64799
      ],
      [
        25.69872,
        41.64874
      ],
      [
        25.69895,
        41.64874
      ],
      [
        25.69919,
        41.64868
      ],
      [
        25.69938,
        41.6485
      ]
    ]
  }
},
{
  "type": "Feature",
  "id": "way/180366124",
  "properties": {
    "highway": "tertiary",
    "name": "591",
    "ref": "591",
    "smoothness": "intermediate",
    "id": "way/180366124"
  },
  "geometry": {
    "type": "LineString",
    "coordinates": [
      [
        25.64325,
        41.60872
      ],
      [
        25.63956,
        41.61035
      ],
      [
        25.63932,
        41.6104
      ],
      [
        25.63906,
        41.6104
      ],
      [
        25.63821,
        41.61031
      ],
      [
        25.63793,
        41.61035
      ],
      [
        25.6378,
        41.61044
      ],
      [
        25.63773,
        41.61055
      ],
      [
        25.63771,
        41.61067
      ],
      [
        25.6378,
        41.61083
      ],
      [
        25.63879,
        41.61177
      ],
      [
        25.63973,
        41.61252
      ],
      [
        25.64057,
        41.61329
      ],
      [
        25.64065,
        41.61349
      ],
      [
        25.64072,
        41.6137
      ],
      [
        25.64065,
        41.61415
      ],
      [
        25.6407,
        41.61432
      ],
      [
        25.64078,
        41.61441
      ],
      [
        25.64087,
        41.61445
      ],
      [
        25.64102,
        41.61445
      ],
      [
        25.64117,
        41.61441
      ],
      [
        25.64132,
        41.61426
      ],
      [
        25.64147,
        41.61417
      ],
      [
        25.64168,
        41.61417
      ],
      [
        25.6419,
        41.61426
      ],
      [
        25.64205,
        41.61439
      ],
      [
        25.64213,
        41.61458
      ],
      [
        25.64254,
        41.6161
      ],
      [
        25.64252,
        41.6163
      ],
      [
        25.64243,
        41.61647
      ],
      [
        25.64224,
        41.6166
      ],
      [
        25.6417,
        41.61675
      ],
      [
        25.64149,
        41.61683
      ],
      [
        25.64016,
        41.61827
      ],
      [
        25.64016,
        41.6184
      ],
      [
        25.64027,
        41.61855
      ],
      [
        25.64267,
        41.62031
      ],
      [
        25.64284,
        41.62035
      ]
    ]
  }
},
{
  "type": "Feature",
  "id": "way/258507156",
  "properties": {
    "highway": "tertiary",
    "mtb:scale": "0",
    "name": "591",
    "ref": "591",
    "smoothness": "intermediate",
    "id": "way/258507156"
  },
  "geometry": {
    "type": "LineString",
    "coordinates": [
      [
        25.6696,
        41.62533
      ],
      [
        25.66977,
        41.62552
      ],
      [
        25.66981,
        41.6257
      ],
      [
        25.66979,
        41.62587
      ],
      [
        25.66971,
        41.62604
      ],
      [
        25.66902,
        41.62679
      ],
      [
        25.66891,
        41.62698
      ],
      [
        25.66889,
        41.62713
      ],
      [
        25.66891,
        41.62737
      ],
      [
        25.66951,
        41.62915
      ],
      [
        25.67041,
        41.63175
      ],
      [
        25.6705,
        41.63185
      ],
      [
        25.67065,
        41.63192
      ],
      [
        25.6708,
        41.63194
      ],
      [
        25.67097,
        41.63188
      ],
      [
        25.67166,
        41.63155
      ],
      [
        25.67192,
        41.63151
      ],
      [
        25.67219,
        41.63151
      ],
      [
        25.67243,
        41.63157
      ],
      [
        25.67254,
        41.63168
      ],
      [
        25.67256,
        41.63185
      ],
      [
        25.67245,
        41.6322
      ],
      [
        25.67224,
        41.6325
      ],
      [
        25.67183,
        41.63295
      ],
      [
        25.67093,
        41.63368
      ],
      [
        25.67084,
        41.63387
      ],
      [
        25.67106,
        41.63477
      ],
      [
        25.67142,
        41.63557
      ],
      [
        25.67164,
        41.63651
      ],
      [
        25.67177,
        41.63687
      ]
    ]
  }
},
{
  "type": "Feature",
  "id": "way/258507511",
  "properties": {
    "highway": "tertiary",
    "mtb:scale": "0",
    "name": "591",
    "ref": "591",
    "smoothness": "intermediate",
    "id": "way/258507511"
  },
  "geometry": {
    "type": "LineString",
    "coordinates": [
      [
        25.66571,
        41.62237
      ],
      [
        25.66595,
        41.62325
      ],
      [
        25.66617,
        41.62364
      ],
      [
        25.66664,
        41.62421
      ],
      [
        25.66747,
        41.62522
      ],
      [
        25.66773,
        41.62555
      ],
      [
        25.66788,
        41.62561
      ],
      [
        25.66805,
        41.62561
      ],
      [
        25.66823,
        41.62557
      ],
      [
        25.66898,
        41.62516
      ],
      [
        25.66915,
        41.62514
      ],
      [
        25.66934,
        41.62518
      ],
      [
        25.6696,
        41.62533
      ]
    ]
  }
}
]
}
