{
"type": "FeatureCollection",
"features": [
{
  "type": "Feature",
  "id": "way/275730906",
  "properties": {
    "highway": "tertiary",
    "lanes": "2",
    "ref": "842",
    "smoothness": "intermediate",
    "surface": "asphalt",
    "id": "way/275730906"
  },
  "geometry": {
    "type": "LineString",
    "coordinates": [
      [
        23.9584702,
        42.1435855
      ],
      [
        23.9582289,
        42.1435856
      ],
      [
        23.9577533,
        42.1437177
      ],
      [
        23.9574054,
        42.1437575
      ],
      [
        23.9570779,
        42.143762
      ],
      [
        23.9567381,
        42.143725
      ],
      [
        23.9563409,
        42.1436057
      ],
      [
        23.9555037,
        42.1433269
      ],
      [
        23.9548343,
        42.1432157
      ],
      [
        23.9542192,
        42.1431734
      ],
      [
        23.9536777,
        42.1431378
      ],
      [
        23.9530455,
        42.143162
      ],
      [
        23.9524749,
        42.143207
      ],
      [
        23.9520977,
        42.1432313
      ],
      [
        23.9518141,
        42.1432312
      ],
      [
        23.9515837,
        42.1431811
      ],
      [
        23.9513023,
        42.1430608
      ],
      [
        23.9500945,
        42.1424538
      ],
      [
        23.9497802,
        42.1423323
      ],
      [
        23.9495042,
        42.1422625
      ],
      [
        23.9492153,
        42.142243
      ],
      [
        23.948445,
        42.1422026
      ],
      [
        23.9481116,
        42.1421263
      ],
      [
        23.9477865,
        42.1419992
      ],
      [
        23.9472557,
        42.1416778
      ],
      [
        23.9467895,
        42.141431
      ],
      [
        23.9464687,
        42.1413321
      ],
      [
        23.9459645,
        42.141217
      ],
      [
        23.9447569,
        42.1409103
      ],
      [
        23.9438416,
        42.1406654
      ],
      [
        23.9429403,
        42.1403027
      ],
      [
        23.9419216,
        42.1397989
      ],
      [
        23.9415541,
        42.139705
      ],
      [
        23.9410592,
        42.1395968
      ],
      [
        23.9405351,
        42.139494
      ],
      [
        23.9398968,
        42.1393419
      ],
      [
        23.9389636,
        42.1391105
      ],
      [
        23.9383325,
        42.1389437
      ],
      [
        23.9376939,
        42.1387126
      ],
      [
        23.9358944,
        42.1380184
      ],
      [
        23.9354912,
        42.1378464
      ],
      [
        23.9352289,
        42.1376837
      ],
      [
        23.9348687,
        42.1372097
      ],
      [
        23.9346772,
        42.1370357
      ],
      [
        23.9344497,
        42.1369235
      ],
      [
        23.9341075,
        42.1368567
      ],
      [
        23.9336668,
        42.1367684
      ],
      [
        23.9333618,
        42.1366655
      ],
      [
        23.9331355,
        42.1365186
      ],
      [
        23.9330268,
        42.1363702
      ],
      [
        23.9330354,
        42.1362365
      ],
      [
        23.9331341,
        42.1360539
      ],
      [
        23.9333742,
        42.1357729
      ],
      [
        23.9337931,
        42.1349653
      ],
      [
        23.933883,
        42.134742
      ],
      [
        23.9338479,
        42.134517
      ],
      [
        23.9336526,
        42.1339847
      ],
      [
        23.9335075,
        42.133271
      ],
      [
        23.9334061,
        42.1330395
      ],
      [
        23.9332857,
        42.1328179
      ],
      [
        23.9333036,
        42.1325979
      ],
      [
        23.9334131,
        42.1324104
      ],
      [
        23.9335505,
        42.1322194
      ],
      [
        23.9336878,
        42.1318502
      ],
      [
        23.9337479,
        42.1315892
      ],
      [
        23.9336878,
        42.1313601
      ],
      [
        23.9334753,
        42.1310727
      ],
      [
        23.9332615,
        42.1309883
      ],
      [
        23.9330832,
        42.1310166
      ],
      [
        23.9329415,
        42.1311353
      ],
      [
        23.9328072,
        42.1312696
      ],
      [
        23.9326922,
        42.1313601
      ],
      [
        23.9325462,
        42.1313728
      ],
      [
        23.9324089,
        42.1313537
      ],
      [
        23.9322895,
        42.1313243
      ],
      [
        23.9322106,
        42.131231
      ],
      [
        23.9321267,
        42.131127
      ],
      [
        23.931992,
        42.1310074
      ],
      [
        23.931867,
        42.1309151
      ],
      [
        23.9316055,
        42.1308809
      ],
      [
        23.9312123,
        42.1308779
      ],
      [
        23.9309862,
        42.1308206
      ],
      [
        23.9307502,
        42.1306752
      ],
      [
        23.9305326,
        42.1304902
      ],
      [
        23.9304664,
        42.1303782
      ],
      [
        23.9304149,
        42.130238
      ],
      [
        23.9303779,
        42.1297065
      ],
      [
        23.9303127,
        42.1295036
      ],
      [
        23.9301679,
        42.1293534
      ],
      [
        23.929993,
        42.1292703
      ],
      [
        23.9298524,
        42.1292494
      ],
      [
        23.9296961,
        42.1292623
      ],
      [
        23.9292092,
        42.1293574
      ],
      [
        23.9290443,
        42.129354
      ],
      [
        23.9289206,
        42.1293106
      ],
      [
        23.9288351,
        42.1292108
      ],
      [
        23.92875,
        42.1290757
      ],
      [
        23.9287128,
        42.1289229
      ],
      [
        23.9286953,
        42.1287817
      ],
      [
        23.9287865,
        42.1285774
      ],
      [
        23.929026,
        42.128219
      ],
      [
        23.9291167,
        42.1279249
      ],
      [
        23.9292058,
        42.127504
      ],
      [
        23.9291789,
        42.1273813
      ],
      [
        23.9291258,
        42.1272856
      ],
      [
        23.9290126,
        42.1272098
      ],
      [
        23.9288305,
        42.1271861
      ],
      [
        23.928676,
        42.1272007
      ],
      [
        23.9282801,
        42.1273391
      ],
      [
        23.9280205,
        42.1273572
      ],
      [
        23.9278306,
        42.1273319
      ],
      [
        23.9276764,
        42.1272492
      ],
      [
        23.9274733,
        42.1271145
      ],
      [
        23.9272888,
        42.126986
      ],
      [
        23.9270471,
        42.1267917
      ],
      [
        23.9269704,
        42.1266822
      ],
      [
        23.9269704,
        42.126523
      ],
      [
        23.9270305,
        42.1264021
      ],
      [
        23.9271764,
        42.1262557
      ],
      [
        23.9278459,
        42.1258164
      ],
      [
        23.9280261,
        42.1256382
      ],
      [
        23.9281119,
        42.1254854
      ],
      [
        23.9281377,
        42.1253326
      ],
      [
        23.9281034,
        42.1251544
      ],
      [
        23.9279832,
        42.1250271
      ],
      [
        23.9277429,
        42.1249252
      ],
      [
        23.9271335,
        42.1247862
      ],
      [
        23.9264645,
        42.1246177
      ],
      [
        23.9258401,
        42.1243877
      ],
      [
        23.9255056,
        42.1242314
      ],
      [
        23.9252618,
        42.1240307
      ],
      [
        23.9251562,
        42.1238733
      ],
      [
        23.9251218,
        42.1237077
      ],
      [
        23.9251562,
        42.1235104
      ],
      [
        23.9253077,
        42.1230547
      ],
      [
        23.9253241,
        42.1228197
      ],
      [
        23.9252452,
        42.1226033
      ],
      [
        23.9250819,
        42.1222539
      ],
      [
        23.9247506,
        42.1216867
      ],
      [
        23.9244676,
        42.1212592
      ],
      [
        23.9242292,
        42.121053
      ],
      [
        23.9231563,
        42.1201299
      ],
      [
        23.9229675,
        42.1199071
      ],
      [
        23.922916,
        42.1197607
      ],
      [
        23.9229074,
        42.1196142
      ],
      [
        23.9229675,
        42.1194742
      ],
      [
        23.9231896,
        42.1190079
      ],
      [
        23.9232258,
        42.1188565
      ],
      [
        23.9232078,
        42.118763
      ],
      [
        23.9231217,
        42.1186706
      ],
      [
        23.9229879,
        42.1186193
      ],
      [
        23.9228194,
        42.1186098
      ],
      [
        23.9223721,
        42.1187094
      ],
      [
        23.9221146,
        42.1187539
      ],
      [
        23.9219123,
        42.1187321
      ],
      [
        23.9217884,
        42.118633
      ],
      [
        23.9216854,
        42.1184802
      ],
      [
        23.9216683,
        42.1182701
      ],
      [
        23.9217026,
        42.1179836
      ],
      [
        23.9216854,
        42.1177735
      ],
      [
        23.9216168,
        42.1176653
      ],
      [
        23.9214623,
        42.1176334
      ],
      [
        23.9212267,
        42.1176802
      ],
      [
        23.920708,
        42.1180035
      ],
      [
        23.9204505,
        42.1180353
      ],
      [
        23.9202188,
        42.1180098
      ],
      [
        23.9199871,
        42.1179143
      ],
      [
        23.9197553,
        42.1177679
      ],
      [
        23.9196008,
        42.1176024
      ],
      [
        23.9195836,
        42.117405
      ],
      [
        23.919618,
        42.1171822
      ],
      [
        23.9196695,
        42.1169529
      ],
      [
        23.9196525,
        42.1167354
      ],
      [
        23.9195184,
        42.1165505
      ],
      [
        23.9192373,
        42.1164063
      ],
      [
        23.9188264,
        42.1163528
      ],
      [
        23.9180888,
        42.1163583
      ],
      [
        23.9179027,
        42.1163233
      ],
      [
        23.9177339,
        42.1162268
      ],
      [
        23.9175628,
        42.1160957
      ],
      [
        23.9163221,
        42.115132
      ],
      [
        23.9160903,
        42.1149729
      ],
      [
        23.9158843,
        42.1149474
      ],
      [
        23.9156729,
        42.1150207
      ],
      [
        23.9151502,
        42.1152451
      ],
      [
        23.9149407,
        42.1153275
      ],
      [
        23.914717,
        42.1153391
      ],
      [
        23.9145145,
        42.1152796
      ],
      [
        23.914353,
        42.1151721
      ],
      [
        23.9139684,
        42.114691
      ],
      [
        23.913815,
        42.1145464
      ],
      [
        23.9135535,
        42.1144803
      ],
      [
        23.9133295,
        42.114511
      ],
      [
        23.9130546,
        42.1145965
      ],
      [
        23.9125208,
        42.1148017
      ],
      [
        23.9121345,
        42.1148527
      ],
      [
        23.9117792,
        42.1148486
      ],
      [
        23.911515,
        42.1147804
      ],
      [
        23.9113323,
        42.1146624
      ],
      [
        23.9112223,
        42.1144958
      ],
      [
        23.9110831,
        42.1140945
      ],
      [
        23.9109316,
        42.1140062
      ],
      [
        23.9106982,
        42.1140115
      ],
      [
        23.9102806,
        42.1141459
      ],
      [
        23.9096455,
        42.1143006
      ],
      [
        23.9092171,
        42.1143442
      ],
      [
        23.9088566,
        42.1143359
      ],
      [
        23.9085029,
        42.1142969
      ],
      [
        23.9083221,
        42.1141522
      ],
      [
        23.908273,
        42.1140076
      ],
      [
        23.9082832,
        42.1138514
      ],
      [
        23.908461,
        42.1135984
      ],
      [
        23.9089248,
        42.1132105
      ],
      [
        23.9091082,
        42.1129275
      ],
      [
        23.9091584,
        42.1127196
      ],
      [
        23.9091675,
        42.1122652
      ],
      [
        23.9092477,
        42.1120658
      ],
      [
        23.9093979,
        42.1118006
      ],
      [
        23.9094218,
        42.1117194
      ],
      [
        23.909374,
        42.1116079
      ],
      [
        23.9091994,
        42.1115311
      ],
      [
        23.9085836,
        42.1114921
      ],
      [
        23.908288,
        42.1114398
      ],
      [
        23.9079632,
        42.1113017
      ],
      [
        23.9074088,
        42.1109999
      ],
      [
        23.9072564,
        42.1108934
      ],
      [
        23.9071961,
        42.1107506
      ],
      [
        23.9071156,
        42.1102899
      ],
      [
        23.906963,
        42.1100474
      ],
      [
        23.90662,
        42.1097708
      ],
      [
        23.9063453,
        42.1096435
      ],
      [
        23.9059934,
        42.1095926
      ],
      [
        23.9052553,
        42.1095926
      ],
      [
        23.9049463,
        42.1095607
      ],
      [
        23.9047145,
        42.1094779
      ],
      [
        23.9045171,
        42.1092742
      ],
      [
        23.9043626,
        42.1090131
      ],
      [
        23.903923,
        42.1083606
      ],
      [
        23.9038355,
        42.108073
      ],
      [
        23.9037446,
        42.1076313
      ],
      [
        23.9035816,
        42.1074403
      ],
      [
        23.9033842,
        42.107313
      ],
      [
        23.9030923,
        42.1072238
      ],
      [
        23.9027318,
        42.1072111
      ],
      [
        23.9023971,
        42.1072748
      ],
      [
        23.9019937,
        42.1073766
      ],
      [
        23.9018075,
        42.1074229
      ],
      [
        23.9016428,
        42.1074279
      ],
      [
        23.9015023,
        42.1073628
      ],
      [
        23.9014307,
        42.1072705
      ],
      [
        23.9014063,
        42.1071344
      ],
      [
        23.901311,
        42.1063709
      ],
      [
        23.901229,
        42.1061872
      ],
      [
        23.9010496,
        42.1060458
      ],
      [
        23.9008607,
        42.1059375
      ],
      [
        23.9005174,
        42.1058547
      ],
      [
        23.9002771,
        42.1057465
      ],
      [
        23.9001569,
        42.1056573
      ],
      [
        23.9001226,
        42.10553
      ],
      [
        23.9001655,
        42.1053835
      ],
      [
        23.9004023,
        42.1049564
      ],
      [
        23.9004436,
        42.1047896
      ],
      [
        23.9004291,
        42.104647
      ],
      [
        23.9003771,
        42.1045001
      ],
      [
        23.9000646,
        42.1042203
      ],
      [
        23.8997951,
        42.1039901
      ],
      [
        23.8992382,
        42.1034567
      ],
      [
        23.8989826,
        42.1032223
      ],
      [
        23.8986828,
        42.1030486
      ],
      [
        23.8982836,
        42.1028969
      ],
      [
        23.897611,
        42.1026867
      ],
      [
        23.896787,
        42.1024638
      ],
      [
        23.8961003,
        42.1022919
      ],
      [
        23.8954309,
        42.102139
      ],
      [
        23.8949102,
        42.102036
      ],
      [
        23.8946833,
        42.1020516
      ],
      [
        23.8944913,
        42.1021041
      ],
      [
        23.8941563,
        42.1022699
      ],
      [
        23.8937657,
        42.1024733
      ],
      [
        23.893541,
        42.1025369
      ],
      [
        23.8932515,
        42.1025214
      ],
      [
        23.8928565,
        42.1024502
      ],
      [
        23.8918573,
        42.1021224
      ],
      [
        23.8914827,
        42.1019734
      ],
      [
        23.8913115,
        42.1017815
      ],
      [
        23.8911911,
        42.1016173
      ],
      [
        23.8910642,
        42.1014872
      ],
      [
        23.8909473,
        42.1013879
      ],
      [
        23.8907826,
        42.1013069
      ],
      [
        23.8905803,
        42.1012167
      ],
      [
        23.8903819,
        42.1009435
      ],
      [
        23.8902182,
        42.1006651
      ],
      [
        23.8900621,
        42.100509
      ],
      [
        23.8897864,
        42.1003439
      ],
      [
        23.8896319,
        42.1001371
      ],
      [
        23.8896013,
        42.0998819
      ],
      [
        23.8895281,
        42.0996346
      ],
      [
        23.8894002,
        42.0993848
      ],
      [
        23.8892339,
        42.0992614
      ],
      [
        23.8887843,
        42.0989575
      ],
      [
        23.8885298,
        42.0987193
      ],
      [
        23.8883959,
        42.098543
      ],
      [
        23.8883689,
        42.0982791
      ],
      [
        23.8885107,
        42.0975325
      ],
      [
        23.8885402,
        42.0972543
      ],
      [
        23.8885534,
        42.0965209
      ],
      [
        23.8885529,
        42.0962747
      ],
      [
        23.8886438,
        42.0961012
      ],
      [
        23.8887932,
        42.0960009
      ],
      [
        23.8892363,
        42.0958283
      ],
      [
        23.8894138,
        42.0957302
      ],
      [
        23.8894753,
        42.0955793
      ],
      [
        23.8895104,
        42.0954352
      ],
      [
        23.8895364,
        42.0950471
      ],
      [
        23.8895306,
        42.0948757
      ],
      [
        23.8894072,
        42.0944151
      ],
      [
        23.8892476,
        42.0939035
      ],
      [
        23.8891188,
        42.0936466
      ],
      [
        23.8887524,
        42.093199
      ],
      [
        23.8881868,
        42.0925669
      ],
      [
        23.8878287,
        42.0920927
      ],
      [
        23.8877785,
        42.0919285
      ],
      [
        23.8878887,
        42.0915399
      ],
      [
        23.8879161,
        42.0913835
      ],
      [
        23.8878839,
        42.0912071
      ],
      [
        23.8877938,
        42.0909042
      ],
      [
        23.8876561,
        42.0904543
      ],
      [
        23.8876529,
        42.0902078
      ],
      [
        23.8876172,
        42.0898886
      ],
      [
        23.8875658,
        42.0897801
      ],
      [
        23.8874466,
        42.0896687
      ],
      [
        23.8873247,
        42.0896048
      ],
      [
        23.8870385,
        42.089488
      ],
      [
        23.8867053,
        42.0893909
      ],
      [
        23.8864707,
        42.0893029
      ],
      [
        23.8862687,
        42.0891916
      ],
      [
        23.8861527,
        42.0890622
      ],
      [
        23.8860274,
        42.0887507
      ],
      [
        23.8856719,
        42.0878486
      ],
      [
        23.8856067,
        42.0876494
      ],
      [
        23.885594,
        42.0875572
      ],
      [
        23.8856236,
        42.0874668
      ],
      [
        23.8857635,
        42.0873263
      ],
      [
        23.8859935,
        42.0871798
      ],
      [
        23.8862261,
        42.0871161
      ],
      [
        23.8864645,
        42.0869881
      ],
      [
        23.886659,
        42.0867324
      ],
      [
        23.8867311,
        42.0865656
      ],
      [
        23.886786,
        42.0863516
      ],
      [
        23.8867276,
        42.0860381
      ],
      [
        23.8867035,
        42.0859256
      ],
      [
        23.8865745,
        42.0856622
      ],
      [
        23.8863382,
        42.0853218
      ],
      [
        23.8859134,
        42.0850065
      ],
      [
        23.8858139,
        42.0848906
      ],
      [
        23.8856681,
        42.0846926
      ],
      [
        23.8854367,
        42.0843425
      ],
      [
        23.8852806,
        42.084024
      ],
      [
        23.8851054,
        42.0835347
      ],
      [
        23.8848136,
        42.0832799
      ],
      [
        23.8842452,
        42.0830079
      ],
      [
        23.8837994,
        42.0828003
      ],
      [
        23.8834473,
        42.0826462
      ],
      [
        23.8828579,
        42.0825591
      ],
      [
        23.8823671,
        42.0825415
      ],
      [
        23.8822276,
        42.0825145
      ],
      [
        23.882016,
        42.0824272
      ],
      [
        23.8818095,
        42.0822862
      ],
      [
        23.8815692,
        42.082076
      ],
      [
        23.8813636,
        42.0818921
      ],
      [
        23.8811712,
        42.0815712
      ],
      [
        23.8809612,
        42.0811417
      ],
      [
        23.8808651,
        42.08102
      ],
      [
        23.8807374,
        42.0809453
      ],
      [
        23.88044,
        42.0808255
      ],
      [
        23.8798441,
        42.0806503
      ],
      [
        23.8794227,
        42.0804821
      ],
      [
        23.8791777,
        42.0803551
      ],
      [
        23.8790002,
        42.0802068
      ],
      [
        23.8789438,
        42.0801294
      ],
      [
        23.8788964,
        42.0800097
      ],
      [
        23.8788709,
        42.0799077
      ],
      [
        23.8788569,
        42.0797416
      ],
      [
        23.8788029,
        42.0792172
      ],
      [
        23.8787446,
        42.0790594
      ],
      [
        23.8786153,
        42.0788302
      ],
      [
        23.8785282,
        42.0786564
      ],
      [
        23.8784677,
        42.0785159
      ],
      [
        23.8783687,
        42.0781815
      ],
      [
        23.8781837,
        42.0774646
      ],
      [
        23.8781571,
        42.0773843
      ],
      [
        23.8780937,
        42.0773025
      ],
      [
        23.8779149,
        42.0771158
      ],
      [
        23.8776294,
        42.0768619
      ],
      [
        23.8772055,
        42.0765021
      ],
      [
        23.8767796,
        42.0762325
      ],
      [
        23.8761361,
        42.0758838
      ],
      [
        23.875159,
        42.0754015
      ],
      [
        23.8740941,
        42.0748423
      ],
      [
        23.8732007,
        42.0743739
      ],
      [
        23.872535,
        42.0738625
      ],
      [
        23.871575,
        42.07315
      ],
      [
        23.8709999,
        42.0727627
      ],
      [
        23.8706196,
        42.0725582
      ],
      [
        23.8703734,
        42.0724433
      ],
      [
        23.8692211,
        42.0719056
      ],
      [
        23.8677832,
        42.0712306
      ],
      [
        23.8660972,
        42.0704491
      ],
      [
        23.8632965,
        42.0691244
      ],
      [
        23.8628374,
        42.0689103
      ],
      [
        23.8612245,
        42.068158
      ],
      [
        23.8600267,
        42.0675889
      ],
      [
        23.8599889,
        42.0675709
      ],
      [
        23.8591843,
        42.0671016
      ],
      [
        23.8583034,
        42.0664234
      ],
      [
        23.8578904,
        42.0660837
      ],
      [
        23.8575144,
        42.0658842
      ],
      [
        23.8570817,
        42.0657278
      ],
      [
        23.8564131,
        42.0655241
      ],
      [
        23.8552191,
        42.065173
      ],
      [
        23.8548551,
        42.0650537
      ],
      [
        23.8547382,
        42.0649679
      ],
      [
        23.8546824,
        42.0648969
      ],
      [
        23.8546612,
        42.0648131
      ],
      [
        23.8547044,
        42.0646825
      ]
    ]
  }
},
{
  "type": "Feature",
  "id": "way/41241708",
  "properties": {
    "highway": "tertiary",
    "name": "842",
    "ref": "842",
    "smoothness": "intermediate",
    "id": "way/41241708"
  },
  "geometry": {
    "type": "LineString",
    "coordinates": [
      [
        23.8547044,
        42.0646825
      ],
      [
        23.8549092,
        42.0643436
      ],
      [
        23.8551901,
        42.063809
      ],
      [
        23.8552538,
        42.06367
      ],
      [
        23.8552804,
        42.0635704
      ],
      [
        23.8552272,
        42.0634639
      ],
      [
        23.855121,
        42.0633564
      ],
      [
        23.8549877,
        42.063257
      ],
      [
        23.8548961,
        42.0631508
      ],
      [
        23.8548066,
        42.0630087
      ]
    ]
  }
},
{
  "type": "Feature",
  "id": "way/275730905",
  "properties": {
    "highway": "tertiary",
    "lanes": "2",
    "ref": "842",
    "smoothness": "intermediate",
    "surface": "asphalt",
    "id": "way/275730905"
  },
  "geometry": {
    "type": "LineString",
    "coordinates": [
      [
        23.9853954,
        42.1875046
      ],
      [
        23.9854569,
        42.1865879
      ],
      [
        23.985431,
        42.1861631
      ],
      [
        23.9852108,
        42.1856688
      ],
      [
        23.9850254,
        42.1852673
      ],
      [
        23.9848903,
        42.1848205
      ],
      [
        23.9848362,
        42.1843648
      ],
      [
        23.9847101,
        42.1840446
      ],
      [
        23.9845361,
        42.1837189
      ],
      [
        23.9845218,
        42.1834118
      ],
      [
        23.9846361,
        42.1830941
      ],
      [
        23.9846933,
        42.18275
      ],
      [
        23.9846219,
        42.1825118
      ],
      [
        23.9842981,
        42.1822511
      ],
      [
        23.9841178,
        42.1821112
      ],
      [
        23.9839766,
        42.1819803
      ],
      [
        23.9839665,
        42.1818043
      ],
      [
        23.9840979,
        42.1813551
      ],
      [
        23.9841029,
        42.1810668
      ],
      [
        23.9840322,
        42.1808759
      ],
      [
        23.9836973,
        42.1805848
      ],
      [
        23.9833535,
        42.1802263
      ],
      [
        23.9830248,
        42.1799139
      ],
      [
        23.982857,
        42.1796026
      ],
      [
        23.9827004,
        42.1792694
      ],
      [
        23.9824604,
        42.1788007
      ],
      [
        23.9821889,
        42.1785306
      ],
      [
        23.9820746,
        42.1783506
      ],
      [
        23.9820317,
        42.1781759
      ],
      [
        23.9821175,
        42.1779747
      ],
      [
        23.9826605,
        42.1773022
      ],
      [
        23.9828606,
        42.176921
      ],
      [
        23.9828891,
        42.1765821
      ],
      [
        23.9828463,
        42.176365
      ],
      [
        23.982782,
        42.1762591
      ],
      [
        23.9826157,
        42.1761464
      ],
      [
        23.9820778,
        42.1760754
      ],
      [
        23.9818992,
        42.1761019
      ],
      [
        23.9817062,
        42.1760542
      ],
      [
        23.9814776,
        42.1759695
      ],
      [
        23.981349,
        42.1757312
      ],
      [
        23.9812854,
        42.1751528
      ],
      [
        23.9812339,
        42.175032
      ],
      [
        23.9811481,
        42.1749493
      ],
      [
        23.9810252,
        42.1747456
      ],
      [
        23.9806608,
        42.1746026
      ],
      [
        23.9802393,
        42.1746132
      ],
      [
        23.979932,
        42.1744967
      ],
      [
        23.979782,
        42.1744226
      ],
      [
        23.9796962,
        42.1741843
      ],
      [
        23.9797677,
        42.1737924
      ],
      [
        23.9798105,
        42.1735277
      ],
      [
        23.9798749,
        42.173194
      ],
      [
        23.9799749,
        42.1728075
      ],
      [
        23.9799963,
        42.1725004
      ],
      [
        23.9798749,
        42.1722621
      ],
      [
        23.9792747,
        42.1719284
      ],
      [
        23.9783458,
        42.1714254
      ],
      [
        23.9777671,
        42.1709488
      ],
      [
        23.9770883,
        42.1703927
      ],
      [
        23.9763881,
        42.1697785
      ],
      [
        23.9761666,
        42.1695296
      ],
      [
        23.9761523,
        42.1693124
      ],
      [
        23.9763047,
        42.1690836
      ],
      [
        23.9763523,
        42.1687511
      ],
      [
        23.976188,
        42.1683857
      ],
      [
        23.9759236,
        42.167872
      ],
      [
        23.9758093,
        42.1676231
      ],
      [
        23.9757521,
        42.167353
      ],
      [
        23.9758165,
        42.1671306
      ],
      [
        23.9759308,
        42.1668552
      ],
      [
        23.9759236,
        42.1666593
      ],
      [
        23.975845,
        42.1664792
      ],
      [
        23.9757736,
        42.1663044
      ],
      [
        23.9754378,
        42.166135
      ],
      [
        23.9749519,
        42.1660502
      ],
      [
        23.9745946,
        42.1659973
      ],
      [
        23.9743374,
        42.1658755
      ],
      [
        23.9742374,
        42.1656848
      ],
      [
        23.9739087,
        42.1652452
      ],
      [
        23.9735157,
        42.1651658
      ],
      [
        23.9728155,
        42.1650122
      ],
      [
        23.9724083,
        42.1648374
      ],
      [
        23.9719367,
        42.164562
      ],
      [
        23.9715151,
        42.1643237
      ],
      [
        23.9710578,
        42.1642337
      ],
      [
        23.9706077,
        42.1641331
      ],
      [
        23.9701504,
        42.1638683
      ],
      [
        23.9697146,
        42.163614
      ],
      [
        23.9695717,
        42.1634499
      ],
      [
        23.9696288,
        42.1632433
      ],
      [
        23.9698146,
        42.1630738
      ],
      [
        23.9700933,
        42.1628832
      ],
      [
        23.9702362,
        42.1624171
      ],
      [
        23.9701861,
        42.1618345
      ],
      [
        23.9702504,
        42.1607647
      ],
      [
        23.970329,
        42.1604522
      ],
      [
        23.9703505,
        42.1601291
      ],
      [
        23.9702147,
        42.1598113
      ],
      [
        23.9700075,
        42.1595306
      ],
      [
        23.9697896,
        42.1592974
      ],
      [
        23.9696684,
        42.1591177
      ],
      [
        23.969724,
        42.1587769
      ],
      [
        23.969724,
        42.158436
      ],
      [
        23.9695572,
        42.1581664
      ],
      [
        23.9692591,
        42.1579679
      ],
      [
        23.9691379,
        42.1577244
      ],
      [
        23.9691076,
        42.1573611
      ],
      [
        23.9690469,
        42.1569192
      ],
      [
        23.9690498,
        42.1566872
      ],
      [
        23.9691999,
        42.1564435
      ],
      [
        23.96955,
        42.156237
      ],
      [
        23.9699358,
        42.1560092
      ],
      [
        23.9701002,
        42.1556967
      ],
      [
        23.9702288,
        42.1553312
      ],
      [
        23.9702716,
        42.155024
      ],
      [
        23.9703074,
        42.1547803
      ],
      [
        23.970342,
        42.1546229
      ],
      [
        23.9702645,
        42.1544625
      ],
      [
        23.9701287,
        42.1542454
      ],
      [
        23.9699787,
        42.1539116
      ],
      [
        23.9699501,
        42.1536415
      ],
      [
        23.9700073,
        42.1533121
      ],
      [
        23.9701188,
        42.1530512
      ],
      [
        23.9702648,
        42.1528349
      ],
      [
        23.9703678,
        42.1525994
      ],
      [
        23.9704021,
        42.152364
      ],
      [
        23.970342,
        42.1520204
      ],
      [
        23.9702562,
        42.1517468
      ],
      [
        23.9702073,
        42.151189
      ],
      [
        23.9701716,
        42.1509241
      ],
      [
        23.9700573,
        42.1506698
      ],
      [
        23.9699001,
        42.1504844
      ],
      [
        23.9698215,
        42.1501931
      ],
      [
        23.9699144,
        42.1497693
      ],
      [
        23.9699716,
        42.1493932
      ],
      [
        23.9699858,
        42.1492502
      ],
      [
        23.9699287,
        42.1490753
      ],
      [
        23.9696143,
        42.1487112
      ],
      [
        23.9695183,
        42.148494
      ],
      [
        23.9695385,
        42.148198
      ],
      [
        23.9695638,
        42.1479845
      ],
      [
        23.9696951,
        42.1477111
      ],
      [
        23.9697755,
        42.1475596
      ],
      [
        23.9697584,
        42.1473878
      ],
      [
        23.9696639,
        42.1472223
      ],
      [
        23.9692707,
        42.1470705
      ],
      [
        23.96884,
        42.1469169
      ],
      [
        23.9686139,
        42.1467821
      ],
      [
        23.9682552,
        42.1465199
      ],
      [
        23.9680077,
        42.1464524
      ],
      [
        23.9675833,
        42.1464599
      ],
      [
        23.9672123,
        42.1464255
      ],
      [
        23.9669698,
        42.1463731
      ],
      [
        23.9668033,
        42.1462249
      ],
      [
        23.9667104,
        42.1460024
      ],
      [
        23.9665961,
        42.1457004
      ],
      [
        23.96651,
        42.1455447
      ],
      [
        23.9663457,
        42.1454494
      ],
      [
        23.9660459,
        42.1454038
      ],
      [
        23.9657387,
        42.1454991
      ],
      [
        23.9655386,
        42.1455309
      ],
      [
        23.96541,
        42.1454938
      ],
      [
        23.9653171,
        42.145319
      ],
      [
        23.9651528,
        42.1451495
      ],
      [
        23.9648241,
        42.1449852
      ],
      [
        23.9642168,
        42.1447786
      ],
      [
        23.9634309,
        42.1445614
      ],
      [
        23.9626735,
        42.1445243
      ],
      [
        23.9619804,
        42.144625
      ],
      [
        23.9616303,
        42.1446038
      ],
      [
        23.9612945,
        42.1444767
      ],
      [
        23.9608944,
        42.1444396
      ],
      [
        23.9602942,
        42.1444767
      ],
      [
        23.9599869,
        42.1443813
      ],
      [
        23.9596063,
        42.144004
      ],
      [
        23.9593991,
        42.1438186
      ],
      [
        23.9590847,
        42.143702
      ],
      [
        23.9588203,
        42.1435961
      ],
      [
        23.9584702,
        42.1435855
      ]
    ]
  }
},
{
  "type": "Feature",
  "id": "way/253254460",
  "properties": {
    "highway": "tertiary",
    "lanes": "2",
    "name": "ул.Юндола",
    "ref": "842",
    "smoothness": "intermediate",
    "surface": "asphalt",
    "id": "way/253254460"
  },
  "geometry": {
    "type": "LineString",
    "coordinates": [
      [
        24.0181856,
        42.2146879
      ],
      [
        24.0178999,
        42.2143828
      ],
      [
        24.0174157,
        42.2140129
      ],
      [
        24.0171581,
        42.213864
      ],
      [
        24.0169521,
        42.213775
      ],
      [
        24.0160938,
        42.2134635
      ],
      [
        24.0158895,
        42.2133579
      ],
      [
        24.0157162,
        42.2131902
      ],
      [
        24.0152613,
        42.2126562
      ],
      [
        24.014978,
        42.2123447
      ],
      [
        24.0148064,
        42.2122112
      ],
      [
        24.0144459,
        42.2120077
      ],
      [
        24.0131607,
        42.2112851
      ],
      [
        24.0123602,
        42.2109461
      ],
      [
        24.0117873,
        42.2107516
      ],
      [
        24.0111242,
        42.2105329
      ],
      [
        24.0103518,
        42.2104184
      ],
      [
        24.0101114,
        42.2103612
      ],
      [
        24.0097997,
        42.2102523
      ],
      [
        24.0095045,
        42.2100552
      ],
      [
        24.0092433,
        42.2098366
      ],
      [
        24.0089466,
        42.2097261
      ],
      [
        24.0087111,
        42.2097004
      ],
      [
        24.0080918,
        42.2096646
      ],
      [
        24.0075886,
        42.209618
      ],
      [
        24.0070816,
        42.2094648
      ],
      [
        24.0061461,
        42.2090961
      ],
      [
        24.0057341,
        42.2088799
      ],
      [
        24.0054766,
        42.2086828
      ],
      [
        24.005159,
        42.2084858
      ],
      [
        24.0048758,
        42.2083586
      ],
      [
        24.0043694,
        42.2082442
      ],
      [
        24.0038372,
        42.2081488
      ],
      [
        24.0034681,
        42.2080344
      ],
      [
        24.0031506,
        42.2078564
      ],
      [
        24.0026356,
        42.2075385
      ],
      [
        24.0021034,
        42.2073223
      ],
      [
        24.0014254,
        42.2070934
      ],
      [
        24.0008331,
        42.2068709
      ],
      [
        24.0004898,
        42.2066802
      ],
      [
        23.999992,
        42.2063369
      ],
      [
        23.9988075,
        42.2056057
      ],
      [
        23.9981724,
        42.2051289
      ],
      [
        23.997666,
        42.2047347
      ],
      [
        23.9975201,
        42.2045948
      ],
      [
        23.9972797,
        42.2042579
      ],
      [
        23.9970566,
        42.2037874
      ],
      [
        23.9967905,
        42.2033296
      ],
      [
        23.9965416,
        42.2029735
      ],
      [
        23.9961983,
        42.2025285
      ],
      [
        23.9959065,
        42.2020961
      ],
      [
        23.995709,
        42.2017083
      ],
      [
        23.9955803,
        42.2014603
      ]
    ]
  }
},
{
  "type": "Feature",
  "id": "way/275730394",
  "properties": {
    "highway": "tertiary",
    "lanes": "2",
    "name": "ул.Юндола",
    "ref": "842",
    "smoothness": "intermediate",
    "surface": "asphalt",
    "id": "way/275730394"
  },
  "geometry": {
    "type": "LineString",
    "coordinates": [
      [
        23.987686,
        42.1919419
      ],
      [
        23.9875451,
        42.1918718
      ],
      [
        23.9874431,
        42.1917944
      ],
      [
        23.9872195,
        42.1916248
      ],
      [
        23.9869565,
        42.1913776
      ],
      [
        23.9863135,
        42.1909494
      ],
      [
        23.9858741,
        42.1906568
      ],
      [
        23.9856598,
        42.1905141
      ],
      [
        23.9851674,
        42.1901648
      ],
      [
        23.985066,
        42.1899699
      ],
      [
        23.9850231,
        42.1897919
      ],
      [
        23.985066,
        42.189493
      ],
      [
        23.985159,
        42.1887956
      ],
      [
        23.9853242,
        42.1881717
      ],
      [
        23.9853954,
        42.1875046
      ]
    ]
  }
},
{
  "type": "Feature",
  "id": "way/278309079",
  "properties": {
    "highway": "tertiary",
    "lanes": "2",
    "name": "ул.Юндола",
    "ref": "842",
    "smoothness": "intermediate",
    "surface": "asphalt",
    "id": "way/278309079"
  },
  "geometry": {
    "type": "LineString",
    "coordinates": [
      [
        23.9937315,
        42.1985927
      ],
      [
        23.9935804,
        42.198243
      ],
      [
        23.9933916,
        42.1978805
      ],
      [
        23.9932543,
        42.1975435
      ],
      [
        23.9931427,
        42.1970539
      ],
      [
        23.9930655,
        42.196736
      ],
      [
        23.9929281,
        42.1965579
      ],
      [
        23.9925436,
        42.1962548
      ],
      [
        23.9919915,
        42.195891
      ],
      [
        23.9917286,
        42.195689
      ],
      [
        23.991469,
        42.1954896
      ],
      [
        23.9912029,
        42.1952226
      ],
      [
        23.9908768,
        42.194841
      ],
      [
        23.9906358,
        42.1945892
      ],
      [
        23.9903864,
        42.1943972
      ],
      [
        23.9900819,
        42.1942557
      ],
      [
        23.9898196,
        42.1941261
      ],
      [
        23.9896706,
        42.1940205
      ],
      [
        23.9895702,
        42.1938765
      ],
      [
        23.9894618,
        42.1937143
      ],
      [
        23.9893514,
        42.193549
      ],
      [
        23.9890812,
        42.1931447
      ],
      [
        23.9888755,
        42.192902
      ],
      [
        23.9888189,
        42.1928352
      ],
      [
        23.988508,
        42.1925784
      ],
      [
        23.9883791,
        42.1923801
      ],
      [
        23.9882675,
        42.1922275
      ],
      [
        23.9881632,
        42.1921157
      ],
      [
        23.9880532,
        42.1920419
      ],
      [
        23.9878813,
        42.1919922
      ]
    ]
  }
},
{
  "type": "Feature",
  "id": "way/275730393",
  "properties": {
    "bridge": "yes",
    "highway": "tertiary",
    "lanes": "2",
    "layer": "1",
    "name": "ул.Юндола",
    "ref": "842",
    "smoothness": "intermediate",
    "surface": "asphalt",
    "id": "way/275730393"
  },
  "geometry": {
    "type": "LineString",
    "coordinates": [
      [
        23.9878813,
        42.1919922
      ],
      [
        23.987686,
        42.1919419
      ]
    ]
  }
},
{
  "type": "Feature",
  "id": "way/278318108",
  "properties": {
    "highway": "tertiary",
    "lanes": "2",
    "ref": "842",
    "smoothness": "intermediate",
    "surface": "asphalt",
    "id": "way/278318108"
  },
  "geometry": {
    "type": "LineString",
    "coordinates": [
      [
        23.9955803,
        42.2014603
      ],
      [
        23.9954086,
        42.2012632
      ],
      [
        23.9947136,
        42.2007784
      ],
      [
        23.9940439,
        42.2001632
      ],
      [
        23.9937864,
        42.199858
      ],
      [
        23.9936834,
        42.19961
      ],
      [
        23.993692,
        42.1993557
      ],
      [
        23.9937349,
        42.1989742
      ],
      [
        23.993757,
        42.1988021
      ],
      [
        23.9937315,
        42.1985927
      ]
    ]
  }
}
]
}
