{
  "type": "FeatureCollection",
  "generator": "overpass-turbo",
  "copyright": "The data included in this document is from www.openstreetmap.org. The data is made available under ODbL.",
  "timestamp": "2015-04-07T08:23:02Z",
  "features": [
    {
      "type": "Feature",
      "id": "way/233174295",
      "properties": {
        "@id": "way/233174295",
        "highway": "secondary",
        "name": "58",
        "ref": "58",
        "smoothness": "intermediate"
      },
      "geometry": {
        "type": "LineString",
        "coordinates": [
          [
            25.0724322,
            41.8971569
          ],
          [
            25.0683211,
            41.8979595
          ],
          [
            25.0675143,
            41.8980425
          ],
          [
            25.0668362,
            41.8979659
          ],
          [
            25.0595235,
            41.896752
          ],
          [
            25.0588025,
            41.8967073
          ],
          [
            25.0579785,
            41.8968351
          ],
          [
            25.0570515,
            41.8971992
          ],
          [
            25.0555003,
            41.8985871
          ],
          [
            25.0550353,
            41.8989295
          ],
          [
            25.0545358,
            41.8991504
          ],
          [
            25.0528194,
            41.8996695
          ],
          [
            25.052117,
            41.8999971
          ],
          [
            25.0514295,
            41.9005163
          ],
          [
            25.0501349,
            41.9018463
          ],
          [
            25.0494004,
            41.9023305
          ],
          [
            25.0478265,
            41.902898
          ],
          [
            25.046563,
            41.9030574
          ],
          [
            25.0424775,
            41.9026933
          ],
          [
            25.0416793,
            41.9025592
          ],
          [
            25.0407351,
            41.9022461
          ],
          [
            25.0400056,
            41.9020098
          ],
          [
            25.0393962,
            41.9019587
          ],
          [
            25.0382804,
            41.901997
          ],
          [
            25.0377225,
            41.9019714
          ],
          [
            25.035817,
            41.9016329
          ],
          [
            25.0344437,
            41.9014987
          ],
          [
            25.0334395,
            41.9014412
          ],
          [
            25.0320061,
            41.9016137
          ],
          [
            25.030856,
            41.9018245
          ],
          [
            25.0278515,
            41.9029343
          ],
          [
            25.0271343,
            41.9031331
          ],
          [
            25.0264789,
            41.9032435
          ],
          [
            25.0253249,
            41.9033168
          ],
          [
            25.0243736,
            41.9033663
          ],
          [
            25.023681,
            41.9033116
          ],
          [
            25.0227577,
            41.903197
          ],
          [
            25.0210124,
            41.9031788
          ],
          [
            25.0203653,
            41.9032569
          ],
          [
            25.0200491,
            41.9033279
          ],
          [
            25.0198897,
            41.9033637
          ],
          [
            25.0159386,
            41.904597
          ],
          [
            25.014515,
            41.9050546
          ],
          [
            25.0126644,
            41.9056494
          ],
          [
            25.0125169,
            41.9056968
          ],
          [
            25.0096473,
            41.9066397
          ],
          [
            25.0088578,
            41.9068991
          ],
          [
            25.0080558,
            41.9071626
          ],
          [
            25.0076226,
            41.9072811
          ],
          [
            25.0075469,
            41.9073018
          ],
          [
            25.0070974,
            41.9074099
          ],
          [
            25.0063511,
            41.9075116
          ],
          [
            25.0051453,
            41.9076758
          ],
          [
            25.004108,
            41.9078171
          ],
          [
            25.0034873,
            41.9079414
          ],
          [
            25.0032067,
            41.9080789
          ],
          [
            25.0030817,
            41.9081402
          ],
          [
            25.0030166,
            41.9082034
          ],
          [
            25.0027725,
            41.9084402
          ],
          [
            25.0025748,
            41.9086979
          ],
          [
            25.0024041,
            41.9092212
          ],
          [
            25.0023811,
            41.9092925
          ],
          [
            25.0017704,
            41.9111822
          ],
          [
            25.0010728,
            41.9134885
          ],
          [
            25.0006436,
            41.9143507
          ],
          [
            24.9984635,
            41.9179593
          ],
          [
            24.9966525,
            41.9204373
          ],
          [
            24.9964379,
            41.9208843
          ],
          [
            24.9944638,
            41.9247927
          ],
          [
            24.9938841,
            41.9256511
          ],
          [
            24.9933227,
            41.9262859
          ],
          [
            24.991222,
            41.9279326
          ],
          [
            24.990449,
            41.9285233
          ],
          [
            24.9868018,
            41.9307288
          ],
          [
            24.9854548,
            41.9313404
          ],
          [
            24.9854119,
            41.9313599
          ],
          [
            24.9847936,
            41.9316028
          ],
          [
            24.9845636,
            41.9316562
          ],
          [
            24.9837004,
            41.9317978
          ],
          [
            24.9831613,
            41.9319818
          ],
          [
            24.982479,
            41.9322618
          ],
          [
            24.9820635,
            41.9325249
          ],
          [
            24.9816763,
            41.9328451
          ],
          [
            24.9807799,
            41.9335865
          ],
          [
            24.9804733,
            41.9337815
          ],
          [
            24.9801997,
            41.9338965
          ],
          [
            24.980132,
            41.933925
          ],
          [
            24.9800256,
            41.9339557
          ],
          [
            24.9791106,
            41.9342194
          ],
          [
            24.9774232,
            41.9347407
          ],
          [
            24.9768773,
            41.9349093
          ],
          [
            24.9760735,
            41.9352129
          ],
          [
            24.9752598,
            41.9356323
          ],
          [
            24.9742533,
            41.936302
          ],
          [
            24.9734181,
            41.9369185
          ],
          [
            24.9726891,
            41.9374416
          ],
          [
            24.9717863,
            41.9382419
          ],
          [
            24.970929,
            41.9389042
          ],
          [
            24.9676218,
            41.9411151
          ],
          [
            24.9669491,
            41.9416191
          ],
          [
            24.9657643,
            41.9426635
          ],
          [
            24.9653789,
            41.9429491
          ],
          [
            24.9649313,
            41.9432122
          ],
          [
            24.9635422,
            41.9440318
          ],
          [
            24.9628333,
            41.9444789
          ],
          [
            24.9621554,
            41.9449496
          ],
          [
            24.9612773,
            41.945654
          ],
          [
            24.9604776,
            41.9462933
          ],
          [
            24.9600543,
            41.9466316
          ],
          [
            24.959472,
            41.9470971
          ],
          [
            24.9586991,
            41.9476642
          ],
          [
            24.9581644,
            41.9480386
          ],
          [
            24.9572021,
            41.9487125
          ],
          [
            24.9570239,
            41.9488276
          ],
          [
            24.9568489,
            41.9489987
          ],
          [
            24.9567192,
            41.9491412
          ],
          [
            24.9566194,
            41.9492508
          ],
          [
            24.9560864,
            41.9498363
          ],
          [
            24.9555325,
            41.9503097
          ],
          [
            24.955506,
            41.950329
          ],
          [
            24.9547456,
            41.950882
          ],
          [
            24.9545544,
            41.9510309
          ],
          [
            24.9543615,
            41.9512314
          ],
          [
            24.9530856,
            41.9526693
          ],
          [
            24.9526357,
            41.9531762
          ],
          [
            24.9517888,
            41.9539509
          ],
          [
            24.9514553,
            41.9542738
          ],
          [
            24.9512595,
            41.9545873
          ],
          [
            24.9510864,
            41.9549748
          ],
          [
            24.9508886,
            41.9558795
          ],
          [
            24.9506493,
            41.9570257
          ],
          [
            24.950496,
            41.9575535
          ],
          [
            24.9501898,
            41.9581259
          ],
          [
            24.949826,
            41.9585915
          ],
          [
            24.9452832,
            41.9632328
          ],
          [
            24.9447845,
            41.9637976
          ],
          [
            24.9443997,
            41.964453
          ],
          [
            24.9422059,
            41.9693406
          ],
          [
            24.9417388,
            41.9700849
          ],
          [
            24.9408591,
            41.9710195
          ],
          [
            24.9403288,
            41.9716084
          ],
          [
            24.9399701,
            41.9720068
          ],
          [
            24.9378807,
            41.9747315
          ],
          [
            24.9372511,
            41.9753841
          ],
          [
            24.9364571,
            41.976003
          ],
          [
            24.935163,
            41.9768767
          ],
          [
            24.932657,
            41.9784522
          ],
          [
            24.9300307,
            41.9801033
          ],
          [
            24.9265059,
            41.9822582
          ],
          [
            24.9180422,
            41.9874386
          ],
          [
            24.9152706,
            41.9891263
          ],
          [
            24.9111049,
            41.9916777
          ],
          [
            24.9039432,
            41.9960639
          ],
          [
            24.9018935,
            41.9973319
          ],
          [
            24.8998346,
            41.9986055
          ],
          [
            24.8989146,
            41.9991716
          ],
          [
            24.8978809,
            41.9997808
          ],
          [
            24.8966616,
            42.0004299
          ],
          [
            24.892733,
            42.0022446
          ],
          [
            24.890055,
            42.0034596
          ],
          [
            24.8899739,
            42.0034938
          ],
          [
            24.8897447,
            42.0035843
          ],
          [
            24.8894527,
            42.0037028
          ]
        ]
      }
    },
    {
      "type": "Feature",
      "id": "way/186576780",
      "properties": {
        "@id": "way/186576780",
        "highway": "secondary",
        "name": "58",
        "ref": "58",
        "smoothness": "good"
      },
      "geometry": {
        "type": "LineString",
        "coordinates": [
          [
            25.1997749,
            41.8336254
          ],
          [
            25.1999016,
            41.8339969
          ],
          [
            25.2003565,
            41.8345597
          ],
          [
            25.2008119,
            41.8352325
          ],
          [
            25.2009281,
            41.8356508
          ],
          [
            25.2008391,
            41.8360451
          ],
          [
            25.2005794,
            41.8363584
          ],
          [
            25.2002021,
            41.8366061
          ],
          [
            25.1996012,
            41.8367851
          ],
          [
            25.198185,
            41.8368938
          ],
          [
            25.1972409,
            41.8371304
          ],
          [
            25.1958247,
            41.8380449
          ],
          [
            25.1951644,
            41.8387206
          ],
          [
            25.1949475,
            41.8388886
          ],
          [
            25.1946398,
            41.8388834
          ],
          [
            25.1944351,
            41.8387362
          ],
          [
            25.1940652,
            41.8383199
          ],
          [
            25.1936789,
            41.837885
          ],
          [
            25.1932326,
            41.8378211
          ],
          [
            25.1928206,
            41.8383838
          ],
          [
            25.1923936,
            41.838996
          ],
          [
            25.1921365,
            41.8391172
          ],
          [
            25.191834,
            41.8391458
          ],
          [
            25.1915527,
            41.8391803
          ],
          [
            25.1913443,
            41.8392407
          ],
          [
            25.1911025,
            41.8394014
          ],
          [
            25.1909495,
            41.8396244
          ],
          [
            25.1907778,
            41.8401999
          ],
          [
            25.190205,
            41.8408803
          ],
          [
            25.1900195,
            41.8411457
          ],
          [
            25.1900047,
            41.8413668
          ],
          [
            25.1901169,
            41.8415619
          ],
          [
            25.1906319,
            41.8419263
          ],
          [
            25.1907693,
            41.8421565
          ],
          [
            25.1906748,
            41.8423931
          ],
          [
            25.1903142,
            41.8426349
          ],
          [
            25.1901906,
            41.8427896
          ],
          [
            25.1901955,
            41.8429333
          ],
          [
            25.1902972,
            41.8430645
          ],
          [
            25.1908551,
            41.8433075
          ],
          [
            25.191104,
            41.8435313
          ],
          [
            25.1911427,
            41.8436758
          ],
          [
            25.1911126,
            41.8438446
          ],
          [
            25.1905203,
            41.8446375
          ],
          [
            25.1903489,
            41.84475
          ],
          [
            25.1900991,
            41.8448181
          ],
          [
            25.1897231,
            41.844796
          ],
          [
            25.1890381,
            41.8446726
          ],
          [
            25.1886127,
            41.8446357
          ],
          [
            25.1866236,
            41.8447462
          ],
          [
            25.1852675,
            41.8450403
          ],
          [
            25.1848469,
            41.8453024
          ],
          [
            25.1846839,
            41.8456349
          ],
          [
            25.1848625,
            41.8467252
          ],
          [
            25.1849744,
            41.846918
          ],
          [
            25.1851983,
            41.8471134
          ],
          [
            25.1857396,
            41.8474444
          ],
          [
            25.1863146,
            41.8478536
          ],
          [
            25.1864005,
            41.8481029
          ],
          [
            25.1861859,
            41.8482755
          ],
          [
            25.1858168,
            41.8482436
          ],
          [
            25.1820534,
            41.8478565
          ],
          [
            25.181963,
            41.8478472
          ],
          [
            25.1808901,
            41.8478855
          ],
          [
            25.1776114,
            41.8490364
          ],
          [
            25.1761351,
            41.8498675
          ],
          [
            25.1745902,
            41.8512166
          ],
          [
            25.1744185,
            41.851728
          ],
          [
            25.1744185,
            41.8525464
          ],
          [
            25.1742554,
            41.8529939
          ],
          [
            25.1702386,
            41.8562288
          ],
          [
            25.1688052,
            41.8569256
          ],
          [
            25.1680842,
            41.8571301
          ],
          [
            25.1679812,
            41.8572452
          ],
          [
            25.165535,
            41.8583831
          ],
          [
            25.1646252,
            41.8585877
          ],
          [
            25.1640673,
            41.8585877
          ],
          [
            25.1600333,
            41.8584406
          ],
          [
            25.1576987,
            41.8582361
          ],
          [
            25.1573554,
            41.8581274
          ],
          [
            25.1571665,
            41.8579612
          ],
          [
            25.1568576,
            41.857469
          ],
          [
            25.1566001,
            41.8573091
          ],
          [
            25.155922,
            41.857258
          ],
          [
            25.1553727,
            41.8571557
          ],
          [
            25.1532098,
            41.8563646
          ],
          [
            25.1525553,
            41.8562783
          ],
          [
            25.1522257,
            41.856676
          ],
          [
            25.1523257,
            41.8574114
          ],
          [
            25.1528235,
            41.8578461
          ],
          [
            25.1532269,
            41.8584342
          ],
          [
            25.15339,
            41.8589521
          ],
          [
            25.15339,
            41.8599365
          ],
          [
            25.1530982,
            41.8607164
          ],
          [
            25.1526573,
            41.8610128
          ],
          [
            25.1514521,
            41.861297
          ],
          [
            25.1509639,
            41.8616326
          ],
          [
            25.15087,
            41.8623598
          ],
          [
            25.1510953,
            41.863017
          ],
          [
            25.1514567,
            41.8635294
          ],
          [
            25.1512115,
            41.864014
          ],
          [
            25.1486607,
            41.8654658
          ],
          [
            25.1481543,
            41.8658237
          ],
          [
            25.1478948,
            41.8662488
          ],
          [
            25.147686,
            41.8671132
          ],
          [
            25.1470914,
            41.8676983
          ],
          [
            25.1466526,
            41.8683677
          ],
          [
            25.1465571,
            41.8687815
          ],
          [
            25.1467234,
            41.869161
          ],
          [
            25.1474677,
            41.8701573
          ],
          [
            25.1474505,
            41.8704641
          ]
        ]
      }
    },
    {
      "type": "Feature",
      "id": "way/186576779",
      "properties": {
        "@id": "way/186576779",
        "highway": "secondary",
        "name": "58",
        "ref": "58",
        "smoothness": "good"
      },
      "geometry": {
        "type": "LineString",
        "coordinates": [
          [
            25.1474505,
            41.8704641
          ],
          [
            25.1472549,
            41.8706744
          ],
          [
            25.1467594,
            41.8709204
          ],
          [
            25.1462489,
            41.8710471
          ],
          [
            25.1455365,
            41.8710329
          ],
          [
            25.1447125,
            41.8712118
          ],
          [
            25.14388,
            41.8714483
          ],
          [
            25.143468,
            41.8714164
          ],
          [
            25.1420603,
            41.8706622
          ],
          [
            25.1418114,
            41.8703234
          ],
          [
            25.1416741,
            41.869793
          ],
          [
            25.140893,
            41.8687831
          ],
          [
            25.1408587,
            41.8684891
          ],
          [
            25.141039,
            41.8681951
          ],
          [
            25.141717,
            41.8676645
          ],
          [
            25.1417685,
            41.8674025
          ],
          [
            25.1418372,
            41.8668081
          ],
          [
            25.1419659,
            41.8665588
          ],
          [
            25.1423522,
            41.8660794
          ],
          [
            25.1424294,
            41.8659324
          ],
          [
            25.1423693,
            41.8656575
          ],
          [
            25.1419831,
            41.8647179
          ],
          [
            25.1416312,
            41.8642129
          ],
          [
            25.1408244,
            41.8627427
          ],
          [
            25.1407471,
            41.8624551
          ],
          [
            25.1407815,
            41.8620268
          ],
          [
            25.140833,
            41.8616241
          ],
          [
            25.1407385,
            41.8613045
          ],
          [
            25.1405497,
            41.8611127
          ],
          [
            25.1402321,
            41.8609976
          ],
          [
            25.139906,
            41.8610552
          ],
          [
            25.1393567,
            41.861541
          ],
          [
            25.1387559,
            41.8622761
          ],
          [
            25.1385155,
            41.8628067
          ],
          [
            25.1383696,
            41.8635865
          ],
          [
            25.1381121,
            41.8646092
          ],
          [
            25.1379319,
            41.8652868
          ],
          [
            25.1377087,
            41.8655297
          ],
          [
            25.1365672,
            41.8658109
          ],
          [
            25.1359063,
            41.8662264
          ],
          [
            25.1351081,
            41.8671021
          ],
          [
            25.1348506,
            41.8676262
          ],
          [
            25.1343012,
            41.8680736
          ],
          [
            25.133812,
            41.8683101
          ],
          [
            25.1335545,
            41.8682781
          ],
          [
            25.1333571,
            41.8681439
          ],
          [
            25.1332713,
            41.8677093
          ],
          [
            25.1332799,
            41.8671596
          ],
          [
            25.133606,
            41.8664565
          ],
          [
            25.1336232,
            41.8662072
          ],
          [
            25.1333485,
            41.8656447
          ],
          [
            25.1331769,
            41.8655297
          ],
          [
            25.132885,
            41.8655169
          ],
          [
            25.132104,
            41.8656256
          ],
          [
            25.1318122,
            41.8655425
          ],
          [
            25.1317177,
            41.8652165
          ],
          [
            25.1316662,
            41.8647946
          ],
          [
            25.1316233,
            41.8643855
          ],
          [
            25.1317586,
            41.8637837
          ],
          [
            25.1317843,
            41.8635024
          ],
          [
            25.1316212,
            41.8633746
          ],
          [
            25.1314152,
            41.8633106
          ],
          [
            25.1311578,
            41.8634129
          ],
          [
            25.1308316,
            41.863643
          ],
          [
            25.1306428,
            41.863675
          ],
          [
            25.1303509,
            41.8636047
          ],
          [
            25.1299905,
            41.8635472
          ],
          [
            25.1296986,
            41.8636686
          ],
          [
            25.1296386,
            41.8639499
          ],
          [
            25.12969,
            41.864506
          ],
          [
            25.1296042,
            41.8648064
          ],
          [
            25.1284627,
            41.8662765
          ],
          [
            25.1277589,
            41.8666537
          ],
          [
            25.1267718,
            41.8666537
          ],
          [
            25.12545,
            41.8665258
          ],
          [
            25.1249608,
            41.8665897
          ],
          [
            25.1247119,
            41.8668007
          ],
          [
            25.1247205,
            41.8670819
          ],
          [
            25.1248406,
            41.8672609
          ],
          [
            25.1260422,
            41.8680343
          ],
          [
            25.1263684,
            41.8684242
          ],
          [
            25.12648,
            41.86914
          ],
          [
            25.1263942,
            41.8695683
          ],
          [
            25.1262654,
            41.8698111
          ],
          [
            25.1250895,
            41.870968
          ],
          [
            25.1248234,
            41.8710894
          ],
          [
            25.12436,
            41.8710319
          ],
          [
            25.1238621,
            41.8710255
          ],
          [
            25.1234673,
            41.8711917
          ],
          [
            25.1229953,
            41.8715943
          ],
          [
            25.1224202,
            41.8718755
          ],
          [
            25.1217593,
            41.8720673
          ],
          [
            25.1212014,
            41.8724124
          ],
          [
            25.1210126,
            41.8726361
          ],
          [
            25.1208495,
            41.8733647
          ],
          [
            25.1203688,
            41.8746493
          ],
          [
            25.1204718,
            41.8750519
          ],
          [
            25.1207551,
            41.8755377
          ],
          [
            25.1206864,
            41.8758636
          ],
          [
            25.1204547,
            41.8760809
          ],
          [
            25.1201285,
            41.8760298
          ],
          [
            25.1198109,
            41.8758316
          ],
          [
            25.1190556,
            41.8750839
          ],
          [
            25.1183861,
            41.8740869
          ],
          [
            25.1181115,
            41.8738568
          ],
          [
            25.1176137,
            41.8737418
          ],
          [
            25.117236,
            41.8738121
          ],
          [
            25.11703,
            41.8741508
          ],
          [
            25.1169785,
            41.8747068
          ],
          [
            25.1167811,
            41.8748346
          ],
          [
            25.1164378,
            41.8746685
          ],
          [
            25.1154164,
            41.8737418
          ],
          [
            25.1146611,
            41.8728726
          ],
          [
            25.1141633,
            41.8726169
          ],
          [
            25.1135625,
            41.8727
          ],
          [
            25.1130561,
            41.8729876
          ],
          [
            25.112893,
            41.8733391
          ],
          [
            25.1126698,
            41.8735628
          ],
          [
            25.1124381,
            41.8736651
          ],
          [
            25.11176,
            41.8736651
          ],
          [
            25.1110734,
            41.8739016
          ],
          [
            25.1102322,
            41.874432
          ],
          [
            25.1097859,
            41.8749689
          ],
          [
            25.1098374,
            41.8753395
          ],
          [
            25.1100005,
            41.8758189
          ],
          [
            25.1098632,
            41.8760553
          ],
          [
            25.1095113,
            41.8764132
          ],
          [
            25.1091851,
            41.8764515
          ],
          [
            25.108919,
            41.8763046
          ],
          [
            25.108507,
            41.8759658
          ],
          [
            25.1080865,
            41.8758316
          ],
          [
            25.1075801,
            41.8757613
          ],
          [
            25.1070737,
            41.8755313
          ],
          [
            25.1065587,
            41.8753459
          ],
          [
            25.1062325,
            41.8753971
          ],
          [
            25.1054515,
            41.876164
          ],
          [
            25.1046704,
            41.8764835
          ],
          [
            25.103134,
            41.8768797
          ],
          [
            25.1019925,
            41.8771865
          ],
          [
            25.1013573,
            41.8776594
          ],
          [
            25.100808,
            41.8785158
          ],
          [
            25.1005334,
            41.8794424
          ],
          [
            25.10019,
            41.8796916
          ],
          [
            25.0993575,
            41.8798769
          ],
          [
            25.0988854,
            41.8801134
          ],
          [
            25.0980185,
            41.8808227
          ],
          [
            25.0978812,
            41.881334
          ],
          [
            25.097555,
            41.8817557
          ],
          [
            25.0967311,
            41.8825098
          ],
          [
            25.0963792,
            41.8831999
          ],
          [
            25.0962676,
            41.883807
          ],
          [
            25.0963019,
            41.8855834
          ],
          [
            25.0960101,
            41.8864524
          ],
          [
            25.0955294,
            41.8868422
          ],
          [
            25.0949286,
            41.8871106
          ],
          [
            25.0947827,
            41.8874492
          ],
          [
            25.0946454,
            41.8895067
          ],
          [
            25.0944222,
            41.8902031
          ],
          [
            25.0938386,
            41.8915449
          ],
          [
            25.0932463,
            41.8920497
          ],
          [
            25.0929202,
            41.8921838
          ],
          [
            25.091092,
            41.8925672
          ],
          [
            25.0906543,
            41.8929378
          ],
          [
            25.0899676,
            41.893532
          ],
          [
            25.0892638,
            41.8937492
          ],
          [
            25.0872554,
            41.8940623
          ],
          [
            25.0865687,
            41.8941006
          ],
          [
            25.0854787,
            41.8939856
          ],
          [
            25.0837105,
            41.8937109
          ],
          [
            25.0826291,
            41.8933339
          ],
          [
            25.0819939,
            41.89327
          ],
          [
            25.0797967,
            41.893417
          ],
          [
            25.0792645,
            41.8935703
          ],
          [
            25.0754107,
            41.8962537
          ],
          [
            25.0744408,
            41.8967648
          ],
          [
            25.0724322,
            41.8971569
          ]
        ]
      }
    },
    {
      "type": "Feature",
      "id": "way/181302637",
      "properties": {
        "@id": "way/181302637",
        "highway": "secondary",
        "oneway": "yes",
        "ref": "58",
        "smoothness": "intermediate"
      },
      "geometry": {
        "type": "LineString",
        "coordinates": [
          [
            24.8706484,
            42.0091971
          ],
          [
            24.8703714,
            42.0094238
          ],
          [
            24.8701561,
            42.0096386
          ],
          [
            24.8694816,
            42.0105916
          ],
          [
            24.8686249,
            42.0117665
          ],
          [
            24.8681157,
            42.0125
          ],
          [
            24.8679862,
            42.0126598
          ],
          [
            24.8677629,
            42.0129353
          ],
          [
            24.8664551,
            42.0147064
          ],
          [
            24.8663734,
            42.014833
          ]
        ]
      }
    },
    {
      "type": "Feature",
      "id": "way/204897277",
      "properties": {
        "@id": "way/204897277",
        "highway": "secondary",
        "oneway": "yes",
        "ref": "58",
        "smoothness": "intermediate"
      },
      "geometry": {
        "type": "LineString",
        "coordinates": [
          [
            24.8734627,
            42.0116775
          ],
          [
            24.873191,
            42.0117859
          ],
          [
            24.8729409,
            42.011882
          ]
        ]
      }
    },
    {
      "type": "Feature",
      "id": "way/204897278",
      "properties": {
        "@id": "way/204897278",
        "highway": "secondary",
        "oneway": "yes",
        "ref": "58",
        "smoothness": "intermediate"
      },
      "geometry": {
        "type": "LineString",
        "coordinates": [
          [
            24.8729409,
            42.011882
          ],
          [
            24.8731958,
            42.011717
          ],
          [
            24.8733531,
            42.0115518
          ]
        ]
      }
    },
    {
      "type": "Feature",
      "id": "way/204897569",
      "properties": {
        "@id": "way/204897569",
        "highway": "secondary",
        "ref": "58",
        "smoothness": "intermediate"
      },
      "geometry": {
        "type": "LineString",
        "coordinates": [
          [
            24.8779066,
            42.010846
          ],
          [
            24.8770118,
            42.0111301
          ],
          [
            24.8767381,
            42.0111974
          ],
          [
            24.8764567,
            42.011249
          ],
          [
            24.8760562,
            42.0112773
          ]
        ]
      }
    },
    {
      "type": "Feature",
      "id": "way/204897276",
      "properties": {
        "@id": "way/204897276",
        "highway": "secondary",
        "oneway": "yes",
        "ref": "58",
        "smoothness": "intermediate"
      },
      "geometry": {
        "type": "LineString",
        "coordinates": [
          [
            24.8735223,
            42.0114703
          ],
          [
            24.8737144,
            42.0114634
          ],
          [
            24.8739355,
            42.0114368
          ]
        ]
      }
    },
    {
      "type": "Feature",
      "id": "way/204897279",
      "properties": {
        "@id": "way/204897279",
        "highway": "secondary",
        "oneway": "yes",
        "ref": "58",
        "smoothness": "intermediate"
      },
      "geometry": {
        "type": "LineString",
        "coordinates": [
          [
            24.8739355,
            42.0114368
          ],
          [
            24.8737436,
            42.0115226
          ],
          [
            24.8736319,
            42.0115961
          ]
        ]
      }
    },
    {
      "type": "Feature",
      "id": "way/204897280",
      "properties": {
        "@id": "way/204897280",
        "highway": "secondary",
        "junction": "roundabout",
        "ref": "58",
        "smoothness": "intermediate"
      },
      "geometry": {
        "type": "LineString",
        "coordinates": [
          [
            24.8734627,
            42.0116775
          ],
          [
            24.8734149,
            42.0116627
          ],
          [
            24.8733728,
            42.0116314
          ],
          [
            24.8733531,
            42.0115961
          ],
          [
            24.8733531,
            42.0115518
          ],
          [
            24.8733733,
            42.0115159
          ],
          [
            24.8734151,
            42.011485
          ],
          [
            24.8734673,
            42.0114697
          ],
          [
            24.8735223,
            42.0114703
          ],
          [
            24.8735793,
            42.0114899
          ],
          [
            24.8736122,
            42.0115164
          ],
          [
            24.8736338,
            42.0115601
          ],
          [
            24.8736319,
            42.0115961
          ],
          [
            24.8736075,
            42.0116365
          ],
          [
            24.87357,
            42.0116628
          ],
          [
            24.873524,
            42.0116772
          ],
          [
            24.8734627,
            42.0116775
          ]
        ]
      }
    },
    {
      "type": "Feature",
      "id": "way/204897566",
      "properties": {
        "@id": "way/204897566",
        "bridge": "yes",
        "highway": "secondary",
        "layer": "1",
        "ref": "58",
        "smoothness": "intermediate"
      },
      "geometry": {
        "type": "LineString",
        "coordinates": [
          [
            24.8760562,
            42.0112773
          ],
          [
            24.8749921,
            42.0113118
          ]
        ]
      }
    },
    {
      "type": "Feature",
      "id": "way/204897568",
      "properties": {
        "@id": "way/204897568",
        "highway": "secondary",
        "ref": "58",
        "smoothness": "intermediate"
      },
      "geometry": {
        "type": "LineString",
        "coordinates": [
          [
            24.8749921,
            42.0113118
          ],
          [
            24.8747872,
            42.0113185
          ],
          [
            24.8744244,
            42.0113416
          ],
          [
            24.8741286,
            42.0113892
          ],
          [
            24.8739355,
            42.0114368
          ]
        ]
      }
    },
    {
      "type": "Feature",
      "id": "way/164909122",
      "properties": {
        "@id": "way/164909122",
        "highway": "secondary",
        "name": "Христо Ботев",
        "ref": "58",
        "smoothness": "intermediate"
      },
      "geometry": {
        "type": "LineString",
        "coordinates": [
          [
            24.8894527,
            42.0037028
          ],
          [
            24.8881039,
            42.0041495
          ],
          [
            24.8880642,
            42.0041623
          ],
          [
            24.8874266,
            42.0043756
          ],
          [
            24.8866341,
            42.004638
          ],
          [
            24.8862157,
            42.0047766
          ],
          [
            24.88606,
            42.0048308
          ],
          [
            24.8850108,
            42.005191
          ],
          [
            24.8836398,
            42.0056576
          ],
          [
            24.8821784,
            42.0061365
          ],
          [
            24.881908,
            42.0063358
          ],
          [
            24.881481,
            42.0067165
          ],
          [
            24.8812571,
            42.0068884
          ],
          [
            24.881008,
            42.0070244
          ],
          [
            24.8808151,
            42.0070728
          ],
          [
            24.8799868,
            42.007107
          ],
          [
            24.8797317,
            42.007166
          ],
          [
            24.8789488,
            42.0076228
          ],
          [
            24.8784567,
            42.0079272
          ],
          [
            24.878347,
            42.0080042
          ]
        ]
      }
    },
    {
      "type": "Feature",
      "id": "way/204897565",
      "properties": {
        "@id": "way/204897565",
        "highway": "secondary",
        "ref": "58",
        "smoothness": "intermediate"
      },
      "geometry": {
        "type": "LineString",
        "coordinates": [
          [
            24.8782334,
            42.0093726
          ],
          [
            24.8784592,
            42.009801
          ],
          [
            24.8785057,
            42.0098893
          ],
          [
            24.8786454,
            42.0101544
          ]
        ]
      }
    },
    {
      "type": "Feature",
      "id": "way/204897567",
      "properties": {
        "@id": "way/204897567",
        "highway": "secondary",
        "oneway": "yes",
        "ref": "58",
        "smoothness": "intermediate"
      },
      "geometry": {
        "type": "LineString",
        "coordinates": [
          [
            24.8785953,
            42.0107434
          ],
          [
            24.8783944,
            42.0107581
          ],
          [
            24.8779066,
            42.010846
          ]
        ]
      }
    },
    {
      "type": "Feature",
      "id": "way/204897570",
      "properties": {
        "@id": "way/204897570",
        "highway": "secondary",
        "oneway": "yes",
        "ref": "58",
        "smoothness": "intermediate"
      },
      "geometry": {
        "type": "LineString",
        "coordinates": [
          [
            24.8779066,
            42.010846
          ],
          [
            24.8784039,
            42.010654
          ],
          [
            24.8785659,
            42.0105538
          ],
          [
            24.8786177,
            42.0104181
          ],
          [
            24.8786454,
            42.0101544
          ]
        ]
      }
    },
    {
      "type": "Feature",
      "id": "way/205238995",
      "properties": {
        "@id": "way/205238995",
        "highway": "secondary",
        "oneway": "yes",
        "ref": "58",
        "smoothness": "intermediate"
      },
      "geometry": {
        "type": "LineString",
        "coordinates": [
          [
            24.8779865,
            42.0088748
          ],
          [
            24.8776339,
            42.0084912
          ]
        ]
      }
    },
    {
      "type": "Feature",
      "id": "way/205238996",
      "properties": {
        "@id": "way/205238996",
        "highway": "secondary",
        "oneway": "yes",
        "ref": "58",
        "smoothness": "intermediate"
      },
      "geometry": {
        "type": "LineString",
        "coordinates": [
          [
            24.8777562,
            42.0082622
          ],
          [
            24.8779909,
            42.0081991
          ],
          [
            24.878347,
            42.0080042
          ]
        ]
      }
    },
    {
      "type": "Feature",
      "id": "way/205238997",
      "properties": {
        "@id": "way/205238997",
        "highway": "secondary",
        "oneway": "yes",
        "ref": "58",
        "smoothness": "intermediate"
      },
      "geometry": {
        "type": "LineString",
        "coordinates": [
          [
            24.878347,
            42.0080042
          ],
          [
            24.8780667,
            42.0082256
          ],
          [
            24.8779097,
            42.008391
          ]
        ]
      }
    },
    {
      "type": "Feature",
      "id": "way/205238998",
      "properties": {
        "@id": "way/205238998",
        "highway": "secondary",
        "oneway": "yes",
        "ref": "58",
        "smoothness": "intermediate"
      },
      "geometry": {
        "type": "LineString",
        "coordinates": [
          [
            24.8779025,
            42.0084258
          ],
          [
            24.8779149,
            42.0085328
          ],
          [
            24.8779203,
            42.0086384
          ],
          [
            24.8779455,
            42.008736
          ],
          [
            24.8779865,
            42.0088748
          ]
        ]
      }
    },
    {
      "type": "Feature",
      "id": "way/205238999",
      "properties": {
        "@id": "way/205238999",
        "highway": "secondary",
        "ref": "58",
        "smoothness": "intermediate"
      },
      "geometry": {
        "type": "LineString",
        "coordinates": [
          [
            24.8779865,
            42.0088748
          ],
          [
            24.8781907,
            42.0092916
          ],
          [
            24.8782334,
            42.0093726
          ]
        ]
      }
    },
    {
      "type": "Feature",
      "id": "way/227647434",
      "properties": {
        "@id": "way/227647434",
        "highway": "secondary",
        "oneway": "yes",
        "ref": "58",
        "smoothness": "intermediate"
      },
      "geometry": {
        "type": "LineString",
        "coordinates": [
          [
            24.8786454,
            42.0101544
          ],
          [
            24.8788126,
            42.0104081
          ],
          [
            24.8789011,
            42.0105586
          ]
        ]
      }
    },
    {
      "type": "Feature",
      "id": "way/173085990",
      "properties": {
        "@id": "way/173085990",
        "highway": "secondary",
        "oneway": "yes",
        "ref": "58",
        "smoothness": "intermediate"
      },
      "geometry": {
        "type": "LineString",
        "coordinates": [
          [
            24.8664851,
            42.0149249
          ],
          [
            24.8666455,
            42.0149696
          ],
          [
            24.8667314,
            42.0149636
          ],
          [
            24.8669862,
            42.014852
          ],
          [
            24.8675065,
            42.014589
          ],
          [
            24.8683487,
            42.0141386
          ],
          [
            24.868999,
            42.0138078
          ],
          [
            24.8683893,
            42.0141907
          ],
          [
            24.8671031,
            42.0148724
          ],
          [
            24.8667418,
            42.0150615
          ],
          [
            24.866421,
            42.0150881
          ]
        ]
      }
    },
    {
      "type": "Feature",
      "id": "way/181302639",
      "properties": {
        "@id": "way/181302639",
        "highway": "secondary",
        "maxspeed": "50",
        "oneway": "yes",
        "ref": "58",
        "smoothness": "intermediate"
      },
      "geometry": {
        "type": "LineString",
        "coordinates": [
          [
            24.8663734,
            42.014833
          ],
          [
            24.8664406,
            42.0148685
          ],
          [
            24.8664851,
            42.0149249
          ],
          [
            24.8664946,
            42.0149624
          ],
          [
            24.8664894,
            42.0150065
          ],
          [
            24.8664691,
            42.0150452
          ],
          [
            24.866421,
            42.0150881
          ],
          [
            24.8663634,
            42.0151129
          ],
          [
            24.8663065,
            42.0151222
          ],
          [
            24.8662368,
            42.0151171
          ],
          [
            24.8661713,
            42.0150935
          ],
          [
            24.8661179,
            42.0150506
          ],
          [
            24.8660956,
            42.0150128
          ],
          [
            24.8660893,
            42.0149536
          ],
          [
            24.8661062,
            42.0149088
          ],
          [
            24.866168,
            42.0148511
          ],
          [
            24.866244,
            42.0148244
          ],
          [
            24.8663141,
            42.0148211
          ],
          [
            24.8663734,
            42.014833
          ]
        ]
      }
    },
    {
      "type": "Feature",
      "id": "way/204897281",
      "properties": {
        "@id": "way/204897281",
        "highway": "secondary",
        "ref": "58",
        "smoothness": "intermediate"
      },
      "geometry": {
        "type": "LineString",
        "coordinates": [
          [
            24.8729409,
            42.011882
          ],
          [
            24.8723525,
            42.0122208
          ],
          [
            24.8709542,
            42.0129105
          ],
          [
            24.8701635,
            42.013297
          ],
          [
            24.868999,
            42.0138078
          ],
          [
            24.8688918,
            42.0136663
          ],
          [
            24.8686667,
            42.0133926
          ],
          [
            24.8683398,
            42.0129953
          ],
          [
            24.8682425,
            42.0128772
          ],
          [
            24.8679862,
            42.0126598
          ],
          [
            24.8678891,
            42.012626
          ]
        ]
      }
    },
    {
      "type": "Feature",
      "id": "way/26362204",
      "properties": {
        "@id": "way/26362204",
        "highway": "secondary",
        "name": "58",
        "ref": "58",
        "smoothness": "good"
      },
      "geometry": {
        "type": "LineString",
        "coordinates": [
          [
            25.353205,
            41.773081
          ],
          [
            25.3500624,
            41.7737142
          ],
          [
            25.3488285,
            41.7742367
          ],
          [
            25.3473621,
            41.7751282
          ],
          [
            25.346204,
            41.7757482
          ],
          [
            25.3456249,
            41.7760616
          ],
          [
            25.3449524,
            41.7763402
          ],
          [
            25.3441865,
            41.7765074
          ],
          [
            25.3434535,
            41.7766266
          ],
          [
            25.3414823,
            41.776783
          ],
          [
            25.3405697,
            41.7768704
          ],
          [
            25.3399922,
            41.7769656
          ],
          [
            25.3387328,
            41.7772667
          ],
          [
            25.3376205,
            41.7776288
          ],
          [
            25.3338404,
            41.7791869
          ],
          [
            25.332661,
            41.7795024
          ],
          [
            25.3313627,
            41.7796417
          ],
          [
            25.3278135,
            41.7799203
          ],
          [
            25.3268048,
            41.7800735
          ],
          [
            25.3260576,
            41.7802685
          ],
          [
            25.3210087,
            41.7820351
          ],
          [
            25.32008,
            41.7823371
          ],
          [
            25.3190433,
            41.7825808
          ],
          [
            25.3181746,
            41.7826574
          ],
          [
            25.3172322,
            41.7826751
          ],
          [
            25.3153439,
            41.7825791
          ],
          [
            25.3138596,
            41.7824624
          ],
          [
            25.3133678,
            41.7824364
          ],
          [
            25.3128548,
            41.7824831
          ],
          [
            25.3120569,
            41.7826783
          ],
          [
            25.3113528,
            41.7830271
          ],
          [
            25.3101512,
            41.7842751
          ],
          [
            25.3093358,
            41.7848831
          ],
          [
            25.3083487,
            41.7852031
          ],
          [
            25.3075737,
            41.7853109
          ],
          [
            25.3071076,
            41.7854169
          ],
          [
            25.3068079,
            41.785485
          ],
          [
            25.3063128,
            41.7857288
          ],
          [
            25.3059455,
            41.7860671
          ],
          [
            25.3055656,
            41.7865923
          ],
          [
            25.3051301,
            41.7873471
          ],
          [
            25.3041366,
            41.7887791
          ],
          [
            25.3029119,
            41.7898301
          ],
          [
            25.3013714,
            41.7908593
          ],
          [
            25.3007446,
            41.7912495
          ],
          [
            25.2974153,
            41.7933218
          ],
          [
            25.2942725,
            41.7949495
          ],
          [
            25.2911654,
            41.796754
          ],
          [
            25.2901526,
            41.7971379
          ],
          [
            25.2870198,
            41.7977906
          ],
          [
            25.2832715,
            41.7984469
          ],
          [
            25.2822844,
            41.7984149
          ],
          [
            25.2806,
            41.798079
          ],
          [
            25.279761,
            41.7978881
          ],
          [
            25.2776818,
            41.7974151
          ],
          [
            25.2754716,
            41.7969032
          ],
          [
            25.2747313,
            41.7968232
          ],
          [
            25.2740594,
            41.7968308
          ],
          [
            25.2730576,
            41.7969112
          ],
          [
            25.2703218,
            41.7974071
          ],
          [
            25.2695386,
            41.7974951
          ],
          [
            25.2651268,
            41.7979336
          ],
          [
            25.2642489,
            41.7980209
          ],
          [
            25.2581206,
            41.7974258
          ],
          [
            25.2571078,
            41.7971379
          ],
          [
            25.2502843,
            41.7933497
          ],
          [
            25.2488852,
            41.7928186
          ],
          [
            25.2471944,
            41.7927354
          ],
          [
            25.2455378,
            41.7930938
          ],
          [
            25.2412978,
            41.7953142
          ],
          [
            25.2327147,
            41.7985328
          ],
          [
            25.2315709,
            41.7985948
          ],
          [
            25.2259083,
            41.7985456
          ],
          [
            25.22499,
            41.7987056
          ],
          [
            25.2242346,
            41.7992367
          ],
          [
            25.2240332,
            41.7995996
          ],
          [
            25.2220202,
            41.8025126
          ],
          [
            25.2218743,
            41.8030757
          ],
          [
            25.2219601,
            41.8037603
          ],
          [
            25.2226725,
            41.8050591
          ],
          [
            25.2229043,
            41.8058908
          ],
          [
            25.2227755,
            41.8068761
          ],
          [
            25.222269,
            41.8082694
          ],
          [
            25.2215412,
            41.8107525
          ],
          [
            25.2212477,
            41.8116742
          ],
          [
            25.2207156,
            41.8125698
          ],
          [
            25.2198744,
            41.81312
          ],
          [
            25.218999,
            41.8135678
          ],
          [
            25.218484,
            41.8140924
          ],
          [
            25.218484,
            41.8147641
          ],
          [
            25.2189818,
            41.8154229
          ],
          [
            25.219471,
            41.8160754
          ],
          [
            25.2194968,
            41.8167151
          ],
          [
            25.2190419,
            41.8171309
          ],
          [
            25.2180548,
            41.8175979
          ],
          [
            25.2171965,
            41.8179625
          ],
          [
            25.2170935,
            41.8181736
          ],
          [
            25.2172824,
            41.818858
          ],
          [
            25.2174969,
            41.819197
          ],
          [
            25.2173854,
            41.8194529
          ],
          [
            25.2170935,
            41.8195424
          ],
          [
            25.2152224,
            41.8190947
          ],
          [
            25.2149649,
            41.8192738
          ],
          [
            25.2147761,
            41.8194785
          ],
          [
            25.2146903,
            41.8197727
          ],
          [
            25.213832,
            41.8204124
          ],
          [
            25.2134886,
            41.820988
          ],
          [
            25.2135058,
            41.8222929
          ],
          [
            25.2127762,
            41.8239431
          ],
          [
            25.2114459,
            41.8252735
          ],
          [
            25.2109137,
            41.825977
          ],
          [
            25.2105189,
            41.8266614
          ],
          [
            25.2100297,
            41.827141
          ],
          [
            25.2054377,
            41.8299871
          ],
          [
            25.2048369,
            41.8305435
          ],
          [
            25.2040215,
            41.8316691
          ],
          [
            25.2033349,
            41.8320784
          ],
          [
            25.2019873,
            41.8322255
          ],
          [
            25.200717,
            41.8326092
          ],
          [
            25.1998587,
            41.8333446
          ],
          [
            25.1997749,
            41.8336254
          ]
        ]
      }
    }
  ]
}